id	rate
1001	-0.20348718684493217
1003	-0.29978508942204335
1005	2.300258280159958
1007	0.47059813119484595
1009	-0.3960829919991545
1011	2.878045695622625
1013	1.8187687672744022
1015	0.7594918389261794
1017	2.2039603775828467
1019	-0.107189284267821
1021	-0.107189284267821
1023	1.048385546657513
1025	1.9150666698515133
1027	0.47059813119484595
1029	-0.20348718684493217
1031	0.6631939363490683
1033	0.27800232604062364
1035	1.4335771569659577
1037	1.048385546657513
1039	0.6631939363490683
1041	1.048385546657513
1043	-0.20348718684493217
1045	0.18170442346351248
1047	3.552131013662403
1049	-0.29978508942204335
1051	-0.20348718684493217
1053	1.62617296212018
1055	0.5668960337719571
1057	0.5668960337719571
1059	0.08540652088640131
1061	1.2409813518117352
1063	2.1076624750057356
1065	2.781747793045514
1067	-0.107189284267821
1069	0.8557897415032906
1071	-0.6849766997304879
1073	1.048385546657513
1075	0.5668960337719571
1077	-0.010891381690709842
1079	0.47059813119484595
1081	-0.107189284267821
1083	-0.29978508942204335
1085	2.3965561827370694
1087	2.878045695622625
1089	-0.010891381690709842
1091	1.62617296212018
1093	-0.107189284267821
1095	0.18170442346351248
1097	1.144683449234624
1099	2.0113645724286244
1101	1.722470864697291
1103	0.08540652088640131
1105	2.4928540853141805
1107	1.62617296212018
1109	1.62617296212018
1111	0.5668960337719571
1113	1.5298750595430688
1115	-0.20348718684493217
1117	-1.0701683100389325
1119	2.6854498904684028
1121	0.7594918389261794
1123	1.4335771569659577
1125	0.5668960337719571
1127	0.18170442346351248
1129	-0.29978508942204335
1131	3.3595352085081807
1133	-0.29978508942204335
2013	0.7594918389261794
2016	-0.29978508942204335
2020	-0.107189284267821
2050	-0.29978508942204335
2060	0.7594918389261794
2068	-2.610934751272711
2070	-0.010891381690709842
2090	-0.107189284267821
2100	0.27800232604062364
2110	0.18170442346351248
2122	-0.29978508942204335
2130	-0.3960829919991545
2150	0.18170442346351248
2164	1.2409813518117352
2170	-0.7812746023075992
2180	1.722470864697291
2185	1.5298750595430688
2188	1.144683449234624
2201	0.8557897415032906
2220	-0.29978508942204335
2232	0.7594918389261794
2240	-0.49238089457626566
2261	0.3743002286177348
2270	0.8557897415032906
2280	0.47059813119484595
2282	0.9520876440804018
2290	1.8187687672744022
4001	1.62617296212018
4003	0.27800232604062364
4005	0.5668960337719571
4007	0.9520876440804018
4009	0.47059813119484595
4011	0.3743002286177348
4012	1.144683449234624
4013	0.27800232604062364
4015	0.3743002286177348
4017	1.144683449234624
4019	0.6631939363490683
4021	0.08540652088640131
4023	0.3743002286177348
4025	-0.010891381690709842
4027	0.18170442346351248
5001	0.27800232604062364
5003	0.27800232604062364
5005	0.08540652088640131
5007	-0.9738704074618214
5009	-0.20348718684493217
5011	1.144683449234624
5013	2.2039603775828467
5015	-0.20348718684493217
5017	1.9150666698515133
5019	0.47059813119484595
5021	0.3743002286177348
5023	-0.20348718684493217
5025	-0.29978508942204335
5027	1.722470864697291
5029	0.6631939363490683
5031	0.8557897415032906
5033	0.3743002286177348
5035	2.3965561827370694
5037	-0.29978508942204335
5039	-0.010891381690709842
5041	1.9150666698515133
5043	1.3372792543888463
5045	-0.20348718684493217
5047	0.08540652088640131
5049	0.27800232604062364
5051	0.6631939363490683
5053	-0.8775725048847103
5055	-0.107189284267821
5057	1.2409813518117352
5059	0.08540652088640131
5061	1.4335771569659577
5063	0.7594918389261794
5065	-0.107189284267821
5067	1.5298750595430688
5069	2.2039603775828467
5071	-0.5886787971533768
5073	1.5298750595430688
5075	-0.3960829919991545
5077	2.300258280159958
5079	0.9520876440804018
5081	0.47059813119484595
5083	0.18170442346351248
5085	-0.3960829919991545
5087	-1.262764115193155
5089	-0.3960829919991545
5091	1.2409813518117352
5093	1.722470864697291
5095	2.2039603775828467
5097	-0.49238089457626566
5099	0.47059813119484595
5101	-1.0701683100389325
5103	1.3372792543888463
5105	0.08540652088640131
5107	3.1669394033539584
5109	0.27800232604062364
5111	1.2409813518117352
5113	0.47059813119484595
5115	-0.29978508942204335
5117	-0.010891381690709842
5119	1.144683449234624
5121	-0.107189284267821
5123	2.300258280159958
5125	-0.29978508942204335
5127	0.9520876440804018
5129	-1.3590620177702661
5131	0.27800232604062364
5133	0.5668960337719571
5135	-0.010891381690709842
5137	-1.0701683100389325
5139	0.9520876440804018
5141	0.6631939363490683
5143	-0.010891381690709842
5145	-0.49238089457626566
5147	0.5668960337719571
5149	0.3743002286177348
6001	-0.29978508942204335
6003	0.6631939363490683
6005	-0.29978508942204335
6007	0.27800232604062364
6009	-0.29978508942204335
6011	0.08540652088640131
6013	-0.5886787971533768
6015	0.9520876440804018
6017	-0.9738704074618214
6019	0.6631939363490683
6021	-0.010891381690709842
6023	0.6631939363490683
6025	0.27800232604062364
6027	0.6631939363490683
6029	0.5668960337719571
6031	0.18170442346351248
6033	0.9520876440804018
6035	0.27800232604062364
6037	0.3743002286177348
6039	0.08540652088640131
6041	-0.7812746023075992
6043	1.144683449234624
6045	0.47059813119484595
6047	0.47059813119484595
6049	-0.107189284267821
6051	-0.5886787971533768
6053	-0.010891381690709842
6055	-0.3960829919991545
6057	-0.3960829919991545
6059	-0.5886787971533768
6061	-0.9738704074618214
6063	0.6631939363490683
6065	-0.20348718684493217
6067	0.3743002286177348
6069	-0.5886787971533768
6071	0.27800232604062364
6073	-0.29978508942204335
6075	-0.3960829919991545
6077	0.18170442346351248
6079	-0.5886787971533768
6081	-0.9738704074618214
6083	-0.107189284267821
6085	-0.9738704074618214
6087	-0.20348718684493217
6089	0.27800232604062364
6091	0.18170442346351248
6093	0.3743002286177348
6095	0.27800232604062364
6097	-0.29978508942204335
6099	0.18170442346351248
6101	-0.20348718684493217
6103	-0.29978508942204335
6105	0.9520876440804018
6107	0.27800232604062364
6109	-0.7812746023075992
6111	-0.49238089457626566
6113	-0.3960829919991545
6115	0.18170442346351248
8001	-0.20348718684493217
8003	0.27800232604062364
8005	-0.107189284267821
8007	0.08540652088640131
8009	-0.7812746023075992
8011	0.18170442346351248
8013	-0.7812746023075992
8014	-1.0701683100389325
8015	-0.010891381690709842
8017	-2.0331473358100443
8019	-1.4553599203473773
8021	-0.6849766997304879
8023	0.9520876440804018
8025	0.5668960337719571
8027	0.18170442346351248
8029	-0.6849766997304879
8031	0.6631939363490683
8033	-1.0701683100389325
8035	-1.6479557255015995
8037	-1.262764115193155
8039	-1.7442536280787106
8041	-0.3960829919991545
8043	-0.29978508942204335
8045	-0.8775725048847103
8047	0.3743002286177348
8049	-0.7812746023075992
8051	-0.5886787971533768
8053	-1.5516578229244884
8055	1.048385546657513
8057	-0.49238089457626566
8059	-0.3960829919991545
8061	-0.5886787971533768
8063	-0.7812746023075992
8065	0.6631939363490683
8067	-0.29978508942204335
8069	-0.8775725048847103
8071	0.08540652088640131
8073	-0.49238089457626566
8075	-0.20348718684493217
8077	-0.107189284267821
8079	-3.092424264158267
8081	-1.262764115193155
8083	0.3743002286177348
8085	-0.6849766997304879
8087	0.27800232604062364
8089	1.5298750595430688
8091	-2.0331473358100443
8093	-1.1664662126160437
8095	-0.8775725048847103
8097	-1.3590620177702661
8099	-0.107189284267821
8101	0.6631939363490683
8103	-2.0331473358100443
8105	-0.5886787971533768
8107	-0.8775725048847103
8109	0.9520876440804018
8111	-1.4553599203473773
8113	-1.262764115193155
8115	0.9520876440804018
8117	-0.3960829919991545
8119	-0.49238089457626566
8121	-0.6849766997304879
8123	-0.5886787971533768
8125	-2.2257431409642665
9001	-0.6849766997304879
9003	0.47059813119484595
9005	-0.9738704074618214
9007	-0.8775725048847103
9009	0.27800232604062364
9011	0.08540652088640131
9013	-0.8775725048847103
9015	0.18170442346351248
10001	0.6631939363490683
10003	0.3743002286177348
10005	0.7594918389261794
11001	2.5891519878912916
12001	0.6631939363490683
12003	-0.20348718684493217
12005	0.27800232604062364
12007	-0.010891381690709842
12009	0.27800232604062364
12011	0.5668960337719571
12013	0.8557897415032906
12015	0.3743002286177348
12017	0.7594918389261794
12019	-0.29978508942204335
12021	0.27800232604062364
12023	0.7594918389261794
12027	1.4335771569659577
12029	0.47059813119484595
12031	0.9520876440804018
12033	1.048385546657513
12035	0.18170442346351248
12037	1.5298750595430688
12039	2.4928540853141805
12041	-0.8775725048847103
12043	1.8187687672744022
12045	1.048385546657513
12047	1.4335771569659577
12049	0.47059813119484595
12051	0.9520876440804018
12053	0.3743002286177348
12055	0.6631939363490683
12057	0.5668960337719571
12059	-0.29978508942204335
12061	0.27800232604062364
12063	0.9520876440804018
12065	0.8557897415032906
12067	-1.4553599203473773
12069	-0.20348718684493217
12071	0.6631939363490683
12073	0.6631939363490683
12075	0.3743002286177348
12077	0.6631939363490683
12079	1.048385546657513
12081	0.47059813119484595
12083	0.7594918389261794
12085	-0.107189284267821
12086	0.7594918389261794
12087	0.18170442346351248
12089	-0.20348718684493217
12091	0.27800232604062364
12093	1.4335771569659577
12095	0.6631939363490683
12097	0.5668960337719571
12099	0.47059813119484595
12101	-0.20348718684493217
12103	0.7594918389261794
12105	0.6631939363490683
12107	1.9150666698515133
12109	-0.8775725048847103
12111	0.9520876440804018
12113	-0.6849766997304879
12115	0.18170442346351248
12117	-0.107189284267821
12119	0.27800232604062364
12121	0.9520876440804018
12123	1.62617296212018
12125	0.27800232604062364
12127	0.5668960337719571
12129	0.47059813119484595
12131	0.5668960337719571
12133	-0.3960829919991545
13001	0.6631939363490683
13003	0.3743002286177348
13005	0.18170442346351248
13007	2.3965561827370694
13009	2.2039603775828467
13011	-0.29978508942204335
13013	-0.49238089457626566
13015	-0.010891381690709842
13017	1.722470864697291
13019	-0.107189284267821
13021	2.1076624750057356
13023	1.5298750595430688
13025	0.3743002286177348
13027	0.5668960337719571
13029	-0.29978508942204335
13031	0.8557897415032906
13033	1.9150666698515133
13035	0.27800232604062364
13037	2.1076624750057356
13039	-0.010891381690709842
13043	0.5668960337719571
13045	0.18170442346351248
13047	-0.010891381690709842
13049	0.8557897415032906
13051	1.2409813518117352
13053	-1.1664662126160437
13055	0.6631939363490683
13057	-0.7812746023075992
13059	1.144683449234624
13061	3.3595352085081807
13063	1.722470864697291
13065	1.144683449234624
13067	-0.20348718684493217
13069	0.7594918389261794
13071	1.2409813518117352
13073	-0.8775725048847103
13075	0.5668960337719571
13077	-0.3960829919991545
13079	1.62617296212018
13081	2.6854498904684028
13083	0.27800232604062364
13085	-0.010891381690709842
13087	1.722470864697291
13089	1.144683449234624
13091	1.3372792543888463
13093	1.4335771569659577
13095	3.0706415007768473
13097	0.5668960337719571
13099	2.3965561827370694
13101	0.7594918389261794
13103	-0.49238089457626566
13105	1.144683449234624
13107	1.62617296212018
13109	1.62617296212018
13111	0.27800232604062364
13113	-0.9738704074618214
13115	-0.107189284267821
13117	-1.6479557255015995
13119	-0.3960829919991545
13121	0.9520876440804018
13123	-0.29978508942204335
13125	-0.3960829919991545
13127	1.144683449234624
13129	-0.3960829919991545
13131	1.4335771569659577
13133	0.8557897415032906
13135	-0.3960829919991545
13137	-0.29978508942204335
13139	-0.29978508942204335
13141	2.4928540853141805
13143	0.47059813119484595
13145	-1.262764115193155
13147	0.27800232604062364
13149	-0.29978508942204335
13151	0.18170442346351248
13153	0.47059813119484595
13155	0.3743002286177348
13157	-0.5886787971533768
13159	0.8557897415032906
13161	0.3743002286177348
13163	1.722470864697291
13165	2.974343598199736
13167	0.6631939363490683
13169	-0.010891381690709842
13171	-0.20348718684493217
13173	1.3372792543888463
13175	1.048385546657513
13177	-0.5886787971533768
13179	0.6631939363490683
13181	1.9150666698515133
13183	0.7594918389261794
13185	0.9520876440804018
13187	-0.107189284267821
13189	1.722470864697291
13191	1.144683449234624
13193	1.3372792543888463
13195	-0.29978508942204335
13197	1.2409813518117352
13199	1.3372792543888463
13201	1.3372792543888463
13205	1.3372792543888463
13207	-0.20348718684493217
13209	1.2409813518117352
13211	-0.5886787971533768
13213	-0.20348718684493217
13215	1.722470864697291
13217	0.9520876440804018
13219	-1.262764115193155
13221	-0.29978508942204335
13223	-0.3960829919991545
13225	1.144683449234624
13227	-0.9738704074618214
13229	0.5668960337719571
13231	-0.20348718684493217
13233	0.08540652088640131
13235	2.3965561827370694
13237	1.2409813518117352
13239	0.18170442346351248
13241	-0.3960829919991545
13243	1.048385546657513
13245	2.3965561827370694
13247	0.7594918389261794
13249	-0.49238089457626566
13251	1.62617296212018
13253	1.8187687672744022
13255	1.048385546657513
13257	-0.010891381690709842
13259	4.033620526547959
13261	2.300258280159958
13263	2.4928540853141805
13265	0.6631939363490683
13267	0.7594918389261794
13269	0.8557897415032906
13271	2.1076624750057356
13273	2.781747793045514
13275	1.62617296212018
13277	1.3372792543888463
13279	0.8557897415032906
13281	-0.5886787971533768
13283	0.6631939363490683
13285	1.4335771569659577
13287	1.144683449234624
13289	1.048385546657513
13291	-0.6849766997304879
13293	0.3743002286177348
13295	-0.20348718684493217
13297	-0.3960829919991545
13299	0.8557897415032906
13301	2.3965561827370694
13303	1.5298750595430688
13305	0.7594918389261794
13307	2.878045695622625
13309	1.2409813518117352
13311	0.6631939363490683
13313	0.08540652088640131
13315	1.144683449234624
13317	1.3372792543888463
13319	0.8557897415032906
13321	1.2409813518117352
15001	0.6631939363490683
15003	-0.3960829919991545
15005	0.013183093953567948
15007	-0.49238089457626566
15009	0.27800232604062364
16001	-0.6849766997304879
16003	0.5668960337719571
16005	-0.5886787971533768
16007	-1.1664662126160437
16009	0.08540652088640131
16011	-0.9738704074618214
16013	-0.8775725048847103
16015	-0.9738704074618214
16017	-0.20348718684493217
16019	-0.9738704074618214
16021	-1.1664662126160437
16023	-0.20348718684493217
16025	0.27800232604062364
16027	-0.3960829919991545
16029	-1.3590620177702661
16031	-1.262764115193155
16033	-0.20348718684493217
16035	-1.0701683100389325
16037	-2.0331473358100443
16039	-1.0701683100389325
16041	-1.7442536280787106
16043	-2.1294452383871554
16045	-0.8775725048847103
16047	-1.1664662126160437
16049	-0.107189284267821
16051	-1.840551530655822
16053	-0.107189284267821
16055	-0.3960829919991545
16057	-1.262764115193155
16059	-0.010891381690709842
16061	-0.20348718684493217
16063	-0.9738704074618214
16065	-1.9368494332329331
16067	-0.8775725048847103
16069	-0.010891381690709842
16071	-1.3590620177702661
16073	-0.20348718684493217
16075	-0.49238089457626566
16077	-0.6849766997304879
16079	0.08540652088640131
16081	-0.6849766997304879
16083	-0.49238089457626566
16085	-1.5516578229244884
16087	0.08540652088640131
17001	-0.49238089457626566
17003	3.1669394033539584
17005	-0.010891381690709842
17007	-0.6849766997304879
17009	-0.7812746023075992
17011	-0.107189284267821
17013	-1.4553599203473773
17015	0.27800232604062364
17017	0.5668960337719571
17019	0.3743002286177348
17021	0.3743002286177348
17023	-0.49238089457626566
17025	0.3743002286177348
17027	-0.7812746023075992
17029	0.18170442346351248
17031	0.5668960337719571
17033	-0.49238089457626566
17035	-0.6849766997304879
17037	-0.5886787971533768
17039	-0.29978508942204335
17041	-0.9738704074618214
17043	-1.262764115193155
17045	0.27800232604062364
17047	-0.20348718684493217
17049	-0.7812746023075992
17051	-0.8775725048847103
17053	-1.1664662126160437
17055	0.5668960337719571
17057	-0.29978508942204335
17059	-0.010891381690709842
17061	-0.107189284267821
17063	-0.5886787971533768
17065	-0.29978508942204335
17067	-0.29978508942204335
17069	0.6631939363490683
17071	0.6631939363490683
17073	-0.6849766997304879
17075	-0.29978508942204335
17077	0.5668960337719571
17079	-0.7812746023075992
17081	0.3743002286177348
17083	-0.20348718684493217
17085	-0.49238089457626566
17087	-0.9738704074618214
17089	-0.5886787971533768
17091	0.6631939363490683
17093	-1.1664662126160437
17095	0.9520876440804018
17097	-0.8775725048847103
17099	-0.107189284267821
17101	0.3743002286177348
17103	-0.3960829919991545
17105	-0.49238089457626566
17107	0.08540652088640131
17109	-0.010891381690709842
17111	-1.1664662126160437
17113	-0.49238089457626566
17115	1.048385546657513
17117	-0.3960829919991545
17119	0.08540652088640131
17121	0.8557897415032906
17123	-0.7812746023075992
17125	0.08540652088640131
17127	0.08540652088640131
17129	-0.7812746023075992
17131	-0.20348718684493217
17133	-1.3590620177702661
17135	-0.29978508942204335
17137	0.7594918389261794
17139	-0.8775725048847103
17141	-0.5886787971533768
17143	0.8557897415032906
17145	0.9520876440804018
17147	-1.1664662126160437
17149	0.27800232604062364
17151	0.27800232604062364
17153	0.9520876440804018
17155	-0.5886787971533768
17157	0.3743002286177348
17159	-0.49238089457626566
17161	0.6631939363490683
17163	1.2409813518117352
17165	0.08540652088640131
17167	0.5668960337719571
17169	0.3743002286177348
17171	-0.20348718684493217
17173	-0.9738704074618214
17175	-0.9738704074618214
17177	1.048385546657513
17179	-0.5886787971533768
17181	-0.29978508942204335
17183	1.2409813518117352
17185	-0.9738704074618214
17187	0.5668960337719571
17189	-0.6849766997304879
17191	-0.29978508942204335
17193	-0.107189284267821
17195	0.47059813119484595
17197	-0.9738704074618214
17199	0.18170442346351248
17201	0.9520876440804018
17203	-1.1664662126160437
18001	-1.5516578229244884
18003	0.08540652088640131
18005	-0.20348718684493217
18007	-0.9738704074618214
18009	0.8557897415032906
18011	-1.4553599203473773
18013	0.27800232604062364
18015	-0.7812746023075992
18017	-0.20348718684493217
18019	0.18170442346351248
18021	-0.5886787971533768
18023	0.08540652088640131
18025	0.08540652088640131
18027	-1.3590620177702661
18029	-0.7812746023075992
18031	0.08540652088640131
18033	-0.3960829919991545
18035	0.6631939363490683
18037	-0.8775725048847103
18039	0.08540652088640131
18041	0.47059813119484595
18043	0.18170442346351248
18045	-0.3960829919991545
18047	-1.0701683100389325
18049	-0.49238089457626566
18051	-0.7812746023075992
18053	0.6631939363490683
18055	-0.49238089457626566
18057	-1.3590620177702661
18059	-0.5886787971533768
18061	-0.29978508942204335
18063	-1.0701683100389325
18065	0.27800232604062364
18067	0.27800232604062364
18069	-0.6849766997304879
18071	-0.107189284267821
18073	-0.6849766997304879
18075	-0.107189284267821
18077	0.18170442346351248
18079	0.27800232604062364
18081	-0.6849766997304879
18083	-0.20348718684493217
18085	-0.8775725048847103
18087	-1.9368494332329331
18089	0.9520876440804018
18091	0.3743002286177348
18093	-0.20348718684493217
18095	0.6631939363490683
18097	1.4335771569659577
18099	-0.5886787971533768
18101	-0.107189284267821
18103	0.08540652088640131
18105	-0.29978508942204335
18107	-0.3960829919991545
18109	-0.3960829919991545
18111	-0.29978508942204335
18113	0.08540652088640131
18115	-0.6849766997304879
18117	-0.29978508942204335
18119	-0.3960829919991545
18121	-1.0701683100389325
18123	-0.5886787971533768
18125	-0.107189284267821
18127	-0.5886787971533768
18129	-0.107189284267821
18131	-0.6849766997304879
18133	-0.107189284267821
18135	0.27800232604062364
18137	-0.6849766997304879
18139	-0.20348718684493217
18141	0.3743002286177348
18143	0.3743002286177348
18145	0.47059813119484595
18147	-0.8775725048847103
18149	-0.010891381690709842
18151	-0.29978508942204335
18153	-0.3960829919991545
18155	0.47059813119484595
18157	-0.20348718684493217
18159	-0.20348718684493217
18161	-1.262764115193155
18163	0.6631939363490683
18165	0.5668960337719571
18167	0.6631939363490683
18169	-0.49238089457626566
18171	-1.0701683100389325
18173	-1.1664662126160437
18175	0.08540652088640131
18177	0.7594918389261794
18179	-0.107189284267821
18181	-0.3960829919991545
18183	-0.5886787971533768
19001	-0.9738704074618214
19003	-0.9738704074618214
19005	-1.262764115193155
19007	0.08540652088640131
19009	-0.7812746023075992
19011	-0.8775725048847103
19013	0.18170442346351248
19015	-0.49238089457626566
19017	-1.5516578229244884
19019	-1.5516578229244884
19021	-0.20348718684493217
19023	-0.6849766997304879
19025	0.3743002286177348
19027	-0.3960829919991545
19029	-0.9738704074618214
19031	-0.3960829919991545
19033	-0.010891381690709842
19035	-0.7812746023075992
19037	-0.20348718684493217
19039	-0.3960829919991545
19041	-0.3960829919991545
19043	-0.6849766997304879
19045	0.27800232604062364
19047	-0.107189284267821
19049	-1.0701683100389325
19051	-1.1664662126160437
19053	-0.9738704074618214
19055	-1.0701683100389325
19057	0.3743002286177348
19059	-0.107189284267821
19061	-0.49238089457626566
19063	-0.8775725048847103
19065	-0.7812746023075992
19067	0.08540652088640131
19069	-0.107189284267821
19071	0.08540652088640131
19073	-0.5886787971533768
19075	-0.8775725048847103
19077	-0.3960829919991545
19079	-0.8775725048847103
19081	-1.0701683100389325
19083	-1.4553599203473773
19085	-0.9738704074618214
19087	0.18170442346351248
19089	-1.0701683100389325
19091	-0.20348718684493217
19093	-0.20348718684493217
19095	-1.1664662126160437
19097	-0.9738704074618214
19099	0.08540652088640131
19101	-0.6849766997304879
19103	-0.49238089457626566
19105	-0.3960829919991545
19107	-0.8775725048847103
19109	-1.3590620177702661
19111	0.9520876440804018
19113	-0.29978508942204335
19115	-0.3960829919991545
19117	-0.3960829919991545
19119	-1.840551530655822
19121	-1.1664662126160437
19123	-0.49238089457626566
19125	-1.3590620177702661
19127	-0.3960829919991545
19129	-0.5886787971533768
19131	-1.1664662126160437
19133	0.27800232604062364
19135	-0.5886787971533768
19137	0.6631939363490683
19139	0.18170442346351248
19141	-1.262764115193155
19143	-1.262764115193155
19145	-0.3960829919991545
19147	-0.9738704074618214
19149	-1.5516578229244884
19151	-0.49238089457626566
19153	-0.107189284267821
19155	0.6631939363490683
19157	-0.29978508942204335
19159	-1.3590620177702661
19161	-1.262764115193155
19163	0.27800232604062364
19165	-1.262764115193155
19167	-1.7442536280787106
19169	-1.0701683100389325
19171	0.18170442346351248
19173	-0.7812746023075992
19175	0.47059813119484595
19177	-1.262764115193155
19179	0.08540652088640131
19181	-0.29978508942204335
19183	-1.0701683100389325
19185	-0.5886787971533768
19187	0.8557897415032906
19189	-1.262764115193155
19191	-1.6479557255015995
19193	0.5668960337719571
19195	-0.3960829919991545
19197	-0.8775725048847103
20001	0.27800232604062364
20003	-0.010891381690709842
20005	0.3743002286177348
20007	0.18170442346351248
20009	-0.7812746023075992
20011	0.08540652088640131
20013	0.3743002286177348
20015	-0.8775725048847103
20017	-0.9738704074618214
20019	-0.20348718684493217
20021	-0.49238089457626566
20023	-1.1664662126160437
20025	-0.7812746023075992
20027	-0.29978508942204335
20029	-0.107189284267821
20031	-0.20348718684493217
20033	-2.0331473358100443
20035	-0.107189284267821
20037	-0.20348718684493217
20039	-0.107189284267821
20041	-0.5886787971533768
20043	-0.3960829919991545
20045	-0.3960829919991545
20047	-1.1664662126160437
20049	-0.49238089457626566
20051	-0.7812746023075992
20053	-0.5886787971533768
20055	-0.7812746023075992
20057	-0.7812746023075992
20059	-0.49238089457626566
20061	-0.3960829919991545
20063	-1.9368494332329331
20065	-1.262764115193155
20067	-0.107189284267821
20069	-1.262764115193155
20071	-2.4183389461184888
20073	0.5668960337719571
20075	-0.6849766997304879
20077	-0.107189284267821
20079	-0.9738704074618214
20081	-1.5516578229244884
20083	-1.5516578229244884
20085	-0.20348718684493217
20087	-1.262764115193155
20089	-1.4553599203473773
20091	-0.9738704074618214
20093	-0.5886787971533768
20095	-0.010891381690709842
20097	-0.49238089457626566
20099	-0.107189284267821
20101	-1.262764115193155
20103	-0.49238089457626566
20105	0.27800232604062364
20107	-0.107189284267821
20109	-0.3960829919991545
20111	-0.107189284267821
20113	-0.5886787971533768
20115	-1.0701683100389325
20117	-0.8775725048847103
20119	-1.0701683100389325
20121	-0.29978508942204335
20123	-0.3960829919991545
20125	0.47059813119484595
20127	-1.1664662126160437
20129	0.08540652088640131
20131	-1.1664662126160437
20133	0.08540652088640131
20135	1.144683449234624
20137	1.144683449234624
20139	-0.5886787971533768
20141	-1.262764115193155
20143	-1.3590620177702661
20145	-0.9738704074618214
20147	0.7594918389261794
20149	-1.5516578229244884
20151	-1.0701683100389325
20153	-1.6479557255015995
20155	-0.107189284267821
20157	-0.3960829919991545
20159	-0.29978508942204335
20161	-0.7812746023075992
20163	-0.29978508942204335
20165	-1.9368494332329331
20167	-0.3960829919991545
20169	0.5668960337719571
20171	-2.899828459004045
20173	0.18170442346351248
20175	0.27800232604062364
20177	0.47059813119484595
20179	-0.8775725048847103
20181	-0.49238089457626566
20183	-0.3960829919991545
20185	-1.3590620177702661
20187	-2.0331473358100443
20189	-2.1294452383871554
20191	-0.9738704074618214
20193	-0.8775725048847103
20195	-1.9368494332329331
20197	-1.1664662126160437
20199	-2.8035305564269337
20201	-1.7442536280787106
20203	-0.20348718684493217
20205	0.6631939363490683
20207	-0.010891381690709842
20209	1.62617296212018
21001	-0.8775725048847103
21003	-0.29978508942204335
21005	0.08540652088640131
21007	-1.262764115193155
21009	-0.20348718684493217
21011	-0.010891381690709842
21013	0.8557897415032906
21015	-0.9738704074618214
21017	0.3743002286177348
21019	0.18170442346351248
21021	0.8557897415032906
21023	-0.49238089457626566
21025	1.144683449234624
21027	-0.49238089457626566
21029	0.08540652088640131
21031	0.08540652088640131
21033	0.47059813119484595
21035	-0.8775725048847103
21037	-0.010891381690709842
21039	-0.8775725048847103
21041	1.62617296212018
21043	-0.5886787971533768
21045	-0.5886787971533768
21047	-0.20348718684493217
21049	-0.29978508942204335
21051	0.27800232604062364
21053	0.08540652088640131
21055	-1.5516578229244884
21057	1.62617296212018
21059	0.18170442346351248
21061	-1.1664662126160437
21063	1.048385546657513
21065	0.8557897415032906
21067	0.5668960337719571
21069	-0.49238089457626566
21071	0.47059813119484595
21073	1.048385546657513
21075	0.5668960337719571
21077	0.5668960337719571
21079	-0.6849766997304879
21081	-0.3960829919991545
21083	-0.49238089457626566
21085	-0.8775725048847103
21087	-0.29978508942204335
21089	0.08540652088640131
21091	0.27800232604062364
21093	0.3743002286177348
21095	0.08540652088640131
21097	0.18170442346351248
21099	-0.20348718684493217
21101	0.3743002286177348
21103	0.08540652088640131
21105	-0.107189284267821
21107	0.7594918389261794
21109	1.144683449234624
21111	0.9520876440804018
21113	-0.29978508942204335
21115	-0.20348718684493217
21117	0.3743002286177348
21119	0.08540652088640131
21121	0.47059813119484595
21123	0.5668960337719571
21125	0.18170442346351248
21127	-0.49238089457626566
21129	-0.20348718684493217
21131	-0.20348718684493217
21133	-0.49238089457626566
21135	0.18170442346351248
21137	0.18170442346351248
21139	-0.010891381690709842
21141	0.47059813119484595
21143	0.18170442346351248
21145	0.27800232604062364
21147	-0.3960829919991545
21149	0.27800232604062364
21151	0.18170442346351248
21153	0.18170442346351248
21155	0.08540652088640131
21157	-0.49238089457626566
21159	1.048385546657513
21161	0.47059813119484595
21163	-0.107189284267821
21165	0.18170442346351248
21167	0.08540652088640131
21169	-0.8775725048847103
21171	-0.107189284267821
21173	0.5668960337719571
21175	-0.107189284267821
21177	0.3743002286177348
21179	-0.107189284267821
21181	-0.107189284267821
21183	0.47059813119484595
21185	-1.3590620177702661
21187	-0.29978508942204335
21189	-0.107189284267821
21191	-0.20348718684493217
21193	0.8557897415032906
21195	-0.107189284267821
21197	1.2409813518117352
21199	0.27800232604062364
21201	-0.8775725048847103
21203	-0.49238089457626566
21205	-0.010891381690709842
21207	0.47059813119484595
21209	-0.20348718684493217
21211	-0.20348718684493217
21213	0.27800232604062364
21215	-0.6849766997304879
21217	0.7594918389261794
21219	-0.49238089457626566
21221	0.47059813119484595
21223	-1.4553599203473773
21225	0.8557897415032906
21227	-0.010891381690709842
21229	0.27800232604062364
21231	-0.20348718684493217
21233	-0.9738704074618214
21235	0.5668960337719571
21237	0.9520876440804018
21239	-0.107189284267821
22001	0.7594918389261794
22003	0.3743002286177348
22005	-0.010891381690709842
22007	0.8557897415032906
22009	1.048385546657513
22011	0.08540652088640131
22013	2.0113645724286244
22015	0.3743002286177348
22017	2.2039603775828467
22019	0.6631939363490683
22021	0.5668960337719571
22023	-1.840551530655822
22025	0.5668960337719571
22027	2.5891519878912916
22029	1.62617296212018
22031	1.62617296212018
22033	1.5298750595430688
22035	3.552131013662403
22037	1.048385546657513
22039	0.8557897415032906
22041	1.722470864697291
22043	0.27800232604062364
22045	1.9150666698515133
22047	1.8187687672744022
22049	0.6631939363490683
22051	1.048385546657513
22053	0.47059813119484595
22055	0.6631939363490683
22057	0.47059813119484595
22059	-0.20348718684493217
22061	1.3372792543888463
22063	0.08540652088640131
22065	3.1669394033539584
22067	2.2039603775828467
22069	1.4335771569659577
22071	2.781747793045514
22073	1.722470864697291
22075	0.18170442346351248
22077	0.6631939363490683
22079	0.9520876440804018
22081	1.8187687672744022
22083	0.7594918389261794
22085	0.8557897415032906
22087	1.048385546657513
22089	0.6631939363490683
22091	1.048385546657513
22093	1.048385546657513
22095	0.6631939363490683
22097	1.5298750595430688
22099	0.9520876440804018
22101	1.4335771569659577
22103	-0.29978508942204335
22105	1.048385546657513
22107	3.455833111085292
22109	0.8557897415032906
22111	1.048385546657513
22113	0.7594918389261794
22115	-0.49238089457626566
22117	0.6631939363490683
22119	1.4335771569659577
22121	0.27800232604062364
22123	-0.107189284267821
22125	-0.107189284267821
22127	0.47059813119484595
23001	0.5668960337719571
23003	0.08540652088640131
23005	-0.107189284267821
23007	0.5668960337719571
23009	0.18170442346351248
23011	0.18170442346351248
23013	0.6631939363490683
23015	-0.20348718684493217
23017	0.18170442346351248
23019	-0.20348718684493217
23021	0.27800232604062364
23023	-0.49238089457626566
23025	0.3743002286177348
23027	0.5668960337719571
23029	0.18170442346351248
23031	-0.3960829919991545
24001	0.27800232604062364
24003	-0.6849766997304879
24005	0.27800232604062364
24009	-0.9738704074618214
24011	0.18170442346351248
24013	-1.1664662126160437
24015	-0.5886787971533768
24017	-0.107189284267821
24019	1.048385546657513
24021	-0.8775725048847103
24023	-0.7812746023075992
24025	-0.49238089457626566
24027	-0.9738704074618214
24029	0.47059813119484595
24031	-0.7812746023075992
24033	1.2409813518117352
24035	-0.3960829919991545
24037	-0.7812746023075992
24039	2.300258280159958
24041	0.08540652088640131
24043	0.08540652088640131
24045	1.048385546657513
24047	0.27800232604062364
24510	3.2632373059310695
25001	0.18170442346351248
25003	0.27800232604062364
25005	0.18170442346351248
25007	-0.20348718684493217
25009	0.08540652088640131
25011	0.08540652088640131
25013	1.4335771569659577
25015	-0.20348718684493217
25017	-1.0701683100389325
25019	-0.8775725048847103
25021	-1.262764115193155
25023	-0.6849766997304879
25025	2.0113645724286244
25027	-0.29978508942204335
26001	-0.49238089457626566
26003	-0.107189284267821
26005	-0.7812746023075992
26007	-0.7812746023075992
26009	-0.49238089457626566
26011	-0.49238089457626566
26013	0.27800232604062364
26015	-1.0701683100389325
26017	0.18170442346351248
26019	-0.010891381690709842
26021	0.5668960337719571
26023	-0.107189284267821
26025	1.048385546657513
26027	-0.107189284267821
26029	-0.20348718684493217
26031	-0.010891381690709842
26033	-0.010891381690709842
26035	0.47059813119484595
26037	-0.6849766997304879
26039	0.6631939363490683
26041	-0.6849766997304879
26043	-0.49238089457626566
26045	-0.20348718684493217
26047	-0.49238089457626566
26049	1.144683449234624
26051	-0.29978508942204335
26053	0.9520876440804018
26055	-0.3960829919991545
26057	0.3743002286177348
26059	-0.49238089457626566
26061	-0.6849766997304879
26063	-0.107189284267821
26065	0.27800232604062364
26067	-0.3960829919991545
26069	0.08540652088640131
26071	0.18170442346351248
26073	0.27800232604062364
26075	0.27800232604062364
26077	0.3743002286177348
26079	-0.20348718684493217
26081	-0.010891381690709842
26083	-0.29978508942204335
26085	1.3372792543888463
26087	-0.8775725048847103
26089	-0.8775725048847103
26091	-0.107189284267821
26093	-1.262764115193155
26095	0.27800232604062364
26097	-0.107189284267821
26099	-0.29978508942204335
26101	0.27800232604062364
26103	-0.6849766997304879
26105	0.27800232604062364
26107	-0.20348718684493217
26109	0.7594918389261794
26111	-0.6849766997304879
26113	-0.107189284267821
26115	-0.3960829919991545
26117	-0.010891381690709842
26119	0.47059813119484595
26121	0.7594918389261794
26123	-0.6849766997304879
26125	-0.6849766997304879
26127	-0.49238089457626566
26129	0.7594918389261794
26131	-0.3960829919991545
26133	0.3743002286177348
26135	-0.29978508942204335
26137	-0.5886787971533768
26139	-1.1664662126160437
26141	0.08540652088640131
26143	1.62617296212018
26145	0.8557897415032906
26147	-0.010891381690709842
26149	-0.107189284267821
26151	-0.5886787971533768
26153	0.08540652088640131
26155	-0.010891381690709842
26157	-0.3960829919991545
26159	-0.010891381690709842
26161	-0.49238089457626566
26163	1.4335771569659577
26165	0.08540652088640131
27001	0.08540652088640131
27003	-0.7812746023075992
27005	-0.20348718684493217
27007	0.8557897415032906
27009	-0.20348718684493217
27011	-0.8775725048847103
27013	-0.7812746023075992
27015	-0.6849766997304879
27017	-0.29978508942204335
27019	-1.6479557255015995
27021	0.27800232604062364
27023	-0.5886787971533768
27025	-0.7812746023075992
27027	-0.6849766997304879
27029	-0.29978508942204335
27031	0.6631939363490683
27033	-0.20348718684493217
27035	-0.20348718684493217
27037	-0.6849766997304879
27039	-0.7812746023075992
27041	-1.1664662126160437
27043	0.27800232604062364
27045	-0.9738704074618214
27047	0.5668960337719571
27049	-0.6849766997304879
27051	0.27800232604062364
27053	-0.010891381690709842
27055	-0.5886787971533768
27057	-0.20348718684493217
27059	-0.6849766997304879
27061	-0.49238089457626566
27063	-0.7812746023075992
27065	-0.3960829919991545
27067	0.18170442346351248
27069	-0.49238089457626566
27071	-0.8775725048847103
27073	-0.9738704074618214
27075	-1.0701683100389325
27077	-0.7812746023075992
27079	-0.5886787971533768
27081	-1.0701683100389325
27083	-0.6849766997304879
27085	-0.6849766997304879
27087	1.4335771569659577
27089	-0.9738704074618214
27091	-0.20348718684493217
27093	-0.8775725048847103
27095	-0.107189284267821
27097	-0.7812746023075992
27099	0.08540652088640131
27101	-0.5886787971533768
27103	-0.7812746023075992
27105	0.08540652088640131
27107	-0.5886787971533768
27109	-0.5886787971533768
27111	-0.8775725048847103
27113	-0.49238089457626566
27115	-0.107189284267821
27117	-0.49238089457626566
27119	-0.5886787971533768
27121	-1.3590620177702661
27123	0.27800232604062364
27125	-0.49238089457626566
27127	-0.7812746023075992
27129	-0.20348718684493217
27131	-0.29978508942204335
27133	-0.3960829919991545
27135	-0.3960829919991545
27137	0.18170442346351248
27139	-1.5516578229244884
27141	-1.262764115193155
27143	-0.49238089457626566
27145	-0.7812746023075992
27147	-0.3960829919991545
27149	-1.1664662126160437
27151	-1.1664662126160437
27153	-0.9738704074618214
27155	-1.1664662126160437
27157	-0.3960829919991545
27159	-0.5886787971533768
27161	-0.8775725048847103
27163	-0.8775725048847103
27165	0.18170442346351248
27167	-1.0701683100389325
27169	-1.3590620177702661
27171	-1.0701683100389325
27173	-0.6849766997304879
28001	2.2039603775828467
28003	0.27800232604062364
28005	0.8557897415032906
28007	1.722470864697291
28009	-0.20348718684493217
28011	3.0706415007768473
28013	0.9520876440804018
28015	1.5298750595430688
28017	2.0113645724286244
28019	-0.20348718684493217
28021	3.937322623970848
28023	1.144683449234624
28025	2.5891519878912916
28027	3.8410247213937367
28029	1.144683449234624
28031	1.5298750595430688
28033	-0.107189284267821
28035	1.144683449234624
28037	0.8557897415032906
28039	0.08540652088640131
28041	0.08540652088640131
28043	1.2409813518117352
28045	0.08540652088640131
28047	0.9520876440804018
28049	2.5891519878912916
28051	3.8410247213937367
28053	3.8410247213937367
28055	1.144683449234624
28057	-0.6849766997304879
28059	0.7594918389261794
28061	1.3372792543888463
28063	3.937322623970848
28065	2.5891519878912916
28067	1.4335771569659577
28069	2.0113645724286244
28071	0.8557897415032906
28073	-0.010891381690709842
28075	1.9150666698515133
28077	0.5668960337719571
28079	1.8187687672744022
28081	0.7594918389261794
28083	3.8410247213937367
28085	0.9520876440804018
28087	1.2409813518117352
28089	0.08540652088640131
28091	1.3372792543888463
28093	1.722470864697291
28095	0.8557897415032906
28097	2.300258280159958
28099	1.62617296212018
28101	0.9520876440804018
28103	2.878045695622625
28105	1.048385546657513
28107	2.0113645724286244
28109	0.3743002286177348
28111	0.9520876440804018
28113	1.9150666698515133
28115	0.7594918389261794
28117	0.47059813119484595
28119	2.300258280159958
28121	-0.29978508942204335
28123	1.5298750595430688
28125	3.455833111085292
28127	0.9520876440804018
28129	1.2409813518117352
28131	0.18170442346351248
28133	2.974343598199736
28135	2.6854498904684028
28137	1.2409813518117352
28139	-0.010891381690709842
28141	-0.107189284267821
28143	3.2632373059310695
28145	-0.107189284267821
28147	-0.010891381690709842
28149	1.9150666698515133
28151	3.455833111085292
28153	0.47059813119484595
28155	0.7594918389261794
28157	2.4928540853141805
28159	2.0113645724286244
28161	1.048385546657513
28163	3.0706415007768473
29001	-0.3960829919991545
29003	-0.8775725048847103
29005	-1.262764115193155
29007	0.08540652088640131
29009	-0.3960829919991545
29011	-1.0701683100389325
29013	-0.5886787971533768
29015	-0.49238089457626566
29017	-0.7812746023075992
29019	-0.20348718684493217
29021	0.5668960337719571
29023	0.3743002286177348
29025	-0.20348718684493217
29027	-0.29978508942204335
29029	0.47059813119484595
29031	0.08540652088640131
29033	-0.29978508942204335
29035	-0.5886787971533768
29037	-0.49238089457626566
29039	0.27800232604062364
29041	-0.3960829919991545
29043	-0.8775725048847103
29045	-0.6849766997304879
29047	-0.29978508942204335
29049	-0.107189284267821
29051	0.3743002286177348
29053	-0.3960829919991545
29055	0.47059813119484595
29057	-0.20348718684493217
29059	-1.262764115193155
29061	-1.1664662126160437
29063	-1.262764115193155
29065	0.27800232604062364
29067	-0.3960829919991545
29069	0.9520876440804018
29071	-0.29978508942204335
29073	-0.3960829919991545
29075	-0.3960829919991545
29077	0.18170442346351248
29079	-0.010891381690709842
29081	-0.010891381690709842
29083	-0.20348718684493217
29085	-0.49238089457626566
29087	-1.3590620177702661
29089	-0.010891381690709842
29091	-0.010891381690709842
29093	0.08540652088640131
29095	1.048385546657513
29097	0.3743002286177348
29099	-0.49238089457626566
29101	-0.9738704074618214
29103	-0.49238089457626566
29105	0.47059813119484595
29107	-0.29978508942204335
29109	-0.6849766997304879
29111	-0.6849766997304879
29113	-0.5886787971533768
29115	-0.20348718684493217
29117	-0.107189284267821
29119	0.18170442346351248
29121	-0.7812746023075992
29123	0.6631939363490683
29125	-0.49238089457626566
29127	0.7594918389261794
29129	0.08540652088640131
29131	0.5668960337719571
29133	1.144683449234624
29135	-1.1664662126160437
29137	-0.6849766997304879
29139	0.27800232604062364
29141	-0.49238089457626566
29143	1.5298750595430688
29145	-0.7812746023075992
29147	-0.49238089457626566
29149	-0.107189284267821
29151	-1.0701683100389325
29153	0.47059813119484595
29155	2.3965561827370694
29157	-0.49238089457626566
29159	-0.6849766997304879
29161	-0.3960829919991545
29163	0.27800232604062364
29165	-0.3960829919991545
29167	-0.7812746023075992
29169	-0.5886787971533768
29171	-0.107189284267821
29173	-0.49238089457626566
29175	0.7594918389261794
29177	-0.3960829919991545
29179	0.47059813119484595
29181	0.27800232604062364
29183	-1.0701683100389325
29185	-0.5886787971533768
29186	-0.8775725048847103
29187	-0.107189284267821
29189	0.27800232604062364
29195	0.6631939363490683
29197	-1.0701683100389325
29199	-0.7812746023075992
29201	0.8557897415032906
29203	-0.5886787971533768
29205	-0.5886787971533768
29207	-0.20348718684493217
29209	-0.010891381690709842
29211	1.3372792543888463
29213	0.5668960337719571
29215	-0.010891381690709842
29217	0.8557897415032906
29219	-0.20348718684493217
29221	-0.010891381690709842
29223	0.3743002286177348
29225	-0.7812746023075992
29227	-1.4553599203473773
29229	-0.49238089457626566
29510	2.878045695622625
30001	-0.8775725048847103
30003	1.2409813518117352
30005	1.2409813518117352
30007	-1.1664662126160437
30009	-0.3960829919991545
30011	-2.0331473358100443
30013	-0.010891381690709842
30015	0.27800232604062364
30017	-1.262764115193155
30019	-1.3590620177702661
30021	0.3743002286177348
30023	0.27800232604062364
30025	-1.0701683100389325
30027	-1.0701683100389325
30029	-0.29978508942204335
30031	-1.0701683100389325
30033	-1.6479557255015995
30035	1.3372792543888463
30037	1.144683449234624
30039	0.5668960337719571
30041	-0.107189284267821
30043	-1.262764115193155
30045	-2.3220410435413776
30047	0.8557897415032906
30049	-0.49238089457626566
30051	-2.0331473358100443
30053	-1.3590620177702661
30055	-2.3220410435413776
30057	-1.9368494332329331
30059	1.3372792543888463
30061	1.5298750595430688
30063	-0.29978508942204335
30065	-1.9368494332329331
30067	-0.5886787971533768
30069	-1.4553599203473773
30071	-1.9368494332329331
30073	-0.7812746023075992
30075	0.18170442346351248
30077	0.7594918389261794
30079	-1.262764115193155
30081	-0.49238089457626566
30083	-1.0701683100389325
30085	1.2409813518117352
30087	0.27800232604062364
30089	-0.49238089457626566
30091	-0.5886787971533768
30093	0.3743002286177348
30095	-1.3590620177702661
30097	-1.9368494332329331
30099	-1.1664662126160437
30101	-0.49238089457626566
30103	-0.7812746023075992
30105	0.47059813119484595
30107	-2.899828459004045
30109	-1.262764115193155
30111	-0.107189284267821
31001	-0.8775725048847103
31003	-0.7812746023075992
31005	-1.840551530655822
31007	-2.610934751272711
31009	-0.107189284267821
31011	-1.5516578229244884
31013	0.8557897415032906
31015	-2.2257431409642665
31017	-0.29978508942204335
31019	-0.29978508942204335
31021	-1.0701683100389325
31023	-1.262764115193155
31025	-1.5516578229244884
31027	-1.3590620177702661
31029	-0.107189284267821
31031	-1.0701683100389325
31033	-0.3960829919991545
31035	-0.20348718684493217
31037	0.08540652088640131
31039	-0.8775725048847103
31041	-1.1664662126160437
31043	0.08540652088640131
31045	-1.1664662126160437
31047	-0.107189284267821
31049	-0.3960829919991545
31051	-0.7812746023075992
31053	-0.3960829919991545
31055	0.08540652088640131
31057	-0.29978508942204335
31059	-1.262764115193155
31061	-1.0701683100389325
31063	-0.9738704074618214
31065	-1.6479557255015995
31067	-0.8775725048847103
31069	-1.0701683100389325
31071	-0.6849766997304879
31073	-2.4183389461184888
31075	0.8557897415032906
31077	-1.0701683100389325
31079	0.08540652088640131
31081	-1.1664662126160437
31083	-0.7812746023075992
31085	-1.840551530655822
31087	-1.3590620177702661
31089	-1.4553599203473773
31091	-2.0331473358100443
31093	-1.5516578229244884
31095	0.27800232604062364
31097	-0.9738704074618214
31099	-1.3590620177702661
31101	-0.010891381690709842
31103	-0.49238089457626566
31105	-0.107189284267821
31107	-1.0701683100389325
31109	-0.3960829919991545
31111	-0.49238089457626566
31113	-0.7812746023075992
31115	-1.6479557255015995
31117	-1.4553599203473773
31119	0.08540652088640131
31121	-0.3960829919991545
31123	1.144683449234624
31125	-0.010891381690709842
31127	-1.5516578229244884
31129	-0.29978508942204335
31131	-0.6849766997304879
31133	-1.840551530655822
31135	-1.7442536280787106
31137	-1.3590620177702661
31139	-1.3590620177702661
31141	0.08540652088640131
31143	-1.3590620177702661
31145	-1.262764115193155
31147	-0.6849766997304879
31149	-0.20348718684493217
31151	-0.7812746023075992
31153	-0.7812746023075992
31155	-1.5516578229244884
31157	0.6631939363490683
31159	-1.4553599203473773
31161	-0.29978508942204335
31163	-0.107189284267821
31165	-2.5146368486956
31167	-0.49238089457626566
31169	-2.2257431409642665
31171	-2.707232653849822
31173	2.3965561827370694
31175	-1.3590620177702661
31177	-1.0701683100389325
31179	-0.7812746023075992
31181	-1.6479557255015995
31183	-1.262764115193155
31185	-1.0701683100389325
32001	0.18170442346351248
32003	0.47059813119484595
32005	0.08540652088640131
32007	-0.7812746023075992
32009	-0.107189284267821
32011	-2.5146368486956
32013	-0.29978508942204335
32015	-2.2257431409642665
32017	-1.4553599203473773
32019	-0.29978508942204335
32021	1.3372792543888463
32023	1.144683449234624
32027	0.18170442346351248
32029	-0.107189284267821
32031	0.08540652088640131
32033	-0.29978508942204335
32510	0.5668960337719571
33001	-0.107189284267821
33003	-0.3960829919991545
33005	-0.3960829919991545
33007	0.47059813119484595
33009	-0.20348718684493217
33011	-0.29978508942204335
33013	-0.49238089457626566
33015	-1.1664662126160437
33017	-0.29978508942204335
33019	-0.010891381690709842
34001	0.7594918389261794
34003	-1.1664662126160437
34005	-0.5886787971533768
34007	0.6631939363490683
34009	-0.107189284267821
34011	1.144683449234624
34013	1.3372792543888463
34015	-0.5886787971533768
34017	1.144683449234624
34019	-1.4553599203473773
34021	-0.010891381690709842
34023	-0.7812746023075992
34025	-0.9738704074618214
34027	-1.6479557255015995
34029	-1.0701683100389325
34031	0.5668960337719571
34033	0.6631939363490683
34035	-1.5516578229244884
34037	-1.4553599203473773
34039	-0.010891381690709842
34041	-0.8775725048847103
35001	0.8557897415032906
35003	-0.8775725048847103
35005	0.3743002286177348
35006	2.2039603775828467
35007	0.7594918389261794
35009	0.3743002286177348
35011	-0.3960829919991545
35013	0.6631939363490683
35015	0.3743002286177348
35017	1.144683449234624
35019	-0.49238089457626566
35021	-0.5886787971533768
35023	1.144683449234624
35025	0.08540652088640131
35027	0.27800232604062364
35028	-0.9738704074618214
35029	1.62617296212018
35031	1.3372792543888463
35033	0.08540652088640131
35035	0.5668960337719571
35037	0.3743002286177348
35039	1.5298750595430688
35041	-0.010891381690709842
35043	0.5668960337719571
35045	0.7594918389261794
35047	2.0113645724286244
35049	0.6631939363490683
35051	1.144683449234624
35053	2.2039603775828467
35055	1.2409813518117352
35057	0.3743002286177348
35059	-0.29978508942204335
35061	0.27800232604062364
36001	0.27800232604062364
36003	-0.20348718684493217
36005	3.0706415007768473
36007	0.6631939363490683
36009	0.18170442346351248
36011	0.08540652088640131
36013	0.3743002286177348
36015	0.3743002286177348
36017	0.18170442346351248
36019	0.27800232604062364
36021	0.18170442346351248
36023	0.5668960337719571
36025	-0.010891381690709842
36027	-0.5886787971533768
36029	0.5668960337719571
36031	0.08540652088640131
36033	0.5668960337719571
36035	1.3372792543888463
36037	-0.29978508942204335
36039	-0.010891381690709842
36041	-0.9738704074618214
36043	0.18170442346351248
36045	0.08540652088640131
36047	0.6631939363490683
36049	-0.8775725048847103
36051	0.08540652088640131
36053	-0.3960829919991545
36055	0.7594918389261794
36057	0.6631939363490683
36059	-1.1664662126160437
36061	0.9520876440804018
36063	0.47059813119484595
36065	0.5668960337719571
36067	0.47059813119484595
36069	-0.20348718684493217
36071	-0.7812746023075992
36073	0.8557897415032906
36075	0.3743002286177348
36077	0.18170442346351248
36079	-1.6479557255015995
36081	0.08540652088640131
36083	0.3743002286177348
36085	-0.49238089457626566
36087	-1.5516578229244884
36089	0.27800232604062364
36091	-0.8775725048847103
36093	0.3743002286177348
36095	-0.3960829919991545
36097	-0.8775725048847103
36099	-0.29978508942204335
36101	0.27800232604062364
36103	-0.7812746023075992
36105	0.27800232604062364
36107	-0.7812746023075992
36109	-0.3960829919991545
36111	-0.107189284267821
36113	-0.010891381690709842
36115	0.18170442346351248
36117	-0.010891381690709842
36119	-0.3960829919991545
36121	0.18170442346351248
36123	-0.49238089457626566
37001	0.8557897415032906
37003	-0.49238089457626566
37005	-0.3960829919991545
37007	2.300258280159958
37009	-0.29978508942204335
37011	-0.9738704074618214
37013	0.8557897415032906
37015	1.4335771569659577
37017	1.8187687672744022
37019	0.08540652088640131
37021	0.08540652088640131
37023	0.6631939363490683
37025	-0.5886787971533768
37027	0.18170442346351248
37029	-0.8775725048847103
37031	0.7594918389261794
37033	0.7594918389261794
37035	0.08540652088640131
37037	-0.49238089457626566
37039	-0.5886787971533768
37041	1.2409813518117352
37043	-0.20348718684493217
37045	0.7594918389261794
37047	1.2409813518117352
37049	0.47059813119484595
37051	1.048385546657513
37053	-0.7812746023075992
37055	0.47059813119484595
37057	0.18170442346351248
37059	-0.49238089457626566
37061	0.7594918389261794
37063	0.8557897415032906
37065	2.4928540853141805
37067	0.6631939363490683
37069	-0.29978508942204335
37071	0.5668960337719571
37073	0.6631939363490683
37075	-0.9738704074618214
37077	0.5668960337719571
37079	0.6631939363490683
37081	0.9520876440804018
37083	2.2039603775828467
37085	-0.010891381690709842
37087	0.47059813119484595
37089	-0.5886787971533768
37091	1.9150666698515133
37093	0.6631939363490683
37095	2.5891519878912916
37097	-0.107189284267821
37099	0.8557897415032906
37101	-0.107189284267821
37103	0.9520876440804018
37105	0.3743002286177348
37107	1.8187687672744022
37109	-0.49238089457626566
37111	0.18170442346351248
37113	0.3743002286177348
37115	-0.20348718684493217
37117	0.7594918389261794
37119	0.47059813119484595
37121	0.18170442346351248
37123	0.18170442346351248
37125	-0.20348718684493217
37127	0.9520876440804018
37129	0.5668960337719571
37131	3.552131013662403
37133	-0.29978508942204335
37135	-0.5886787971533768
37137	0.47059813119484595
37139	0.3743002286177348
37141	0.47059813119484595
37143	0.3743002286177348
37145	0.6631939363490683
37147	1.2409813518117352
37149	0.27800232604062364
37151	0.47059813119484595
37153	1.4335771569659577
37155	2.2039603775828467
37157	0.6631939363490683
37159	0.6631939363490683
37161	0.27800232604062364
37163	1.048385546657513
37165	2.6854498904684028
37167	0.27800232604062364
37169	-0.20348718684493217
37171	-0.20348718684493217
37173	0.27800232604062364
37175	-0.010891381690709842
37177	1.2409813518117352
37179	-0.9738704074618214
37181	2.4928540853141805
37183	-0.3960829919991545
37185	1.722470864697291
37187	2.0113645724286244
37189	-0.3960829919991545
37191	1.144683449234624
37193	-0.29978508942204335
37195	1.048385546657513
37197	-0.49238089457626566
37199	-0.8775725048847103
38001	-1.1664662126160437
38003	-0.6849766997304879
38005	2.300258280159958
38007	-2.899828459004045
38009	-0.7812746023075992
38011	-1.3590620177702661
38013	-1.1664662126160437
38015	-0.6849766997304879
38017	-0.6849766997304879
38019	-2.5146368486956
38021	-2.2257431409642665
38023	-2.5146368486956
38025	-1.262764115193155
38027	0.5668960337719571
38029	-1.5516578229244884
38031	0.5668960337719571
38033	-0.010891381690709842
38035	-0.7812746023075992
38037	-2.2257431409642665
38039	-1.7442536280787106
38041	-1.0701683100389325
38043	-1.0701683100389325
38045	-1.840551530655822
38047	-1.7442536280787106
38049	-0.3960829919991545
38051	-1.0701683100389325
38053	0.18170442346351248
38055	-1.262764115193155
38057	-1.6479557255015995
38059	-0.6849766997304879
38061	0.3743002286177348
38063	-0.49238089457626566
38065	-2.3220410435413776
38067	-0.5886787971533768
38069	-1.0701683100389325
38071	-0.20348718684493217
38073	-1.4553599203473773
38075	-1.4553599203473773
38077	-0.9738704074618214
38079	2.1076624750057356
38081	-1.5516578229244884
38083	-2.899828459004045
38085	2.878045695622625
38087	-1.7442536280787106
38089	-0.9738704074618214
38091	-1.6479557255015995
38093	0.47059813119484595
38095	-0.8775725048847103
38097	-1.1664662126160437
38099	-0.7812746023075992
38101	-0.8775725048847103
38103	-1.4553599203473773
38105	-0.8775725048847103
39001	0.08540652088640131
39003	0.7594918389261794
39005	-1.1664662126160437
39007	0.3743002286177348
39009	0.08540652088640131
39011	-1.1664662126160437
39013	-0.107189284267821
39015	-0.29978508942204335
39017	-0.107189284267821
39019	-1.1664662126160437
39021	-0.3960829919991545
39023	0.7594918389261794
39025	-0.49238089457626566
39027	-0.010891381690709842
39029	0.08540652088640131
39031	-0.6849766997304879
39033	-0.010891381690709842
39035	1.2409813518117352
39037	-0.9738704074618214
39039	0.18170442346351248
39041	-1.3590620177702661
39043	0.47059813119484595
39045	-0.49238089457626566
39047	1.048385546657513
39049	0.6631939363490683
39051	-0.9738704074618214
39053	-0.20348718684493217
39055	-1.6479557255015995
39057	-0.20348718684493217
39059	-0.010891381690709842
39061	1.048385546657513
39063	0.27800232604062364
39065	-0.29978508942204335
39067	-0.29978508942204335
39069	-0.010891381690709842
39071	0.27800232604062364
39073	-0.29978508942204335
39075	-2.4183389461184888
39077	-0.20348718684493217
39079	0.6631939363490683
39081	0.3743002286177348
39083	-0.5886787971533768
39085	-0.3960829919991545
39087	0.47059813119484595
39089	-0.3960829919991545
39091	0.5668960337719571
39093	0.47059813119484595
39095	1.144683449234624
39097	-0.8775725048847103
39099	1.048385546657513
39101	0.47059813119484595
39103	-1.0701683100389325
39105	0.18170442346351248
39107	-1.262764115193155
39109	-0.010891381690709842
39111	0.08540652088640131
39113	1.144683449234624
39115	-0.29978508942204335
39117	-0.5886787971533768
39119	0.6631939363490683
39121	-0.3960829919991545
39123	-0.3960829919991545
39125	-0.3960829919991545
39127	0.18170442346351248
39129	-0.20348718684493217
39131	1.2409813518117352
39133	-0.20348718684493217
39135	-0.3960829919991545
39137	-1.7442536280787106
39139	0.27800232604062364
39141	0.18170442346351248
39143	-0.107189284267821
39145	0.27800232604062364
39147	0.18170442346351248
39149	-0.29978508942204335
39151	0.27800232604062364
39153	0.27800232604062364
39155	0.7594918389261794
39157	-0.3960829919991545
39159	-1.0701683100389325
39161	-0.8775725048847103
39163	-0.107189284267821
39165	-1.262764115193155
39167	-0.6849766997304879
39169	-0.8775725048847103
39171	-0.49238089457626566
39173	-0.6849766997304879
39175	-0.49238089457626566
40001	0.3743002286177348
40003	-0.3960829919991545
40005	0.3743002286177348
40007	-1.0701683100389325
40009	0.47059813119484595
40011	-0.29978508942204335
40013	0.27800232604062364
40015	-0.010891381690709842
40017	-0.6849766997304879
40019	0.3743002286177348
40021	0.6631939363490683
40023	0.7594918389261794
40025	0.08540652088640131
40027	-0.3960829919991545
40029	0.7594918389261794
40031	1.144683449234624
40033	0.08540652088640131
40035	0.08540652088640131
40037	-0.20348718684493217
40039	0.3743002286177348
40041	0.18170442346351248
40043	-0.7812746023075992
40045	-0.49238089457626566
40047	0.08540652088640131
40049	-0.29978508942204335
40051	-0.3960829919991545
40053	-0.8775725048847103
40055	-1.4553599203473773
40057	1.62617296212018
40059	-0.5886787971533768
40061	-0.010891381690709842
40063	0.5668960337719571
40065	0.08540652088640131
40067	0.5668960337719571
40069	1.5298750595430688
40071	0.3743002286177348
40073	-0.8775725048847103
40075	0.47059813119484595
40077	-0.6849766997304879
40079	0.27800232604062364
40081	-0.3960829919991545
40083	-1.3590620177702661
40085	-0.107189284267821
40087	-0.7812746023075992
40089	0.9520876440804018
40091	-0.20348718684493217
40093	-0.7812746023075992
40095	0.08540652088640131
40097	-0.107189284267821
40099	-0.5886787971533768
40101	0.7594918389261794
40103	-0.3960829919991545
40105	-0.107189284267821
40107	0.27800232604062364
40109	0.5668960337719571
40111	1.048385546657513
40113	-0.010891381690709842
40115	0.3743002286177348
40117	0.08540652088640131
40119	-0.29978508942204335
40121	0.47059813119484595
40123	0.47059813119484595
40125	0.27800232604062364
40127	1.5298750595430688
40129	-1.262764115193155
40131	-0.8775725048847103
40133	0.7594918389261794
40135	0.27800232604062364
40137	-0.5886787971533768
40139	-0.3960829919991545
40141	-0.107189284267821
40143	0.3743002286177348
40145	-0.6849766997304879
40147	-0.010891381690709842
40149	-0.6849766997304879
40151	-0.49238089457626566
40153	-0.5886787971533768
41001	0.08540652088640131
41003	-0.8775725048847103
41005	-0.6849766997304879
41007	0.47059813119484595
41009	-0.20348718684493217
41011	0.18170442346351248
41013	-0.5886787971533768
41015	0.27800232604062364
41017	-0.49238089457626566
41019	0.18170442346351248
41021	0.47059813119484595
41023	-0.49238089457626566
41025	-1.1664662126160437
41027	-0.5886787971533768
41029	0.47059813119484595
41031	1.8187687672744022
41033	0.18170442346351248
41035	0.3743002286177348
41037	-0.9738704074618214
41039	0.08540652088640131
41041	0.47059813119484595
41043	0.18170442346351248
41045	-0.29978508942204335
41047	0.18170442346351248
41049	-0.107189284267821
41051	0.08540652088640131
41053	-0.7812746023075992
41055	0.3743002286177348
41057	0.08540652088640131
41059	0.7594918389261794
41061	-0.5886787971533768
41063	0.18170442346351248
41065	0.18170442346351248
41067	-0.7812746023075992
41069	-0.29978508942204335
41071	-0.49238089457626566
42001	-0.3960829919991545
42003	0.08540652088640131
42005	-0.010891381690709842
42007	-0.010891381690709842
42009	-0.5886787971533768
42011	0.27800232604062364
42013	0.08540652088640131
42015	-0.29978508942204335
42017	-1.1664662126160437
42019	-1.0701683100389325
42021	0.08540652088640131
42023	0.6631939363490683
42025	0.18170442346351248
42027	-0.8775725048847103
42029	-1.3590620177702661
42031	-0.20348718684493217
42033	-0.20348718684493217
42035	-0.107189284267821
42037	-0.20348718684493217
42039	-0.3960829919991545
42041	-0.6849766997304879
42043	0.7594918389261794
42045	0.08540652088640131
42047	0.27800232604062364
42049	0.5668960337719571
42051	0.3743002286177348
42053	-0.107189284267821
42055	-0.49238089457626566
42057	-0.8775725048847103
42059	-0.010891381690709842
42061	-0.5886787971533768
42063	-0.5886787971533768
42065	-0.20348718684493217
42067	-1.0701683100389325
42069	0.18170442346351248
42071	-0.9738704074618214
42073	0.47059813119484595
42075	-0.20348718684493217
42077	0.3743002286177348
42079	0.8557897415032906
42081	0.18170442346351248
42083	0.7594918389261794
42085	-0.107189284267821
42087	-0.3960829919991545
42089	-0.010891381690709842
42091	-1.1664662126160437
42093	-0.5886787971533768
42095	-0.3960829919991545
42097	-0.010891381690709842
42099	-0.49238089457626566
42101	2.5891519878912916
42103	-0.3960829919991545
42105	-0.20348718684493217
42107	-0.010891381690709842
42109	-0.9738704074618214
42111	-0.8775725048847103
42113	-0.7812746023075992
42115	-0.20348718684493217
42117	-0.20348718684493217
42119	-0.3960829919991545
42121	0.47059813119484595
42123	-0.5886787971533768
42125	-0.6849766997304879
42127	-0.29978508942204335
42129	-0.29978508942204335
42131	-0.107189284267821
42133	-0.107189284267821
44001	-1.5516578229244884
44003	-0.3960829919991545
44005	-0.3960829919991545
44007	1.2409813518117352
44009	-0.5886787971533768
45001	0.3743002286177348
45003	1.048385546657513
45005	2.781747793045514
45007	0.3743002286177348
45009	1.2409813518117352
45011	1.9150666698515133
45013	-0.010891381690709842
45015	0.18170442346351248
45017	1.4335771569659577
45019	0.8557897415032906
45021	1.048385546657513
45023	2.4928540853141805
45025	1.3372792543888463
45027	2.0113645724286244
45029	1.3372792543888463
45031	1.5298750595430688
45033	2.2039603775828467
45035	0.47059813119484595
45037	0.9520876440804018
45039	2.300258280159958
45041	1.62617296212018
45043	1.722470864697291
45045	0.18170442346351248
45047	1.62617296212018
45049	1.2409813518117352
45051	0.6631939363490683
45053	1.5298750595430688
45055	0.08540652088640131
45057	1.144683449234624
45059	1.5298750595430688
45061	2.781747793045514
45063	-0.010891381690709842
45065	1.8187687672744022
45067	2.781747793045514
45069	3.0706415007768473
45071	0.9520876440804018
45073	0.3743002286177348
45075	1.8187687672744022
45077	-0.3960829919991545
45079	1.144683449234624
45081	-0.107189284267821
45083	0.3743002286177348
45085	1.048385546657513
45087	1.4335771569659577
45089	2.4928540853141805
45091	-0.29978508942204335
46003	-1.3590620177702661
46005	-0.29978508942204335
46007	2.878045695622625
46009	-0.8775725048847103
46011	-0.49238089457626566
46013	-0.5886787971533768
46015	-0.8775725048847103
46017	1.3372792543888463
46019	-2.2257431409642665
46021	-1.3590620177702661
46023	1.2409813518117352
46025	-1.5516578229244884
46027	-1.6479557255015995
46029	-0.29978508942204335
46031	1.144683449234624
46033	-1.0701683100389325
46035	-0.49238089457626566
46037	0.5668960337719571
46039	-1.6479557255015995
46041	2.3965561827370694
46043	-1.6479557255015995
46045	-2.4183389461184888
46047	0.3743002286177348
46049	-1.6479557255015995
46051	-1.262764115193155
46053	-0.5886787971533768
46055	-2.3220410435413776
46057	-1.7442536280787106
46059	-1.5516578229244884
46061	-2.4183389461184888
46063	-1.840551530655822
46065	-0.49238089457626566
46067	-0.7812746023075992
46069	-1.5516578229244884
46071	0.27800232604062364
46073	1.5298750595430688
46075	-0.49238089457626566
46077	-0.9738704074618214
46079	-0.107189284267821
46081	-0.20348718684493217
46083	-1.1664662126160437
46085	0.9520876440804018
46087	-1.5516578229244884
46089	-1.7442536280787106
46091	-0.8775725048847103
46093	-0.29978508942204335
46095	2.300258280159958
46097	-0.7812746023075992
46099	-0.010891381690709842
46101	-0.010891381690709842
46103	0.47059813119484595
46105	-1.3590620177702661
46107	0.08540652088640131
46109	1.144683449234624
46111	-1.4553599203473773
46113	3.455833111085292
46115	-1.0701683100389325
46117	0.3743002286177348
46119	-0.9738704074618214
46121	3.2632373059310695
46123	0.18170442346351248
46125	-0.7812746023075992
46127	-1.262764115193155
46129	-1.3590620177702661
46135	-0.5886787971533768
46137	2.4928540853141805
47001	0.08540652088640131
47003	0.27800232604062364
47005	-0.107189284267821
47007	-0.20348718684493217
47009	-0.49238089457626566
47011	-0.010891381690709842
47013	-0.29978508942204335
47015	0.47059813119484595
47017	-0.010891381690709842
47019	-0.29978508942204335
47021	-0.6849766997304879
47023	0.18170442346351248
47025	-0.5886787971533768
47027	-0.49238089457626566
47029	0.8557897415032906
47031	0.3743002286177348
47033	0.5668960337719571
47035	-0.29978508942204335
47037	1.144683449234624
47039	0.47059813119484595
47041	-1.1664662126160437
47043	-0.29978508942204335
47045	0.08540652088640131
47047	-0.010891381690709842
47049	0.5668960337719571
47051	-0.107189284267821
47053	0.08540652088640131
47055	0.27800232604062364
47057	-1.1664662126160437
47059	0.08540652088640131
47061	0.7594918389261794
47063	-0.107189284267821
47065	0.3743002286177348
47067	0.3743002286177348
47069	1.62617296212018
47071	-0.107189284267821
47073	-0.107189284267821
47075	0.9520876440804018
47077	0.8557897415032906
47079	-0.010891381690709842
47081	-0.5886787971533768
47083	-0.20348718684493217
47085	0.5668960337719571
47087	-0.010891381690709842
47089	0.27800232604062364
47091	-0.7812746023075992
47093	-0.29978508942204335
47095	2.1076624750057356
47097	2.0113645724286244
47099	-0.8775725048847103
47101	-0.6849766997304879
47103	0.08540652088640131
47105	-0.49238089457626566
47107	-0.29978508942204335
47109	-0.29978508942204335
47111	-0.29978508942204335
47113	1.144683449234624
47115	0.47059813119484595
47117	-0.3960829919991545
47119	0.18170442346351248
47121	0.18170442346351248
47123	-0.3960829919991545
47125	0.47059813119484595
47127	-0.107189284267821
47129	-0.5886787971533768
47131	0.7594918389261794
47133	-1.6479557255015995
47135	-0.3960829919991545
47137	-0.5886787971533768
47139	-0.20348718684493217
47141	-0.20348718684493217
47143	0.3743002286177348
47145	0.08540652088640131
47147	0.08540652088640131
47149	-0.29978508942204335
47151	-0.3960829919991545
47153	-0.010891381690709842
47155	-0.107189284267821
47157	1.8187687672744022
47159	-0.5886787971533768
47161	0.27800232604062364
47163	0.27800232604062364
47165	-0.3960829919991545
47167	0.08540652088640131
47169	-0.3960829919991545
47171	-0.7812746023075992
47173	0.18170442346351248
47175	-0.29978508942204335
47177	0.18170442346351248
47179	-0.107189284267821
47181	-0.49238089457626566
47183	0.27800232604062364
47185	-0.6849766997304879
47187	-1.6479557255015995
47189	-0.49238089457626566
48001	0.5668960337719571
48003	-0.29978508942204335
48005	0.7594918389261794
48007	0.18170442346351248
48009	-1.6479557255015995
48011	-0.49238089457626566
48013	0.27800232604062364
48015	-0.49238089457626566
48017	-1.7442536280787106
48019	-0.6849766997304879
48021	-0.49238089457626566
48023	-1.262764115193155
48025	1.144683449234624
48027	0.27800232604062364
48029	0.47059813119484595
48031	-0.9738704074618214
48033	-2.0331473358100443
48035	-0.6849766997304879
48037	0.9520876440804018
48039	-0.3960829919991545
48041	0.5668960337719571
48043	-1.5516578229244884
48045	0.3743002286177348
48047	2.5891519878912916
48049	-0.107189284267821
48051	-0.107189284267821
48053	0.3743002286177348
48055	0.3743002286177348
48057	-0.5886787971533768
48059	-1.0701683100389325
48061	0.5668960337719571
48063	-0.107189284267821
48065	-1.262764115193155
48067	0.8557897415032906
48069	0.08540652088640131
48071	-1.1664662126160437
48073	0.5668960337719571
48075	-0.5886787971533768
48077	-1.7442536280787106
48079	-0.7812746023075992
48081	-0.107189284267821
48083	1.2409813518117352
48085	-1.1664662126160437
48087	-0.3960829919991545
48089	0.08540652088640131
48091	-0.9738704074618214
48093	-0.9738704074618214
48095	1.048385546657513
48097	-0.20348718684493217
48099	-0.010891381690709842
48101	-0.49238089457626566
48103	-0.7812746023075992
48105	-1.262764115193155
48107	-0.20348718684493217
48109	-1.5516578229244884
48111	0.08540652088640131
48113	0.5668960337719571
48115	-0.3960829919991545
48117	0.08540652088640131
48119	-0.3960829919991545
48121	-0.8775725048847103
48123	0.6631939363490683
48125	-0.010891381690709842
48127	1.5298750595430688
48129	0.9520876440804018
48131	0.8557897415032906
48133	0.18170442346351248
48135	0.6631939363490683
48137	0.6631939363490683
48139	-0.3960829919991545
48141	0.3743002286177348
48143	-0.20348718684493217
48145	0.3743002286177348
48147	-0.010891381690709842
48149	-1.262764115193155
48151	-1.1664662126160437
48153	0.3743002286177348
48155	1.62617296212018
48157	-0.9738704074618214
48159	-0.20348718684493217
48161	-0.3960829919991545
48163	0.27800232604062364
48165	-1.6479557255015995
48167	-0.20348718684493217
48169	0.3743002286177348
48171	-0.107189284267821
48173	-1.840551530655822
48175	0.6631939363490683
48177	0.6631939363490683
48179	-0.107189284267821
48181	0.5668960337719571
48183	0.5668960337719571
48185	1.2409813518117352
48187	-0.5886787971533768
48189	0.6631939363490683
48191	0.27800232604062364
48193	-1.0701683100389325
48195	-0.6849766997304879
48197	0.3743002286177348
48199	-0.29978508942204335
48201	0.27800232604062364
48203	0.5668960337719571
48205	-2.0331473358100443
48207	-0.20348718684493217
48209	-0.5886787971533768
48211	-0.29978508942204335
48213	0.18170442346351248
48215	0.08540652088640131
48217	-0.107189284267821
48219	-0.20348718684493217
48221	-0.8775725048847103
48223	-0.49238089457626566
48225	0.47059813119484595
48227	0.5668960337719571
48229	1.048385546657513
48231	-0.107189284267821
48233	0.6631939363490683
48235	-0.107189284267821
48237	-0.9738704074618214
48239	-0.107189284267821
48241	0.3743002286177348
48243	-0.7812746023075992
48245	1.3372792543888463
48247	-0.49238089457626566
48249	0.9520876440804018
48251	-0.49238089457626566
48253	-0.49238089457626566
48255	0.6631939363490683
48257	-0.3960829919991545
48259	-1.4553599203473773
48261	-2.4183389461184888
48263	-0.5886787971533768
48265	0.08540652088640131
48267	-0.49238089457626566
48269	-3.092424264158267
48271	0.08540652088640131
48273	0.9520876440804018
48275	0.47059813119484595
48277	0.3743002286177348
48279	0.5668960337719571
48281	-0.010891381690709842
48283	1.62617296212018
48285	-0.5886787971533768
48287	-1.0701683100389325
48289	0.9520876440804018
48291	-0.49238089457626566
48293	0.18170442346351248
48295	-0.7812746023075992
48297	-0.6849766997304879
48299	0.7594918389261794
48301	6.53736599355285
48303	0.47059813119484595
48305	0.18170442346351248
48307	-1.262764115193155
48309	0.5668960337719571
48311	-0.7812746023075992
48313	0.5668960337719571
48315	-0.107189284267821
48317	-0.7812746023075992
48319	-1.0701683100389325
48321	0.5668960337719571
48323	0.08540652088640131
48325	-0.3960829919991545
48327	1.144683449234624
48329	0.08540652088640131
48331	0.27800232604062364
48333	-1.1664662126160437
48335	0.7594918389261794
48337	-0.29978508942204335
48339	-0.6849766997304879
48341	0.08540652088640131
48343	1.048385546657513
48345	-1.9368494332329331
48347	0.7594918389261794
48349	0.7594918389261794
48351	1.62617296212018
48353	0.5668960337719571
48355	0.9520876440804018
48357	-0.5886787971533768
48359	-1.7442536280787106
48361	-0.010891381690709842
48363	0.6631939363490683
48365	-0.010891381690709842
48367	-0.8775725048847103
48369	-0.107189284267821
48371	-0.29978508942204335
48373	1.048385546657513
48375	0.8557897415032906
48377	-0.29978508942204335
48379	0.8557897415032906
48381	-0.29978508942204335
48383	-1.1664662126160437
48385	2.974343598199736
48387	0.7594918389261794
48389	1.144683449234624
48391	0.27800232604062364
48393	-2.2257431409642665
48395	0.9520876440804018
48397	-1.1664662126160437
48399	2.1076624750057356
48401	0.3743002286177348
48403	0.7594918389261794
48405	2.5891519878912916
48407	0.6631939363490683
48409	0.3743002286177348
48411	-0.010891381690709842
48413	1.144683449234624
48415	0.5668960337719571
48417	-0.9738704074618214
48419	0.6631939363490683
48421	-0.7812746023075992
48423	-0.010891381690709842
48425	-1.1664662126160437
48427	0.6631939363490683
48429	0.08540652088640131
48431	-1.4553599203473773
48433	-1.7442536280787106
48435	-1.0701683100389325
48437	0.47059813119484595
48439	0.08540652088640131
48441	0.47059813119484595
48443	-1.0701683100389325
48445	0.08540652088640131
48447	-0.29978508942204335
48449	-0.20348718684493217
48451	0.18170442346351248
48453	0.08540652088640131
48455	-0.29978508942204335
48457	0.27800232604062364
48459	-0.29978508942204335
48461	0.3743002286177348
48463	0.47059813119484595
48465	-0.20348718684493217
48467	-0.3960829919991545
48469	0.8557897415032906
48471	-0.010891381690709842
48473	0.08540652088640131
48475	0.7594918389261794
48477	0.9520876440804018
48479	0.5668960337719571
48481	0.5668960337719571
48483	-1.1664662126160437
48485	0.3743002286177348
48487	0.5668960337719571
48489	0.9520876440804018
48491	-0.9738704074618214
48493	-0.7812746023075992
48495	-0.107189284267821
48497	-1.3590620177702661
48499	-0.20348718684493217
48501	-1.0701683100389325
48503	-0.3960829919991545
48505	0.6631939363490683
48507	1.62617296212018
49001	-1.5516578229244884
49003	-1.262764115193155
49005	-1.6479557255015995
49007	-0.8775725048847103
49009	-2.1294452383871554
49011	-1.5516578229244884
49013	-1.3590620177702661
49015	-1.4553599203473773
49017	-1.3590620177702661
49019	-0.107189284267821
49021	-1.4553599203473773
49023	-1.1664662126160437
49025	-1.840551530655822
49027	-1.0701683100389325
49029	-2.1294452383871554
49031	-1.4553599203473773
49033	-1.0701683100389325
49035	-0.9738704074618214
49037	-0.010891381690709842
49039	-1.3590620177702661
49041	-1.4553599203473773
49043	-1.262764115193155
49045	-1.262764115193155
49047	-0.9738704074618214
49049	-2.0331473358100443
49051	-1.4553599203473773
49053	-0.9738704074618214
49055	-1.1664662126160437
49057	-0.7812746023075992
50001	-0.107189284267821
50003	0.3743002286177348
50005	0.08540652088640131
50007	-0.5886787971533768
50009	0.6631939363490683
50011	-0.49238089457626566
50013	-0.3960829919991545
50015	-0.3960829919991545
50017	-0.107189284267821
50019	0.27800232604062364
50021	-0.010891381690709842
50023	0.08540652088640131
50025	-0.010891381690709842
50027	-0.010891381690709842
51001	0.7594918389261794
51003	-1.0701683100389325
51005	-0.49238089457626566
51007	-0.9738704074618214
51009	0.3743002286177348
51011	0.6631939363490683
51013	-0.8775725048847103
51015	-0.6849766997304879
51017	0.47059813119484595
51019	-0.7812746023075992
51021	-1.4553599203473773
51023	-1.4553599203473773
51025	1.2409813518117352
51027	0.8557897415032906
51029	0.7594918389261794
51031	0.18170442346351248
51033	0.47059813119484595
51035	-0.010891381690709842
51036	0.7594918389261794
51037	1.144683449234624
51041	-0.3960829919991545
51043	-1.262764115193155
51045	-1.7442536280787106
51047	-0.010891381690709842
51049	0.9520876440804018
51051	0.08540652088640131
51053	0.7594918389261794
51057	-0.010891381690709842
51059	-1.3590620177702661
51061	-1.1664662126160437
51063	-2.1294452383871554
51065	-0.8775725048847103
51067	-0.7812746023075992
51069	-0.9738704074618214
51071	-0.6849766997304879
51073	-0.3960829919991545
51075	-1.3590620177702661
51077	0.3743002286177348
51079	-0.8775725048847103
51081	1.62617296212018
51083	0.9520876440804018
51085	-1.0701683100389325
51087	0.18170442346351248
51089	0.6631939363490683
51091	-2.0331473358100443
51093	-0.3960829919991545
51095	-0.20348718684493217
51097	-1.1664662126160437
51099	-0.7812746023075992
51101	-0.29978508942204335
51103	2.3965561827370694
51105	0.08540652088640131
51107	-1.6479557255015995
51109	-0.010891381690709842
51111	0.8557897415032906
51113	0.08540652088640131
51115	0.6631939363490683
51117	0.9520876440804018
51119	-0.3960829919991545
51121	-0.5886787971533768
51125	1.4335771569659577
51127	-0.20348718684493217
51131	1.4335771569659577
51133	0.3743002286177348
51135	1.3372792543888463
51137	-0.20348718684493217
51139	0.27800232604062364
51141	0.18170442346351248
51143	-0.107189284267821
51145	-1.5516578229244884
51147	-0.010891381690709842
51149	-0.6849766997304879
51153	-0.8775725048847103
51155	0.47059813119484595
51157	-1.7442536280787106
51159	1.048385546657513
51161	-0.6849766997304879
51163	-1.1664662126160437
51165	-1.0701683100389325
51167	-0.3960829919991545
51169	-0.6849766997304879
51171	-0.20348718684493217
51173	0.3743002286177348
51175	0.18170442346351248
51177	-0.49238089457626566
51179	-1.0701683100389325
51181	1.4335771569659577
51183	1.62617296212018
51185	-0.5886787971533768
51187	-0.49238089457626566
51191	-0.29978508942204335
51193	0.18170442346351248
51195	-0.107189284267821
51197	-0.010891381690709842
51199	-0.9738704074618214
51510	-0.107189284267821
51515	1.2409813518117352
51520	1.048385546657513
51530	0.7594918389261794
51540	0.5668960337719571
51550	-0.29978508942204335
51570	0.27800232604062364
51580	1.2409813518117352
51590	2.781747793045514
51595	2.781747793045514
51600	-1.262764115193155
51610	-1.262764115193155
51620	1.722470864697291
51630	1.2409813518117352
51640	2.2039603775828467
51650	1.4335771569659577
51660	0.47059813119484595
51670	3.1669394033539584
51678	0.27800232604062364
51680	0.8557897415032906
51683	-0.20348718684493217
51685	-0.29978508942204335
51690	2.4928540853141805
51700	1.144683449234624
51710	1.9150666698515133
51720	1.2409813518117352
51730	3.6484289162395145
51735	-0.9738704074618214
51740	2.300258280159958
51750	0.27800232604062364
51760	3.0706415007768473
51770	2.2039603775828467
51775	-0.010891381690709842
51790	1.144683449234624
51800	0.5668960337719571
51810	0.08540652088640131
51820	0.8557897415032906
51830	1.4335771569659577
51840	1.048385546657513
53001	-0.5886787971533768
53003	-0.29978508942204335
53005	-0.107189284267821
53007	-0.49238089457626566
53009	0.3743002286177348
53011	-0.49238089457626566
53013	0.08540652088640131
53015	0.27800232604062364
53017	-0.3960829919991545
53019	1.144683449234624
53021	0.18170442346351248
53023	-0.5886787971533768
53025	-0.29978508942204335
53027	0.47059813119484595
53029	-0.9738704074618214
53031	-0.20348718684493217
53033	-0.6849766997304879
53035	-0.49238089457626566
53037	-0.7812746023075992
53039	0.47059813119484595
53041	-0.010891381690709842
53043	-1.1664662126160437
53045	0.27800232604062364
53047	0.08540652088640131
53049	0.18170442346351248
53051	0.7594918389261794
53053	-0.107189284267821
53055	0.3743002286177348
53057	0.27800232604062364
53059	-0.7812746023075992
53061	-0.5886787971533768
53063	-0.20348718684493217
53065	-0.5886787971533768
53067	-0.107189284267821
53069	0.8557897415032906
53071	-0.107189284267821
53073	-0.5886787971533768
53075	-0.7812746023075992
53077	0.7594918389261794
54001	0.08540652088640131
54003	0.27800232604062364
54005	-0.20348718684493217
54007	-0.7812746023075992
54009	0.18170442346351248
54011	0.7594918389261794
54013	0.5668960337719571
54015	-1.1664662126160437
54017	0.08540652088640131
54019	0.3743002286177348
54021	-0.7812746023075992
54023	-0.6849766997304879
54025	0.18170442346351248
54027	-0.010891381690709842
54029	0.5668960337719571
54031	0.27800232604062364
54033	0.08540652088640131
54035	-0.010891381690709842
54037	-0.7812746023075992
54039	0.47059813119484595
54041	0.27800232604062364
54043	0.3743002286177348
54045	-0.3960829919991545
54047	0.8557897415032906
54049	0.3743002286177348
54051	0.18170442346351248
54053	0.18170442346351248
54055	-0.107189284267821
54057	0.27800232604062364
54059	-0.010891381690709842
54061	-0.6849766997304879
54063	-0.107189284267821
54065	-0.8775725048847103
54067	-0.6849766997304879
54069	0.18170442346351248
54071	-0.6849766997304879
54073	-0.7812746023075992
54075	-0.6849766997304879
54077	-0.6849766997304879
54079	-0.5886787971533768
54081	-0.010891381690709842
54083	0.27800232604062364
54085	0.3743002286177348
54087	-0.010891381690709842
54089	-0.29978508942204335
54091	-0.5886787971533768
54093	-1.0701683100389325
54095	-0.49238089457626566
54097	-0.3960829919991545
54099	-0.107189284267821
54101	-0.107189284267821
54103	0.18170442346351248
54105	-0.29978508942204335
54107	-0.010891381690709842
54109	-0.49238089457626566
55001	0.27800232604062364
55003	0.27800232604062364
55005	-0.107189284267821
55007	-0.3960829919991545
55009	-0.20348718684493217
55011	-0.3960829919991545
55013	0.18170442346351248
55015	-1.0701683100389325
55017	-0.49238089457626566
55019	-1.262764115193155
55021	-0.107189284267821
55023	-0.107189284267821
55025	-0.49238089457626566
55027	-0.6849766997304879
55029	-0.29978508942204335
55031	0.3743002286177348
55033	-0.49238089457626566
55035	-0.6849766997304879
55037	-0.107189284267821
55039	-0.49238089457626566
55041	-0.010891381690709842
55043	-0.6849766997304879
55045	-0.8775725048847103
55047	-0.49238089457626566
55049	-1.4553599203473773
55051	-0.107189284267821
55053	0.08540652088640131
55055	-0.6849766997304879
55057	-0.107189284267821
55059	0.18170442346351248
55061	-1.4553599203473773
55063	-0.5886787971533768
55065	-0.5886787971533768
55067	0.18170442346351248
55069	-1.1664662126160437
55071	-0.7812746023075992
55073	-0.7812746023075992
55075	-0.107189284267821
55077	-0.107189284267821
55078	2.974343598199736
55079	1.62617296212018
55081	-0.3960829919991545
55083	-0.7812746023075992
55085	-0.7812746023075992
55087	-0.6849766997304879
55089	-1.4553599203473773
55091	-1.3590620177702661
55093	-1.0701683100389325
55095	-0.20348718684493217
55097	-1.0701683100389325
55099	-0.29978508942204335
55101	0.27800232604062364
55103	-0.8775725048847103
55105	0.47059813119484595
55107	-0.20348718684493217
55109	-0.7812746023075992
55111	-0.49238089457626566
55113	1.144683449234624
55115	-0.107189284267821
55117	-0.5886787971533768
55119	-0.7812746023075992
55121	-0.29978508942204335
55123	-1.1664662126160437
55125	1.048385546657513
55127	-0.20348718684493217
55129	-0.20348718684493217
55131	-0.8775725048847103
55133	-1.4553599203473773
55135	-0.7812746023075992
55137	-0.6849766997304879
55139	-0.29978508942204335
55141	-0.3960829919991545
56001	-0.7812746023075992
56003	-1.4553599203473773
56005	-0.6849766997304879
56007	-0.107189284267821
56009	-0.8775725048847103
56011	-1.0701683100389325
56013	0.6631939363490683
56015	-0.5886787971533768
56017	-1.262764115193155
56019	-1.5516578229244884
56021	0.18170442346351248
56023	-1.5516578229244884
56025	0.18170442346351248
56027	-1.4553599203473773
56029	-1.5516578229244884
56031	2.0113645724286244
56033	-0.29978508942204335
56035	-1.3590620177702661
56037	-0.5886787971533768
56039	-1.3590620177702661
56041	-0.9738704074618214
56043	-0.5886787971533768
56045	-0.8775725048847103
