id	rate
1001	0.3783868366839789
1003	-0.6822557084407699
1005	0.6344040027485734
1007	0.04922190888664309
1009	0.5612562410158322
1011	-0.060499733712468855
1013	1.7316204287396928
1015	0.5612562410158322
1017	-0.0970736145788395
1019	0.6344040027485734
1021	-0.2433691380443221
1023	-0.060499733712468855
1025	0.3783868366839789
1027	1.402455500942357
1029	0.45153459841672017
1031	0.19551743235212568
1033	0.34181295581760823
1035	3.0848540207954067
1037	0.12236967061938438
1039	1.6584726670069516
1041	0.670977883614944
1043	-0.46281242324254596
1045	-0.20679525717795144
1047	0.012648028020272439
1049	0.6344040027485734
1051	0.012648028020272439
1053	1.7316204287396928
1055	0.670977883614944
1057	1.073290573145021
1059	1.6584726670069516
1061	0.670977883614944
1063	1.1830122157441332
1065	0.08579578975301373
1067	-0.6091079467080286
1069	-0.3165168997770634
1071	1.1830122157441332
1073	-0.6456818275743992
1075	1.2561599774768744
1077	-0.023925852846098206
1079	0.7075517644813147
1081	-0.7919773510398818
1083	0.158943551485755
1085	-0.20679525717795144
1087	-0.865125112772623
1089	-0.6091079467080286
1091	0.6344040027485734
1093	1.7316204287396928
1095	0.26866519408486694
1097	-0.13364749544521015
1099	0.19551743235212568
1101	-0.5359601849752873
1103	0.12236967061938438
1105	-0.1702213763115808
1107	0.4149607175503495
1109	-0.13364749544521015
1111	-0.060499733712468855
1113	-0.46281242324254596
1115	0.780699526214056
1117	-0.6091079467080286
1119	0.3783868366839789
1121	0.9269950496795386
1123	0.04922190888664309
1125	0.4149607175503495
1127	0.45153459841672017
1129	0.5978301218822027
1131	-0.1702213763115808
1133	4.364939851118379
2013	-0.3555290393678599
2016	-0.3555290393678599
2020	-1.084568397970847
2050	2.3533764034679936
2060	-0.3555290393678599
2068	-0.3555290393678599
2070	-0.3555290393678599
2090	-1.4503072066345535
2100	-0.3555290393678599
2110	-1.1211422788372176
2122	-1.0479945171044762
2130	-0.6822557084407699
2150	-0.0970736145788395
2164	-0.3555290393678599
2170	-0.4993863041089166
2180	1.1830122157441332
2185	1.292733858343245
2188	-0.3555290393678599
2201	-0.865125112772623
2220	0.4149607175503495
2232	-0.3555290393678599
2240	-1.486881087500924
2261	-0.9016989936389938
2270	-0.3555290393678599
2280	-0.3555290393678599
2282	-0.3555290393678599
2290	-1.3405855640354414
4001	0.8172734070804266
4003	-0.6091079467080286
4005	-0.974846755371735
4007	-0.20679525717795144
4009	-0.46281242324254596
4011	-1.2308639214363295
4012	-0.7919773510398818
4013	-0.974846755371735
4015	-0.2433691380443221
4017	-0.353090780643434
4019	-1.2308639214363295
4021	-0.1702213763115808
4023	-1.5600288492336654
4025	-1.5234549683672947
4027	-0.5359601849752873
5001	0.9269950496795386
5003	0.3783868366839789
5005	0.3052390749512376
5007	-0.4262385423761753
5009	0.3052390749512376
5011	1.5853249052742102
5013	0.5246823601494615
5015	-0.4993863041089166
5017	0.4881084792830908
5019	-0.6091079467080286
5021	0.9269950496795386
5023	-0.9382728745053643
5025	-0.023925852846098206
5027	-0.3165168997770634
5029	-0.6822557084407699
5031	-0.1702213763115808
5033	0.23209131321849633
5035	-0.1702213763115808
5037	1.2561599774768744
5039	0.012648028020272439
5041	1.621898786140581
5043	1.621898786140581
5045	-0.5725340658416579
5047	0.19551743235212568
5049	0.4881084792830908
5051	-0.0970736145788395
5053	0.6344040027485734
5055	1.292733858343245
5057	0.19551743235212568
5059	1.402455500942357
5061	0.12236967061938438
5063	0.26866519408486694
5065	1.1098644540113918
5067	1.8779159522051754
5069	-0.6091079467080286
5071	-0.0970736145788395
5073	-0.023925852846098206
5075	1.5487510244078395
5077	1.3293077392096158
5079	0.7075517644813147
5081	0.45153459841672017
5083	-0.13364749544521015
5085	0.34181295581760823
5087	-0.6822557084407699
5089	0.158943551485755
5091	0.08579578975301373
5093	1.073290573145021
5095	0.45153459841672017
5097	-0.46281242324254596
5099	0.26866519408486694
5101	0.23209131321849633
5103	0.08579578975301373
5105	-0.4262385423761753
5107	0.12236967061938438
5109	0.5612562410158322
5111	0.8172734070804266
5113	0.3052390749512376
5115	0.12236967061938438
5117	0.4149607175503495
5119	-0.38966466150980467
5121	-0.20679525717795144
5123	0.5978301218822027
5125	-0.060499733712468855
5127	1.8413420713388047
5129	0.04922190888664309
5131	-0.4993863041089166
5133	1.073290573145021
5135	0.34181295581760823
5137	1.1098644540113918
5139	-0.27994301891069273
5141	-0.0970736145788395
5143	-0.6091079467080286
5145	0.7075517644813147
5147	0.780699526214056
5149	2.9751323781962946
6001	-1.0114206362381057
6003	-1.706324372699148
6005	-1.0114206362381057
6007	-0.38966466150980467
6009	-0.6822557084407699
6011	-0.1702213763115808
6013	-0.9382728745053643
6015	-0.4993863041089166
6017	-1.1942900405699588
6019	-0.6091079467080286
6021	-0.6822557084407699
6023	-1.1211422788372176
6025	-0.3165168997770634
6027	-1.3405855640354414
6029	-0.0970736145788395
6031	-0.2433691380443221
6033	-0.5725340658416579
6035	-0.2433691380443221
6037	-0.5725340658416579
6039	-0.7554034701735112
6041	-1.4503072066345535
6043	-1.1211422788372176
6045	-1.2308639214363295
6047	-0.6456818275743992
6049	-0.865125112772623
6051	-1.7794721344318891
6053	-1.2308639214363295
6055	-0.865125112772623
6057	-1.2308639214363295
6059	-1.1211422788372176
6061	-1.3405855640354414
6063	-0.6822557084407699
6065	-0.7188295893071405
6067	-1.084568397970847
6069	-0.6456818275743992
6071	-0.4262385423761753
6073	-1.1211422788372176
6075	-1.084568397970847
6077	-0.6456818275743992
6079	-1.486881087500924
6081	-1.486881087500924
6083	-1.4503072066345535
6085	-1.377159444901812
6087	-1.2674378023027002
6089	-0.974846755371735
6091	-1.1577161597035883
6093	-1.0114206362381057
6095	-1.0479945171044762
6097	-1.4137333257681828
6099	-0.38966466150980467
6101	-0.5725340658416579
6103	-0.9382728745053643
6105	-1.377159444901812
6107	-0.38966466150980467
6109	-1.3405855640354414
6111	-1.0479945171044762
6113	-1.5234549683672947
6115	0.04922190888664309
8001	-0.865125112772623
8003	-1.0114206362381057
8005	-1.1942900405699588
8007	-1.9623415387637424
8009	0.5978301218822027
8011	1.073290573145021
8013	-1.3405855640354414
8014	-1.2674378023027002
8015	-1.3405855640354414
8017	-0.8906578220566945
8019	-0.8906578220566945
8021	-1.0479945171044762
8023	-0.3165168997770634
8025	-0.0970736145788395
8027	-1.8891937770310012
8029	-0.9016989936389938
8031	-1.1942900405699588
8033	-0.8906578220566945
8035	-1.3405855640354414
8037	-1.8160460152982598
8039	-1.3405855640354414
8041	-1.1942900405699588
8043	-1.5234549683672947
8045	-1.377159444901812
8047	-0.8906578220566945
8049	-1.5234549683672947
8051	-1.2308639214363295
8053	-0.8906578220566945
8055	-0.6456818275743992
8057	-0.8906578220566945
8059	-1.3405855640354414
8061	-0.8906578220566945
8063	-0.5359601849752873
8065	0.3052390749512376
8067	-1.6697504918327772
8069	-1.0479945171044762
8071	-0.023925852846098206
8073	0.23209131321849633
8075	-0.7919773510398818
8077	-1.4503072066345535
8079	-0.8906578220566945
8081	0.012648028020272439
8083	-1.4137333257681828
8085	-1.2308639214363295
8087	-0.6456818275743992
8089	0.45153459841672017
8091	-0.8906578220566945
8093	-1.8891937770310012
8095	-0.2433691380443221
8097	-1.8891937770310012
8099	0.19551743235212568
8101	-1.084568397970847
8103	-0.5359601849752873
8105	-0.353090780643434
8107	-1.6331766109664065
8109	-0.974846755371735
8111	-0.8906578220566945
8113	-0.8906578220566945
8115	-0.5359601849752873
8117	-1.998915419630113
8119	-1.486881087500924
8121	-0.353090780643434
8123	-1.0114206362381057
8125	0.4881084792830908
9001	-0.6822557084407699
9003	-0.4262385423761753
9005	-0.5725340658416579
9007	-0.4262385423761753
9009	-0.3165168997770634
9011	-0.3165168997770634
9013	-0.46281242324254596
9015	-0.1702213763115808
10001	-0.353090780643434
10003	-0.5725340658416579
10005	-0.6822557084407699
11001	-0.8285512319062525
12001	-0.4262385423761753
12003	0.3783868366839789
12005	-0.023925852846098206
12007	1.4756032626750983
12009	-0.46281242324254596
12011	-0.38966466150980467
12013	1.1830122157441332
12015	-0.4993863041089166
12017	-0.6822557084407699
12019	-0.060499733712468855
12021	-1.0114206362381057
12023	0.8172734070804266
12027	0.7075517644813147
12029	0.6344040027485734
12031	-0.0970736145788395
12033	-0.4262385423761753
12035	-0.974846755371735
12037	0.5612562410158322
12039	-0.865125112772623
12041	0.4149607175503495
12043	1.5487510244078395
12045	0.012648028020272439
12047	1.2561599774768744
12049	0.9269950496795386
12051	0.6344040027485734
12053	0.012648028020272439
12055	0.04922190888664309
12057	-0.3165168997770634
12059	2.536245807799847
12061	-1.0114206362381057
12063	0.19551743235212568
12065	-1.0479945171044762
12067	0.45153459841672017
12069	-0.27994301891069273
12071	-0.5725340658416579
12073	-0.9016989936389938
12075	0.08579578975301373
12077	0.780699526214056
12079	0.4881084792830908
12081	-0.865125112772623
12083	-0.6091079467080286
12085	-1.0114206362381057
12086	0.45153459841672017
12087	-0.5725340658416579
12089	-0.7919773510398818
12091	-0.3165168997770634
12093	1.8413420713388047
12095	-0.1702213763115808
12097	0.4881084792830908
12099	-0.7554034701735112
12101	0.012648028020272439
12103	-0.4993863041089166
12105	0.19551743235212568
12107	0.34181295581760823
12109	-0.5725340658416579
12111	-0.5359601849752873
12113	0.04922190888664309
12115	-1.3405855640354414
12117	-0.0970736145788395
12119	-0.6822557084407699
12121	0.670977883614944
12123	-0.38966466150980467
12125	1.1830122157441332
12127	-0.6091079467080286
12129	-0.4993863041089166
12131	0.5612562410158322
12133	0.6344040027485734
13001	1.2195860966105037
13003	1.8047681904724342
13005	2.024211475670658
13007	0.12576062646129996
13009	-0.1702213763115808
13011	0.26866519408486694
13013	0.3052390749512376
13015	-0.1702213763115808
13017	1.5853249052742102
13019	2.13393311826977
13021	-0.060499733712468855
13023	0.04922190888664309
13025	1.2195860966105037
13027	0.23209131321849633
13029	-0.023925852846098206
13031	0.08579578975301373
13033	0.23209131321849633
13035	-0.060499733712468855
13037	0.670977883614944
13039	-0.20679525717795144
13043	1.2195860966105037
13045	-1.1211422788372176
13047	-0.27994301891069273
13049	1.9510637139379168
13051	-0.5725340658416579
13053	0.12576062646129996
13055	0.158943551485755
13057	-0.4262385423761753
13059	-0.8285512319062525
13061	0.12576062646129996
13063	-0.7554034701735112
13065	1.7316204287396928
13067	-0.6091079467080286
13069	2.536245807799847
13071	0.3783868366839789
13073	-0.6822557084407699
13075	0.780699526214056
13077	-0.7919773510398818
13079	-0.8285512319062525
13081	0.9269950496795386
13083	0.08579578975301373
13085	-0.6091079467080286
13087	-0.0970736145788395
13089	-0.9382728745053643
13091	0.8904211688131679
13093	0.26866519408486694
13095	-0.023925852846098206
13097	-0.060499733712468855
13099	1.621898786140581
13101	0.3052390749512376
13103	-0.353090780643434
13105	0.5978301218822027
13107	1.2195860966105037
13109	-0.023925852846098206
13111	0.7075517644813147
13113	-1.1942900405699588
13115	-0.0970736145788395
13117	-0.4262385423761753
13119	-0.023925852846098206
13121	-0.9382728745053643
13123	0.23209131321849633
13125	0.12576062646129996
13127	-0.3165168997770634
13129	0.26866519408486694
13131	-0.27994301891069273
13133	-0.9016989936389938
13135	-0.5725340658416579
13137	-0.4262385423761753
13139	-1.0114206362381057
13141	-0.6091079467080286
13143	-0.6822557084407699
13145	-1.0114206362381057
13147	-0.7554034701735112
13149	-0.2433691380443221
13151	-0.865125112772623
13153	0.4881084792830908
13155	0.780699526214056
13157	-0.20679525717795144
13159	0.08579578975301373
13161	3.85290551898919
13163	-0.023925852846098206
13165	-1.084568397970847
13167	0.23209131321849633
13169	-0.0970736145788395
13171	-0.6822557084407699
13173	1.7681943096060635
13175	0.04922190888664309
13177	-0.13364749544521015
13179	-0.0970736145788395
13181	0.5978301218822027
13183	1.5487510244078395
13185	-0.060499733712468855
13187	-0.27994301891069273
13189	-0.7554034701735112
13191	-0.13364749544521015
13193	0.670977883614944
13195	-0.023925852846098206
13197	-0.974846755371735
13199	0.3783868366839789
13201	1.6584726670069516
13205	-0.5725340658416579
13207	-0.1702213763115808
13209	0.012648028020272439
13211	-0.38966466150980467
13213	-0.0970736145788395
13215	-0.7919773510398818
13217	0.26866519408486694
13219	-0.6456818275743992
13221	-0.7554034701735112
13223	0.3052390749512376
13225	0.5978301218822027
13227	-0.4262385423761753
13229	1.0367166922786506
13231	0.45153459841672017
13233	0.158943551485755
13235	0.3783868366839789
13237	0.158943551485755
13239	0.12576062646129996
13241	0.19551743235212568
13243	-0.3165168997770634
13245	-0.8285512319062525
13247	-0.2433691380443221
13249	0.12576062646129996
13251	-0.353090780643434
13253	2.6825413312653295
13255	0.08579578975301373
13257	0.19551743235212568
13259	1.4390293818087276
13261	-0.5359601849752873
13263	-0.7919773510398818
13265	0.12576062646129996
13267	0.5246823601494615
13269	0.19551743235212568
13271	2.1705069991361405
13273	-0.353090780643434
13275	-0.38966466150980467
13277	0.26866519408486694
13279	0.04922190888664309
13281	-0.7554034701735112
13283	-0.1702213763115808
13285	-0.5359601849752873
13287	0.19551743235212568
13289	0.4149607175503495
13291	-1.377159444901812
13293	0.04922190888664309
13295	-0.060499733712468855
13297	-0.0970736145788395
13299	0.780699526214056
13301	-0.5725340658416579
13303	-0.6091079467080286
13305	2.024211475670658
13307	0.12576062646129996
13309	1.0367166922786506
13311	-0.7554034701735112
13313	-0.3165168997770634
13315	-0.0970736145788395
13317	1.1098644540113918
13319	-0.27994301891069273
13321	0.26866519408486694
15001	-1.2674378023027002
15003	-1.5600288492336654
15005	-1.4503072066345535
15007	-1.5600288492336654
15009	-1.4137333257681828
16001	-1.4503072066345535
16003	-1.037678807116525
16005	-1.4137333257681828
16007	-0.7919773510398818
16009	-1.304011683169071
16011	-1.1577161597035883
16013	-1.596602730100036
16015	-1.037678807116525
16017	-1.377159444901812
16019	-1.1577161597035883
16021	-1.4137333257681828
16023	-0.4993863041089166
16025	-1.037678807116525
16027	-1.2674378023027002
16029	-0.974846755371735
16031	-0.8285512319062525
16033	-1.037678807116525
16035	-0.3165168997770634
16037	-1.2308639214363295
16039	-0.9016989936389938
16041	-1.377159444901812
16043	-1.2308639214363295
16045	-1.4137333257681828
16047	0.12236967061938438
16049	-0.353090780643434
16051	-1.596602730100036
16053	-0.353090780643434
16055	-1.596602730100036
16057	-1.0114206362381057
16059	-1.2674378023027002
16061	-0.4993863041089166
16063	-0.6456818275743992
16065	-1.5600288492336654
16067	-1.084568397970847
16069	-1.0479945171044762
16071	-1.377159444901812
16073	-0.6456818275743992
16075	-1.4503072066345535
16077	-1.037678807116525
16079	-0.023925852846098206
16081	-0.6091079467080286
16083	-0.974846755371735
16085	-1.596602730100036
16087	-1.1942900405699588
17001	0.23209131321849633
17003	0.5246823601494615
17005	-0.060499733712468855
17007	-0.20679525717795144
17009	-0.023925852846098206
17011	0.26866519408486694
17013	0.34181295581760823
17015	-0.6091079467080286
17017	-0.2433691380443221
17019	-0.6091079467080286
17021	0.8172734070804266
17023	0.26866519408486694
17025	1.8413420713388047
17027	-0.7188295893071405
17029	0.5612562410158322
17031	-0.353090780643434
17033	-0.060499733712468855
17035	-0.2433691380443221
17037	0.04922190888664309
17039	-0.20679525717795144
17041	-0.023925852846098206
17043	-0.5725340658416579
17045	0.6344040027485734
17047	0.3783868366839789
17049	0.08579578975301373
17051	1.5121771435414688
17053	-0.46281242324254596
17055	0.5246823601494615
17057	0.5978301218822027
17059	1.3293077392096158
17061	1.4390293818087276
17063	0.19551743235212568
17065	1.5487510244078395
17067	-0.2433691380443221
17069	3.779757757256449
17071	-0.353090780643434
17073	-0.20679525717795144
17075	-0.13364749544521015
17077	0.08579578975301373
17079	0.3783868366839789
17081	0.3783868366839789
17083	0.670977883614944
17085	-0.7554034701735112
17087	0.26866519408486694
17089	-0.20679525717795144
17091	0.23209131321849633
17093	-0.27994301891069273
17095	0.3052390749512376
17097	-0.4262385423761753
17099	0.45153459841672017
17101	1.5121771435414688
17103	-0.060499733712468855
17105	-0.5359601849752873
17107	-0.2433691380443221
17109	0.04922190888664309
17111	-0.1702213763115808
17113	-0.6091079467080286
17115	0.012648028020272439
17117	0.04922190888664309
17119	-0.27994301891069273
17121	2.2070808800025112
17123	0.012648028020272439
17125	-0.3165168997770634
17127	1.621898786140581
17129	-0.6456818275743992
17131	-0.20679525717795144
17133	0.4149607175503495
17135	0.3783868366839789
17137	0.5246823601494615
17139	0.23209131321849633
17141	-0.3165168997770634
17143	-0.4262385423761753
17145	1.1098644540113918
17147	-0.1702213763115808
17149	0.34181295581760823
17151	2.2070808800025112
17153	0.26866519408486694
17155	-0.023925852846098206
17157	1.1464383348777625
17159	0.9635689305459092
17161	-0.5359601849752873
17163	-0.060499733712468855
17165	1.5487510244078395
17167	-0.7554034701735112
17169	-0.13364749544521015
17171	0.45153459841672017
17173	0.8904211688131679
17175	-0.5725340658416579
17177	-0.38966466150980467
17179	0.04922190888664309
17181	0.7075517644813147
17183	0.7075517644813147
17185	0.670977883614944
17187	0.04922190888664309
17189	-0.0970736145788395
17191	0.4881084792830908
17193	1.1098644540113918
17195	0.23209131321849633
17197	0.3783868366839789
17199	0.4149607175503495
17201	-0.27994301891069273
17203	-0.4993863041089166
18001	0.3783868366839789
18003	-0.4993863041089166
18005	-0.38966466150980467
18007	0.158943551485755
18009	1.4756032626750983
18011	-0.5725340658416579
18013	-1.2674378023027002
18015	-0.4262385423761753
18017	-0.13364749544521015
18019	0.7441256453476853
18021	0.780699526214056
18023	-0.20679525717795144
18025	-0.060499733712468855
18027	0.45153459841672017
18029	-0.023925852846098206
18031	0.4881084792830908
18033	-0.023925852846098206
18035	-0.3165168997770634
18037	-1.084568397970847
18039	-0.13364749544521015
18041	0.5246823601494615
18043	0.3783868366839789
18045	1.3658816200759862
18047	0.04922190888664309
18049	-0.20679525717795144
18051	-0.060499733712468855
18053	-0.060499733712468855
18055	0.9635689305459092
18057	-0.9382728745053643
18059	-0.9016989936389938
18061	0.23209131321849633
18063	-0.353090780643434
18065	0.19551743235212568
18067	-0.5725340658416579
18069	0.8538472879467973
18071	-0.023925852846098206
18073	0.5246823601494615
18075	0.4149607175503495
18077	0.6344040027485734
18079	0.26866519408486694
18081	-0.5359601849752873
18083	-0.3165168997770634
18085	0.3052390749512376
18087	-0.38966466150980467
18089	0.8172734070804266
18091	0.012648028020272439
18093	0.04922190888664309
18095	0.19551743235212568
18097	-0.1702213763115808
18099	-0.865125112772623
18101	-0.27994301891069273
18103	-0.060499733712468855
18105	-0.974846755371735
18107	-0.2433691380443221
18109	0.19551743235212568
18111	0.12236967061938438
18113	0.158943551485755
18115	0.158943551485755
18117	0.34181295581760823
18119	-0.7188295893071405
18121	0.8172734070804266
18123	1.1098644540113918
18125	-0.5725340658416579
18127	0.34181295581760823
18129	1.073290573145021
18131	0.3783868366839789
18133	0.23209131321849633
18135	0.3783868366839789
18137	0.158943551485755
18139	0.670977883614944
18141	-0.6822557084407699
18143	1.7316204287396928
18145	0.3052390749512376
18147	-0.20679525717795144
18149	0.8904211688131679
18151	-0.4262385423761753
18153	0.7075517644813147
18155	1.1464383348777625
18157	-0.1702213763115808
18159	0.7441256453476853
18161	-0.38966466150980467
18163	-0.13364749544521015
18165	0.6344040027485734
18167	0.5978301218822027
18169	-0.7188295893071405
18171	0.34181295581760823
18173	0.04922190888664309
18175	-0.1702213763115808
18177	0.3783868366839789
18179	0.5978301218822027
18181	0.5978301218822027
18183	-0.13364749544521015
19001	-0.6091079467080286
19003	-0.9382728745053643
19005	-0.4993863041089166
19007	-0.1702213763115808
19009	-1.304011683169071
19011	0.08579578975301373
19013	-0.5359601849752873
19015	0.34181295581760823
19017	-0.7188295893071405
19019	-0.4993863041089166
19021	-0.9382728745053643
19023	-0.5725340658416579
19025	-0.5359601849752873
19027	-0.7554034701735112
19029	-0.7919773510398818
19031	-1.0479945171044762
19033	-0.6456818275743992
19035	0.08579578975301373
19037	-0.4993863041089166
19039	-0.9382728745053643
19041	-0.6456818275743992
19043	-0.27994301891069273
19045	-0.38966466150980467
19047	-0.9016989936389938
19049	-0.8285512319062525
19051	-0.4262385423761753
19053	-0.0970736145788395
19055	-0.7554034701735112
19057	-0.46281242324254596
19059	-0.6091079467080286
19061	-0.5725340658416579
19063	0.23209131321849633
19065	-0.060499733712468855
19067	-0.353090780643434
19069	-0.5359601849752873
19071	0.4881084792830908
19073	-1.2674378023027002
19075	-1.4137333257681828
19077	-0.865125112772623
19079	0.9269950496795386
19081	0.19551743235212568
19083	-0.13364749544521015
19085	0.670977883614944
19087	-1.2308639214363295
19089	-0.6822557084407699
19091	-0.865125112772623
19093	0.6344040027485734
19095	-0.6091079467080286
19097	-0.6091079467080286
19099	-0.46281242324254596
19101	-0.0970736145788395
19103	-1.0114206362381057
19105	0.3052390749512376
19107	-0.5359601849752873
19109	-0.4262385423761753
19111	-0.353090780643434
19113	-0.27994301891069273
19115	-0.4993863041089166
19117	-0.46281242324254596
19119	-0.7188295893071405
19121	-0.27994301891069273
19123	-0.6091079467080286
19125	-0.20679525717795144
19127	-1.304011683169071
19129	-0.13364749544521015
19131	-0.7554034701735112
19133	0.34181295581760823
19135	-0.7554034701735112
19137	0.3052390749512376
19139	-0.7188295893071405
19141	-0.8285512319062525
19143	-0.865125112772623
19145	0.19551743235212568
19147	-0.27994301891069273
19149	-0.38966466150980467
19151	-0.3165168997770634
19153	-0.7554034701735112
19155	-0.13364749544521015
19157	-1.084568397970847
19159	0.45153459841672017
19161	0.8172734070804266
19163	-0.4262385423761753
19165	-0.6091079467080286
19167	-0.7554034701735112
19169	-0.9382728745053643
19171	-1.1577161597035883
19173	-0.6456818275743992
19175	-0.9016989936389938
19177	-0.0970736145788395
19179	-0.38966466150980467
19181	-0.7554034701735112
19183	-0.6091079467080286
19185	-0.1702213763115808
19187	-0.27994301891069273
19189	-0.6091079467080286
19191	-0.9016989936389938
19193	-0.6091079467080286
19195	-0.3165168997770634
19197	0.4881084792830908
20001	0.08579578975301373
20003	-0.6091079467080286
20005	-0.353090780643434
20007	0.670977883614944
20009	-0.1702213763115808
20011	-0.023925852846098206
20013	1.5487510244078395
20015	-0.4993863041089166
20017	0.23209131321849633
20019	1.073290573145021
20021	-0.023925852846098206
20023	2.536245807799847
20025	2.7191152121317
20027	0.04922190888664309
20029	0.5978301218822027
20031	1.4756032626750983
20033	0.2671569928120259
20035	-0.6822557084407699
20037	0.8904211688131679
20039	1.3293077392096158
20041	-0.27994301891069273
20043	0.26866519408486694
20045	-1.304011683169071
20047	-0.4262385423761753
20049	0.3052390749512376
20051	0.12236967061938438
20053	1.5853249052742102
20055	-0.38966466150980467
20057	0.3052390749512376
20059	-0.2433691380443221
20061	-0.46281242324254596
20063	2.0607853565370284
20065	2.7191152121317
20067	-0.7554034701735112
20069	-1.084568397970847
20071	0.2671569928120259
20073	0.19551743235212568
20075	0.2671569928120259
20077	1.9876375948042873
20079	-1.1577161597035883
20081	-0.0970736145788395
20083	0.2671569928120259
20085	-0.6822557084407699
20087	-0.7188295893071405
20089	0.158943551485755
20091	-0.6822557084407699
20093	1.00014281141228
20095	0.4149607175503495
20097	0.012648028020272439
20099	-0.4993863041089166
20101	0.2671569928120259
20103	-0.060499733712468855
20105	3.6334622337909663
20107	-0.023925852846098206
20109	0.45153459841672017
20111	-0.20679525717795144
20113	-0.2433691380443221
20115	-0.8285512319062525
20117	0.012648028020272439
20119	0.9635689305459092
20121	-0.4262385423761753
20123	0.7441256453476853
20125	0.08579578975301373
20127	1.292733858343245
20129	1.7316204287396928
20131	-0.6456818275743992
20133	1.073290573145021
20135	0.4149607175503495
20137	-0.7554034701735112
20139	-0.353090780643434
20141	0.45153459841672017
20143	-0.38966466150980467
20145	-0.3165168997770634
20147	-0.20679525717795144
20149	-0.38966466150980467
20151	-0.6822557084407699
20153	1.1098644540113918
20155	-0.6456818275743992
20157	1.00014281141228
20159	-0.27994301891069273
20161	-1.0479945171044762
20163	-0.865125112772623
20165	0.158943551485755
20167	0.5612562410158322
20169	-0.9016989936389938
20171	3.048280139929036
20173	-1.0114206362381057
20175	0.04922190888664309
20177	-0.7554034701735112
20179	1.5487510244078395
20181	0.5246823601494615
20183	-0.060499733712468855
20185	-1.4137333257681828
20187	0.2671569928120259
20189	1.5121771435414688
20191	-0.974846755371735
20193	0.5246823601494615
20195	4.255218208519268
20197	-1.1211422788372176
20199	0.2671569928120259
20201	0.5246823601494615
20203	0.2671569928120259
20205	0.6344040027485734
20207	0.9269950496795386
20209	0.08579578975301373
21001	1.5487510244078395
21003	1.1830122157441332
21005	-0.13364749544521015
21007	0.19551743235212568
21009	-0.4262385423761753
21011	1.292733858343245
21013	5.352434634510387
21015	0.4881084792830908
21017	0.26866519408486694
21019	1.3658816200759862
21021	-0.060499733712468855
21023	1.1098644540113918
21025	3.779757757256449
21027	3.7066099955237077
21029	0.8172734070804266
21031	2.865410735597183
21033	1.073290573145021
21035	0.5246823601494615
21037	0.34181295581760823
21039	0.5978301218822027
21041	2.3533764034679936
21043	1.1098644540113918
21045	4.035774923321044
21047	0.8172734070804266
21049	0.12236967061938438
21051	7.25427643956166
21053	3.999201042454673
21055	4.364939851118379
21057	4.620957017182974
21059	-0.3165168997770634
21061	1.914489833071546
21063	1.7681943096060635
21065	1.292733858343245
21067	-0.6091079467080286
21069	2.2070808800025112
21071	4.072348804187414
21073	0.670977883614944
21075	1.621898786140581
21077	2.4630980460671057
21079	-0.023925852846098206
21081	0.9635689305459092
21083	1.5853249052742102
21085	2.4630980460671057
21087	1.0367166922786506
21089	1.621898786140581
21091	0.012648028020272439
21093	0.7441256453476853
21095	5.425582396243128
21097	1.3293077392096158
21099	1.8779159522051754
21101	1.621898786140581
21103	0.3783868366839789
21105	-0.4262385423761753
21107	0.5978301218822027
21109	0.7441256453476853
21111	-0.0970736145788395
21113	-0.6456818275743992
21115	2.7191152121317
21117	0.26866519408486694
21119	5.754747324040464
21121	3.6334622337909663
21123	1.3293077392096158
21125	0.8172734070804266
21127	3.377445067726372
21129	1.7681943096060635
21131	6.193633894436911
21133	4.840400302381198
21135	0.4149607175503495
21137	0.8172734070804266
21139	2.3533764034679936
21141	2.426524165200735
21143	-0.060499733712468855
21145	0.4149607175503495
21147	1.914489833071546
21149	0.3052390749512376
21151	-0.0970736145788395
21153	3.3042973059936305
21155	0.4881084792830908
21157	1.073290573145021
21159	4.950121944980309
21161	0.23209131321849633
21163	1.2195860966105037
21165	-0.13364749544521015
21167	0.04922190888664309
21169	0.8172734070804266
21171	5.096417468445792
21173	0.4149607175503495
21175	3.231149544260889
21177	1.5121771435414688
21179	-0.4993863041089166
21181	2.2802286417352526
21183	0.670977883614944
21185	-0.3165168997770634
21187	2.4996719269334764
21189	2.9019846164635537
21191	0.5978301218822027
21193	3.962627161588302
21195	2.243654760868882
21197	2.3168025226016233
21199	0.6344040027485734
21201	1.607146296379349
21203	2.3168025226016233
21205	1.00014281141228
21207	0.780699526214056
21209	-0.060499733712468855
21211	0.4149607175503495
21213	3.194575663394519
21215	0.08579578975301373
21217	0.7441256453476853
21219	2.7191152121317
21221	0.9269950496795386
21223	1.292733858343245
21225	2.0607853565370284
21227	0.8538472879467973
21229	0.34181295581760823
21231	2.9751323781962946
21233	0.9635689305459092
21235	1.4390293818087276
21237	2.13393311826977
21239	-0.5359601849752873
22001	0.9635689305459092
22003	1.6584726670069516
22005	-0.6456818275743992
22007	-0.27994301891069273
22009	2.6459674503989588
22011	1.9510637139379168
22013	0.4149607175503495
22015	0.3783868366839789
22017	0.12236967061938438
22019	0.3052390749512376
22021	4.694104778915715
22023	-0.353090780643434
22025	1.621898786140581
22027	1.914489833071546
22029	1.3293077392096158
22031	1.0367166922786506
22033	-0.9382728745053643
22035	4.950121944980309
22037	0.8172734070804266
22039	3.3042973059936305
22041	2.3533764034679936
22043	0.34181295581760823
22045	-0.6456818275743992
22047	-1.1942900405699588
22049	2.9019846164635537
22051	-0.1702213763115808
22053	1.4756032626750983
22055	-0.0970736145788395
22057	0.26866519408486694
22059	3.85290551898919
22061	0.5978301218822027
22063	0.012648028020272439
22065	0.4881084792830908
22067	0.5246823601494615
22069	0.670977883614944
22071	-0.8285512319062525
22073	0.5246823601494615
22075	0.12236967061938438
22077	1.3293077392096158
22079	-0.13364749544521015
22081	1.8779159522051754
22083	1.9876375948042873
22085	1.5121771435414688
22087	0.6344040027485734
22089	0.19551743235212568
22091	2.1705069991361405
22093	-0.13364749544521015
22095	0.3783868366839789
22097	-0.20679525717795144
22099	0.08579578975301373
22101	0.34181295581760823
22103	0.3052390749512376
22105	0.8904211688131679
22107	0.26866519408486694
22109	0.12236967061938438
22111	1.3658816200759862
22113	0.4881084792830908
22115	4.072348804187414
22117	1.695046547873322
22119	1.292733858343245
22121	-0.9382728745053643
22123	6.522798822234248
22125	-0.46281242324254596
22127	3.560314472058225
23001	-0.865125112772623
23003	0.08579578975301373
23005	-1.0479945171044762
23007	-0.4262385423761753
23009	-0.27994301891069273
23011	-0.9382728745053643
23013	-0.9382728745053643
23015	-0.4262385423761753
23017	0.012648028020272439
23019	0.23209131321849633
23021	0.04922190888664309
23023	-0.865125112772623
23025	-0.353090780643434
23027	-0.865125112772623
23029	0.4881084792830908
23031	-0.5725340658416579
24001	0.012648028020272439
24003	-0.27994301891069273
24005	-0.38966466150980467
24009	-0.20679525717795144
24011	0.23209131321849633
24013	-0.7188295893071405
24015	-0.13364749544521015
24017	0.04922190888664309
24019	0.08579578975301373
24021	-0.4262385423761753
24023	-0.0970736145788395
24025	-0.8285512319062525
24027	-1.0479945171044762
24029	0.12236967061938438
24031	-1.2674378023027002
24033	-0.7919773510398818
24035	-0.2433691380443221
24037	0.158943551485755
24039	-0.353090780643434
24041	-0.6822557084407699
24043	-0.6091079467080286
24045	-0.4262385423761753
24047	-0.9016989936389938
24510	-0.0970736145788395
25001	-0.9382728745053643
25003	-0.8285512319062525
25005	0.19551743235212568
25007	-0.7919773510398818
25009	-0.1702213763115808
25011	-0.2433691380443221
25013	-0.13364749544521015
25015	-0.5359601849752873
25017	-0.353090780643434
25019	-1.1211422788372176
25021	-0.27994301891069273
25023	-0.060499733712468855
25025	-0.20679525717795144
25027	-0.1702213763115808
26001	-1.1577161597035883
26003	-0.5725340658416579
26005	-0.6822557084407699
26007	-0.6822557084407699
26009	-1.0479945171044762
26011	0.7441256453476853
26013	1.00014281141228
26015	-0.060499733712468855
26017	0.3783868366839789
26019	-1.1577161597035883
26021	-0.4993863041089166
26023	0.08579578975301373
26025	-0.353090780643434
26027	-0.2433691380443221
26029	-0.9382728745053643
26031	-0.9016989936389938
26033	0.34181295581760823
26035	0.23209131321849633
26037	-0.6091079467080286
26039	-0.6091079467080286
26041	-1.1577161597035883
26043	-1.1211422788372176
26045	-0.353090780643434
26047	-1.084568397970847
26049	-0.20679525717795144
26051	0.34181295581760823
26053	-0.865125112772623
26055	-0.7188295893071405
26057	-0.20679525717795144
26059	0.4149607175503495
26061	-0.060499733712468855
26063	-0.6822557084407699
26065	-0.4993863041089166
26067	-0.060499733712468855
26069	-1.1577161597035883
26071	0.12236967061938438
26073	0.3783868366839789
26075	-0.1702213763115808
26077	-0.7554034701735112
26079	-0.6091079467080286
26081	-0.7919773510398818
26083	-0.38877261563501675
26085	-0.20679525717795144
26087	0.45153459841672017
26089	-1.2674378023027002
26091	-0.46281242324254596
26093	-0.46281242324254596
26095	1.0367166922786506
26097	-0.20679525717795144
26099	0.012648028020272439
26101	-0.6822557084407699
26103	-1.4137333257681828
26105	-0.6822557084407699
26107	-0.865125112772623
26109	-0.46281242324254596
26111	-0.6822557084407699
26113	-0.6091079467080286
26115	0.5612562410158322
26117	-0.023925852846098206
26119	-0.6822557084407699
26121	-1.304011683169071
26123	-0.4993863041089166
26125	-0.13364749544521015
26127	-0.8285512319062525
26129	-0.20679525717795144
26131	-0.2433691380443221
26133	-0.7554034701735112
26135	-0.6822557084407699
26137	-0.7919773510398818
26139	-1.3405855640354414
26141	-1.0114206362381057
26143	-0.46281242324254596
26145	0.3052390749512376
26147	0.158943551485755
26149	-0.353090780643434
26151	0.158943551485755
26153	0.3783868366839789
26155	-0.46281242324254596
26157	0.3052390749512376
26159	-0.4993863041089166
26161	-0.7188295893071405
26163	0.4149607175503495
26165	-0.6822557084407699
27001	-0.38966466150980467
27003	-0.7554034701735112
27005	-0.6822557084407699
27007	-0.6456818275743992
27009	-0.6822557084407699
27011	-1.084568397970847
27013	-0.8285512319062525
27015	-0.4993863041089166
27017	-1.1211422788372176
27019	-1.0479945171044762
27021	-0.6822557084407699
27023	-0.7554034701735112
27025	-1.0479945171044762
27027	-1.1211422788372176
27029	0.8538472879467973
27031	-0.974846755371735
27033	-1.596602730100036
27035	-0.5725340658416579
27037	-0.9382728745053643
27039	-0.974846755371735
27041	-1.0479945171044762
27043	-0.7919773510398818
27045	-1.377159444901812
27047	-1.0479945171044762
27049	-1.0479945171044762
27051	-0.27994301891069273
27053	-1.1211422788372176
27055	-1.4503072066345535
27057	-1.1577161597035883
27059	-1.1577161597035883
27061	-0.865125112772623
27063	-0.9382728745053643
27065	0.08579578975301373
27067	-1.2674378023027002
27069	-0.0970736145788395
27071	0.04922190888664309
27073	0.4149607175503495
27075	-1.304011683169071
27077	-0.38966466150980467
27079	-1.1577161597035883
27081	-1.6331766109664065
27083	-0.5725340658416579
27085	-0.865125112772623
27087	0.5246823601494615
27089	-0.4993863041089166
27091	-0.46281242324254596
27093	-0.6822557084407699
27095	-0.4993863041089166
27097	-0.9382728745053643
27099	-0.353090780643434
27101	-0.6456818275743992
27103	-0.865125112772623
27105	-0.9382728745053643
27107	-0.7554034701735112
27109	-1.0114206362381057
27111	-0.865125112772623
27113	-0.4993863041089166
27115	-0.4993863041089166
27117	-1.3405855640354414
27119	-0.6456818275743992
27121	-0.6456818275743992
27123	-1.1211422788372176
27125	-0.6091079467080286
27127	-0.7554034701735112
27129	-0.9016989936389938
27131	-0.9016989936389938
27133	-1.084568397970847
27135	-0.38966466150980467
27137	-1.0114206362381057
27139	-0.6456818275743992
27141	-0.8285512319062525
27143	-0.6456818275743992
27145	-0.4993863041089166
27147	-0.8285512319062525
27149	0.19551743235212568
27151	-0.5725340658416579
27153	-0.6822557084407699
27155	-0.5359601849752873
27157	-1.1942900405699588
27159	-0.060499733712468855
27161	-0.9382728745053643
27163	-1.1211422788372176
27165	-1.0479945171044762
27167	-0.7188295893071405
27169	-0.5359601849752873
27171	-0.5359601849752873
27173	-0.13364749544521015
28001	0.5978301218822027
28003	0.9269950496795386
28005	0.45153459841672017
28007	0.670977883614944
28009	0.19551743235212568
28011	0.8538472879467973
28013	0.45153459841672017
28015	-0.0970736145788395
28017	-0.023925852846098206
28019	1.073290573145021
28021	1.292733858343245
28023	1.1098644540113918
28025	0.5612562410158322
28027	0.19551743235212568
28029	0.4881084792830908
28031	0.7075517644813147
28033	-0.353090780643434
28035	0.45153459841672017
28037	0.8538472879467973
28039	0.4881084792830908
28041	1.1464383348777625
28043	-0.20679525717795144
28045	0.34181295581760823
28047	0.3052390749512376
28049	-0.27994301891069273
28051	-0.38966466150980467
28053	0.012648028020272439
28055	0.5752536522116033
28057	-0.6091079467080286
28059	-0.1702213763115808
28061	0.04922190888664309
28063	1.1098644540113918
28065	0.7075517644813147
28067	0.12236967061938438
28069	0.34181295581760823
28071	-0.7554034701735112
28073	0.34181295581760823
28075	-0.20679525717795144
28077	2.243654760868882
28079	1.5853249052742102
28081	-0.6822557084407699
28083	-0.0970736145788395
28085	0.12236967061938438
28087	-0.5359601849752873
28089	-0.0970736145788395
28091	1.2195860966105037
28093	0.34181295581760823
28095	0.7441256453476853
28097	1.1098644540113918
28099	0.7075517644813147
28101	1.1098644540113918
28103	1.5121771435414688
28105	-0.6456818275743992
28107	0.7441256453476853
28109	1.1830122157441332
28111	2.6825413312653295
28113	1.1098644540113918
28115	0.012648028020272439
28117	0.34181295581760823
28119	2.7922629738644416
28121	0.45153459841672017
28123	1.621898786140581
28125	0.8538472879467973
28127	1.00014281141228
28129	1.3658816200759862
28131	1.8413420713388047
28133	0.4881084792830908
28135	0.23209131321849633
28137	0.8904211688131679
28139	0.45153459841672017
28141	0.7441256453476853
28143	0.3052390749512376
28145	0.5978301218822027
28147	0.7441256453476853
28149	0.4881084792830908
28151	0.23209131321849633
28153	1.2561599774768744
28155	2.243654760868882
28157	-0.2433691380443221
28159	-0.8285512319062525
28161	1.073290573145021
28163	0.5246823601494615
29001	-0.6456818275743992
29003	-0.1702213763115808
29005	-0.023925852846098206
29007	0.45153459841672017
29009	-0.6456818275743992
29011	0.9635689305459092
29013	0.7075517644813147
29015	0.7441256453476853
29017	0.5246823601494615
29019	-0.9016989936389938
29021	-0.3165168997770634
29023	0.4149607175503495
29025	0.23209131321849633
29027	-0.13364749544521015
29029	-0.38966466150980467
29031	-0.6456818275743992
29033	0.3052390749512376
29035	-0.023925852846098206
29037	-0.13364749544521015
29039	-0.4262385423761753
29041	0.34181295581760823
29043	-0.9382728745053643
29045	1.00014281141228
29047	-0.0970736145788395
29049	0.7441256453476853
29051	-0.38966466150980467
29053	0.08579578975301373
29055	-0.353090780643434
29057	-1.1577161597035883
29059	-0.0970736145788395
29061	0.4881084792830908
29063	0.45153459841672017
29065	0.4881084792830908
29067	-0.865125112772623
29069	1.2195860966105037
29071	-0.3165168997770634
29073	-0.1702213763115808
29075	1.292733858343245
29077	-0.6822557084407699
29079	0.04922190888664309
29081	0.8904211688131679
29083	0.7075517644813147
29085	-0.3165168997770634
29087	0.158943551485755
29089	-0.8285512319062525
29091	-0.4262385423761753
29093	1.1830122157441332
29095	-0.38966466150980467
29097	0.12236967061938438
29099	0.5978301218822027
29101	0.34181295581760823
29103	-0.865125112772623
29105	0.26866519408486694
29107	0.12236967061938438
29109	-0.46281242324254596
29111	-0.4993863041089166
29113	0.012648028020272439
29115	1.0367166922786506
29117	0.7075517644813147
29119	0.158943551485755
29121	-0.13364749544521015
29123	0.8538472879467973
29125	0.012648028020272439
29127	0.12236967061938438
29129	0.158943551485755
29131	-0.023925852846098206
29133	0.5612562410158322
29135	-0.353090780643434
29137	-0.5359601849752873
29139	0.08579578975301373
29141	0.12236967061938438
29143	0.3052390749512376
29145	0.158943551485755
29147	-0.7188295893071405
29149	-0.7188295893071405
29151	-0.9382728745053643
29153	0.012648028020272439
29155	2.7922629738644416
29157	-0.353090780643434
29159	0.670977883614944
29161	-0.38966466150980467
29163	0.6344040027485734
29165	-0.46281242324254596
29167	-1.1211422788372176
29169	-0.7188295893071405
29171	0.5612562410158322
29173	0.23209131321849633
29175	0.26866519408486694
29177	1.621898786140581
29179	1.4756032626750983
29181	1.0367166922786506
29183	-0.5725340658416579
29185	1.5121771435414688
29186	0.5978301218822027
29187	0.7441256453476853
29189	-0.6456818275743992
29195	1.4390293818087276
29197	0.45153459841672017
29199	1.621898786140581
29201	0.45153459841672017
29203	0.3052390749512376
29205	-1.0114206362381057
29207	0.5978301218822027
29209	-0.6822557084407699
29211	1.073290573145021
29213	-0.7554034701735112
29215	0.23209131321849633
29217	-0.46281242324254596
29219	-0.3165168997770634
29221	2.0607853565370284
29223	0.12236967061938438
29225	-0.6456818275743992
29227	0.12654037633221624
29229	-0.3165168997770634
29510	-0.0970736145788395
30001	-0.13364749544521015
30003	1.621898786140581
30005	-0.2433691380443221
30007	-0.865125112772623
30009	-0.6822557084407699
30011	-0.5036390809538419
30013	-0.865125112772623
30015	-0.46281242324254596
30017	-0.13364749544521015
30019	-1.4137333257681828
30021	-0.353090780643434
30023	0.158943551485755
30025	2.13393311826977
30027	-0.9016989936389938
30029	-1.084568397970847
30031	-1.377159444901812
30033	-0.5036390809538419
30035	0.7075517644813147
30037	-0.5036390809538419
30039	-0.6822557084407699
30041	-0.3165168997770634
30043	-1.5234549683672947
30045	-0.5036390809538419
30047	-0.8285512319062525
30049	-1.084568397970847
30051	-0.5036390809538419
30053	-0.9016989936389938
30055	-0.5036390809538419
30057	-0.865125112772623
30059	-0.5036390809538419
30061	-1.6697504918327772
30063	-1.1577161597035883
30065	-0.5359601849752873
30067	-0.9382728745053643
30069	-0.5036390809538419
30071	-0.023925852846098206
30073	-0.3165168997770634
30075	-0.5036390809538419
30077	-0.974846755371735
30079	-0.5036390809538419
30081	-1.0479945171044762
30083	-0.7554034701735112
30085	-0.6456818275743992
30087	1.292733858343245
30089	-1.1577161597035883
30091	0.012648028020272439
30093	-1.1577161597035883
30095	-0.6091079467080286
30097	-0.9016989936389938
30099	-0.8285512319062525
30101	1.3293077392096158
30103	-0.5036390809538419
30105	-0.7188295893071405
30107	-0.5036390809538419
30109	-0.5036390809538419
30111	-0.7554034701735112
31001	-0.353090780643434
31003	-0.2433691380443221
31005	-0.3237354288954249
31007	-0.3237354288954249
31009	-0.3237354288954249
31011	0.12236967061938438
31013	0.6344040027485734
31015	0.9269950496795386
31017	-1.304011683169071
31019	-0.46281242324254596
31021	-0.27994301891069273
31023	-0.6091079467080286
31025	-0.4993863041089166
31027	-0.27994301891069273
31029	-0.7554034701735112
31031	-0.6091079467080286
31033	-0.023925852846098206
31035	-0.060499733712468855
31037	-0.6822557084407699
31039	-0.7554034701735112
31041	0.8538472879467973
31043	-0.353090780643434
31045	-0.2433691380443221
31047	-0.0970736145788395
31049	-0.3237354288954249
31051	0.04922190888664309
31053	-0.7919773510398818
31055	-0.7919773510398818
31057	-0.3237354288954249
31059	-1.1211422788372176
31061	-0.6822557084407699
31063	-0.3237354288954249
31065	0.5246823601494615
31067	-0.6822557084407699
31069	-0.6091079467080286
31071	0.158943551485755
31073	-0.3237354288954249
31075	-0.3237354288954249
31077	-0.353090780643434
31079	-0.353090780643434
31081	-1.2674378023027002
31083	-1.084568397970847
31085	-0.3237354288954249
31087	-0.4262385423761753
31089	0.7441256453476853
31091	-0.3237354288954249
31093	0.012648028020272439
31095	-0.4262385423761753
31097	-0.5725340658416579
31099	-0.6822557084407699
31101	-0.27994301891069273
31103	-0.3237354288954249
31105	-0.6822557084407699
31107	-0.2433691380443221
31109	-0.7554034701735112
31111	-0.0970736145788395
31113	-0.3237354288954249
31115	-0.3237354288954249
31117	-0.3237354288954249
31119	-0.9382728745053643
31121	1.2195860966105037
31123	-0.8285512319062525
31125	0.9269950496795386
31127	-0.2433691380443221
31129	-0.1702213763115808
31131	-0.7554034701735112
31133	-1.1577161597035883
31135	-0.3165168997770634
31137	-0.38966466150980467
31139	-0.13364749544521015
31141	-0.7188295893071405
31143	-0.13364749544521015
31145	-0.3165168997770634
31147	0.23209131321849633
31149	-0.3237354288954249
31151	-0.6822557084407699
31153	-0.6091079467080286
31155	-0.5359601849752873
31157	-0.46281242324254596
31159	-0.7188295893071405
31161	0.3783868366839789
31163	0.3052390749512376
31165	-0.8285512319062525
31167	-1.084568397970847
31169	-0.27994301891069273
31171	-0.3237354288954249
31173	0.670977883614944
31175	0.158943551485755
31177	-0.9382728745053643
31179	-0.7554034701735112
31181	-0.060499733712468855
31183	-0.3237354288954249
31185	0.04922190888664309
32001	0.5978301218822027
32003	-0.6456818275743992
32005	-1.304011683169071
32007	0.12236967061938438
32009	-0.23553187785867144
32011	-0.23553187785867144
32013	-0.5359601849752873
32015	-0.974846755371735
32017	-0.3165168997770634
32019	-0.5359601849752873
32021	3.048280139929036
32023	-0.46281242324254596
32027	-0.6091079467080286
32029	-0.23553187785867144
32031	-0.8285512319062525
32033	-0.2433691380443221
32510	-0.6091079467080286
33001	-1.0479945171044762
33003	-0.7919773510398818
33005	-1.2674378023027002
33007	-0.46281242324254596
33009	-0.974846755371735
33011	-0.4993863041089166
33013	-0.7188295893071405
33015	-0.46281242324254596
33017	-0.4262385423761753
33019	-0.4993863041089166
34001	-0.023925852846098206
34003	-0.6822557084407699
34005	-0.1702213763115808
34007	0.19551743235212568
34009	-0.20679525717795144
34011	0.23209131321849633
34013	-0.46281242324254596
34015	0.3783868366839789
34017	0.158943551485755
34019	-0.9016989936389938
34021	-0.353090780643434
34023	-0.46281242324254596
34025	-0.38966466150980467
34027	-0.6456818275743992
34029	-0.13364749544521015
34031	-0.27994301891069273
34033	0.08579578975301373
34035	-0.7188295893071405
34037	-0.0970736145788395
34039	-0.7554034701735112
34041	-0.0970736145788395
35001	-1.377159444901812
35003	-1.1211422788372176
35005	-0.27994301891069273
35006	-0.4262385423761753
35007	-0.2433691380443221
35009	0.12236967061938438
35011	-0.5394995928010657
35013	-0.4993863041089166
35015	-0.38966466150980467
35017	-0.7919773510398818
35019	-0.13364749544521015
35021	-0.5394995928010657
35023	-0.9016989936389938
35025	0.6344040027485734
35027	-1.0114206362381057
35028	-1.5600288492336654
35029	0.3783868366839789
35031	1.2561599774768744
35033	-1.2308639214363295
35035	-1.1577161597035883
35037	0.34181295581760823
35039	-0.8285512319062525
35041	0.3052390749512376
35043	-1.2674378023027002
35045	-0.4993863041089166
35047	0.08579578975301373
35049	-1.4503072066345535
35051	-0.1702213763115808
35053	-1.0114206362381057
35055	-0.7554034701735112
35057	-1.1577161597035883
35059	-0.20679525717795144
35061	-1.377159444901812
36001	-0.6456818275743992
36003	-0.3165168997770634
36005	-0.13364749544521015
36007	-0.4262385423761753
36009	-0.3165168997770634
36011	0.12236967061938438
36013	-0.6456818275743992
36015	0.8904211688131679
36017	-0.2433691380443221
36019	0.04922190888664309
36021	-0.3165168997770634
36023	1.2195860966105037
36025	0.3783868366839789
36027	-0.5359601849752873
36029	-0.974846755371735
36031	-0.1702213763115808
36033	0.08579578975301373
36035	0.8172734070804266
36037	0.04922190888664309
36039	-0.27994301891069273
36041	-0.865125112772623
36043	0.34181295581760823
36045	-0.20679525717795144
36047	-0.1702213763115808
36049	0.12236967061938438
36051	-0.5359601849752873
36053	-0.4993863041089166
36055	-0.46281242324254596
36057	-0.27994301891069273
36059	-0.5359601849752873
36061	-0.8285512319062525
36063	0.23209131321849633
36065	-0.023925852846098206
36067	-0.4993863041089166
36069	-0.6091079467080286
36071	-0.353090780643434
36073	1.2195860966105037
36075	0.19551743235212568
36077	-0.1702213763115808
36079	-0.353090780643434
36081	-0.46281242324254596
36083	-0.46281242324254596
36085	-0.4993863041089166
36087	-0.6456818275743992
36089	0.4149607175503495
36091	-0.7188295893071405
36093	-0.9382728745053643
36095	-0.27994301891069273
36097	0.9269950496795386
36099	-0.3165168997770634
36101	0.04922190888664309
36103	-0.13364749544521015
36105	-0.13364749544521015
36107	-0.2433691380443221
36109	-1.1577161597035883
36111	-0.20679525717795144
36113	-0.38966466150980467
36115	0.012648028020272439
36117	0.23209131321849633
36119	-0.5725340658416579
36121	0.12236967061938438
36123	-0.38966466150980467
37001	-0.9382728745053643
37003	-0.4262385423761753
37005	0.012648028020272439
37007	-0.38966466150980467
37009	0.4149607175503495
37011	0.9269950496795386
37013	-0.7554034701735112
37015	0.012648028020272439
37017	0.7075517644813147
37019	-0.46281242324254596
37021	-1.084568397970847
37023	-0.6822557084407699
37025	-0.3165168997770634
37027	-0.38966466150980467
37029	-0.46281242324254596
37031	-0.9382728745053643
37033	-0.4993863041089166
37035	-1.084568397970847
37037	-1.1211422788372176
37039	-0.8285512319062525
37041	-0.38966466150980467
37043	-0.9016989936389938
37045	-0.5359601849752873
37047	0.34181295581760823
37049	-1.0114206362381057
37051	-0.353090780643434
37053	-0.6822557084407699
37055	-0.865125112772623
37057	-0.023925852846098206
37059	-0.6456818275743992
37061	-0.060499733712468855
37063	-1.0479945171044762
37065	0.04922190888664309
37067	-0.4993863041089166
37069	-0.20679525717795144
37071	-0.38966466150980467
37073	-0.27994301891069273
37075	-0.7554034701735112
37077	-0.4262385423761753
37079	-0.2433691380443221
37081	-0.8285512319062525
37083	0.4149607175503495
37085	0.5246823601494615
37087	-0.13364749544521015
37089	-1.084568397970847
37091	-0.5359601849752873
37093	0.26866519408486694
37095	-0.27994301891069273
37097	0.04922190888664309
37099	-0.9382728745053643
37101	0.4881084792830908
37103	-1.1942900405699588
37105	0.23209131321849633
37107	-0.060499733712468855
37109	-0.46281242324254596
37111	-0.5359601849752873
37113	-1.084568397970847
37115	-0.353090780643434
37117	0.8172734070804266
37119	-0.974846755371735
37121	0.3783868366839789
37123	-0.353090780643434
37125	-0.7188295893071405
37127	-0.023925852846098206
37129	-1.0114206362381057
37131	0.45153459841672017
37133	-0.023925852846098206
37135	-1.486881087500924
37137	-1.304011683169071
37139	-0.9382728745053643
37141	-0.5359601849752873
37143	-0.7188295893071405
37145	0.4149607175503495
37147	-0.46281242324254596
37149	-0.7188295893071405
37151	-0.4993863041089166
37153	1.1830122157441332
37155	1.3293077392096158
37157	0.9269950496795386
37159	-0.4993863041089166
37161	-0.27994301891069273
37163	0.26866519408486694
37165	0.6344040027485734
37167	0.08579578975301373
37169	0.3783868366839789
37171	0.670977883614944
37173	0.3052390749512376
37175	-1.1577161597035883
37177	0.34181295581760823
37179	-0.5725340658416579
37181	-0.3165168997770634
37183	-0.9382728745053643
37185	-0.023925852846098206
37187	0.7075517644813147
37189	-0.6456818275743992
37191	-0.46281242324254596
37193	0.3052390749512376
37195	-0.20679525717795144
37197	0.5612562410158322
37199	-0.27994301891069273
38001	0.6344040027485734
38003	-0.7554034701735112
38005	0.780699526214056
38007	-0.11657968437423608
38009	-0.13364749544521015
38011	1.3658816200759862
38013	-0.11657968437423608
38015	-0.974846755371735
38017	-0.865125112772623
38019	-0.023925852846098206
38021	-0.20679525717795144
38023	-0.7919773510398818
38025	-0.13364749544521015
38027	0.158943551485755
38029	-0.20679525717795144
38031	-0.6456818275743992
38033	-0.11657968437423608
38035	-0.4262385423761753
38037	-0.4262385423761753
38039	-0.7188295893071405
38041	0.45153459841672017
38043	-0.7554034701735112
38045	-0.38966466150980467
38047	1.0367166922786506
38049	-0.7919773510398818
38051	0.5246823601494615
38053	0.45153459841672017
38055	-0.4262385423761753
38057	-0.974846755371735
38059	-1.0479945171044762
38061	0.7441256453476853
38063	0.23209131321849633
38065	-0.11657968437423608
38067	-0.4262385423761753
38069	-0.353090780643434
38071	-0.3165168997770634
38073	0.7441256453476853
38075	-0.353090780643434
38077	-0.865125112772623
38079	1.9876375948042873
38081	-0.060499733712468855
38083	-0.11657968437423608
38085	-0.11657968437423608
38087	-0.11657968437423608
38089	-0.9382728745053643
38091	-0.11657968437423608
38093	-0.6822557084407699
38095	0.4149607175503495
38097	-0.5359601849752873
38099	-0.13364749544521015
38101	-0.6091079467080286
38103	1.621898786140581
38105	-0.4262385423761753
39001	0.670977883614944
39003	0.158943551485755
39005	-0.7554034701735112
39007	0.4881084792830908
39009	0.04922190888664309
39011	0.012648028020272439
39013	1.402455500942357
39015	0.6344040027485734
39017	0.158943551485755
39019	-0.20679525717795144
39021	0.158943551485755
39023	0.04922190888664309
39025	0.19551743235212568
39027	0.5612562410158322
39029	0.7441256453476853
39031	1.2561599774768744
39033	-0.353090780643434
39035	0.04922190888664309
39037	0.012648028020272439
39039	0.9269950496795386
39041	-0.5725340658416579
39043	0.08579578975301373
39045	-0.060499733712468855
39047	0.012648028020272439
39049	-0.2433691380443221
39051	-0.6822557084407699
39053	1.1830122157441332
39055	-0.4262385423761753
39057	-0.5725340658416579
39059	1.695046547873322
39061	-0.4993863041089166
39063	-1.0114206362381057
39065	0.9269950496795386
39067	1.073290573145021
39069	-0.3165168997770634
39071	0.8538472879467973
39073	0.12236967061938438
39075	-0.5359601849752873
39077	0.19551743235212568
39079	2.024211475670658
39081	1.1830122157441332
39083	-0.2433691380443221
39085	0.158943551485755
39087	0.8172734070804266
39089	0.12236967061938438
39091	-0.7919773510398818
39093	0.4881084792830908
39095	0.4881084792830908
39097	-0.20679525717795144
39099	-0.27994301891069273
39101	0.8538472879467973
39103	0.23209131321849633
39105	0.8172734070804266
39107	-0.4993863041089166
39109	0.34181295581760823
39111	1.0367166922786506
39113	-0.46281242324254596
39115	0.7441256453476853
39117	1.0367166922786506
39119	0.9635689305459092
39121	0.780699526214056
39123	0.08579578975301373
39125	1.00014281141228
39127	0.780699526214056
39129	0.5978301218822027
39131	1.6584726670069516
39133	0.158943551485755
39135	0.45153459841672017
39137	-0.5359601849752873
39139	0.158943551485755
39141	0.45153459841672017
39143	-0.5359601849752873
39145	1.073290573145021
39147	0.23209131321849633
39149	-0.38966466150980467
39151	-0.4262385423761753
39153	0.12236967061938438
39155	0.4149607175503495
39157	0.26866519408486694
39159	0.4149607175503495
39161	-0.353090780643434
39163	1.00014281141228
39165	-0.4262385423761753
39167	0.670977883614944
39169	0.12236967061938438
39171	-0.13364749544521015
39173	0.26866519408486694
39175	-0.353090780643434
40001	3.560314472058225
40003	-0.1702213763115808
40005	2.024211475670658
40007	-0.5725340658416579
40009	0.5612562410158322
40011	1.00014281141228
40013	1.5121771435414688
40015	0.3052390749512376
40017	-0.38966466150980467
40019	0.45153459841672017
40021	-0.2433691380443221
40023	3.194575663394519
40025	0.9269950496795386
40027	-0.023925852846098206
40029	6.595946583966989
40031	-0.6091079467080286
40033	-0.023925852846098206
40035	0.8904211688131679
40037	0.9635689305459092
40039	0.26866519408486694
40041	0.4149607175503495
40043	1.5487510244078395
40045	0.12236967061938438
40047	0.04922190888664309
40049	0.4881084792830908
40051	-0.27994301891069273
40053	-0.4993863041089166
40055	0.9269950496795386
40057	4.767252540648457
40059	0.158943551485755
40061	-0.060499733712468855
40063	0.8172734070804266
40065	1.5487510244078395
40067	0.7441256453476853
40069	1.8413420713388047
40071	-0.060499733712468855
40073	0.4881084792830908
40075	1.1830122157441332
40077	1.9876375948042873
40079	1.621898786140581
40081	0.12236967061938438
40083	-0.4993863041089166
40085	0.670977883614944
40087	1.2561599774768744
40089	1.402455500942357
40091	0.3052390749512376
40093	0.6344040027485734
40095	1.914489833071546
40097	0.34181295581760823
40099	1.00014281141228
40101	-0.060499733712468855
40103	0.7441256453476853
40105	-0.13364749544521015
40107	0.34181295581760823
40109	-0.5359601849752873
40111	0.34181295581760823
40113	-0.5725340658416579
40115	0.5612562410158322
40117	-0.023925852846098206
40119	0.04922190888664309
40121	0.19551743235212568
40123	-0.8285512319062525
40125	-0.1702213763115808
40127	1.2195860966105037
40129	0.26866519408486694
40131	0.158943551485755
40133	0.3783868366839789
40135	0.45153459841672017
40137	-0.0970736145788395
40139	-0.2433691380443221
40141	0.8172734070804266
40143	-0.38966466150980467
40145	0.012648028020272439
40147	-1.5234549683672947
40149	0.8904211688131679
40151	-0.4993863041089166
40153	0.23209131321849633
41001	-0.974846755371735
41003	-1.5234549683672947
41005	-1.4137333257681828
41007	-0.4993863041089166
41009	-1.0479945171044762
41011	-0.5725340658416579
41013	-1.1577161597035883
41015	-1.304011683169071
41017	-1.5234549683672947
41019	-1.2674378023027002
41021	-1.0823517991304592
41023	-0.865125112772623
41025	-1.1577161597035883
41027	-1.377159444901812
41029	-1.084568397970847
41031	-1.304011683169071
41033	-1.1577161597035883
41035	-1.1211422788372176
41037	-0.6091079467080286
41039	-1.2308639214363295
41041	-1.084568397970847
41043	-0.7554034701735112
41045	-1.1211422788372176
41047	-1.3405855640354414
41049	-1.4503072066345535
41051	-1.1577161597035883
41053	-1.4137333257681828
41055	-1.0823517991304592
41057	-1.1211422788372176
41059	-1.377159444901812
41061	-0.38966466150980467
41063	-0.865125112772623
41065	-0.353090780643434
41067	-1.3405855640354414
41069	-1.0823517991304592
41071	-0.7554034701735112
42001	-0.5359601849752873
42003	-0.13364749544521015
42005	0.04922190888664309
42007	-0.13364749544521015
42009	-0.27994301891069273
42011	-0.4993863041089166
42013	-0.023925852846098206
42015	0.8172734070804266
42017	-0.13364749544521015
42019	-0.1702213763115808
42021	0.19551743235212568
42023	0.4149607175503495
42025	0.5978301218822027
42027	-0.6091079467080286
42029	-0.4262385423761753
42031	0.3052390749512376
42033	-0.27994301891069273
42035	-0.060499733712468855
42037	0.12236967061938438
42039	-0.6091079467080286
42041	-0.7919773510398818
42043	-0.5725340658416579
42045	-0.27994301891069273
42047	0.19551743235212568
42049	-0.8285512319062525
42051	0.3052390749512376
42053	1.1098644540113918
42055	-0.7188295893071405
42057	0.6344040027485734
42059	1.073290573145021
42061	0.012648028020272439
42063	0.26866519408486694
42065	0.45153459841672017
42067	-0.4262385423761753
42069	0.4149607175503495
42071	-0.865125112772623
42073	0.780699526214056
42075	-0.8285512319062525
42077	-0.2433691380443221
42079	-0.060499733712468855
42081	-0.974846755371735
42083	0.19551743235212568
42085	-0.023925852846098206
42087	-0.13364749544521015
42089	0.19551743235212568
42091	-0.6091079467080286
42093	-1.1211422788372176
42095	-0.023925852846098206
42097	-0.1702213763115808
42099	-0.3165168997770634
42101	-0.0970736145788395
42103	-0.353090780643434
42105	0.3052390749512376
42107	0.012648028020272439
42109	-1.084568397970847
42111	0.12236967061938438
42113	-0.353090780643434
42115	0.5612562410158322
42117	0.08579578975301373
42119	-1.706324372699148
42121	0.3052390749512376
42123	-0.1702213763115808
42125	0.45153459841672017
42127	-0.353090780643434
42129	0.08579578975301373
42131	0.45153459841672017
42133	-0.7919773510398818
44001	-0.7554034701735112
44003	-0.38966466150980467
44005	-0.7919773510398818
44007	-0.27994301891069273
44009	-0.9382728745053643
45001	-0.27994301891069273
45003	-0.8285512319062525
45005	0.45153459841672017
45007	0.04922190888664309
45009	-0.7188295893071405
45011	0.4149607175503495
45013	-0.9016989936389938
45015	-0.6091079467080286
45017	-0.974846755371735
45019	-1.084568397970847
45021	-0.060499733712468855
45023	-0.13364749544521015
45025	-0.023925852846098206
45027	-0.3165168997770634
45029	0.12236967061938438
45031	0.04922190888664309
45033	0.5246823601494615
45035	-0.38966466150980467
45037	-0.0970736145788395
45039	-0.38966466150980467
45041	0.12236967061938438
45043	-0.4993863041089166
45045	-1.1211422788372176
45047	-0.8285512319062525
45049	0.12236967061938438
45051	-0.4993863041089166
45053	-0.0970736145788395
45055	-0.060499733712468855
45057	-0.38966466150980467
45059	-0.3165168997770634
45061	-0.3165168997770634
45063	-1.1577161597035883
45065	-1.304011683169071
45067	-0.060499733712468855
45069	0.34181295581760823
45071	-0.6456818275743992
45073	-0.4262385423761753
45075	-0.9016989936389938
45077	-0.353090780643434
45079	-1.0479945171044762
45081	-0.974846755371735
45083	-0.20679525717795144
45085	-0.1702213763115808
45087	0.8172734070804266
45089	0.3783868366839789
45091	-0.5359601849752873
46003	-0.4993863041089166
46005	-0.38966466150980467
46007	-0.1390658481661562
46009	0.34181295581760823
46011	-0.5725340658416579
46013	-0.1702213763115808
46015	0.12236967061938438
46017	-0.1390658481661562
46019	-1.486881087500924
46021	-0.1390658481661562
46023	1.292733858343245
46025	-0.9016989936389938
46027	-0.4262385423761753
46029	-0.4262385423761753
46031	0.23209131321849633
46033	-1.4503072066345535
46035	-0.4262385423761753
46037	-0.023925852846098206
46039	-0.2433691380443221
46041	0.4881084792830908
46043	-0.4993863041089166
46045	0.4149607175503495
46047	-1.0479945171044762
46049	3.779757757256449
46051	-0.9382728745053643
46053	2.7922629738644416
46055	-0.1390658481661562
46057	-0.7554034701735112
46059	0.4149607175503495
46061	-0.865125112772623
46063	-0.1390658481661562
46065	-1.3405855640354414
46067	-0.6822557084407699
46069	-0.1390658481661562
46071	-0.13906584816615203
46073	-0.7188295893071405
46075	-0.1390658481661562
46077	-0.27994301891069273
46079	-0.7919773510398818
46081	-1.0114206362381057
46083	-0.9382728745053643
46085	-0.13364749544521015
46087	-1.304011683169071
46089	-0.6091079467080286
46091	0.4149607175503495
46093	-1.2308639214363295
46095	-0.1390658481661562
46097	-0.6822557084407699
46099	-0.6822557084407699
46101	0.04922190888664309
46103	-0.9382728745053643
46105	0.7075517644813147
46107	-0.7554034701735112
46109	-0.1702213763115808
46111	-0.20679525717795144
46113	2.572819688666218
46115	1.073290573145021
46117	-0.974846755371735
46119	-0.1390658481661562
46121	3.5237405911918542
46123	0.04922190888664309
46125	-0.1702213763115808
46127	-0.4993863041089166
46129	-0.1390658481661562
46135	-0.5359601849752873
46137	-0.1390658481661562
47001	-0.6091079467080286
47003	0.5612562410158322
47005	1.0367166922786506
47007	0.23209131321849633
47009	0.19551743235212568
47011	0.3052390749512376
47013	1.9876375948042873
47015	1.4756032626750983
47017	0.3783868366839789
47019	0.8904211688131679
47021	0.6344040027485734
47023	0.5246823601494615
47025	1.00014281141228
47027	3.3042973059936305
47029	1.621898786140581
47031	1.3293077392096158
47033	0.670977883614944
47035	-0.7919773510398818
47037	-0.27994301891069273
47039	2.755689092998071
47041	1.1464383348777625
47043	0.6344040027485734
47045	1.1464383348777625
47047	-0.353090780643434
47049	4.218644327652897
47051	1.621898786140581
47053	0.19551743235212568
47055	-0.1702213763115808
47057	1.3658816200759862
47059	0.45153459841672017
47061	2.7922629738644416
47063	0.6344040027485734
47065	-0.7919773510398818
47067	4.072348804187414
47069	0.26866519408486694
47071	0.012648028020272439
47073	0.45153459841672017
47075	0.6344040027485734
47077	1.695046547873322
47079	-0.353090780643434
47081	-0.023925852846098206
47083	2.536245807799847
47085	1.6584726670069516
47087	0.8904211688131679
47089	0.3783868366839789
47091	0.158943551485755
47093	-0.7554034701735112
47095	1.6584726670069516
47097	1.402455500942357
47099	0.6344040027485734
47101	1.00014281141228
47103	0.26866519408486694
47105	-0.8285512319062525
47107	0.19551743235212568
47109	0.7075517644813147
47111	3.6334622337909663
47113	-0.3165168997770634
47115	0.6344040027485734
47117	-0.4262385423761753
47119	-0.46281242324254596
47121	0.4149607175503495
47123	0.5246823601494615
47125	0.4149607175503495
47127	0.34181295581760823
47129	0.9269950496795386
47131	0.45153459841672017
47133	1.8779159522051754
47135	3.2677234251272598
47137	2.6093935695325885
47139	1.1830122157441332
47141	0.012648028020272439
47143	0.34181295581760823
47145	0.04922190888664309
47147	0.4881084792830908
47149	0.5612562410158322
47151	1.4756032626750983
47153	-0.023925852846098206
47155	-0.6091079467080286
47157	-0.6091079467080286
47159	1.5487510244078395
47161	1.1830122157441332
47163	0.5978301218822027
47165	0.5978301218822027
47167	0.04922190888664309
47169	2.243654760868882
47171	1.7316204287396928
47173	0.26866519408486694
47175	1.5853249052742102
47177	1.292733858343245
47179	0.45153459841672017
47181	2.426524165200735
47183	0.7441256453476853
47185	0.34181295581760823
47187	-0.8285512319062525
47189	0.34181295581760823
48001	0.012648028020272439
48003	-0.20679525717795144
48005	0.19551743235212568
48007	-0.4262385423761753
48009	-0.8285512319062525
48011	0.2429158698874657
48013	-0.20679525717795144
48015	-0.13364749544521015
48017	1.5853249052742102
48019	-0.6822557084407699
48021	-0.023925852846098206
48023	1.5487510244078395
48025	1.2561599774768744
48027	-0.6091079467080286
48029	-0.7188295893071405
48031	-1.1577161597035883
48033	0.2429158698874657
48035	-0.4993863041089166
48037	-0.353090780643434
48039	-0.1702213763115808
48041	-0.5359601849752873
48043	0.158943551485755
48045	0.2429158698874657
48047	1.7316204287396928
48049	0.780699526214056
48051	0.34181295581760823
48053	-0.20679525717795144
48055	1.3658816200759862
48057	1.5121771435414688
48059	-0.38966466150980467
48061	-0.20679525717795144
48063	0.4149607175503495
48065	-0.5359601849752873
48067	1.0367166922786506
48069	0.670977883614944
48071	1.4756032626750983
48073	0.158943551485755
48075	0.4881084792830908
48077	0.19551743235212568
48079	0.2429158698874657
48081	0.04922190888664309
48083	1.621898786140581
48085	-0.6091079467080286
48087	2.3168025226016233
48089	0.12236967061938438
48091	-0.6822557084407699
48093	0.3783868366839789
48095	-0.6822557084407699
48097	0.012648028020272439
48099	-0.1702213763115808
48101	0.2429158698874657
48103	0.2429158698874657
48105	0.2429158698874657
48107	1.3293077392096158
48109	0.2429158698874657
48111	-0.353090780643434
48113	-0.6456818275743992
48115	-0.4993863041089166
48117	-0.6456818275743992
48119	-0.20679525717795144
48121	-0.060499733712468855
48123	0.5612562410158322
48125	0.2429158698874657
48127	2.572819688666218
48129	-0.3165168997770634
48131	1.621898786140581
48133	1.1098644540113918
48135	0.26866519408486694
48137	0.34181295581760823
48139	-0.353090780643434
48141	-0.4262385423761753
48143	-0.5359601849752873
48145	0.19551743235212568
48147	0.3783868366839789
48149	-0.2433691380443221
48151	-0.27994301891069273
48153	0.8172734070804266
48155	0.2429158698874657
48157	-0.5359601849752873
48159	1.621898786140581
48161	0.12236967061938438
48163	1.5121771435414688
48165	0.7075517644813147
48167	-0.023925852846098206
48169	0.158943551485755
48171	-1.5234549683672947
48173	0.2429158698874657
48175	0.7075517644813147
48177	0.04922190888664309
48179	0.08579578975301373
48181	-0.060499733712468855
48183	-0.13364749544521015
48185	0.12236967061938438
48187	-0.8285512319062525
48189	0.04922190888664309
48191	0.2429158698874657
48193	2.9019846164635537
48195	0.3783868366839789
48197	2.572819688666218
48199	-0.2433691380443221
48201	-0.46281242324254596
48203	0.08579578975301373
48205	0.2429158698874657
48207	-0.2433691380443221
48209	-0.6456818275743992
48211	0.04922190888664309
48213	0.9269950496795386
48215	-0.023925852846098206
48217	0.5246823601494615
48219	0.04922190888664309
48221	-0.8285512319062525
48223	-0.1702213763115808
48225	0.7075517644813147
48227	0.670977883614944
48229	0.2429158698874657
48231	-0.13364749544521015
48233	-0.353090780643434
48235	0.2429158698874657
48237	1.5487510244078395
48239	0.6344040027485734
48241	0.34181295581760823
48243	0.2429158698874657
48245	-0.1702213763115808
48247	1.2561599774768744
48249	1.4390293818087276
48251	0.26866519408486694
48253	1.2561599774768744
48255	0.670977883614944
48257	0.3052390749512376
48259	-1.304011683169071
48261	0.2429158698874657
48263	0.2429158698874657
48265	-0.9382728745053643
48267	-0.4262385423761753
48269	0.2429158698874657
48271	-0.0970736145788395
48273	1.3293077392096158
48275	0.012648028020272439
48277	0.012648028020272439
48279	-0.023925852846098206
48281	0.5978301218822027
48283	1.1098644540113918
48285	1.5853249052742102
48287	-0.5359601849752873
48289	-0.2433691380443221
48291	1.402455500942357
48293	0.3783868366839789
48295	0.8538472879467973
48297	-0.060499733712468855
48299	-0.6822557084407699
48301	0.2429158698874657
48303	-0.27994301891069273
48305	-0.2433691380443221
48307	-0.3165168997770634
48309	-1.0479945171044762
48311	0.2429158698874657
48313	0.3783868366839789
48315	-0.3165168997770634
48317	-0.9016989936389938
48319	-0.353090780643434
48321	0.08579578975301373
48323	1.5853249052742102
48325	0.012648028020272439
48327	0.45153459841672017
48329	-0.974846755371735
48331	0.34181295581760823
48333	0.8904211688131679
48335	2.13393311826977
48337	1.292733858343245
48339	0.012648028020272439
48341	0.26866519408486694
48343	0.26866519408486694
48345	0.2429158698874657
48347	0.3783868366839789
48349	0.04922190888664309
48351	-0.13364749544521015
48353	1.2561599774768744
48355	-0.0970736145788395
48357	1.402455500942357
48359	0.2429158698874657
48361	0.4149607175503495
48363	0.3052390749512376
48365	0.5612562410158322
48367	0.04922190888664309
48369	0.3783868366839789
48371	2.572819688666218
48373	-0.20679525717795144
48375	-0.353090780643434
48377	-0.7188295893071405
48379	-0.7919773510398818
48381	-0.8285512319062525
48383	0.2429158698874657
48385	-0.023925852846098206
48387	2.4996719269334764
48389	1.6584726670069516
48391	-0.27994301891069273
48393	0.2429158698874657
48395	0.04922190888664309
48397	-0.27994301891069273
48399	0.3783868366839789
48401	0.4881084792830908
48403	1.2561599774768744
48405	0.5978301218822027
48407	0.8904211688131679
48409	0.04922190888664309
48411	-0.8285512319062525
48413	0.23209131321849633
48415	-0.353090780643434
48417	-0.2433691380443221
48419	0.9269950496795386
48421	-0.5359601849752873
48423	-0.6822557084407699
48425	0.3052390749512376
48427	1.4756032626750983
48429	1.073290573145021
48431	0.2429158698874657
48433	0.2429158698874657
48435	0.8904211688131679
48437	0.08579578975301373
48439	-0.38966466150980467
48441	-0.8285512319062525
48443	0.2429158698874657
48445	0.9635689305459092
48447	0.2429158698874657
48449	0.5246823601494615
48451	-0.46281242324254596
48453	-0.4993863041089166
48455	1.2561599774768744
48457	0.670977883614944
48459	0.12236967061938438
48461	0.2429158698874657
48463	0.08579578975301373
48465	-0.7554034701735112
48467	0.08579578975301373
48469	0.45153459841672017
48471	0.08579578975301373
48473	-0.0970736145788395
48475	0.3052390749512376
48477	-0.7919773510398818
48479	0.4881084792830908
48481	-0.4262385423761753
48483	1.4756032626750983
48485	-0.4993863041089166
48487	0.34181295581760823
48489	0.158943551485755
48491	-0.7919773510398818
48493	-0.023925852846098206
48495	1.00014281141228
48497	0.3052390749512376
48499	-0.023925852846098206
48501	0.2429158698874657
48503	0.4149607175503495
48505	0.3783868366839789
48507	1.1464383348777625
49001	0.8172734070804266
49003	-1.486881087500924
49005	-1.7428982535655186
49007	-0.9382728745053643
49009	-0.9090137698122679
49011	-1.5234549683672947
49013	0.19551743235212568
49015	-1.1942900405699588
49017	-0.6456818275743992
49019	-0.865125112772623
49021	-1.084568397970847
49023	0.5612562410158322
49025	-1.1942900405699588
49027	-0.9382728745053643
49029	-1.5600288492336654
49031	-0.9090137698122679
49033	-0.9090137698122679
49035	-1.4503072066345535
49037	-0.2433691380443221
49039	-0.4993863041089166
49041	-0.6822557084407699
49043	-1.7428982535655186
49045	-0.5725340658416579
49047	-0.2433691380443221
49049	-1.3405855640354414
49051	-1.6697504918327772
49053	-1.1577161597035883
49055	-0.9090137698122679
49057	-1.5234549683672947
50001	-0.9016989936389938
50003	-0.0970736145788395
50005	-1.0114206362381057
50007	-0.9382728745053643
50009	-0.8285512319062525
50011	-0.3165168997770634
50013	-1.377159444901812
50015	-0.5725340658416579
50017	-0.7188295893071405
50019	-0.4993863041089166
50021	-0.20679525717795144
50023	-0.865125112772623
50025	-1.1942900405699588
50027	-0.4262385423761753
51001	-0.6822557084407699
51003	-0.974846755371735
51005	0.5612562410158322
51007	-1.0479945171044762
51009	-0.3165168997770634
51011	-0.060499733712468855
51013	-1.3405855640354414
51015	-0.9016989936389938
51017	1.6584726670069516
51019	-0.865125112772623
51021	0.670977883614944
51023	-0.7554034701735112
51025	0.5612562410158322
51027	4.108922685053785
51029	-0.20679525717795144
51031	-0.4262385423761753
51033	-0.6456818275743992
51035	0.23209131321849633
51036	-0.6456818275743992
51037	-0.46281242324254596
51041	-0.9016989936389938
51043	-0.20679525717795144
51045	-0.6456818275743992
51047	-0.38966466150980467
51049	-0.6091079467080286
51051	2.2070808800025112
51053	0.26866519408486694
51057	-0.6822557084407699
51059	-1.1942900405699588
51061	-0.3165168997770634
51063	-1.0479945171044762
51065	-0.7919773510398818
51067	-0.6822557084407699
51069	0.26866519408486694
51071	0.3783868366839789
51073	-0.38966466150980467
51075	-1.084568397970847
51077	0.19551743235212568
51079	-0.4262385423761753
51081	-0.18241266993370311
51083	-0.8285512319062525
51085	-1.0479945171044762
51087	-0.974846755371735
51089	-0.0970736145788395
51091	0.3783868366839789
51093	-0.974846755371735
51095	-1.0479945171044762
51097	-0.4993863041089166
51099	-0.023925852846098206
51101	-0.7919773510398818
51103	-1.0479945171044762
51105	2.3899502843343643
51107	-0.6456818275743992
51109	-0.5359601849752873
51111	-0.060499733712468855
51113	-0.7554034701735112
51115	-1.084568397970847
51117	-0.27994301891069273
51119	-0.865125112772623
51121	-0.6091079467080286
51125	-0.7188295893071405
51127	-1.0114206362381057
51131	-0.5359601849752873
51133	-1.2674378023027002
51135	-0.023925852846098206
51137	-0.865125112772623
51139	0.8538472879467973
51141	-0.20679525717795144
51143	-0.353090780643434
51145	-0.974846755371735
51147	0.158943551485755
51149	0.4149607175503495
51153	-0.7554034701735112
51155	1.5853249052742102
51157	-0.4262385423761753
51159	-0.7919773510398818
51161	-0.865125112772623
51163	-0.3165168997770634
51165	-0.060499733712468855
51167	3.3042973059936305
51169	1.3293077392096158
51171	0.34181295581760823
51173	0.26866519408486694
51175	0.19551743235212568
51177	0.08579578975301373
51179	0.04922190888664309
51181	-0.4262385423761753
51183	0.4881084792830908
51185	2.2070808800025112
51187	0.9269950496795386
51191	0.7441256453476853
51193	-0.1702213763115808
51195	2.0607853565370284
51197	0.012648028020272439
51199	-1.0114206362381057
51510	-0.7554034701735112
51515	-0.27994301891069273
51520	1.4756032626750983
51530	-0.46281242324254596
51540	-0.18241266993370311
51550	-0.5725340658416579
51570	-0.18241266993370311
51580	-0.18241266993370311
51590	-0.5725340658416579
51595	1.5121771435414688
51600	-0.9382728745053643
51610	-1.304011683169071
51620	0.012648028020272439
51630	0.4149607175503495
51640	0.5612562410158322
51650	-0.9016989936389938
51660	-0.18241266993370311
51670	0.7441256453476853
51678	-0.18241266993370311
51680	-0.5359601849752873
51683	-0.18241266993370311
51685	-0.7188295893071405
51690	-0.27994301891069273
51700	-1.1577161597035883
51710	-0.4262385423761753
51720	2.0607853565370284
51730	-0.18241266993370311
51735	-1.084568397970847
51740	-1.1942900405699588
51750	-0.13364749544521015
51760	-0.6822557084407699
51770	-0.6456818275743992
51775	-0.46281242324254596
51790	-0.7188295893071405
51800	-0.6822557084407699
51810	-0.6822557084407699
51820	-0.7919773510398818
51830	-1.084568397970847
51840	0.04922190888664309
53001	-1.1577161597035883
53003	-1.1577161597035883
53005	-0.7188295893071405
53007	-1.4503072066345535
53009	-1.5600288492336654
53011	-0.7188295893071405
53013	-1.6331766109664065
53015	-0.7554034701735112
53017	-1.4137333257681828
53019	-0.5359601849752873
53021	-1.2674378023027002
53023	-1.0768686335779258
53025	-1.3405855640354414
53027	-0.46281242324254596
53029	-1.486881087500924
53031	-1.4503072066345535
53033	-1.3405855640354414
53035	-1.377159444901812
53037	-0.7919773510398818
53039	-0.865125112772623
53041	-1.0479945171044762
53043	-0.20679525717795144
53045	-0.974846755371735
53047	-1.1577161597035883
53049	-0.7188295893071405
53051	-1.2674378023027002
53053	-0.6822557084407699
53055	-1.8526198961646305
53057	-0.974846755371735
53059	-0.865125112772623
53061	-1.2308639214363295
53063	-1.084568397970847
53065	-0.9016989936389938
53067	-1.304011683169071
53069	-1.2674378023027002
53071	-1.377159444901812
53073	-1.2308639214363295
53075	-0.8285512319062525
53077	-0.46281242324254596
54001	0.8904211688131679
54003	0.158943551485755
54005	1.695046547873322
54007	0.670977883614944
54009	0.670977883614944
54011	0.4149607175503495
54013	1.3658816200759862
54015	0.8904211688131679
54017	1.695046547873322
54019	2.2070808800025112
54021	3.4140189485927426
54023	0.7441256453476853
54025	-0.023925852846098206
54027	0.6344040027485734
54029	1.4756032626750983
54031	0.19551743235212568
54033	0.780699526214056
54035	0.9635689305459092
54037	-0.46281242324254596
54039	0.12236967061938438
54041	2.4996719269334764
54043	1.2195860966105037
54045	3.6334622337909663
54047	2.4996719269334764
54049	0.08579578975301373
54051	1.402455500942357
54053	1.9876375948042873
54055	0.8538472879467973
54057	0.158943551485755
54059	6.559372703100618
54061	0.3783868366839789
54063	0.4881084792830908
54065	0.12236967061938438
54067	0.23209131321849633
54069	-0.1702213763115808
54071	0.34181295581760823
54073	1.073290573145021
54075	0.6344040027485734
54077	1.1830122157441332
54079	0.19551743235212568
54081	1.7316204287396928
54083	1.3658816200759862
54085	0.4881084792830908
54087	-0.023925852846098206
54089	1.1464383348777625
54091	0.19551743235212568
54093	-0.1702213763115808
54095	0.8538472879467973
54097	0.45153459841672017
54099	1.1464383348777625
54101	1.4756032626750983
54103	1.2561599774768744
54105	0.158943551485755
54107	0.5978301218822027
54109	2.3533764034679936
55001	-0.7554034701735112
55003	-0.9382728745053643
55005	-0.4262385423761753
55007	-1.2308639214363295
55009	-1.304011683169071
55011	-0.6456818275743992
55013	-0.2433691380443221
55015	-1.1577161597035883
55017	-0.4262385423761753
55019	0.19551743235212568
55021	-0.7554034701735112
55023	-0.1702213763115808
55025	-1.084568397970847
55027	-0.865125112772623
55029	-1.0479945171044762
55031	-0.4993863041089166
55033	-0.46281242324254596
55035	-0.9016989936389938
55037	-1.5234549683672947
55039	-1.0479945171044762
55041	-0.7554034701735112
55043	-0.6822557084407699
55045	-0.6091079467080286
55047	-0.3165168997770634
55049	-0.9016989936389938
55051	-0.6091079467080286
55053	-0.2433691380443221
55055	-0.9382728745053643
55057	0.012648028020272439
55059	-0.0970736145788395
55061	-1.5234549683672947
55063	-1.1211422788372176
55065	-0.20679525717795144
55067	-0.974846755371735
55069	-0.5725340658416579
55071	-1.0114206362381057
55073	-0.3165168997770634
55075	-0.38966466150980467
55077	-0.6091079467080286
55078	-0.6575297044747715
55079	-0.3165168997770634
55081	-0.3165168997770634
55083	-0.4993863041089166
55085	-0.7919773510398818
55087	-1.2674378023027002
55089	-0.9382728745053643
55091	0.26866519408486694
55093	-0.6456818275743992
55095	-0.13364749544521015
55097	-0.5725340658416579
55099	-0.1702213763115808
55101	-0.5359601849752873
55103	-0.7919773510398818
55105	-0.6091079467080286
55107	-0.865125112772623
55109	-0.27994301891069273
55111	-0.6091079467080286
55113	-0.7919773510398818
55115	-0.6091079467080286
55117	-1.304011683169071
55119	-0.865125112772623
55121	-0.38966466150980467
55123	-0.38966466150980467
55125	-0.7554034701735112
55127	-0.6822557084407699
55129	-0.353090780643434
55131	-0.8285512319062525
55133	-0.9016989936389938
55135	-1.0479945171044762
55137	-0.353090780643434
55139	-1.0479945171044762
55141	-0.13364749544521015
56001	-0.5725340658416579
56003	-0.5725340658416579
56005	0.3052390749512376
56007	-0.6456818275743992
56009	-0.13364749544521015
56011	-0.6456818275743992
56013	-0.3165168997770634
56015	-0.27994301891069273
56017	-0.13364749544521015
56019	-1.1577161597035883
56021	-0.4993863041089166
56023	-1.5234549683672947
56025	-0.5725340658416579
56027	-1.2674378023027002
56029	-0.9382728745053643
56031	-0.060499733712468855
56033	-1.1942900405699588
56035	-1.3405855640354414
56037	-0.5725340658416579
56039	-1.5600288492336654
56041	-0.5359601849752873
56043	0.23209131321849633
56045	-1.0114206362381057
