id	rate
1001	0.3184902216794063
1003	0.04690934654332757
1005	0.6136868250881876
1007	0.8691095703534699
1009	0.5310317761337289
1011	0.3414844834186167
1013	1.2127805633746407
1015	1.2295601597789292
1017	-0.29738311301133524
1019	0.8852677002242664
1021	0.46080605784911355
1023	1.5421578261254913
1025	-0.0028079761360461225
1027	0.3153828890119455
1029	1.076679392539855
1031	-0.059982897217325866
1033	0.7845901217985347
1035	1.0008604754538102
1037	0.24142837152637714
1039	0.7454377301885279
1041	0.6416528190953353
1043	0.4869076522557847
1045	0.6236302896240624
1047	0.2513718360622519
1049	0.6702402796359752
1051	0.5447040398705566
1053	0.9045331627625237
1055	1.6366207392163012
1057	0.2805807631363839
1059	1.3681471967476833
1061	0.5633480358753218
1063	0.08109000588539698
1065	0.29301009380622733
1067	0.1562874564379497
1069	0.38933740649751386
1071	0.7093926712459819
1073	-0.004050909203030465
1075	0.6130653585546955
1077	-0.07365516095415363
1079	1.0350411347958797
1081	-0.6292462418961546
1083	0.342727416485601
1085	-0.08608449162399705
1087	-0.598172915221546
1089	0.25385770219622056
1091	-0.04941796614795896
1093	0.8846462336907742
1095	1.068600327604457
1097	0.3470776822200462
1099	0.24080690499288496
1101	-0.06930489521970844
1103	0.3476991487535384
1105	0.3334054184832185
1107	0.26255823366511094
1109	0.7137429369804272
1111	-0.20167726685354087
1113	0.1562874564379497
1115	0.887132099824743
1117	0.5273029769327758
1119	0.807584383537745
1121	0.691370141774709
1123	0.9219342257003045
1125	0.5154951127964246
1127	1.3097293425994192
1129	1.0201259379920675
1131	-0.46269321092025273
1133	1.272441350589889
2013	-2.5905946215974467
2016	-2.8522320321976506
2020	-1.7677729312538122
2050	-2.5539280961214086
2060	-3.3898005836683787
2068	-2.4196913248870997
2070	-1.3812207474216818
2090	-1.894552104086215
2100	-1.9616704897033694
2110	-1.8417274487393804
2122	-1.4278307374335946
2130	-0.9064203158336629
2150	-1.353254753414534
2164	-2.6558486076141246
2170	-1.7603153328519061
2180	-0.8504883278193676
2185	-1.5527455106655208
2188	0.8349289110114005
2201	-1.5067569871871003
2220	-0.2719029851381562
2232	-2.7422324557695363
2240	-2.4687871810329813
2261	-1.8025750571293737
2270	-2.7204811270973104
2280	0.0717680078830144
2282	-1.1904305216395852
2290	-1.974721286906705
4001	-0.8262511330131729
4003	-0.7491892828601436
4005	-1.0487361520033702
4007	0.30543942447607075
4009	-1.1599786614984688
4011	-0.5782859861497965
4012	0.035722948940468485
4013	0.24329277112685363
4015	-0.3949533587696061
4017	-0.8983412508982647
4019	-0.525461330802962
4021	0.6087150928202503
4023	-1.7230273408423757
4025	-1.0170413587952694
4027	-0.42167641970976943
5001	-0.19111233578417397
5003	1.1313684474871661
5005	-0.13331594816940207
5007	-0.30794804408070214
5009	-0.2768747174060936
5011	1.0971877881450967
5013	0.2942530268732117
5015	-0.4210549531762773
5017	-0.010265574537952175
5019	-0.6180598442932955
5021	0.9517646193079288
5023	-0.7945563398050721
5025	0.7000706732435994
5027	0.11029893295952903
5029	-0.47139374238914317
5031	-0.04693210001399027
5033	0.28430956233733695
5035	0.22837757432304154
5037	0.30233209180860987
5039	-0.10597142069574653
5041	0.5453255064040488
5043	1.0462275323987387
5045	-0.2035416664540174
5047	-0.169361007111948
5049	0.18549638351208173
5051	0.0978696022896856
5053	0.5161165793299167
5055	0.40425260330132595
5057	0.6230088230905702
5059	0.43905472917688754
5061	0.21781264325367464
5063	1.0965663216116046
5065	0.7354942656526532
5067	1.2202381617765465
5069	-0.4552356125183467
5071	-0.6690201000396535
5073	0.27374463126797005
5075	1.0462275323987387
5077	-0.022073438674303426
5079	0.7323869329851923
5081	0.9182054264993514
5083	-0.0593614306838337
5085	0.7939121198009172
5087	-1.0331994886660658
5089	-0.41919055357580076
5091	0.6739690788369282
5093	0.39368767223195905
5095	-0.048175033080974615
5097	-0.8380589971495241
5099	-0.2955187134108587
5101	-1.2121818503118111
5103	0.027022417471578093
5105	-0.18800500311671312
5107	-0.7156300900515664
5109	-0.0891918242914579
5111	1.2662266852549673
5113	0.1171350648279429
5115	-0.2184568632578295
5117	0.8169063815401276
5119	-0.01275144067192086
5121	0.4527269929137153
5123	-0.29489724687736657
5125	0.08357587201936566
5127	0.26442263326558746
5129	-0.6410541060325059
5131	0.09849106882317776
5133	1.864077490474436
5135	0.7006921397770915
5137	0.9505216862409444
5139	-0.11032168643019173
5141	-0.26879565247069537
5143	-0.3209988412840377
5145	0.8156634484731432
5147	0.4185463335716459
5149	0.9443070209060227
6001	-0.5372691949393132
6003	-1.5210507174574202
6005	-1.1456849312281487
6007	-0.44529214798247196
6009	-1.0133125595943164
6011	-0.9250643118384281
6013	-0.42540521891072247
6015	-1.1599786614984688
6017	-0.8622961919557188
6019	-0.5360262618723289
6021	-1.058679616539245
6023	-1.3302604916753236
6025	-0.5503199921426489
6027	-1.0748377464100414
6029	0.313518489411469
6031	-0.4353486834465972
6033	-0.5813933188172574
6035	-0.9076632489006473
6037	1.414135720226104
6039	-0.9735387014508174
6041	-0.8672679242236562
6043	-1.1997525196419676
6045	-1.7870383937920693
6047	-0.7417316844582376
6049	-1.3364751570102453
6051	-1.2749499701945204
6053	-1.208453051110858
6055	-0.20043433378655653
6057	-1.222746781381178
6059	0.6590538820331161
6061	-0.9480585735776383
6063	-1.1450634646946567
6065	0.23832103885891628
6067	-0.9039344496996943
6069	-1.2650065056586457
6071	0.4291112646410128
6073	-0.18365473738226792
6075	-1.1425775985606879
6077	-0.4788513407910492
6079	-1.3489044876800889
6081	-1.2140462499122877
6083	-1.2432551769864197
6085	-0.9642167034484348
6087	-1.3022944976681758
6089	-0.7261950211209333
6091	-0.9287931110393811
6093	-1.742292803380633
6095	-1.1748938583022808
6097	-1.0512220181373388
6099	-0.46952934278866665
6101	-0.5515629252096332
6103	-0.9362507094412872
6105	-1.5850617704071137
6107	-0.6230315765612329
6109	-1.0860241440129004
6111	-0.05749703108335718
6113	-1.72427027390936
6115	-0.21472806405687647
8001	0.21470531058621378
8003	-1.3607123518164401
8005	0.07238947441650659
8007	-1.716191208973962
8009	-0.0028079761360461225
8011	-0.33094230581991246
8013	-0.5670995885469375
8014	-0.20727046565497043
8015	-1.0524649512043232
8017	-0.025802237875256453
8019	-1.422237538632165
8021	-0.6839352968434657
8023	-1.0798094786779786
8025	-1.087888543613377
8027	-1.2569274407232474
8029	-1.5291297823928185
8031	-0.38314549463325487
8033	-0.5615063897455079
8035	0.03820881507443717
8037	-0.9921826974555825
8039	-0.6516190371018727
8041	-0.4943880041283535
8043	-1.0605440161397213
8045	-1.1363629332257663
8047	-1.7739875965887337
8049	-1.247605442720865
8051	-1.7261346735098366
8053	-1.8566426455431926
8055	-1.1009393408167125
8057	-0.6106022458913895
8059	-0.21099926485592344
8061	-0.9785104337187548
8063	-0.10348555456177784
8065	-0.6683986335061614
8067	-1.4812768593139212
8069	-0.7846128752691974
8071	-0.6826923637764813
8073	0.14199372616762976
8075	-0.8821831210274682
8077	-1.5887905696080669
8079	-1.4421244677039144
8081	0.10781306682556034
8083	-1.476305127045984
8085	-1.9548343578349556
8087	-0.32783497315245164
8089	-0.7883416744701505
8091	-2.159918313887372
8093	-1.3917856784910485
8095	0.5726700338777043
8097	-0.10597142069574653
8099	0.010864287600781642
8101	-0.4515068133173937
8103	-0.775912343800307
8105	-0.8834260540944526
8107	-1.484384191981382
8109	-2.0163595446506806
8111	-2.450764651561708
8113	-1.512971652522022
8115	-0.6783420980420362
8117	-1.3116164956705585
8119	-1.0294706894651129
8121	-0.6845567633769578
8123	-0.33591403808784986
8125	0.46267045744959007
9001	-0.18303327084877574
9003	-0.3495863018246776
9005	-0.5540487913436019
9007	-0.5030885355972439
9009	0.05498841147872579
9011	-0.04320330081303725
9013	-0.3862528273007157
9015	-0.032016903210178166
10001	-0.01772317293985823
10003	-0.21472806405687647
10005	0.03075121667253112
11001	-0.6752347653745753
12001	0.11402773216048205
12003	2.3705727152705554
12005	1.3861697262189563
12007	1.254418821118616
12009	0.9946458101188885
12011	1.534078761190093
12013	2.024415856115416
12015	1.1145888510828776
12017	0.5366249749351584
12019	1.4800111727762741
12021	0.27063729860050917
12023	0.8156634484731432
12027	1.820574833129984
12029	0.8411435763463223
12031	1.5247567631877106
12033	0.5086589809280108
12035	0.2911456942057508
12037	0.752895328590434
12039	-0.03450276934414685
12041	0.5092804474615029
12043	2.010122125845096
12045	1.0306908690614345
12047	0.4098458021027555
12049	1.6552647352210663
12051	1.3861697262189563
12053	1.3843053266184797
12055	1.3321021378051374
12057	1.1953795004368597
12059	1.4737965074413524
12061	0.2867954284713056
12063	0.6665114804350222
12065	-0.03450276934414685
12067	0.36323581209084266
12069	0.7510309289899575
12071	0.7435733305880514
12073	0.0027852226653834176
12075	0.3476991487535384
12077	1.141933378556533
12079	0.701935072844076
12081	0.5360035084016662
12083	0.8212566472745728
12085	0.21159797791875293
12086	3.0722084315832165
12087	-0.2743888512721249
12089	0.44526939451180925
12091	0.4141960678372007
12093	2.7521531668347485
12095	1.2674696183219516
12097	1.2550402876521083
12099	1.2643622856544907
12101	1.2631193525875064
12103	1.2985429449965602
12105	0.9641939499777722
12107	1.1413119120230408
12109	0.5304103096002367
12111	0.9101263615639532
12113	0.821878113808065
12115	0.1879822496460504
12117	1.2569046872525846
12119	0.8995614304945864
12121	0.20600477911732337
12123	-0.020209039073826915
12125	0.6863984095067717
12127	0.41792486703815374
12129	0.14385812576810625
12131	0.9331206233031636
12133	1.1071312526809716
13001	0.7062853385785212
13003	0.6385454864278745
13005	1.4408587811662674
13007	-0.25823072140132847
13009	0.6323308210929528
13011	0.4173034005046616
13013	0.45024112677974665
13015	0.7330083995186845
13017	0.12832146243080197
13019	1.5092200998504062
13021	0.6298449549589841
13023	0.5937998960164381
13025	1.3283733386041845
13027	0.7628387931263086
13029	0.13950786003366106
13031	0.687641342573756
13033	-0.7858558083361817
13035	0.3060608910095629
13037	0.04628788000983539
13039	0.411710201703232
13043	1.8541340259385612
13045	-0.01772317293985823
13047	0.716850269647888
13049	2.3059401957873695
13051	-0.09975675536082482
13053	-0.12026515096606646
13055	0.647867484430257
13057	0.6118224254877112
13059	-0.2594736544683128
13061	-0.40551828983897303
13063	-0.056254098016372836
13065	2.7272945054950615
13067	0.15504452337096533
13069	1.3432885354079964
13071	0.7174717361813802
13073	-0.3669873647624584
13075	0.8318215783439397
13077	-0.1650107413775028
13079	-0.59071531681964
13081	0.7404659979205905
13083	1.094080455477636
13085	0.15939478910541055
13087	-0.5888509172191635
13089	-0.5354047953388368
13091	1.4017063895562607
13093	0.19295398191398777
13095	-0.623653043094725
13097	0.33154101888274196
13099	1.872156555409834
13101	0.6528392166981944
13103	0.5558904374734157
13105	-0.4396989491810424
13107	0.6932345413751856
13109	0.3029535583421021
13111	0.3563996802224288
13113	-0.47822987425755703
13115	0.5627265693418296
13117	0.433461530375458
13119	-0.1643892748440106
13121	-0.46766494318819013
13123	-0.1625248752435341
13125	-1.07732361254401
13127	-0.29738311301133524
13129	0.8846462336907742
13131	-0.7852343418026896
13133	-0.3191344416835612
13135	0.2557221017966971
13137	-0.20913486525544694
13139	-0.06122583028431021
13141	-0.6367038402980607
13143	0.05498841147872579
13145	-0.5080602678651812
13147	-0.5192466654680403
13149	0.658432415499624
13151	0.003406689198875589
13153	0.6062292266862815
13155	0.21532677711970594
13157	0.06803920868206138
13159	0.2979818260741647
13161	1.744755916043939
13163	-0.23710085926259464
13165	-0.08608449162399705
13167	0.30233209180860987
13169	0.2314849069905024
13171	0.3520494144879836
13173	1.1027809869465264
13175	0.2202985093876433
13177	0.04877374614380408
13179	-0.08670595815748923
13181	0.14385812576810625
13183	1.7459988491109235
13185	0.12894292896429416
13187	0.29611742647368816
13189	-0.6590766355037788
13191	-0.24517992419799287
13193	-0.5465911929416959
13195	0.19108958231351128
13197	-0.8330872648815867
13199	-0.10721435376273088
13201	0.9461714205064992
13205	-0.44529214798247196
13207	0.8504655743487048
13209	-0.22342859552576688
13211	0.24329277112685363
13213	0.11216333256000553
13215	-0.02518077134176428
13217	0.057474277612694476
13219	-0.5733142538818592
13221	-0.24580139073148502
13223	0.8952111647601412
13225	1.0971877881450967
13227	0.27374463126797005
13229	0.6093365593537424
13231	0.5285459099997601
13233	1.054928063867629
13235	0.5819920318800869
13237	0.4813144534543552
13239	-2.300369750456603
13241	0.17928171817716002
13243	-0.6876640960444187
13245	-0.728680887254902
13247	-0.11840075136558995
13249	-0.7964207394055487
13251	-0.5919582498866244
13253	0.23459223965796325
13255	0.1562874564379497
13257	0.3041964914090864
13259	0.12769999589730982
13261	-0.6317321080301233
13263	-0.3843884277002392
13265	-1.6900896145672908
13267	0.7323869329851923
13269	-0.19856993418608002
13271	1.5328358281231087
13273	-0.9598664377139896
13275	-0.26382392020275797
13277	0.3806368750286235
13279	0.41543900090418506
13281	-0.5465911929416959
13283	-0.39371042570262177
13285	-0.3029763118127648
13287	0.21781264325367464
13289	1.7801795084529928
13291	-0.5546702578770941
13293	-0.5602634566785236
13295	0.5658339020092904
13297	0.5478113725380175
13299	0.6211444234900937
13301	-1.0543293508047997
13303	-0.289304048075937
13305	1.1319899140206584
13307	-0.6354609072310763
13309	1.6204626093455048
13311	-0.4204334866427851
13313	-0.3321852388868968
13315	-0.02518077134176428
13317	0.36820754435878006
13319	0.389958873031006
13321	0.34334888301909317
15001	-1.6745529512299864
15003	-1.4054579422278763
15005	-1.6080560321463242
15007	-1.8137614547322327
15009	-1.5378303138617089
16001	-0.7591327473960183
16003	-1.4004862099599389
16005	-0.23212912699465726
16007	-0.14823114497321416
16009	-1.1021822738836968
16011	-0.6099807793578973
16013	-1.4676045955770936
16015	-1.335232223943261
16017	-1.4377742019694693
16019	-0.4552356125183467
16021	-1.178622657503234
16023	0.5602407032078609
16025	-1.4166443398307353
16027	-0.5347833288053446
16029	-0.7895846075371348
16031	-1.1655718602998983
16033	-1.3209384936729411
16035	-0.6839352968434657
16037	-0.8828045875609605
16039	-0.7100368912501368
16041	-1.059301083072737
16043	-1.2438766435199118
16045	-1.313480895271035
16047	0.15193719070350448
16049	-0.9915612309220904
16051	-0.3738234966308723
16053	-0.7187374227190273
16055	-0.7982851390060252
16057	-1.3302604916753236
16059	-1.2799217024624578
16061	-0.9157423138360455
16063	-1.5577172429334583
16065	-0.8405448632834928
16067	-1.5999769672109259
16069	-1.1183404037544933
16071	-0.4316198842456442
16073	-0.6882855625779108
16075	-1.215910649512764
16077	-0.5838791849512261
16079	0.07798267321793613
16081	0.3153828890119455
16083	-0.6155739781593268
16085	-1.1220692029554462
16087	-0.5751786534823358
17001	-0.3085695106141943
17003	-0.24393699113100853
17005	-0.4987382698627987
17007	0.06058161028015533
17009	-0.45710001211882323
17011	-0.2719029851381562
17013	-0.5335403957383602
17015	-0.7081724916496603
17017	-0.44653508104945633
17019	-0.5733142538818592
17021	0.24702157032780667
17023	-0.14698821190622982
17025	1.0487133985327075
17027	-0.24953018993243806
17029	0.2606938340646344
17031	0.7547597281909104
17033	-0.2799820500735544
17035	-0.05252529881541981
17037	0.10035546842365428
17039	-0.242072591530532
17041	-0.5559131909440784
17043	0.2209199759211355
17045	0.5341391088011898
17047	-0.409247089039926
17049	-0.1904908692506818
17051	0.21532677711970594
17053	0.12024239749540376
17055	0.30854675714353164
17057	-0.25325898913339107
17059	0.29673889300718037
17061	0.3638572786243348
17063	0.5192239119973776
17065	-0.14388087923876897
17067	-0.5739357204153513
17069	0.5770202996121495
17071	-0.46952934278866665
17073	-0.5192466654680403
17075	-0.11156461949717607
17077	0.19854718071541733
17079	-0.31727004208308474
17081	0.37690807582767044
17083	0.5229527111983306
17085	-0.8386804636830163
17087	-0.16687514097797929
17089	0.4993369829256281
17091	0.9474143535734835
17093	0.28990276113876645
17095	0.10843453335905251
17097	0.3215975543468672
17099	0.16809532057430093
17101	1.0586568630685822
17103	-0.22529299512624337
17105	-0.09416355655939528
17107	-0.01275144067192086
17109	-0.8219008672787277
17111	0.5030657821265812
17113	-0.5838791849512261
17115	0.06617480908158486
17117	-0.10348555456177784
17119	0.14012932656715324
17121	1.2699554844559204
17123	-0.11715781829860561
17125	0.5447040398705566
17127	0.6149297581551719
17129	-0.5503199921426489
17131	-0.568963988147414
17133	0.34210594995210886
17135	-0.2271573947267199
17137	-0.16003900910956542
17139	-0.11156461949717607
17141	-0.23710085926259464
17143	-0.20789193218846258
17145	1.174249638298126
17147	-0.5739357204153513
17149	-0.40054655757103563
17151	0.29176716073924297
17153	-0.22032126285830603
17155	-0.40054655757103563
17157	0.20600477911732337
17159	0.2246487751220885
17161	-0.2613380540687893
17163	0.22216290898811983
17165	0.14572252536858277
17167	-0.22218566245878252
17169	-0.41919055357580076
17171	0.244535704193838
17173	0.07984707281841263
17175	-0.03015250360970165
17177	-0.8430307294174615
17179	-0.13207301510241773
17181	0.06431040948110836
17183	-0.20292019992052523
17185	0.13515759429921587
17187	-0.3166485755495925
17189	0.27063729860050917
17191	-0.01648023987287389
17193	0.5167380458634089
17195	0.26752996593304834
17197	0.9554934185088817
17199	0.06431040948110836
17201	-0.13269448163590988
17203	-0.7106583577836291
18001	-0.23523645966211812
18003	-0.21783539672433733
18005	-0.01648023987287389
18007	0.1451010588350906
18009	0.7982623855353624
18011	0.10967746642603685
18013	-0.8765899222260387
18015	0.6012574944183442
18017	0.5695627012102434
18019	1.4414802476997595
18021	1.1332328470876427
18023	0.03820881507443717
18025	0.8019911847363155
18027	1.1481480438914549
18029	-0.151338477640675
18031	0.2308634404570102
18033	-0.4322413507791364
18035	0.1388863935001689
18037	-0.1065928872292387
18039	-0.3477219022242011
18041	0.6049862936192972
18043	0.7802398560640895
18045	0.45769872518165267
18047	-0.3011119122122883
18049	0.429732731174505
18051	0.5229527111983306
18053	0.41792486703815374
18055	0.35080648142099924
18057	-0.020830505607319087
18059	0.057474277612694476
18061	0.9175839599658593
18063	0.27747343046892303
18065	0.14447959230159843
18067	0.6410313525618432
18069	-0.05563263148288067
18071	-0.2464228572649772
18073	0.7901833205999642
18075	0.25199330259574404
18077	0.8995614304945864
18079	0.14137225963413758
18081	0.13577906083270805
18083	0.9449284874395149
18085	-0.2694171190041875
18087	-0.8473809951519067
18089	1.4998981018480237
18091	0.11464919869397422
18093	0.33589128461718715
18095	0.8026126512698076
18097	0.3986594044998964
18099	0.07238947441650659
18101	0.4931223175907064
18103	0.4185463335716459
18105	-0.5559131909440784
18107	-0.05563263148288067
18109	0.17430998590922264
18111	0.05001667921078842
18113	-0.24580139073148502
18115	0.058095744146186644
18117	1.46447450943897
18119	-0.2159709971238608
18121	0.34645621568655405
18123	0.8610305054180717
18125	0.06679627561507705
18127	0.7740251907291678
18129	0.8026126512698076
18131	0.21905557632065897
18133	0.33091955234924975
18135	-0.1413950131048003
18137	-0.15506727684162805
18139	0.22962050739002587
18141	-0.2849537823414918
18143	1.7459988491109235
18145	0.9119907611644298
18147	0.1730670528422383
18149	0.3104111567440081
18151	-0.47574400812358836
18153	0.1904681157800191
18155	0.8535729070161657
18157	0.1494513245695358
18159	0.5260600438657915
18161	0.3048179579425786
18163	0.38933740649751386
18165	0.4825573865213395
18167	0.9474143535734835
18169	-0.17806153858083837
18171	0.35702114675592095
18173	0.7696749249947226
18175	1.1058883196139873
18177	0.8044770508702842
18179	0.1214853305623881
18181	0.5235741777318228
18183	-0.5441053268077272
19001	-0.6000373148220226
19003	-0.572692787348367
19005	-1.7304849392442818
19007	-0.6516190371018727
19009	-0.6112237124248816
19011	-0.4639361439872371
19013	-0.2787391170065701
19015	-0.37630936276484095
19017	-0.0021865096025539513
19019	-0.6802064976425126
19021	-1.018905758395746
19023	-0.28246791620752315
19025	-0.27003858553767973
19027	-1.2979442319337307
19029	-0.7889631410036426
19031	-1.3271531590078627
19033	-1.287379300864364
19035	-0.6957431609798169
19037	-0.5950655825540851
19039	-0.17495420591337751
19041	-1.655287488691729
19043	-1.1090184057521106
19045	-0.15568874337512023
19047	-1.1618430610989452
19049	-1.2003739861754599
19051	-0.8026354047404703
19053	-0.449020947183425
19055	-1.2724641040605518
19057	-0.6261389092286938
19059	-1.5247795166583733
19061	-0.9778889671852626
19063	-0.23772232579608682
19065	-0.289304048075937
19067	-0.46331467745374494
19069	-0.289304048075937
19071	-0.0978923557603483
19073	-1.1214477364219542
19075	-0.706929558582676
19077	-0.7945563398050721
19079	-0.02890957054271731
19081	-0.14325941270527678
19083	-0.2507731229994224
19085	0.22527024165558068
19087	-1.5073784537205923
19089	-1.0928602758813142
19091	-0.5813933188172574
19093	0.2979818260741647
19095	-0.9797533667857391
19097	-0.681449430709497
19099	-1.3128594287375428
19101	-0.5086817343986734
19103	-1.502406721452655
19105	-0.5670995885469375
19107	-1.117718937221001
19109	-0.9418439082427167
19111	-1.0729733468095648
19113	-0.5919582498866244
19115	-1.179244124036726
19117	-0.69947196018077
19119	-0.9200925795704907
19121	-1.2793002359289656
19123	-1.0903744097473456
19125	-0.4732581419896197
19127	-1.2115603837783189
19129	-0.3589082998270602
19131	-1.309752096070082
19133	-0.612466645491866
19135	-1.4520679322397891
19137	0.0935193365552404
19139	-0.6826923637764813
19141	-0.6770991649750517
19143	-1.3252887594073863
19145	0.1364005273662002
19147	-0.6857996964439422
19149	-0.5664781220134453
19151	-0.7498107493936358
19153	-1.0344424217330501
19155	-0.6062519801569443
19157	-1.6646094866941117
19159	-0.20292019992052523
19161	-0.22653592819322774
19163	-0.15320287724115153
19165	-0.4123544217073869
19167	-0.7131442239175977
19169	-0.9057988493001707
19171	-0.7467034167261749
19173	-0.20416313298750957
19175	-1.458904064108203
19177	-0.8138218023433295
19179	-0.4552356125183467
19181	-1.0711089472090882
19183	-1.3526332868810418
19185	-0.12399395016701949
19187	-0.7125227573841055
19189	-1.1929163877735538
19191	-1.7733661300552417
19193	-0.5198681320015325
19195	-1.084781210945916
19197	-0.27625325087260144
20001	-0.01275144067192086
20003	-0.1022426214947935
20005	-0.6435399721664745
20007	-0.12647981630098817
20009	0.4632919239830822
20011	-0.4552356125183467
20013	0.2979818260741647
20015	0.02080775213665638
20017	-1.0220130910632068
20019	0.9517646193079288
20021	0.5074160478610263
20023	1.2295601597789292
20025	1.5869034165369276
20027	0.16188065523937922
20029	-0.0873274246909814
20031	-0.10907875336320738
20033	-0.4658005435877136
20035	-0.6578337024367945
20037	0.6615397481670848
20039	0.7162288031143959
20041	-1.0909958762808378
20043	-0.3166485755495925
20045	-0.728680887254902
20047	1.4874687711781802
20049	-0.3477219022242011
20051	0.3178687551459142
20053	0.7982623855353624
20055	-0.8150647354103138
20057	-0.23399352659513378
20059	-0.07303369442066146
20061	-0.5229754646689934
20063	1.7994449709912501
20065	1.970348267701597
20067	-1.3147238283380194
20069	-1.2631421060581691
20071	1.7578067132472746
20073	1.156227108826853
20075	2.324584191792135
20077	0.57142710081072
20079	-0.7038222259152151
20081	0.5080375143945185
20083	-1.415401406763751
20085	0.03883028160792934
20087	-0.12523688323400384
20089	0.16374505483985574
20091	0.05996014374666316
20093	0.20165451338287818
20095	1.71927578817076
20097	-0.0655760960187554
20099	-0.0506608992149433
20101	1.1866789689679693
20103	-0.0699263617532006
20105	4.663784223856667
20107	-0.6168169112263112
20109	2.4115895064810386
20111	-0.49065920492740045
20113	-0.7168730231185507
20115	-0.26258098713577366
20117	-0.0021865096025539513
20119	0.5036872486600733
20121	-0.03139543667668599
20123	1.2519329549846474
20125	-0.08981329082495008
20127	0.5471899060045253
20129	-0.6547263697693336
20131	-0.21099926485592344
20133	0.4533484594472075
20135	1.1195605833508149
20137	-0.20105580032004872
20139	-0.43286281731262854
20141	0.720579068848841
20143	-0.1389091469708316
20145	1.2407465573817882
20147	0.7696749249947226
20149	0.42600393197355196
20151	-0.9872109651876452
20153	0.6733476123034361
20155	-0.1581746095090889
20157	-0.18986940271718963
20159	0.34459181608607753
20161	-1.0114481599938399
20163	-0.2141065975233843
20165	0.6031218940188208
20167	1.276170149790842
20169	-0.5093032009321656
20171	2.617294929066947
20173	-0.15568874337512023
20175	-0.8915051190298509
20177	-0.17433273937988536
20179	1.272441350589889
20181	0.4489981937127623
20183	-0.08422009202352054
20185	-0.503710002130736
20187	-0.6920143617788639
20189	0.16747385404080875
20191	-0.7131442239175977
20193	0.6068506932197737
20195	3.713561894147137
20197	-0.7174944896520429
20199	4.732145542540805
20201	-0.008401174937475662
20203	0.8287142456764789
20205	0.9126122276979219
20207	0.3489420818205227
20209	0.5869637641480243
21001	0.7286581337842393
21003	1.7037391248334557
21005	-0.078626893222091
21007	0.7037994724445524
21009	0.5919354964159617
21011	0.7243078680497941
21013	1.363175464479746
21015	1.3432885354079964
21017	-0.2588521879348206
21019	1.3314806712716454
21021	0.06368894294761619
21023	1.3544749330108556
21025	1.1226679160182758
21027	0.9772447471811078
21029	1.1785999040325712
21031	2.379894713272938
21033	0.6292234884254919
21035	-0.25015165646593024
21037	0.433461530375458
21039	0.34645621568655405
21041	1.7323265853740957
21043	0.8722169030209308
21045	2.5246964155766136
21047	0.14572252536858277
21049	0.6254946892245389
21051	2.8397799480571444
21053	2.2475223416391055
21055	1.6565076682880508
21057	3.6626016384007793
21059	0.34832061528703057
21061	1.6596150009555117
21063	1.0275835363939736
21065	0.7771325233966286
21067	-0.11467195216463692
21069	1.0163971387911146
21071	2.1928332866917946
21073	1.7211401877712367
21075	0.8224995803415571
21077	2.7409667692318895
21079	-0.01648023987287389
21081	0.6932345413751856
21083	0.7485450628559888
21085	1.0095610069227006
21087	1.9200094784887314
21089	1.8410832287352257
21091	-0.0637116964182789
21093	0.30978969021051594
21095	1.537186093857554
21097	0.0786041397514283
21099	1.1257752486857366
21101	0.5875852306815165
21103	1.2997858780635445
21105	-0.46517907705422146
21107	0.1494513245695358
21109	0.7367371987196375
21111	0.411710201703232
21113	-0.11591488523162127
21115	1.8075240359266485
21117	0.5571333705404
21119	3.1778577422768857
21121	0.9784876802480921
21123	0.5478113725380175
21125	0.3452132826195697
21127	0.9150980938318907
21129	-0.16687514097797929
21131	2.906898333674299
21133	1.831761230732843
21135	0.829335712209971
21137	0.5055516482605499
21139	1.2985429449965602
21141	1.0114254065231771
21143	0.9213127591668123
21145	0.5596192366743687
21147	1.3488817342094261
21149	0.21594824365319812
21151	0.4639133905165744
21153	2.2102343496295753
21155	0.1861178500455739
21157	1.007075140788732
21159	2.4277476363518353
21161	-0.048175033080974615
21163	0.36137141249036614
21165	-0.2184568632578295
21167	0.42724686504053627
21169	0.4123316682367242
21171	1.4880902377116725
21173	0.4396761957103797
21175	0.9324991567696714
21177	0.742330397521067
21179	0.43470446344244235
21181	1.486847304644688
21183	0.5186024454638855
21185	0.34459181608607753
21187	2.2437935424381523
21189	1.7391627172425095
21191	0.7622173265928165
21193	2.3276915244595955
21195	0.9499002197074522
21197	1.5875248830704198
21199	0.1109203994930212
21201	1.272441350589889
21203	0.3278122196817889
21205	0.9623295503772956
21207	0.49685111679165944
21209	0.21532677711970594
21211	0.8057199839372685
21213	1.8323826972663353
21215	0.662161214700577
21217	0.9971316762528573
21219	0.8312001118104475
21221	1.1145888510828776
21223	2.347578453531345
21225	1.2556617541856003
21227	0.6540821497651788
21229	0.3290551527487733
21231	0.8678666372864856
21233	0.8057199839372685
21235	1.2792774824583029
21237	1.3389382696735512
21239	0.06368894294761619
22001	1.018261538391591
22003	1.0642500618700117
22005	1.1549841757598687
22007	0.17058118670826963
22009	2.601758265729643
22011	1.7292192527066348
22013	1.6515359360201134
22015	1.53034996198914
22017	1.1444192446905017
22019	0.9306347571691949
22021	3.2375185294921343
22023	-0.5627493228124923
22025	1.5489939579939052
22027	1.8684277562088811
22029	1.6670725993574176
22031	1.0984307212120812
22033	0.266287032866064
22035	2.553905342650746
22037	1.5713667531996234
22039	3.521528735298056
22041	2.2661663376438708
22043	1.7540779140463216
22045	0.6671329469685143
22047	0.6938560079086777
22049	2.477464959031209
22051	0.6826696103058186
22053	1.7341909849745722
22055	0.9070190288964924
22057	0.5695627012102434
22059	2.9044124675403302
22061	1.0996736542790655
22063	2.0548677162565325
22065	2.339499388595947
22067	2.365600983002618
22069	1.911930413553333
22071	0.22651317472256502
22073	2.04554571825415
22075	0.012728687201258155
22077	0.705663872045029
22079	1.1829501697670164
22081	2.8273506173873013
22083	2.442041366622155
22085	0.9424426213055461
22087	0.7845901217985347
22089	0.7976409190018703
22091	4.013108763290363
22093	0.9567363515758661
22095	0.08792613775381086
22097	1.1829501697670164
22099	1.061764195736043
22101	1.2009726992382894
22103	1.8553769590055456
22105	3.261755724298329
22107	0.9623295503772956
22109	0.5527831048059548
22111	1.9790487991704875
22113	0.4309756642414893
22115	2.3488213865983294
22117	3.945368911139717
22119	1.4315367831638848
22121	0.13577906083270805
22123	2.4724932267632713
22125	0.7696749249947226
22127	3.0653722997148027
23001	-0.6422970390994902
23003	-0.5267042638699464
23005	-0.8287369991471415
23007	-1.018905758395746
23009	-0.260095121001805
23011	-0.7821270091352287
23013	-1.2563059741897553
23015	-0.6298677084296468
23017	-0.6298677084296468
23019	-0.35207216795864626
23021	-0.6118451789583739
23023	-1.164328927232914
23025	-0.4061397563724652
23027	-0.8051212708744391
23029	-0.3346711050208655
23031	-0.6429185056329824
24001	0.17555291897620698
24003	-0.03947450161208422
24005	0.1904681157800191
24009	-0.12958714896844903
24011	0.16623092097382441
24013	0.0009208230649069042
24015	0.40611700290180247
24017	0.11651359829445074
24019	0.10781306682556034
24021	0.012107220667765985
24023	-0.514274933200103
24025	0.12645706283032548
24027	-0.4123544217073869
24029	-0.20229873338703305
24031	-0.728680887254902
24033	-0.5093032009321656
24035	-0.28060351660704663
24037	0.32470488701432804
24039	-0.32286324088451424
24041	-0.18427620391576008
24043	-0.1625248752435341
24045	0.09103347042127172
24047	0.2072477121843077
24510	0.4054955363683103
25001	-0.34585750262372456
25003	-0.27749618393958575
25005	0.05996014374666316
25007	-0.3756878962313488
25009	0.08544027161984218
25011	-1.1376058662927506
25013	-0.5148963997335951
25015	-0.6454043717669511
25017	0.008378421466812957
25019	-0.7386243517907767
25021	0.19854718071541733
25023	0.32656928661480455
25025	0.24018543845939277
25027	0.08295440548587349
26001	-0.6690201000396535
26003	-0.5354047953388368
26005	-0.47077227585565096
26007	0.012728687201258155
26009	-0.6298677084296468
26011	0.5670768350762748
26013	-0.038231568545099875
26015	-0.14015208003781593
26017	0.6267376222915232
26019	-1.0387926874674953
26021	-0.059982897217325866
26023	-0.12026515096606646
26025	0.09227640348825605
26027	0.10905599989254468
26029	-0.47387960852311184
26031	-0.24393699113100853
26033	0.13826492696667672
26035	0.66589001390153
26037	-0.5304330630708994
26039	0.5067945813275342
26041	-1.058679616539245
26043	-1.193537854307046
26045	0.14012932656715324
26047	-0.7808840760682444
26049	1.1649276402957434
26051	0.49685111679165944
26053	-1.298565698467223
26055	-0.5049529351977204
26057	0.11899946442841941
26059	0.17679585204319134
26061	-0.9107705815681081
26063	0.5304103096002367
26065	0.23583517272494758
26067	0.05063814574428059
26069	-0.2538804556668833
26071	-0.3011119122122883
26073	0.13515759429921587
26075	0.5018228490595968
26077	-0.5565346574775706
26079	-0.3912245595686531
26081	-0.2184568632578295
26083	-0.6248959761617094
26085	0.022672151737132894
26087	0.9840808790495216
26089	-1.1910519881730772
26091	-0.15693167644210457
26093	0.5745344334781809
26095	0.7827257221980581
26097	-0.1687395405784558
26099	1.3625539979462538
26101	-0.5950655825540851
26103	-1.0723518802760725
26105	-0.7007148932477543
26107	-0.29427578034387436
26109	-0.724952088053949
26111	-0.41484028784135557
26113	-0.5789074526832888
26115	0.9331206233031636
26117	0.36820754435878006
26119	-0.28868258154244486
26121	-0.33404963848737335
26123	-0.6118451789583739
26125	1.1611988410947904
26127	-0.7783982099342757
26129	0.44713379411228577
26131	-0.13828768043733944
26133	-0.5857435845517026
26135	0.1171350648279429
26137	-0.45834294518580754
26139	-0.5043314686642282
26141	-0.3265920400854673
26143	0.4744783215859413
26145	0.33091955234924975
26147	0.3166258220789298
26149	-0.5099246674656578
26151	0.2594509009976501
26153	-0.1643892748440106
26155	-0.008401174937475662
26157	0.7367371987196375
26159	-0.5925797164201165
26161	-0.13269448163590988
26163	1.4265650508959475
26165	-0.4720152089226353
27001	-0.9884538982546295
27003	-0.42229788624326164
27005	-0.7665903457979244
27007	-1.084781210945916
27009	-0.3999250910375435
27011	-0.06681902908573975
27013	-1.036928287867019
27015	-0.7908275406041191
27017	-1.64410109108887
27019	-0.9406009751757324
27021	-1.0599225496062292
27023	-1.1158545376205247
27025	-0.9480585735776383
27027	-0.8585673927547658
27029	-0.008401174937475662
27031	-1.7180556085744385
27033	-1.5465308453305993
27035	-1.1382273328262427
27037	-0.8057427374079312
27039	-1.2016169192424442
27041	-0.688907029111403
27043	-0.9741601679843096
27045	-1.4433674007708988
27047	-1.182972923237679
27049	-1.4781695266464603
27051	-0.39371042570262177
27053	-0.9586235046470053
27055	-2.000201414779884
27057	-1.4489605995723283
27059	-0.8660249911566718
27061	-1.1581142618979923
27063	-1.3948930111585094
27065	-1.0841597444124238
27067	-1.764044132052859
27069	-0.5267042638699464
27071	-1.2469839761873727
27073	0.1214853305623881
27075	-1.2096959841778425
27077	-0.5714498542813827
27079	-1.2003739861754599
27081	-1.2569274407232474
27083	-0.5938226494871008
27085	-0.9983973627905043
27087	0.24142837152637714
27089	-0.5583990570780472
27091	-1.3520118203475495
27093	-1.1686791929673592
27095	-0.9673240361158957
27097	-1.9703710211722598
27099	-1.273707037127536
27101	-0.6068734466904364
27103	-1.0673801480081353
27105	-1.4197516724981962
27107	-1.4806553927804291
27109	-1.6372649592204562
27111	-1.0021261619914572
27113	-1.2320687793835605
27115	-0.7572683477955419
27117	-1.1550069292305314
27119	-0.9959114966565356
27121	-0.5888509172191635
27123	-0.8156862019438059
27125	-1.2668709052591223
27127	-1.1021822738836968
27129	-0.953651772379068
27131	-1.5664177744023486
27133	-1.2942154327327777
27135	-1.3122379622040508
27137	-0.979131900252247
27139	-0.5130320001331186
27141	-0.663426901238224
27143	-1.0406570870679719
27145	-1.2308258463165762
27147	-1.8187331870001702
27149	0.39679500489941993
27151	-0.7056866255156916
27153	-1.5098643198545612
27155	-0.3576653667600758
27157	-1.3271531590078627
27159	-1.2681138383261066
27161	-1.4122940740962902
27163	-0.8865333867619134
27165	-1.7180556085744385
27167	-1.273707037127536
27169	-1.2500913088548335
27171	-0.5826362518842417
27173	-0.5391335945397898
28001	0.7025565393775681
28003	0.9878096782504746
28005	0.5627265693418296
28007	0.5043087151935655
28009	0.7628387931263086
28011	2.075376111861774
28013	1.1897863016354302
28015	1.2407465573817882
28017	0.37442220969370177
28019	0.7914262536669485
28021	3.3338458421834205
28023	2.213341682297036
28025	0.3128970228779768
28027	1.3221586732692627
28029	1.384926793151972
28031	1.471932107840876
28033	0.6267376222915232
28035	1.4489378461016655
28037	1.693795660297581
28039	1.4675818421064308
28041	2.133793966010038
28043	1.5508583575943817
28045	0.9573578181093583
28047	0.9989960758533337
28049	0.14137225963413758
28051	1.0412558001308014
28053	0.9337420898366557
28055	-1.4197516724981962
28057	0.687641342573756
28059	0.7541382616574183
28061	-0.09416355655939528
28063	1.893286417548568
28065	1.493683436513102
28067	0.020186285603164208
28069	1.7385412507090174
28071	-0.7237091549869646
28073	0.5328961757342053
28075	0.5795061657461182
28077	1.9106874804863487
28079	1.2892209469941776
28081	0.12024239749540376
28083	0.8889964994252194
28085	-0.17495420591337751
28087	0.05063814574428059
28089	0.5925569629494538
28091	1.2289386932454371
28093	0.08233293895238132
28095	0.898318497427602
28097	1.7863941737879145
28099	0.7895618540664721
28101	2.1965620858927473
28103	0.538489374535635
28105	-0.467043476654698
28107	0.6093365593537424
28109	1.0903516562766828
28111	1.9958283955747762
28113	0.5310317761337289
28115	0.32656928661480455
28117	0.6385454864278745
28119	1.2743057501903656
28121	1.0027248750542868
28123	2.085319576397649
28125	1.076057926006363
28127	0.7497879959229731
28129	1.4924405034461177
28131	2.1741892906870293
28133	2.732887704296491
28135	1.540914893058507
28137	1.3364524035395826
28139	0.7398445313870984
28141	1.3389382696735512
28143	1.2482041557836943
28145	0.2439142376603458
28147	1.3165654744678332
28149	1.726111920039174
28151	0.4017667371673573
28153	0.6938560079086777
28155	0.6814266772388343
28157	0.7379801317866218
28159	-0.42229788624326164
28161	0.8094487831382216
28163	1.810009902060617
29001	0.1432366592346141
29003	0.8206351807410807
29005	0.09600520268920909
29007	-0.2706600520711719
29009	0.033858549339991974
29011	1.1189391168173228
29013	-0.2551233887338676
29015	-0.3166485755495925
29017	-0.17371127284639318
29019	-0.673991832307591
29021	0.41543900090418506
29023	0.20600477911732337
29025	-0.13642328083686292
29027	-0.38749576036770006
29029	-0.21783539672433733
29031	-0.5074388013316891
29033	-0.2725244516716484
29035	-0.2787391170065701
29037	0.21159797791875293
29039	0.10967746642603685
29041	-0.2538804556668833
29043	-0.14885261150670634
29045	-0.29303284727689005
29047	0.4396761957103797
29049	-0.04506770041351376
29051	-0.20727046565497043
29053	-0.797663672472533
29055	0.004649622265859931
29057	-1.2687353048595986
29059	-0.07676249362161448
29061	-0.2905469811429213
29063	-0.49998120292978304
29065	0.5776417661456417
29067	-0.42664815197770684
29069	0.981595012915553
29071	0.33091955234924975
29073	0.5701841677437357
29075	0.6161726912221563
29077	-0.33529257155435765
29079	0.0978696022896856
29081	0.8486011747482283
29083	0.3110326232775003
29085	-0.7995280720730095
29087	0.06928214174904573
29089	-1.6030842998783867
29091	-0.7827484756687209
29093	0.7995053186023467
29095	0.06431040948110836
29097	0.049395212677296255
29099	1.2805204155252872
29101	0.22962050739002587
29103	0.4396761957103797
29105	-0.5167607993340716
29107	0.21346237751922942
29109	0.44713379411228577
29111	-0.21099926485592344
29113	1.0723291268054098
29115	0.3501850148875071
29117	0.44091912877736406
29119	-0.12275101710003515
29121	0.5229527111983306
29123	0.7995053186023467
29125	0.017700419469195525
29127	-0.25636632180085195
29129	-0.11218608603066824
29131	-0.5012241359967674
29133	0.23459223965796325
29135	-0.49065920492740045
29137	-0.36760883129595057
29139	0.1836319839116052
29141	-0.3514507014251541
29143	0.10967746642603685
29145	0.14385812576810625
29147	-0.3669873647624584
29149	-0.9673240361158957
29151	-0.015858773339381717
29153	-0.5683425216139218
29155	0.0891690708207952
29157	0.6801837441718499
29159	-0.4011680241045278
29161	0.08979053735428738
29163	-0.17806153858083837
29165	0.47696418771991
29167	-0.6603195685707631
29169	0.26007236753114227
29171	1.246339756183218
29173	-0.6385682398985372
29175	0.4719924554519726
29177	1.0891087232096985
29179	1.0375270009298483
29181	1.068600327604457
29183	0.39058033956449817
29185	0.8672451707529935
29186	0.6360596202939058
29187	1.2419894904487727
29189	0.1326717281652472
29195	0.19543984804795647
29197	0.9940243435853964
29199	1.9268456103571452
29201	-0.04009596814557639
29203	0.2072477121843077
29205	-0.4142188213078634
29207	0.055609878012217964
29209	-0.03574570241113119
29211	0.06058161028015533
29213	0.3110326232775003
29215	-0.18116887124829922
29217	-1.0816738782784552
29219	-0.04320330081303725
29221	1.7640213785821963
29223	-0.08546302509050488
29225	-0.09913528882733265
29227	0.05996014374666316
29229	-0.10286408802828567
29510	0.33589128461718715
30001	-0.9480585735776383
30003	0.6739690788369282
30005	-1.306023296869129
30007	-1.9995799482463918
30009	-1.186701722438632
30011	-2.2724037564494552
30013	-0.961109370780974
30015	-0.8455165955514301
30017	-1.6702026854955412
30019	-0.7560254147285576
30021	-1.2693567713930909
30023	-0.6702630331066379
30025	-1.004612028125426
30027	-1.5633104417348878
30029	-1.2488483757878492
30031	-1.396757410758986
30033	-2.3824033328775696
30035	0.013350153734750327
30037	-1.498677922251702
30039	-0.6833138303099735
30041	-1.5254009831918653
30043	-1.3594694187494556
30045	-0.7902060740706269
30047	-0.9673240361158957
30049	-1.3346107574097688
30051	-1.4607684637086795
30053	-1.3818422139551738
30055	-2.399182929281858
30057	-1.2382834447184823
30059	0.25199330259574404
30061	-0.9057988493001707
30063	-1.524158050124881
30065	-0.6845567633769578
30067	-1.2749499701945204
30069	-2.835452435793362
30071	-0.8598103258217501
30073	-0.8156862019438059
30075	-2.069184199997515
30077	-1.0841597444124238
30079	-0.36574443169547405
30081	-1.6204853628161675
30083	-1.6708241520290334
30085	-0.957380571580021
30087	-0.23523645966211812
30089	-1.6298073608185502
30091	-0.9604879042474819
30093	-0.8989627174317569
30095	-0.6982290271137856
30097	-1.6434796245553778
30099	-1.6198638962826755
30101	-0.7081724916496603
30103	-1.6521801560242684
30105	-1.8367557164714432
30107	-0.44529214798247196
30109	-2.5501992969204554
30111	-1.004612028125426
31001	-0.7597542139295106
31003	0.8032341178032998
31005	-0.13145154856892555
31007	-0.6081163797574208
31009	-1.4787909931799526
31011	-0.3209988412840377
31013	0.3563996802224288
31015	0.45148405984673096
31017	0.2035189129833547
31019	-0.6783420980420362
31021	-0.0637116964182789
31023	-0.8796972548934996
31025	-0.14823114497321416
31027	-0.7230876884534725
31029	-0.5739357204153513
31031	-0.46890787625517444
31033	-0.7957992728720564
31035	-1.0244989571971754
31037	0.132050261631755
31039	-1.005233494658918
31041	-0.2054060660544939
31043	-0.96856696918288
31045	-1.6994116125696732
31047	0.04380201387586671
31049	-1.79573892526096
31051	0.19295398191398777
31053	-0.8032568712739625
31055	-0.25450192220037543
31057	0.15131572417001232
31059	-0.5994158482885305
31061	-0.5459697264082036
31063	1.0132898061236537
31065	0.7435733305880514
31067	-0.3906030930351609
31069	-0.5372691949393132
31071	0.890860899025696
31073	0.7852115883320269
31075	-0.48009427385803355
31077	-0.18116887124829922
31079	-0.5441053268077272
31081	-1.208453051110858
31083	0.484421786121816
31085	-0.3253491070184829
31087	0.2184341097871668
31089	0.8933467651596646
31091	-0.5695854546809062
31093	0.5894496302819929
31095	-0.9362507094412872
31097	0.923798625300781
31099	0.24329277112685363
31101	-0.6547263697693336
31103	0.10905599989254468
31105	-0.41608322090833993
31107	-0.7361384856568081
31109	-0.5378906614728055
31111	-0.2768747174060936
31113	-1.2134247833787954
31115	0.6273590888250153
31117	-0.04320330081303725
31119	-0.6062519801569443
31121	-0.5366477284058211
31123	-1.3955144776920017
31125	0.30543942447607075
31127	0.6758334784374047
31129	0.16312358830636356
31131	-0.16376780831051843
31133	0.3215975543468672
31135	-1.085402677479408
31137	0.30357502487559423
31139	0.24577863726082233
31141	-0.9673240361158957
31143	-0.362015632494521
31145	-0.43597014998008937
31147	0.7330083995186845
31149	0.7187146692483646
31151	0.11899946442841941
31153	-0.13953061350432377
31155	-0.11032168643019173
31157	-1.026363356797652
31159	-0.37195909703039576
31161	-1.4756836605124917
31163	-0.525461330802962
31165	-0.8840475206279448
31167	-0.2054060660544939
31169	-0.08794889122447357
31171	0.1171350648279429
31173	-0.26879565247069537
31175	1.7745863096515633
31177	-0.041960367746052905
31179	-0.3850098942337314
31181	-0.430998417712152
31183	1.2127805633746407
31185	-0.21534953059036865
32001	-0.3787952288988097
32003	0.916341026898875
32005	-1.2973227654002386
32007	-0.9238213787714438
32009	-2.115794190009428
32011	-1.2500913088548335
32013	-1.066758681474643
32015	-1.803817990196358
32017	-0.5322974626713759
32019	-1.194159320840538
32021	0.3029535583421021
32023	0.7013136063105837
32027	-1.007719360792887
32029	-0.5751786534823358
32031	-0.9026915166327099
32033	-0.8256296664796807
32510	-0.8722396564915935
33001	-0.7933134067380878
33003	-1.000883228924473
33005	-1.2034813188429208
33007	-0.9505444397116071
33009	-1.2656279721921377
33011	-0.5204895985350246
33013	-0.7317882199223629
33015	-0.3104339102146708
33017	-0.5646137224129688
33019	-1.1363629332257663
34001	0.7243078680497941
34003	0.386230073830053
34005	0.02640095093808592
34007	0.46826365625101957
34009	0.626116155758031
34011	0.6000145613513599
34013	0.5906925633489774
34015	0.4427835283778406
34017	0.7230649349828098
34019	-0.3843884277002392
34021	0.3688290108922722
34023	0.2830666292703526
34025	0.5403537741361114
34027	0.10284133455762297
34029	0.7218220019158254
34031	0.5577548370738922
34033	0.2681514324665405
34035	0.057474277612694476
34037	-0.09416355655939528
34039	-0.12088661749955863
34041	0.7572455943248791
35001	-1.2438766435199118
35003	-2.518504503712355
35005	-0.5459697264082036
35006	-1.0487361520033702
35007	-1.7690158643207965
35009	-0.042581834279545074
35011	-1.066137214941151
35013	-0.4981168033293065
35015	-0.41919055357580076
35017	-1.6192424297491832
35019	-2.1605397804208644
35021	-1.4427459342374067
35023	-1.742292803380633
35025	0.7031780059110603
35027	-1.6322932269525188
35028	-1.7230273408423757
35029	-1.1257980021563994
35031	-1.189809055106093
35033	-1.9790715526411502
35035	-0.5956870490875774
35037	-0.3514507014251541
35039	-1.770880263921273
35041	0.08606173815333434
35043	-1.1525210630965628
35045	-0.8747255226255622
35047	-1.3159667614050037
35049	-1.8771510411484342
35051	-0.877832855293023
35053	-1.6136492309477537
35055	-1.8982809032871681
35057	-1.6105418982802928
35059	0.38001540849513127
35061	-1.4862485915818586
36001	-0.7087939581831525
36003	-0.9275501779723967
36005	0.34210594995210886
36007	-0.7467034167261749
36009	-0.3116768432816552
36011	-0.7386243517907767
36013	-0.8057427374079312
36015	-0.409247089039926
36017	-1.055572283871784
36019	-0.4446706814489798
36021	-0.3949533587696061
36023	-0.5267042638699464
36025	-0.40676122290595734
36027	-0.3694732308964271
36029	-0.8939909851638195
36031	-0.3682302978294427
36033	-0.8598103258217501
36035	-0.22218566245878252
36037	-0.7815055426017365
36039	-0.3881172269011922
36041	-0.7802626095347522
36043	-0.4384560161140581
36045	-0.9350077763743028
36047	1.1891648351019382
36049	-1.6354005596199797
36051	-1.0928602758813142
36053	-0.9275501779723967
36055	-0.7740479441998305
36057	-0.7094154247166446
36059	0.4458908610453014
36061	-0.24145112499703983
36063	-0.5061958682647048
36065	-0.42167641970976943
36067	-0.7734264776663383
36069	-1.338339556610722
36071	0.14199372616762976
36073	-1.0785665456109943
36075	-0.05252529881541981
36077	-1.007719360792887
36079	0.30233209180860987
36081	0.4533484594472075
36083	-0.36388003209499753
36085	0.9467928870399913
36087	0.5739129669446886
36089	-0.8138218023433295
36091	-0.6435399721664745
36093	-1.138848799359735
36095	-0.9946685635895512
36097	-0.5428623937407429
36099	-0.6721274327071144
36101	-1.0114481599938399
36103	0.5987716282843755
36105	0.16809532057430093
36107	-0.8970983178312804
36109	-1.785173994191593
36111	-0.4154617543748477
36113	-0.7143871569845821
36115	-0.6677771669726692
36117	-0.1283442159014647
36119	0.08792613775381086
36121	-0.953651772379068
36123	-1.5583387094669505
37001	-0.23399352659513378
37003	-0.11467195216463692
37005	-0.0021865096025539513
37007	-0.35517950062610715
37009	-0.44032041571453456
37011	0.21470531058621378
37013	-0.8970983178312804
37015	-0.3191344416835612
37017	0.7410874644540827
37019	-0.2060275325879861
37021	-0.8511097943528597
37023	-0.30794804408070214
37025	0.1494513245695358
37027	-0.23834379232957897
37029	-0.23772232579608682
37031	-0.1650107413775028
37033	-0.22218566245878252
37035	-0.456478545585331
37037	-0.8032568712739625
37039	-0.870375256891117
37041	-1.117718937221001
37043	-1.1842158563046634
37045	-0.2122421979229078
37047	0.7323869329851923
37049	-0.15320287724115153
37051	-0.260095121001805
37053	-0.38998162650166873
37055	-1.1780011909697417
37057	0.049395212677296255
37059	0.3284336862152811
37061	0.09600520268920909
37063	-0.819415001144759
37065	-0.30546217794673347
37067	-0.16749660751147147
37069	-0.08857035775796573
37071	0.18736078311255824
37073	-0.7150086235180743
37075	-0.5664781220134453
37077	-0.7634830131304636
37079	0.40611700290180247
37081	-0.49625240372883
37083	0.21532677711970594
37085	0.44961966024625444
37087	-0.5378906614728055
37089	-0.5975514486880539
37091	-0.6882855625779108
37093	0.8604090388845795
37095	-0.6509975705683806
37097	0.45024112677974665
37099	-0.7522966155276045
37101	0.7852115883320269
37103	-0.3924674926356374
37105	0.03137268320602329
37107	-0.04568916694700593
37109	0.08854760428730303
37111	-0.5826362518842417
37113	-1.284893434730395
37115	-0.2849537823414918
37117	0.3856086072965608
37119	-0.5670995885469375
37121	-0.1886264696502053
37123	0.3476991487535384
37125	-0.3303208392864203
37127	0.05250254534475711
37129	-0.18427620391576008
37131	0.2998462256746412
37133	0.13950786003366106
37135	-1.4166443398307353
37137	-0.22653592819322774
37139	-0.6491331709679041
37141	0.12024239749540376
37143	-0.7193588892525195
37145	-0.4080041559729417
37147	-0.17619713898036188
37149	-0.7945563398050721
37151	0.003406689198875589
37153	0.7093926712459819
37155	0.7373586652531297
37157	-0.07179076135367711
37159	-0.3725805635638879
37161	-0.41608322090833993
37163	0.2936315603397195
37165	0.008999888000305128
37167	-0.05128236574843547
37169	0.36012847942338183
37171	0.6677544135020065
37173	-0.6106022458913895
37175	-1.2674923717926143
37177	-0.6727488992406065
37179	-0.2035416664540174
37181	-0.6286247753626625
37183	-0.37941669543230183
37185	-0.9331433767738263
37187	-0.33094230581991246
37189	-0.23088619392767293
37191	-0.22840032779370423
37193	0.40922433556926335
37195	0.014593086801734668
37197	0.9766232806476156
37199	-0.9673240361158957
38001	-1.125176535622907
38003	-1.0972105416157594
38005	-0.4154617543748477
38007	0.2613153005981266
38009	-0.6541049032358415
38011	0.06741774214856922
38013	-1.4458532669048674
38015	-0.7703191449988774
38017	-0.7609971469964949
38019	-0.9530303058455758
38021	-0.48009427385803355
38023	-2.0437040721243362
38025	-1.0294706894651129
38027	-0.532918929204868
38029	-1.0686230810751196
38031	-0.5577775905445549
38033	-1.7416713368471408
38035	-0.39806069143706696
38037	-0.8983412508982647
38039	-0.48195867345851007
38041	-1.2463625096538806
38043	-1.7485074687155548
38045	-1.2146677164457798
38047	-0.7013363597812464
38049	-1.418508739431212
38051	0.12645706283032548
38053	-0.7106583577836291
38055	-0.3408857703557872
38057	-1.0605440161397213
38059	-0.7914490071376112
38061	-1.3942715446250173
38063	-0.6074949132239286
38065	-1.1630859941659295
38067	-0.8529741939533362
38069	-0.07365516095415363
38071	-0.9325219102403342
38073	-0.4825801399920022
38075	-1.3283960920748472
38077	-1.4570396645077266
38079	-0.14450234577226115
38081	-0.5447267933412193
38083	-0.2799820500735544
38085	-1.0015046954579652
38087	1.0555495304011213
38089	-1.5222936505244045
38091	-1.382463680488666
38093	-1.3843280800891424
38095	-0.8535956604868283
38097	-0.5776645196163044
38099	-0.5360262618723289
38101	-1.1773797244362496
38103	-0.1065928872292387
38105	-1.912574633557488
39001	1.101538053879542
39003	0.6130653585546955
39005	-0.3862528273007157
39007	1.1593344414943139
39009	0.29673889300718037
39011	0.11837799789492724
39013	0.8330645114109241
39015	0.5366249749351584
39017	0.8740813026214074
39019	0.29922475914114904
39021	0.34210594995210886
39023	0.7802398560640895
39025	0.8591661058175952
39027	0.4228965993060911
39029	0.7939121198009172
39031	0.43656886304291886
39033	0.7373586652531297
39035	0.6385454864278745
39037	0.36137141249036614
39039	0.364478745157827
39041	0.05374547841174145
39043	0.611200958954219
39045	0.7802398560640895
39047	0.7000706732435994
39049	0.38498714076306867
39051	-0.22467152859275122
39053	0.6317093545594606
39055	0.45396992598069963
39057	0.22775610778954936
39059	0.33091955234924975
39061	0.2308634404570102
39063	-0.32969937275292815
39065	0.7013136063105837
39067	1.1649276402957434
39069	0.23459223965796325
39071	0.5652124354757982
39073	0.9194483595663359
39075	-0.539755061073282
39077	0.4595631247821292
39079	0.9008043635615707
39081	1.714925522436315
39083	0.5409752406696036
39085	0.6136868250881876
39087	1.0754364594728707
39089	0.02142921867014855
39091	-0.30981244368117866
39093	1.1295040478866896
39095	1.1108600518819245
39097	0.3066823575430551
39099	0.9573578181093583
39101	1.0294479359944502
39103	0.46950658931800393
39105	0.8958326312936333
39107	-0.2551233887338676
39109	0.5055516482605499
39111	0.2874168950047978
39113	0.7547597281909104
39115	0.16871678710779311
39117	0.3066823575430551
39119	0.22527024165558068
39121	0.4962296502581673
39123	0.7678105253942461
39125	0.23832103885891628
39127	0.5658339020092904
39129	1.0692217941379492
39131	1.729840719240127
39133	0.7193361357818567
39135	0.8486011747482283
39137	-0.02890957054271731
39139	0.1214853305623881
39141	1.2382606912478196
39143	0.05063814574428059
39145	2.3736800479380165
39147	-0.18738353658322093
39149	-0.21037779832243128
39151	0.40860286903577114
39153	0.593178429482946
39155	1.1444192446905017
39157	0.12210679709588028
39159	0.7174717361813802
39161	0.36199287902385835
39163	0.2588294344641579
39165	0.600636027884852
39167	0.7100141377794742
39169	0.04442348040935888
39171	0.07487534055047526
39173	0.2557221017966971
39175	0.04815227961031191
40001	1.2115376303076562
40003	0.16188065523937922
40005	1.9560545374312772
40007	-0.8113359362093607
40009	0.713121470446935
40011	1.1201820498843071
40013	2.267409270710855
40015	0.6453816182962884
40017	0.23956397192590062
40019	0.8902394324922038
40021	0.3992808710333886
40023	3.2132813346859392
40025	0.7398445313870984
40027	0.8305786452769554
40029	2.850966345660004
40031	0.02764388400507026
40033	0.6776978780378813
40035	-0.40241095717151215
40037	0.7696749249947226
40039	0.6267376222915232
40041	0.39058033956449817
40043	0.6888842756407403
40045	-0.5670995885469375
40047	0.08668320468682651
40049	0.2246487751220885
40051	0.9411996882385618
40053	-0.07054782828669277
40055	1.7000103256325028
40057	1.5639091547977173
40059	-0.4154617543748477
40061	1.5875248830704198
40063	0.16995972017477745
40065	1.2457182896497256
40067	2.0660541138593915
40069	2.297239664318479
40071	-0.22467152859275122
40073	1.0002390089203181
40075	0.48007152038737083
40077	1.5272426293216792
40079	1.413514253692612
40081	0.2998462256746412
40083	-0.22653592819322774
40085	1.8479193606036395
40087	0.6068506932197737
40089	2.0778619779957426
40091	0.8448723755472752
40093	0.28555249540432126
40095	1.4408587811662674
40097	0.47323538851895697
40099	1.606168879075185
40101	0.41792486703815374
40103	-0.46331467745374494
40105	0.12894292896429416
40107	0.29611742647368816
40109	0.49063645145673773
40111	0.3974164714329121
40113	0.3284336862152811
40115	0.13515759429921587
40117	0.8343074444779084
40119	-0.0028079761360461225
40121	0.4048740698348181
40123	0.5304103096002367
40125	0.3215975543468672
40127	1.20408003190575
40129	0.28803836153829
40131	0.10967746642603685
40133	0.4937437841241986
40135	0.8461153086142597
40137	0.5335176422676976
40139	-0.8691323238241326
40141	1.0903516562766828
40143	0.25199330259574404
40145	0.6267376222915232
40147	-0.9747816345178018
40149	0.22527024165558068
40151	-1.542180579596154
40153	-0.5695854546809062
41001	-1.4234804716991494
41003	-1.846699181007318
41005	-1.4104296744958138
41007	-0.5888509172191635
41009	-1.0580581500057527
41011	-1.1699221260343435
41013	-1.6925754807012594
41015	-1.349525954213581
41017	-1.6117848313472771
41019	-1.701897478703642
41021	-1.8628573108781143
41023	-2.103986325873077
41025	-1.368169950218346
41027	-1.4321810031680398
41029	-1.2730855705940438
41031	-1.585683236940606
41033	-1.585683236940606
41035	-1.327774625541355
41037	-1.473819260912015
41039	-1.4570396645077266
41041	-1.9299756964952688
41043	-1.4644972629096327
41045	-1.0213916245297145
41047	-1.302915964201668
41049	-1.5390732469286932
41051	-1.1885661220391086
41053	-1.2382834447184823
41055	-1.2836505016634108
41057	-1.1630859941659295
41059	-1.575118305871239
41061	-1.179244124036726
41063	-1.164328927232914
41065	-1.0350638882665424
41067	-1.2755714367280127
41069	-2.363137870339312
41071	-1.0282277563981286
42001	-0.06681902908573975
42003	0.9213127591668123
42005	1.0108039399896849
42007	0.5689412346767513
42009	0.7454377301885279
42011	0.2867954284713056
42013	1.3930058580873703
42015	-0.04506770041351376
42017	0.542218173736588
42019	0.6571894824326396
42021	1.0213688710590518
42023	0.8778101018223603
42025	0.7578670608583713
42027	0.1432366592346141
42029	0.23832103885891628
42031	0.317247288612422
42033	0.13391466123223153
42035	-0.6491331709679041
42037	-0.10472848762876219
42039	-0.13393741470289422
42041	0.21035504485176856
42043	0.11837799789492724
42045	0.5627265693418296
42047	0.6391669529613666
42049	0.06306747641412401
42051	0.8896179659587116
42053	0.7106356043129664
42055	-0.3197559082170534
42057	0.6522177501647023
42059	0.7025565393775681
42061	0.49250085105721425
42063	1.0735720598723943
42065	0.39990233756688076
42067	0.3439703495525854
42069	0.7516523955234496
42071	-0.6646698343052083
42073	1.0996736542790655
42075	-0.8057427374079312
42077	0.19233251538049562
42079	0.7721607911286913
42081	-0.6615625016377475
42083	-0.022694905207795598
42085	0.5043087151935655
42087	0.4893935183897534
42089	0.1606377221723949
42091	0.14385812576810625
42093	-0.5925797164201165
42095	0.6721046792364517
42097	-0.1687395405784558
42099	0.8703525034204543
42101	0.8162849150066354
42103	-0.04693210001399027
42105	-0.20229873338703305
42107	0.37877247542814696
42109	-0.5453482598747115
42111	0.7162288031143959
42113	0.23210637352399455
42115	-0.23275059352814945
42117	-0.5932011829536087
42119	-1.168057726433867
42121	0.5341391088011898
42123	-0.33529257155435765
42125	1.0207474045255598
42127	-0.0003221100020774381
42129	0.7684319919277383
42131	0.04255908080888237
42133	-0.19670553458560353
44001	-0.6659127673721927
44003	0.12086386402889593
44005	-0.79393487327158
44007	-0.27563178433910923
44009	-0.7547824816615731
45001	-0.5956870490875774
45003	-0.3881172269011922
45005	-0.17371127284639318
45007	0.07549680708396744
45009	-0.14450234577226115
45011	0.17555291897620698
45013	-0.579528919216781
45015	0.4017667371673573
45017	-0.04133890121256073
45019	-0.05563263148288067
45021	0.014593086801734668
45023	0.0935193365552404
45025	-0.008401174937475662
45027	0.34645621568655405
45029	0.9026687631620472
45031	0.5850993645475477
45033	0.5099019139949951
45035	0.4266253985070441
45037	-0.2632024536692658
45039	-0.5248398642694698
45041	0.31476142247845335
45043	-0.041960367746052905
45045	-0.21783539672433733
45047	-0.4048968233054808
45049	0.28617396193781347
45051	0.11589213176095856
45053	-0.3682302978294427
45055	-0.02890957054271731
45057	-0.07986982628907534
45059	0.26007236753114227
45061	0.18549638351208173
45063	-0.13953061350432377
45065	-0.921335512637475
45067	-0.5055744017312126
45069	0.14820839150255147
45071	-0.3067051110137178
45073	0.11340626562698988
45075	-0.12461541670051166
45077	0.3122755563444846
45079	-0.4048968233054808
45081	-0.8150647354103138
45083	0.03261561627300763
45085	0.04690934654332757
45087	0.7839686552650426
45089	0.38125834156211563
45091	-0.012129974138428689
46003	-1.2096959841778425
46005	-1.4191302059647042
46007	0.6230088230905702
46009	-0.7007148932477543
46011	-1.3209384936729411
46013	-0.5229754646689934
46015	-1.2171535825797486
46017	3.0467283037100374
46019	-2.5122898383774332
46021	-0.5260827973364542
46023	-0.0550111649493885
46025	-1.0909958762808378
46027	-0.3924674926356374
46029	-0.986589498654153
46031	-0.9853465655871687
46033	-2.2121215027007146
46035	-1.056193750405276
46037	-0.5385121280062977
46039	0.017078952935703353
46041	0.1606377221723949
46043	-1.291729566598809
46045	-0.6043875805564678
46047	-0.7100368912501368
46049	2.960965922088118
46051	-1.127662401756876
46053	0.956114885042374
46055	0.045666413476343225
46057	-1.7509933348495235
46059	-0.7678332788649088
46061	-1.4085652748953372
46063	-0.14325941270527678
46065	-1.5887905696080669
46067	-1.229582913249592
46069	-1.3402039562111985
46071	-1.5925193688090198
46073	-0.7187374227190273
46075	-0.42851255157818335
46077	-0.7852343418026896
46079	-1.3718987494192991
46081	-1.5160789851894827
46083	-0.7417316844582376
46085	-1.0499790850703545
46087	-1.1817299901706948
46089	-1.5309941819932948
46091	-0.25823072140132847
46093	-1.276814369794997
46095	-0.6137095785588503
46097	-1.4129155406297824
46099	-0.7585112808625262
46101	-0.3968177583700826
46103	-1.048114685469878
46105	-1.4613899302421718
46107	-0.6752347653745753
46109	-0.5484555925421724
46111	-1.4651187294431247
46113	0.14447959230159843
46115	0.07798267321793613
46117	-1.7043833448376107
46119	-0.9381151090417637
46121	1.1947580339033677
46123	-1.0226345575966989
46125	-0.4515068133173937
46127	-0.6205457104272643
46129	-0.8933695186303273
46135	-0.9760245675847861
46137	0.6124438920212033
47001	0.22775610778954936
47003	0.4856647191888004
47005	0.7908047871334564
47007	0.8206351807410807
47009	-0.16749660751147147
47011	0.35888554635639747
47013	1.250690021917663
47015	1.4949263695800863
47017	0.7560026612578948
47019	0.7292796003177314
47021	0.9654368830447565
47023	0.9206912926333202
47025	1.5396719599915225
47027	0.3700719439592565
47029	0.6982062736431229
47031	1.2295601597789292
47033	0.9760018141141233
47035	-0.3738234966308723
47037	0.05436694494523362
47039	1.0623856622695351
47041	0.14385812576810625
47043	1.585039016936451
47045	1.4346441158313457
47047	0.2053833125838312
47049	2.535882813179473
47051	1.1804643036330478
47053	0.7330083995186845
47055	0.8858891667577585
47057	1.2879780139271932
47059	0.24515717072733015
47061	1.7186543216372678
47063	0.5012013825261047
47065	0.06866067521555355
47067	3.4537888831474097
47069	0.40300967023434164
47071	0.7087712047124898
47073	0.6155512246886642
47075	1.1767355044320946
47077	0.8082058500712372
47079	0.4017667371673573
47081	1.1761140378986026
47083	2.046788651321134
47085	1.5931180818718493
47087	0.25199330259574404
47089	0.5583763036073844
47091	0.5490543056050018
47093	0.11589213176095856
47095	2.6421535904066342
47097	1.4240791847619787
47099	0.7932906532674251
47101	0.8771886352888681
47103	0.3992808710333886
47105	0.0804685393519048
47107	-0.11032168643019173
47109	0.38001540849513127
47111	2.104585038935906
47113	0.4570772586481605
47115	1.2339104255133744
47117	0.5167380458634089
47119	0.10097693495714645
47121	0.527924443466268
47123	0.313518489411469
47125	0.37877247542814696
47127	1.1027809869465264
47129	1.0884872566762063
47131	0.9927814105184121
47133	0.93498502290364
47135	1.0860013905422377
47137	1.1208035164177992
47139	0.5944213625499303
47141	0.567698301609767
47143	0.7025565393775681
47145	0.7864545213990112
47147	0.626116155758031
47149	0.7087712047124898
47151	1.9144162796873019
47153	1.199729766171305
47155	-0.11715781829860561
47157	0.012728687201258155
47159	1.4775253066423055
47161	0.8852677002242664
47163	0.3079252906100394
47165	0.7752681237961521
47167	0.7379801317866218
47169	1.0313123355949265
47171	0.9424426213055461
47173	1.351989066876887
47175	1.0971877881450967
47177	1.1524983096259
47179	0.38747300689703734
47181	0.9579792846428504
47183	1.8330041637998273
47185	0.575155900011673
47187	-0.1799259381813149
47189	1.003967808121271
48001	0.8436294424802909
48003	-0.1022426214947935
48005	1.326508939003708
48007	0.5788846992126261
48009	0.9039116962290316
48011	-0.9449512409101776
48013	0.9312562237026871
48015	-0.3974392249035748
48017	1.2078088311067032
48019	-0.078626893222091
48021	0.5745344334781809
48023	1.9523257382303243
48025	1.5328358281231087
48027	0.37255781009322525
48029	0.6180370908226328
48031	-0.6099807793578973
48033	2.2835674005816515
48035	-0.35517950062610715
48037	0.7789969229971051
48039	1.0891087232096985
48041	0.21159797791875293
48043	-1.4520679322397891
48045	0.9424426213055461
48047	3.5581952607740943
48049	0.47572125465292564
48051	0.5173595123969011
48053	0.2756090308684465
48055	2.133793966010038
48057	0.8995614304945864
48059	0.6435172186958118
48061	1.5347002277235853
48063	1.0319338021284188
48065	0.33402688501671063
48067	0.9063975623630002
48069	1.4072995883576902
48071	1.621705542412489
48073	1.3252660059367236
48075	-0.24082965846354767
48077	0.800126785135839
48079	0.5869637641480243
48081	-0.4409418822480268
48083	0.11154186602651336
48085	1.3768477282165739
48087	3.8602279960512895
48089	0.8914823655591881
48091	0.5428396402700801
48093	0.33775568421766367
48095	0.09414080308873257
48097	1.8050381697926796
48099	0.051259612277772766
48101	-0.07551956055463015
48103	1.1469051108244706
48105	-0.33094230581991246
48107	1.032555268661911
48109	1.054928063867629
48111	0.8622734384850561
48113	1.1046453865470027
48115	0.586342297614532
48117	0.2557221017966971
48119	0.9461714205064992
48121	1.7174113885702835
48123	0.5776417661456417
48125	1.994585462507792
48127	1.7180328551037758
48129	0.6975848071096308
48131	3.208931068951494
48133	1.1139673845493854
48135	0.5266815103992837
48137	-0.2097563317889391
48139	0.9287703575687184
48141	0.3048179579425786
48143	-0.06246876335129455
48145	0.524195644265315
48147	1.8584842916730064
48149	0.25510063526320487
48151	0.21284091098573726
48153	1.4128927871591197
48155	0.8970755643606176
48157	1.261876419520522
48159	1.373740395549113
48161	0.4688851227845118
48163	0.9101263615639532
48165	1.046848998932231
48167	1.3004073445970368
48169	1.4054351887572136
48171	-1.0363068213335267
48173	-0.22840032779370423
48175	0.5583763036073844
48177	-0.13331594816940207
48179	0.85481584008315
48181	1.722383120838221
48183	1.2245884275109917
48185	0.9784876802480921
48187	0.5894496302819929
48189	0.8094487831382216
48191	-0.19981286725306438
48193	0.6919916083082012
48195	0.6180370908226328
48197	2.4072392407465935
48199	0.9356064894371323
48201	1.4278079839629318
48203	1.0207474045255598
48205	0.6814266772388343
48207	0.4185463335716459
48209	0.6839125433728029
48211	-0.7467034167261749
48213	1.2873565473937012
48215	1.9647550689001676
48217	0.21656971018669027
48219	0.7951550528679016
48221	0.3284336862152811
48223	0.8243639799420336
48225	0.4185463335716459
48227	-0.2768747174060936
48229	0.720579068848841
48231	1.2948141457956073
48233	0.7106356043129664
48235	-1.5974911010769572
48237	0.7696749249947226
48239	1.6621008670894803
48241	1.0505777981331839
48243	-1.2215038483141938
48245	1.1866789689679693
48247	3.6675733706687166
48249	4.064690485570214
48251	1.8957722836825366
48253	0.10284133455762297
48255	0.8715954364874386
48257	1.4632315763719856
48259	-0.2656883198032345
48261	11.686977518851693
48263	0.752895328590434
48265	-0.38687429383420785
48267	-0.3725805635638879
48269	0.8529514404826735
48271	0.5819920318800869
48273	1.7062249909674245
48275	0.7305225333847158
48277	1.2767916163243342
48279	0.1948183815144643
48281	0.9188268930328436
48283	1.4775253066423055
48285	1.6509144694866211
48287	0.4477552606457779
48289	0.28990276113876645
48291	2.4650356283613655
48293	0.6254946892245389
48295	0.1171350648279429
48297	0.6453816182962884
48299	-0.18986940271718963
48301	0.8529514404826735
48303	1.428429450496424
48305	1.4514237122356344
48307	0.005271088799352102
48309	-0.12399395016701949
48311	-1.6018413668114024
48313	0.8846462336907742
48315	0.3576426132894131
48317	0.018321886002687696
48319	-0.18116887124829922
48321	1.7696145773836258
48323	1.5210279639867574
48325	0.7199576023153489
48327	-0.27128151860466404
48329	-0.1923552688511583
48331	1.515434765185328
48333	0.5689412346767513
48335	0.7553811947244027
48337	0.5583763036073844
48339	1.381819460484511
48341	0.2588294344641579
48343	1.3656613306137146
48345	0.9039116962290316
48347	1.0337982017288954
48349	0.5490543056050018
48351	1.5825531508024824
48353	0.5105233805284872
48355	1.2736842836568734
48357	0.3545352806219523
48359	0.3321624854162341
48361	1.4874687711781802
48363	0.9996175423868259
48365	1.3171869410013253
48367	1.4023278560897527
48369	0.3396200838181402
48371	0.3439703495525854
48373	0.20911211178478423
48375	0.8933467651596646
48377	-2.0269244757200475
48379	0.4831788530548317
48381	0.5763988330786574
48383	-0.2551233887338676
48385	-0.9082847154341395
48387	2.0710258461273288
48389	0.8622734384850561
48391	0.9617080838438035
48393	-0.6876640960444187
48395	0.7037994724445524
48397	1.079786725207316
48399	0.6677544135020065
48401	1.4930619699796097
48403	1.1599559080278061
48405	0.6808052107053421
48407	2.4146968391484998
48409	1.8572413586060221
48411	-0.3968177583700826
48413	0.6646470808345457
48415	0.9909170109179355
48417	1.0847584574752533
48419	1.2680910848554439
48421	0.7025565393775681
48423	0.9337420898366557
48425	1.3569607991448243
48427	1.9560545374312772
48429	1.0735720598723943
48431	-0.5950655825540851
48433	2.7695542297725293
48435	0.12645706283032548
48437	0.0935193365552404
48439	1.534078761190093
48441	0.3992808710333886
48443	1.1257752486857366
48445	1.2382606912478196
48447	2.78695529271031
48449	1.472553574374368
48451	-0.010265574537952175
48453	0.480692986920863
48455	1.5328358281231087
48457	1.272441350589889
48459	1.3731189290156207
48461	1.8410832287352257
48463	0.575155900011673
48465	-0.26071658753529714
48467	0.6820481437723265
48469	0.847358241681244
48471	0.9629510169107878
48473	0.6727261457699439
48475	0.5409752406696036
48477	-0.87410405609207
48479	1.3004073445970368
48481	0.7230649349828098
48483	1.4079210548911822
48485	0.7441947971215436
48487	1.1543627092263764
48489	1.7329480519075877
48491	1.1027809869465264
48493	0.19295398191398777
48495	0.8554373066166422
48497	1.7143040559028226
48499	1.177356970965587
48501	0.9604651507768192
48503	1.6919312606971044
48505	1.3824409270180034
48507	1.2370177581808353
49001	-0.9741601679843096
49003	-0.7852343418026896
49005	-0.7902060740706269
49007	-0.9480585735776383
49009	0.018943352536179868
49011	-0.34585750262372456
49013	-1.3178311610054803
49015	-0.6733703657740988
49017	-0.6491331709679041
49019	-2.185398441760551
49021	-0.9474371070441462
49023	0.48193591998784735
49025	-1.0767021460105177
49027	-0.37009469742991924
49029	-0.7423531509917297
49031	-1.7192985416414228
49033	-1.7628011989858747
49035	-0.3116768432816552
49037	0.06617480908158486
49039	-0.4502638802504093
49041	-0.34585750262372456
49043	-0.6864211629774344
49045	-0.147609678439722
49047	-1.2196394487137172
49049	0.13080732856477068
49051	-1.0686230810751196
49053	-0.4533712129178702
49055	-1.5664177744023486
49057	-0.4838230730589866
50001	-1.2979442319337307
50003	-0.6603195685707631
50005	-1.6925754807012594
50007	-1.5036496545196394
50009	-1.647208423756331
50011	-1.1556283957640237
50013	-1.4992993887851942
50015	-1.564553374801872
50017	-1.4539323318402657
50019	-1.3103735626035742
50021	-0.4720152089226353
50023	-1.60681309907934
50025	-1.2575489072567396
50027	-0.9698099022498644
51001	-0.10845728682971521
51003	-0.9542732389125601
51005	-0.007158241870491321
51007	-0.015858773339381717
51009	-0.40241095717151215
51011	-0.663426901238224
51013	-1.117097470687509
51015	-0.7609971469964949
51017	0.9859452786499981
51019	-0.761618613529987
51021	1.2320460259128978
51023	-0.8281155326136493
51025	-0.05563263148288067
51027	1.0598997961355665
51029	-0.9480585735776383
51031	-0.7013363597812464
51033	-0.17744007204734621
51035	0.09662666922270126
51036	-1.2128033168453034
51037	-0.7268164876544255
51041	-0.15879607604258109
51043	-0.8312228652811102
51045	0.1600162556389027
51047	-0.3669873647624584
51049	-0.852352727419844
51051	1.42159331862801
51053	-0.07614102708812232
51057	-0.1022426214947935
51059	-0.943086841309701
51061	-0.49065920492740045
51063	-1.0530864177378154
51065	-0.8411663298169849
51067	-0.5975514486880539
51069	-0.9008271170322334
51071	0.22402730858859635
51073	-0.568963988147414
51075	-0.7094154247166446
51077	-0.21721393019084517
51079	0.04255908080888237
51081	-1.007719360792887
51083	-0.7908275406041191
51085	-0.09478502309288744
51087	-0.37506642969785664
51089	-0.5260827973364542
51091	-0.4533712129178702
51093	-0.35517950062610715
51095	-0.6286247753626625
51097	-0.859188859288258
51099	-0.050039432681451126
51101	-0.23026472739418075
51103	-1.3333678243427844
51105	0.9380923555711009
51107	-0.5298115965374073
51109	-0.5465911929416959
51111	-0.1886264696502053
51113	-1.0213916245297145
51115	-0.9250643118384281
51117	-0.4036538902384965
51119	-0.7964207394055487
51121	-0.3993036245040513
51125	-1.1083969392186186
51127	-0.3819025615662705
51131	-0.28681818194196834
51133	-1.008340827326379
51135	0.3004676922081334
51137	-0.4098685555734182
51139	-0.2980045795448274
51141	0.15131572417001232
51143	-0.5695854546809062
51145	0.05250254534475711
51147	-0.7970422059390408
51149	0.16809532057430093
51153	-0.5739357204153513
51155	1.2705769509894125
51157	-0.9983973627905043
51159	-0.041960367746052905
51161	-0.6410541060325059
51163	-0.8219008672787277
51165	-0.5484555925421724
51167	1.0313123355949265
51169	0.8063414504707607
51171	-0.5540487913436019
51173	0.31600435554543765
51175	-0.17744007204734621
51177	0.21346237751922942
51179	0.3334054184832185
51181	-1.1947807873740304
51183	0.10346280109111514
51185	0.6578109489661318
51187	-0.637946773365045
51191	0.1432366592346141
51193	0.004649622265859931
51195	1.2612549529870298
51197	0.5906925633489774
51199	-0.37195909703039576
51510	-0.5086817343986734
51515	-0.5490770590756645
51520	0.7230649349828098
51530	-0.0034294426695382937
51540	-2.1356811190811773
51550	-0.058118497616849354
51570	-0.32472764048499075
51580	-0.32472764048499075
51590	-0.5838791849512261
51595	0.07052507481603007
51600	-0.9461941739771619
51610	-0.7902060740706269
51620	-0.8871548532954057
51630	0.7292796003177314
51640	0.02142921867014855
51650	-0.4850660061259709
51660	-1.9691280881052755
51670	0.23645663925843977
51678	-0.32472764048499075
51680	-0.4894162718604161
51683	-2.250030961243737
51685	-1.0425214866684485
51690	-0.5521843917431254
51700	-0.3390213707553107
51710	-0.04133890121256073
51720	1.6384851388167778
51730	0.2053833125838312
51735	-0.3154056424826082
51740	-0.3116768432816552
51750	-0.23710085926259464
51760	-0.37444496316436443
51770	-0.5018456025302596
51775	-0.4825801399920022
51790	-0.34461456955674025
51800	-0.19981286725306438
51810	0.018943352536179868
51820	-0.6410541060325059
51830	-0.7467034167261749
51840	-0.9045559162331864
53001	-0.9729172349173253
53003	-1.1239336025559228
53005	-0.6783420980420362
53007	-1.1195833368214776
53009	-1.6354005596199797
53011	-0.6019017144224991
53013	-0.25325898913339107
53015	-0.5465911929416959
53017	-0.9275501779723967
53019	-0.8330872648815867
53021	-1.2904866335318246
53023	-0.7920704736711034
53025	-1.1550069292305314
53027	-0.47139374238914317
53029	-1.4427459342374067
53031	-1.4794124597134446
53033	-0.9797533667857391
53035	-0.8579459262212736
53037	-1.287379300864364
53039	-1.306023296869129
53041	-0.9437083078431932
53043	-0.12896568243495685
53045	-1.128283868290368
53047	-1.356983552615487
53049	-0.6311106414966311
53051	-0.8250081999461885
53053	-0.6186813108267877
53055	-1.8995238363541525
53057	-0.7411102179247454
53059	-0.8343301979485711
53061	-0.8927480520968352
53063	-0.48879480532692393
53065	-1.2531986415222944
53067	-1.2221253148476858
53069	-0.9461941739771619
53071	-1.2022383857759364
53073	-1.317209694471988
53075	-0.8100930031423764
53077	-0.8219008672787277
54001	0.6944774744421699
54003	-0.45710001211882323
54005	1.214644962975117
54007	-0.4011680241045278
54009	1.4184859859605492
54011	0.29176716073924297
54013	0.7721607911286913
54015	0.44340499491133273
54017	-0.383766961166747
54019	1.3824409270180034
54021	0.5962857621504069
54023	-0.2035416664540174
54025	-0.3104339102146708
54027	-0.25823072140132847
54029	1.4017063895562607
54031	-0.40054655757103563
54033	-0.013372907205413032
54035	0.23210637352399455
54037	-0.8753469891590544
54039	0.2314849069905024
54041	-0.12337248363352732
54043	0.22216290898811983
54045	1.5496154245273974
54047	0.9728944814466626
54049	0.4017667371673573
54051	0.4918793845237221
54053	0.2986032926076569
54055	0.6932345413751856
54057	0.27374463126797005
54059	1.4781467731757976
54061	0.3582640798229053
54063	0.37442220969370177
54065	-0.34026430382229506
54067	-0.12026515096606646
54069	0.4980940498586438
54071	-0.23088619392767293
54073	0.9753803475806312
54075	-0.4701508093221588
54077	0.360749945956874
54079	0.57142710081072
54081	0.7212005353823332
54083	-0.151338477640675
54085	0.03261561627300763
54087	0.6553250828321631
54089	-0.23150766046116508
54091	0.622387356557078
54093	-0.32783497315245164
54095	1.4706891747738915
54097	-1.0176628253287616
54099	0.020186285603164208
54101	0.11837799789492724
54103	0.6136868250881876
54105	0.6416528190953353
54107	0.5770202996121495
54109	0.7249293345832862
55001	-1.0655157484076587
55003	-1.4539323318402657
55005	-0.22156419592529036
55007	-1.4396386015699458
55009	-0.583257718417734
55011	-0.8511097943528597
55013	-1.2016169192424442
55015	-1.3992432768929546
55017	-0.26071658753529714
55019	-0.08857035775796573
55021	-1.3302604916753236
55023	-1.1556283957640237
55025	-1.1382273328262427
55027	-0.9667025695824035
55029	-1.0897529432138535
55031	-0.15009554457369068
55033	-0.8660249911566718
55035	-0.6982290271137856
55037	-2.2568670931121506
55039	-1.3072662299361133
55041	-0.5198681320015325
55043	-1.3482830211465966
55045	-1.127662401756876
55047	-1.48376272544789
55049	-1.5906549692085434
55051	-0.7672118123314166
55053	-1.309752096070082
55055	-0.8890192528958821
55057	-1.1804870571037105
55059	0.14012932656715324
55061	-1.3209384936729411
55063	-1.4669831290436013
55065	-0.8504883278193676
55067	-0.9076632489006473
55069	-0.6541049032358415
55071	-0.8660249911566718
55073	-0.8094715366088843
55075	-0.6360823737645684
55077	-1.3837066135556504
55078	-1.018905758395746
55079	-0.02953103707620948
55081	-1.4433674007708988
55083	-0.5670995885469375
55085	-0.9785104337187548
55087	-1.2836505016634108
55089	-0.7206018223195038
55091	-0.053768231882404156
55093	-1.2059671849768894
55095	-0.24145112499703983
55097	-0.6615625016377475
55099	-1.0002617623909809
55101	0.13391466123223153
55103	-1.0978320081492516
55105	-0.8262511330131729
55107	-0.25325898913339107
55109	-0.4838230730589866
55111	-1.4893559242493195
55113	-0.8411663298169849
55115	-0.4732581419896197
55117	-1.3346107574097688
55119	-0.931900443706842
55121	-0.8361945975490476
55123	-1.7217844077753914
55125	-1.0891314766803613
55127	-0.8915051190298509
55129	-0.6000373148220226
55131	-0.641675572565998
55133	-0.3986821579705591
55135	-1.0282277563981286
55137	-1.0213916245297145
55139	-0.8287369991471415
55141	-0.43721308304707374
56001	-1.4209946055651805
56003	-1.146306397761641
56005	-0.6503761040348884
56007	-1.1798655905702182
56009	-0.532918929204868
56011	-0.7435960840587141
56013	-0.5602634566785236
56015	-1.1376058662927506
56017	-0.8312228652811102
56019	-1.7882813268590538
56021	-0.33529257155435765
56023	-1.0574366834722606
56025	-0.7075510251161682
56027	-1.2488483757878492
56029	-1.636022026153472
56031	-0.5851221180182105
56033	-1.9144390331579644
56035	-1.2942154327327777
56037	-1.2507127753883258
56039	-1.1581142618979923
56041	-1.135120000158782
56043	-0.9238213787714438
56045	-1.3600908852829479
