id	rate
1001	0.18902546063228529
1003	0.40180623600061294
1005	-0.44931686547269767
1007	-1.0876591915776808
1009	-2.151563068419319
1011	-0.9303864445663098
1013	-1.0876591915776808
1015	-0.874878416209353
1017	-0.9303864445663098
1019	-0.23653609010437002
1021	-1.513220742314336
1023	-0.9303864445663098
1025	-1.513220742314336
1027	-0.9303864445663098
1029	-0.9303864445663098
1031	-1.3004399669460083
1033	-1.9387822930509913
1035	-0.9303864445663098
1037	-0.9303864445663098
1039	-1.0876591915776808
1041	-0.9303864445663098
1043	-1.0876591915776808
1045	-0.44931686547269767
1047	-0.874878416209353
1049	-1.3004399669460083
1051	-1.3004399669460083
1053	-1.7260015176826637
1055	-1.0876591915776808
1057	-0.9303864445663098
1059	-0.9303864445663098
1061	-0.6620976408410253
1063	-0.9303864445663098
1065	-0.9303864445663098
1067	-0.9303864445663098
1069	-0.6620976408410253
1071	-1.7260015176826637
1073	-0.23653609010437002
1075	-0.9303864445663098
1077	-2.151563068419319
1079	-0.9303864445663098
1081	0.40180623600061294
1083	-1.513220742314336
1085	-0.023755314736042366
1087	-0.9303864445663098
1089	-1.0876591915776808
1091	-0.6620976408410253
1093	-0.9303864445663098
1095	-0.874878416209353
1097	-0.23653609010437002
1099	-0.9303864445663098
1101	-0.23653609010437002
1103	-1.0876591915776808
1105	0.40180623600061294
1107	-1.7260015176826637
1109	-1.0876591915776808
1111	-0.44931686547269767
1113	-0.9303864445663098
1115	-1.3004399669460083
1117	-0.6620976408410253
1119	-0.9303864445663098
1121	-1.0876591915776808
1123	-0.023755314736042366
1125	-0.874878416209353
1127	-1.7260015176826637
1129	-0.9303864445663098
1131	-1.9387822930509913
1133	-1.0876591915776808
2013	5.082983294103822
2016	2.316833214315562
2020	0.6145870113689406
2050	0.18902546063228529
2060	2.742394765052217
2068	2.5296139896838894
2070	-0.44931686547269767
2090	0.8273677867372683
2100	-0.023755314736042366
2110	1.040148562105596
2122	0.6145870113689406
2130	1.040148562105596
2150	2.316833214315562
2164	0.6145870113689406
2170	0.40180623600061294
2180	0.6145870113689406
2185	-0.23653609010437002
2188	1.040148562105596
2201	0.8273677867372683
2220	1.8912716635789066
2232	2.742394765052217
2240	-0.23653609010437002
2261	1.2529293374739237
2270	-1.513220742314336
2280	0.8273677867372683
2282	1.1138034458869304
2290	1.8912716635789066
4001	-0.6620976408410253
4003	-0.6620976408410253
4005	-0.23653609010437002
4007	-0.23653609010437002
4009	-0.44931686547269767
4011	0.40180623600061294
4012	0.8273677867372683
4013	0.18902546063228529
4015	-0.023755314736042366
4017	-1.0876591915776808
4019	-0.23653609010437002
4021	0.40180623600061294
4023	0.18902546063228529
4025	-0.44931686547269767
4027	-0.44931686547269767
5001	-0.874878416209353
5003	-0.765893141020702
5005	-0.44931686547269767
5007	-0.44931686547269767
5009	-2.151563068419319
5011	-0.765893141020702
5013	-0.765893141020702
5015	-1.0876591915776808
5017	-0.765893141020702
5019	-0.765893141020702
5021	-0.765893141020702
5023	-0.765893141020702
5025	-0.765893141020702
5027	-0.765893141020702
5029	-0.765893141020702
5031	-1.3004399669460083
5033	-0.44931686547269767
5035	-0.874878416209353
5037	-0.6620976408410253
5039	-0.765893141020702
5041	-0.765893141020702
5043	-0.765893141020702
5045	-0.23653609010437002
5047	-0.765893141020702
5049	-0.765893141020702
5051	0.18902546063228529
5053	0.6145870113689406
5055	-1.0876591915776808
5057	-1.3004399669460083
5059	-1.3004399669460083
5061	-0.765893141020702
5063	-1.3004399669460083
5065	-0.765893141020702
5067	-0.765893141020702
5069	-0.23653609010437002
5071	-1.0876591915776808
5073	-0.765893141020702
5075	-0.765893141020702
5077	-1.513220742314336
5079	-0.765893141020702
5081	-0.765893141020702
5083	-1.0876591915776808
5085	-0.23653609010437002
5087	0.18902546063228529
5089	-0.874878416209353
5091	-0.6620976408410253
5093	-2.3643438437876467
5095	-0.765893141020702
5097	-0.765893141020702
5099	-0.765893141020702
5101	0.6145870113689406
5103	-0.6620976408410253
5105	-0.765893141020702
5107	-0.44931686547269767
5109	-0.765893141020702
5111	-0.765893141020702
5113	-1.0876591915776808
5115	-0.874878416209353
5117	-0.765893141020702
5119	-0.023755314736042366
5121	-0.765893141020702
5123	-1.7260015176826637
5125	-1.0876591915776808
5127	-0.765893141020702
5129	-0.765893141020702
5131	-1.0876591915776808
5133	-0.023755314736042366
5135	-1.9387822930509913
5137	-0.765893141020702
5139	-0.874878416209353
5141	-0.023755314736042366
5143	-0.23653609010437002
5145	-1.3004399669460083
5147	-0.765893141020702
5149	-0.023755314736042366
6001	0.6145870113689406
6003	0.581209634840584
6005	0.40180623600061294
6007	0.8273677867372683
6009	1.678490888210579
6011	0.581209634840584
6013	0.40180623600061294
6015	0.581209634840584
6017	1.040148562105596
6019	0.40180623600061294
6021	0.18902546063228529
6023	1.2529293374739237
6025	-0.023755314736042366
6027	0.581209634840584
6029	-0.023755314736042366
6031	-0.23653609010437002
6033	1.040148562105596
6035	1.040148562105596
6037	-0.23653609010437002
6039	-0.23653609010437002
6041	1.2529293374739237
6043	0.40180623600061294
6045	1.678490888210579
6047	-0.44931686547269767
6049	0.581209634840584
6051	2.1040524389472344
6053	-0.23653609010437002
6055	1.678490888210579
6057	0.18902546063228529
6059	0.18902546063228529
6061	-0.023755314736042366
6063	0.40180623600061294
6065	0.40180623600061294
6067	0.40180623600061294
6069	1.678490888210579
6071	0.18902546063228529
6073	0.18902546063228529
6075	1.040148562105596
6077	0.40180623600061294
6079	0.40180623600061294
6081	1.040148562105596
6083	0.40180623600061294
6085	-0.23653609010437002
6087	1.040148562105596
6089	0.8273677867372683
6091	0.581209634840584
6093	0.8273677867372683
6095	0.40180623600061294
6097	1.2529293374739237
6099	0.18902546063228529
6101	-1.0876591915776808
6103	0.40180623600061294
6105	0.581209634840584
6107	0.6145870113689406
6109	2.316833214315562
6111	0.40180623600061294
6113	0.6145870113689406
6115	0.6145870113689406
8001	0.6145870113689406
8003	-0.44931686547269767
8005	0.40180623600061294
8007	0.18902546063228529
8009	0.3974637711971787
8011	0.3974637711971787
8013	-0.023755314736042366
8014	-0.023755314736042366
8015	-0.874878416209353
8017	0.3974637711971787
8019	1.4657101128422512
8021	-0.6620976408410253
8023	0.3974637711971787
8025	0.3974637711971787
8027	0.6145870113689406
8029	-0.023755314736042366
8031	1.2529293374739237
8033	0.6145870113689406
8035	0.40180623600061294
8037	1.4657101128422512
8039	0.18902546063228529
8041	-0.23653609010437002
8043	-0.6620976408410253
8045	0.40180623600061294
8047	0.6145870113689406
8049	1.2529293374739237
8051	2.316833214315562
8053	0.3974637711971787
8055	-0.023755314736042366
8057	0.3974637711971787
8059	0.6145870113689406
8061	0.3974637711971787
8063	-0.023755314736042366
8065	0.18902546063228529
8067	1.040148562105596
8069	-0.023755314736042366
8071	-0.023755314736042366
8073	-1.513220742314336
8075	0.40180623600061294
8077	0.40180623600061294
8079	0.3974637711971787
8081	2.1040524389472344
8083	0.18902546063228529
8085	-0.44931686547269767
8087	-0.23653609010437002
8089	-0.023755314736042366
8091	0.3974637711971787
8093	1.040148562105596
8095	0.18902546063228529
8097	2.1040524389472344
8099	-1.0876591915776808
8101	-0.44931686547269767
8103	0.40180623600061294
8105	-1.513220742314336
8107	2.316833214315562
8109	0.3974637711971787
8111	0.3974637711971787
8113	2.316833214315562
8115	0.3974637711971787
8117	3.593517866525528
8119	-1.0876591915776808
8121	0.3974637711971787
8123	0.18902546063228529
8125	0.3974637711971787
9001	1.040148562105596
9003	0.40180623600061294
9005	0.6145870113689406
9007	0.6145870113689406
9009	0.6145870113689406
9011	0.6145870113689406
9013	0.6145870113689406
9015	0.18902546063228529
10001	-0.023755314736042366
10003	1.2529293374739237
10005	0.40180623600061294
11001	0.8273677867372683
12001	-0.44931686547269767
12003	-0.874878416209353
12005	1.040148562105596
12007	-0.023755314736042366
12009	0.8273677867372683
12011	-0.23653609010437002
12013	-1.7260015176826637
12015	-0.6620976408410253
12017	-0.23653609010437002
12019	-0.023755314736042366
12021	0.40180623600061294
12023	-0.023755314736042366
12027	-0.23653609010437002
12029	-1.9387822930509913
12031	-0.023755314736042366
12033	-0.23653609010437002
12035	-0.6620976408410253
12037	-0.6620976408410253
12039	-1.0876591915776808
12041	-0.23653609010437002
12043	-1.0876591915776808
12045	0.18902546063228529
12047	-1.0876591915776808
12049	-0.27522350380770605
12051	-0.44931686547269767
12053	0.18902546063228529
12055	-0.874878416209353
12057	0.6145870113689406
12059	-1.513220742314336
12061	0.8273677867372683
12063	-1.0876591915776808
12065	-1.513220742314336
12067	-1.7260015176826637
12069	-0.874878416209353
12071	0.18902546063228529
12073	0.6145870113689406
12075	-1.0876591915776808
12077	-0.44931686547269767
12079	-0.6620976408410253
12081	0.18902546063228529
12083	-0.23653609010437002
12085	0.18902546063228529
12086	-0.874878416209353
12087	2.5296139896838894
12089	-0.44931686547269767
12091	-0.023755314736042366
12093	-0.874878416209353
12095	-0.023755314736042366
12097	-0.6620976408410253
12099	-0.23653609010437002
12101	0.8273677867372683
12103	0.18902546063228529
12105	-0.44931686547269767
12107	-0.44931686547269767
12109	1.040148562105596
12111	-0.6620976408410253
12113	0.18902546063228529
12115	0.18902546063228529
12117	0.8273677867372683
12119	-1.0876591915776808
12121	-0.44931686547269767
12123	-0.44931686547269767
12125	-0.23653609010437002
12127	0.18902546063228529
12129	1.040148562105596
12131	0.40180623600061294
12133	-1.9387822930509913
13001	-0.456654133588849
13003	-0.456654133588849
13005	-0.456654133588849
13007	-0.456654133588849
13009	-0.23653609010437002
13011	-0.456654133588849
13013	-0.23653609010437002
13015	-0.6620976408410253
13017	-0.456654133588849
13019	-0.6620976408410253
13021	-1.3004399669460083
13023	-0.456654133588849
13025	-0.456654133588849
13027	-0.456654133588849
13029	-0.44931686547269767
13031	-0.23653609010437002
13033	-0.456654133588849
13035	-0.456654133588849
13037	-0.456654133588849
13039	-0.023755314736042366
13043	-0.456654133588849
13045	-0.023755314736042366
13047	-0.6620976408410253
13049	-0.456654133588849
13051	-0.023755314736042366
13053	-0.456654133588849
13055	-0.456654133588849
13057	-0.023755314736042366
13059	-0.874878416209353
13061	-0.456654133588849
13063	-1.3004399669460083
13065	-0.456654133588849
13067	-0.023755314736042366
13069	-0.874878416209353
13071	-0.6620976408410253
13073	-0.023755314736042366
13075	-0.44931686547269767
13077	-0.23653609010437002
13079	-0.456654133588849
13081	-0.456654133588849
13083	-0.456654133588849
13085	2.955175540420545
13087	-0.6620976408410253
13089	-0.23653609010437002
13091	-0.456654133588849
13093	-0.456654133588849
13095	-0.874878416209353
13097	-1.7260015176826637
13099	-0.456654133588849
13101	-0.456654133588849
13103	-0.23653609010437002
13105	-0.456654133588849
13107	-0.456654133588849
13109	-0.456654133588849
13111	-0.456654133588849
13113	-0.6620976408410253
13115	-1.0876591915776808
13117	0.6145870113689406
13119	-0.456654133588849
13121	0.40180623600061294
13123	-0.456654133588849
13125	-0.456654133588849
13127	-0.23653609010437002
13129	-0.456654133588849
13131	-0.456654133588849
13133	-0.456654133588849
13135	-0.23653609010437002
13137	-0.456654133588849
13139	-0.023755314736042366
13141	-0.456654133588849
13143	0.40180623600061294
13145	0.40180623600061294
13147	-0.456654133588849
13149	-0.456654133588849
13151	-0.6620976408410253
13153	-0.44931686547269767
13155	-0.456654133588849
13157	-1.3004399669460083
13159	-0.456654133588849
13161	-0.456654133588849
13163	-0.456654133588849
13165	-0.456654133588849
13167	-0.456654133588849
13169	-0.456654133588849
13171	-0.456654133588849
13173	-0.456654133588849
13175	-1.513220742314336
13177	-0.23653609010437002
13179	0.40180623600061294
13181	-0.456654133588849
13183	-0.456654133588849
13185	-0.44931686547269767
13187	-0.456654133588849
13189	-0.456654133588849
13191	-0.456654133588849
13193	-0.456654133588849
13195	-0.23653609010437002
13197	-0.456654133588849
13199	-0.456654133588849
13201	-0.456654133588849
13205	-0.456654133588849
13207	-0.456654133588849
13209	-0.456654133588849
13211	-0.456654133588849
13213	-0.44931686547269767
13215	0.40180623600061294
13217	-0.874878416209353
13219	-0.874878416209353
13221	-0.456654133588849
13223	-1.0876591915776808
13225	-0.456654133588849
13227	-0.874878416209353
13229	-0.456654133588849
13231	-0.456654133588849
13233	-0.456654133588849
13235	-0.456654133588849
13237	-0.456654133588849
13239	-0.456654133588849
13241	-0.456654133588849
13243	-0.456654133588849
13245	0.18902546063228529
13247	-0.6620976408410253
13249	-0.456654133588849
13251	-0.456654133588849
13253	-0.456654133588849
13255	-0.456654133588849
13257	-0.456654133588849
13259	-0.456654133588849
13261	-0.456654133588849
13263	-0.456654133588849
13265	-0.456654133588849
13267	-0.456654133588849
13269	-0.456654133588849
13271	-0.456654133588849
13273	-0.456654133588849
13275	-0.44931686547269767
13277	-1.513220742314336
13279	-0.874878416209353
13281	-0.456654133588849
13283	-0.456654133588849
13285	-1.3004399669460083
13287	-0.456654133588849
13289	-0.456654133588849
13291	-0.456654133588849
13293	-0.456654133588849
13295	-1.3004399669460083
13297	-1.0876591915776808
13299	-0.456654133588849
13301	-0.456654133588849
13303	-0.456654133588849
13305	-0.456654133588849
13307	-0.456654133588849
13309	-0.456654133588849
13311	-0.456654133588849
13313	-1.0876591915776808
13315	-0.456654133588849
13317	-0.456654133588849
13319	-0.456654133588849
13321	-0.456654133588849
15001	1.2529293374739237
15003	0.6145870113689406
15005	0.986953368263514
15007	1.040148562105596
15009	1.040148562105596
16001	-0.023755314736042366
16003	0.18902546063228529
16005	-0.6620976408410253
16007	-2.3643438437876467
16009	0.40180623600061294
16011	-1.3004399669460083
16013	2.316833214315562
16015	0.8273677867372683
16017	0.6145870113689406
16019	-1.513220742314336
16021	-0.874878416209353
16023	-0.3482459971727421
16025	-0.3482459971727421
16027	-0.6620976408410253
16029	-1.513220742314336
16031	-1.3004399669460083
16033	-0.3482459971727421
16035	-0.44931686547269767
16037	0.6145870113689406
16039	0.6145870113689406
16041	-2.151563068419319
16043	-1.3004399669460083
16045	-1.3004399669460083
16047	-0.874878416209353
16049	0.6145870113689406
16051	-1.513220742314336
16053	-0.44931686547269767
16055	0.18902546063228529
16057	1.2529293374739237
16059	-0.874878416209353
16061	2.5296139896838894
16063	1.4657101128422512
16065	-2.7899053945243018
16067	-0.6620976408410253
16069	0.6145870113689406
16071	-0.3482459971727421
16073	-1.9387822930509913
16075	-0.6620976408410253
16077	-1.0876591915776808
16079	1.040148562105596
16081	0.8273677867372683
16083	-0.6620976408410253
16085	0.18902546063228529
16087	-1.3004399669460083
17001	-0.023755314736042366
17003	0.7188913130200874
17005	0.7188913130200874
17007	-1.513220742314336
17009	0.7188913130200874
17011	1.4657101128422512
17013	0.7188913130200874
17015	0.7188913130200874
17017	0.7188913130200874
17019	0.40180623600061294
17021	-0.023755314736042366
17023	0.7188913130200874
17025	0.7188913130200874
17027	1.4657101128422512
17029	-0.44931686547269767
17031	1.040148562105596
17033	0.7188913130200874
17035	0.7188913130200874
17037	1.678490888210579
17039	0.7188913130200874
17041	0.7188913130200874
17043	0.8273677867372683
17045	0.7188913130200874
17047	0.7188913130200874
17049	3.1679563157888726
17051	0.7188913130200874
17053	0.7188913130200874
17055	-0.874878416209353
17057	-0.23653609010437002
17059	0.7188913130200874
17061	0.7188913130200874
17063	0.8273677867372683
17065	0.7188913130200874
17067	0.7188913130200874
17069	0.7188913130200874
17071	0.7188913130200874
17073	0.40180623600061294
17075	0.8273677867372683
17077	-0.23653609010437002
17079	0.7188913130200874
17081	0.7188913130200874
17083	1.040148562105596
17085	1.040148562105596
17087	0.7188913130200874
17089	0.8273677867372683
17091	-0.44931686547269767
17093	0.6145870113689406
17095	0.6145870113689406
17097	0.6145870113689406
17099	1.678490888210579
17101	0.7188913130200874
17103	1.678490888210579
17105	1.8912716635789066
17107	0.7188913130200874
17109	0.7188913130200874
17111	1.040148562105596
17113	-0.023755314736042366
17115	-0.023755314736042366
17117	0.8273677867372683
17119	1.2529293374739237
17121	-1.3004399669460083
17123	0.7188913130200874
17125	0.7188913130200874
17127	0.7188913130200874
17129	0.7188913130200874
17131	0.7188913130200874
17133	2.5296139896838894
17135	-0.023755314736042366
17137	1.4657101128422512
17139	0.7188913130200874
17141	1.040148562105596
17143	1.040148562105596
17145	0.7188913130200874
17147	0.7188913130200874
17149	0.7188913130200874
17151	0.7188913130200874
17153	0.7188913130200874
17155	0.7188913130200874
17157	2.316833214315562
17159	0.7188913130200874
17161	-0.023755314736042366
17163	0.6145870113689406
17165	0.7188913130200874
17167	0.8273677867372683
17169	0.7188913130200874
17171	0.7188913130200874
17173	0.7188913130200874
17175	0.7188913130200874
17177	1.4657101128422512
17179	0.18902546063228529
17181	0.7188913130200874
17183	0.18902546063228529
17185	0.7188913130200874
17187	0.7188913130200874
17189	2.316833214315562
17191	0.7188913130200874
17193	0.7188913130200874
17195	0.6145870113689406
17197	1.678490888210579
17199	-0.44931686547269767
17201	0.40180623600061294
17203	0.40180623600061294
18001	-0.44931686547269767
18003	0.18902546063228529
18005	-0.023755314736042366
18007	-0.1156976250803817
18009	-0.44931686547269767
18011	0.6145870113689406
18013	-0.1156976250803817
18015	-0.23653609010437002
18017	-0.44931686547269767
18019	-0.023755314736042366
18021	-0.1156976250803817
18023	-0.874878416209353
18025	-0.1156976250803817
18027	-0.023755314736042366
18029	-0.44931686547269767
18031	-0.874878416209353
18033	-0.44931686547269767
18035	-0.874878416209353
18037	1.4657101128422512
18039	-1.3004399669460083
18041	-1.0876591915776808
18043	-0.44931686547269767
18045	-0.6620976408410253
18047	1.2529293374739237
18049	-0.44931686547269767
18051	-1.3004399669460083
18053	-0.874878416209353
18055	-0.874878416209353
18057	0.6145870113689406
18059	0.18902546063228529
18061	0.40180623600061294
18063	-0.23653609010437002
18065	-1.513220742314336
18067	-0.44931686547269767
18069	1.2529293374739237
18071	-0.23653609010437002
18073	-0.23653609010437002
18075	-1.3004399669460083
18077	-0.44931686547269767
18079	-1.0876591915776808
18081	0.6145870113689406
18083	-0.44931686547269767
18085	-0.874878416209353
18087	-0.874878416209353
18089	0.40180623600061294
18091	0.6145870113689406
18093	-1.0876591915776808
18095	0.18902546063228529
18097	-0.023755314736042366
18099	-1.0876591915776808
18101	-0.44931686547269767
18103	0.8273677867372683
18105	0.18902546063228529
18107	-0.023755314736042366
18109	0.40180623600061294
18111	1.8912716635789066
18113	-0.023755314736042366
18115	-0.1156976250803817
18117	-0.23653609010437002
18119	1.4657101128422512
18121	-0.23653609010437002
18123	0.6145870113689406
18125	-0.1156976250803817
18127	0.6145870113689406
18129	0.6145870113689406
18131	-0.1156976250803817
18133	-1.3004399669460083
18135	-0.023755314736042366
18137	1.678490888210579
18139	-1.7260015176826637
18141	0.6145870113689406
18143	-0.1156976250803817
18145	-0.023755314736042366
18147	0.8273677867372683
18149	0.8273677867372683
18151	0.8273677867372683
18153	-0.023755314736042366
18155	0.18902546063228529
18157	0.18902546063228529
18159	-0.1156976250803817
18161	-0.1156976250803817
18163	-0.23653609010437002
18165	1.040148562105596
18167	-0.023755314736042366
18169	0.6145870113689406
18171	-0.1156976250803817
18173	-0.6620976408410253
18175	-0.44931686547269767
18177	-1.3004399669460083
18179	-1.7260015176826637
18181	-1.0876591915776808
18183	1.040148562105596
19001	0.6145870113689406
19003	0.797677445988206
19005	1.678490888210579
19007	1.4657101128422512
19009	0.18902546063228529
19011	0.6145870113689406
19013	0.6145870113689406
19015	1.2529293374739237
19017	1.678490888210579
19019	0.8273677867372683
19021	0.6145870113689406
19023	-0.23653609010437002
19025	2.316833214315562
19027	0.8273677867372683
19029	0.6145870113689406
19031	1.040148562105596
19033	0.40180623600061294
19035	0.6145870113689406
19037	2.955175540420545
19039	0.797677445988206
19041	0.40180623600061294
19043	3.593517866525528
19045	1.678490888210579
19047	-0.023755314736042366
19049	0.6145870113689406
19051	0.6145870113689406
19053	0.797677445988206
19055	1.2529293374739237
19057	0.6145870113689406
19059	0.18902546063228529
19061	3.1679563157888726
19063	2.5296139896838894
19065	1.2529293374739237
19067	0.18902546063228529
19069	-0.023755314736042366
19071	-0.874878416209353
19073	0.797677445988206
19075	0.40180623600061294
19077	0.18902546063228529
19079	-0.23653609010437002
19081	0.8273677867372683
19083	0.6145870113689406
19085	0.8273677867372683
19087	0.40180623600061294
19089	1.2529293374739237
19091	0.8273677867372683
19093	1.4657101128422512
19095	0.40180623600061294
19097	1.8912716635789066
19099	0.6145870113689406
19101	0.797677445988206
19103	1.2529293374739237
19105	3.3807370911572003
19107	1.2529293374739237
19109	-0.023755314736042366
19111	2.1040524389472344
19113	0.6145870113689406
19115	1.2529293374739237
19117	0.797677445988206
19119	-0.023755314736042366
19121	-0.44931686547269767
19123	-1.7260015176826637
19125	-1.0876591915776808
19127	-0.023755314736042366
19129	1.040148562105596
19131	-0.6620976408410253
19133	0.40180623600061294
19135	0.8273677867372683
19137	-0.874878416209353
19139	1.040148562105596
19141	-0.6620976408410253
19143	0.797677445988206
19145	-0.23653609010437002
19147	1.8912716635789066
19149	2.1040524389472344
19151	1.8912716635789066
19153	0.6145870113689406
19155	1.2529293374739237
19157	0.18902546063228529
19159	0.797677445988206
19161	2.1040524389472344
19163	1.678490888210579
19165	1.8912716635789066
19167	-0.44931686547269767
19169	0.40180623600061294
19171	1.678490888210579
19173	0.797677445988206
19175	0.797677445988206
19177	0.797677445988206
19179	-0.44931686547269767
19181	0.8273677867372683
19183	-0.44931686547269767
19185	0.797677445988206
19187	0.6145870113689406
19189	-0.44931686547269767
19191	1.040148562105596
19193	0.8273677867372683
19195	0.797677445988206
19197	1.2529293374739237
20001	-1.0876591915776808
20003	-0.23653609010437002
20005	0.40180623600061294
20007	-1.513220742314336
20009	-0.44931686547269767
20011	-1.3004399669460083
20013	-1.513220742314336
20015	-0.874878416209353
20017	-0.23653609010437002
20019	-0.30746301522713926
20021	-0.874878416209353
20023	-0.30746301522713926
20025	-0.30746301522713926
20027	-0.23653609010437002
20029	-0.44931686547269767
20031	-0.874878416209353
20033	-0.30746301522713926
20035	-1.3004399669460083
20037	-0.23653609010437002
20039	-0.30746301522713926
20041	0.40180623600061294
20043	-0.30746301522713926
20045	0.6145870113689406
20047	-0.30746301522713926
20049	-0.30746301522713926
20051	0.6145870113689406
20053	-0.44931686547269767
20055	0.6145870113689406
20057	-0.23653609010437002
20059	-0.44931686547269767
20061	-0.23653609010437002
20063	-0.30746301522713926
20065	-0.30746301522713926
20067	0.8273677867372683
20069	-0.23653609010437002
20071	-0.30746301522713926
20073	-0.874878416209353
20075	-0.30746301522713926
20077	-1.0876591915776808
20079	-1.3004399669460083
20081	-0.30746301522713926
20083	-0.30746301522713926
20085	-0.44931686547269767
20087	0.6145870113689406
20089	-0.30746301522713926
20091	0.40180623600061294
20093	-0.30746301522713926
20095	-1.3004399669460083
20097	-0.30746301522713926
20099	-0.23653609010437002
20101	-0.30746301522713926
20103	0.18902546063228529
20105	-0.30746301522713926
20107	-1.3004399669460083
20109	-0.30746301522713926
20111	-0.44931686547269767
20113	-0.874878416209353
20115	-0.23653609010437002
20117	1.040148562105596
20119	-0.30746301522713926
20121	-0.44931686547269767
20123	-0.6620976408410253
20125	-1.0876591915776808
20127	0.40180623600061294
20129	-0.30746301522713926
20131	0.18902546063228529
20133	-0.023755314736042366
20135	-0.30746301522713926
20137	-0.30746301522713926
20139	-0.23653609010437002
20141	-0.30746301522713926
20143	-1.3004399669460083
20145	-1.0876591915776808
20147	-0.6620976408410253
20149	-0.44931686547269767
20151	-1.3004399669460083
20153	-0.30746301522713926
20155	-0.6620976408410253
20157	0.6145870113689406
20159	-1.7260015176826637
20161	0.40180623600061294
20163	-0.30746301522713926
20165	-0.44931686547269767
20167	-1.0876591915776808
20169	-0.23653609010437002
20171	-0.30746301522713926
20173	-0.23653609010437002
20175	-1.0876591915776808
20177	-0.23653609010437002
20179	1.8912716635789066
20181	-0.30746301522713926
20183	-0.30746301522713926
20185	-0.30746301522713926
20187	-0.30746301522713926
20189	0.40180623600061294
20191	-0.23653609010437002
20193	-0.30746301522713926
20195	2.5296139896838894
20197	0.6145870113689406
20199	-0.30746301522713926
20201	1.2529293374739237
20203	-0.30746301522713926
20205	-0.874878416209353
20207	-0.30746301522713926
20209	-0.23653609010437002
21001	-0.9978923019691675
21003	-0.9978923019691675
21005	-0.9978923019691675
21007	-0.9978923019691675
21009	-1.3004399669460083
21011	-0.6620976408410253
21013	-0.9978923019691675
21015	0.40180623600061294
21017	-0.9978923019691675
21019	-1.3004399669460083
21021	-0.9978923019691675
21023	-1.513220742314336
21025	-2.5771246191559745
21027	-0.9978923019691675
21029	-1.0876591915776808
21031	-0.874878416209353
21033	-0.9978923019691675
21035	-0.874878416209353
21037	1.2529293374739237
21039	-0.9978923019691675
21041	-0.9978923019691675
21043	-1.7260015176826637
21045	-0.44931686547269767
21047	-0.874878416209353
21049	-0.9978923019691675
21051	-0.9978923019691675
21053	-0.9978923019691675
21055	-0.9978923019691675
21057	-0.9978923019691675
21059	-0.6620976408410253
21061	-0.9978923019691675
21063	-0.9978923019691675
21065	-0.9978923019691675
21067	-1.0876591915776808
21069	-1.7260015176826637
21071	-1.513220742314336
21073	-1.0876591915776808
21075	-0.9978923019691675
21077	-0.9978923019691675
21079	-0.9978923019691675
21081	-0.9978923019691675
21083	-1.0876591915776808
21085	-1.7260015176826637
21087	-0.9978923019691675
21089	-1.513220742314336
21091	-0.9978923019691675
21093	-1.7260015176826637
21095	-0.9978923019691675
21097	-0.9978923019691675
21099	-1.0876591915776808
21101	-1.513220742314336
21103	-0.9978923019691675
21105	-0.9978923019691675
21107	-1.513220742314336
21109	-0.9978923019691675
21111	-0.23653609010437002
21113	-0.9978923019691675
21115	-2.3643438437876467
21117	0.8273677867372683
21119	-1.3004399669460083
21121	-0.9978923019691675
21123	-0.9978923019691675
21125	-1.513220742314336
21127	-0.9978923019691675
21129	-0.9978923019691675
21131	-1.3004399669460083
21133	-1.9387822930509913
21135	-0.6620976408410253
21137	-0.9978923019691675
21139	-0.9978923019691675
21141	-1.0876591915776808
21143	-0.9978923019691675
21145	-0.874878416209353
21147	-1.3004399669460083
21149	-0.9978923019691675
21151	-1.9387822930509913
21153	-0.9978923019691675
21155	-0.44931686547269767
21157	-0.44931686547269767
21159	-0.44931686547269767
21161	-0.6620976408410253
21163	-1.3004399669460083
21165	-0.6620976408410253
21167	-0.9978923019691675
21169	-0.9978923019691675
21171	-0.9978923019691675
21173	-1.0876591915776808
21175	-1.3004399669460083
21177	-1.0876591915776808
21179	1.040148562105596
21181	-0.9978923019691675
21183	-1.7260015176826637
21185	-0.44931686547269767
21187	-0.9978923019691675
21189	-0.9978923019691675
21191	-0.9978923019691675
21193	-1.3004399669460083
21195	-1.7260015176826637
21197	-0.9978923019691675
21199	-1.9387822930509913
21201	-0.23653609010437002
21203	-0.9978923019691675
21205	-1.3004399669460083
21207	-1.7260015176826637
21209	-1.0876591915776808
21211	-0.874878416209353
21213	-0.9978923019691675
21215	1.678490888210579
21217	-0.874878416209353
21219	-0.44931686547269767
21221	-0.44931686547269767
21223	-0.9978923019691675
21225	-0.874878416209353
21227	-0.6620976408410253
21229	-0.9978923019691675
21231	-0.9978923019691675
21233	-0.9978923019691675
21235	-1.9387822930509913
21237	-0.9978923019691675
21239	-0.9978923019691675
22001	0.40180623600061294
22003	-0.44931686547269767
22005	1.2529293374739237
22007	-0.874878416209353
22009	-0.44931686547269767
22011	-1.0876591915776808
22013	0.18902546063228529
22015	-0.023755314736042366
22017	-0.6620976408410253
22019	-0.23653609010437002
22021	-0.22879860736371135
22023	-0.22879860736371135
22025	-1.3004399669460083
22027	-0.874878416209353
22029	-1.3004399669460083
22031	-0.874878416209353
22033	-0.23653609010437002
22035	-1.7260015176826637
22037	-1.513220742314336
22039	0.40180623600061294
22041	-0.44931686547269767
22043	-1.0876591915776808
22045	-0.6620976408410253
22047	1.4657101128422512
22049	-0.22879860736371135
22051	-0.44931686547269767
22053	-0.23653609010437002
22055	1.2529293374739237
22057	0.18902546063228529
22059	-0.22879860736371135
22061	-0.874878416209353
22063	-0.23653609010437002
22065	-0.023755314736042366
22067	-1.9387822930509913
22069	-0.874878416209353
22071	0.8273677867372683
22073	-1.0876591915776808
22075	0.40180623600061294
22077	-0.44931686547269767
22079	-0.44931686547269767
22081	1.4657101128422512
22083	-0.22879860736371135
22085	-0.23653609010437002
22087	0.40180623600061294
22089	0.40180623600061294
22091	-0.22879860736371135
22093	1.4657101128422512
22095	-0.6620976408410253
22097	-0.23653609010437002
22099	0.18902546063228529
22101	-0.44931686547269767
22103	0.8273677867372683
22105	-0.874878416209353
22107	-0.22879860736371135
22109	0.6145870113689406
22111	-1.3004399669460083
22113	1.040148562105596
22115	0.40180623600061294
22117	-1.0876591915776808
22119	-1.7260015176826637
22121	1.2529293374739237
22123	-0.023755314736042366
22125	-0.22879860736371135
22127	-0.22879860736371135
23001	0.18902546063228529
23003	-0.44931686547269767
23005	0.6145870113689406
23007	0.40180623600061294
23009	0.40180623600061294
23011	-0.023755314736042366
23013	0.18902546063228529
23015	0.18902546063228529
23017	0.18902546063228529
23019	-0.23653609010437002
23021	-0.23653609010437002
23023	0.40180623600061294
23025	0.18902546063228529
23027	-0.023755314736042366
23029	0.18902546063228529
23031	0.8273677867372683
24001	-0.023755314736042366
24003	0.6145870113689406
24005	-0.023755314736042366
24009	0.40180623600061294
24011	0.18902546063228529
24013	0.8273677867372683
24015	0.40180623600061294
24017	-0.44931686547269767
24019	-0.23653609010437002
24021	0.18902546063228529
24023	0.18902546063228529
24025	-0.023755314736042366
24027	-0.23653609010437002
24029	-0.23653609010437002
24031	-0.44931686547269767
24033	-1.3004399669460083
24035	1.4657101128422512
24037	0.6145870113689406
24039	-1.3004399669460083
24041	-0.023755314736042366
24043	-0.23653609010437002
24045	-0.6620976408410253
24047	0.40180623600061294
24510	0.18902546063228529
25001	0.40180623600061294
25003	1.040148562105596
25005	0.8273677867372683
25007	2.1040524389472344
25009	0.6145870113689406
25011	0.40180623600061294
25013	0.6145870113689406
25015	0.8273677867372683
25017	0.40180623600061294
25019	2.1040524389472344
25021	0.6145870113689406
25023	1.040148562105596
25025	0.6145870113689406
25027	1.040148562105596
26001	2.1040524389472344
26003	2.5296139896838894
26005	0.40180623600061294
26007	1.040148562105596
26009	2.316833214315562
26011	-0.6620976408410253
26013	1.2529293374739237
26015	0.40180623600061294
26017	1.2529293374739237
26019	-0.44931686547269767
26021	-0.023755314736042366
26023	-0.23653609010437002
26025	-0.23653609010437002
26027	0.8273677867372683
26029	1.4657101128422512
26031	1.8912716635789066
26033	2.742394765052217
26035	-0.44931686547269767
26037	0.18902546063228529
26039	2.955175540420545
26041	1.678490888210579
26043	2.742394765052217
26045	-0.023755314736042366
26047	0.6145870113689406
26049	-0.023755314736042366
26051	-0.874878416209353
26053	2.5296139896838894
26055	-0.023755314736042366
26057	-0.23653609010437002
26059	1.040148562105596
26061	1.040148562105596
26063	0.18902546063228529
26065	0.40180623600061294
26067	0.6145870113689406
26069	0.8273677867372683
26071	0.8273677867372683
26073	0.6145870113689406
26075	1.2529293374739237
26077	0.18902546063228529
26079	0.8103453247078024
26081	0.18902546063228529
26083	0.8103453247078024
26085	0.8103453247078024
26087	-0.023755314736042366
26089	0.40180623600061294
26091	1.040148562105596
26093	1.4657101128422512
26095	2.5296139896838894
26097	2.5296139896838894
26099	0.8273677867372683
26101	2.742394765052217
26103	0.6145870113689406
26105	1.8912716635789066
26107	0.8273677867372683
26109	0.8273677867372683
26111	-0.23653609010437002
26113	0.8273677867372683
26115	1.2529293374739237
26117	-0.44931686547269767
26119	0.8103453247078024
26121	1.2529293374739237
26123	0.6145870113689406
26125	0.40180623600061294
26127	1.040148562105596
26129	-0.23653609010437002
26131	0.8103453247078024
26133	-0.23653609010437002
26135	0.8103453247078024
26137	1.040148562105596
26139	0.6145870113689406
26141	0.8103453247078024
26143	1.2529293374739237
26145	1.040148562105596
26147	1.2529293374739237
26149	0.40180623600061294
26151	0.8273677867372683
26153	0.8103453247078024
26155	0.8273677867372683
26157	0.6145870113689406
26159	0.8273677867372683
26161	-0.23653609010437002
26163	0.18902546063228529
26165	-0.6620976408410253
27001	-0.23653609010437002
27003	0.6145870113689406
27005	1.4657101128422512
27007	1.4657101128422512
27009	0.6145870113689406
27011	1.000632132394332
27013	1.040148562105596
27015	1.4657101128422512
27017	1.040148562105596
27019	2.1040524389472344
27021	1.040148562105596
27023	2.955175540420545
27025	-0.023755314736042366
27027	1.4657101128422512
27029	1.040148562105596
27031	0.8273677867372683
27033	1.000632132394332
27035	0.8273677867372683
27037	0.8273677867372683
27039	0.18902546063228529
27041	0.8273677867372683
27043	1.000632132394332
27045	0.40180623600061294
27047	-0.023755314736042366
27049	2.1040524389472344
27051	1.000632132394332
27053	0.6145870113689406
27055	1.2529293374739237
27057	0.6145870113689406
27059	1.4657101128422512
27061	0.40180623600061294
27063	1.000632132394332
27065	0.8273677867372683
27067	-1.513220742314336
27069	1.000632132394332
27071	0.8273677867372683
27073	2.316833214315562
27075	1.000632132394332
27077	1.000632132394332
27079	0.40180623600061294
27081	2.316833214315562
27083	2.1040524389472344
27085	0.40180623600061294
27087	5.508544844840476
27089	1.678490888210579
27091	0.6145870113689406
27093	1.4657101128422512
27095	1.4657101128422512
27097	1.4657101128422512
27099	1.000632132394332
27101	1.000632132394332
27103	-0.023755314736042366
27105	-1.513220742314336
27107	1.8912716635789066
27109	-0.44931686547269767
27111	0.8273677867372683
27113	0.8273677867372683
27115	1.040148562105596
27117	1.000632132394332
27119	2.5296139896838894
27121	1.040148562105596
27123	-0.023755314736042366
27125	1.000632132394332
27127	1.4657101128422512
27129	1.000632132394332
27131	-0.44931686547269767
27133	0.18902546063228529
27135	-0.44931686547269767
27137	0.6145870113689406
27139	1.2529293374739237
27141	1.4657101128422512
27143	1.8912716635789066
27145	1.040148562105596
27147	-0.023755314736042366
27149	1.000632132394332
27151	0.6145870113689406
27153	0.18902546063228529
27155	1.000632132394332
27157	-0.023755314736042366
27159	1.000632132394332
27161	2.316833214315562
27163	1.040148562105596
27165	2.1040524389472344
27167	1.000632132394332
27169	0.8273677867372683
27171	1.678490888210579
27173	1.8912716635789066
28001	-0.6620976408410253
28003	-1.513220742314336
28005	-1.513220742314336
28007	-1.7260015176826637
28009	-1.1009579900382012
28011	-1.3004399669460083
28013	-1.1009579900382012
28015	-0.874878416209353
28017	-1.1009579900382012
28019	-1.0876591915776808
28021	-1.1009579900382012
28023	-1.3004399669460083
28025	-2.3643438437876467
28027	-0.874878416209353
28029	-0.44931686547269767
28031	-1.1009579900382012
28033	-0.874878416209353
28035	-0.874878416209353
28037	-0.6620976408410253
28039	-1.1009579900382012
28041	-1.1009579900382012
28043	-0.874878416209353
28045	-0.44931686547269767
28047	-0.23653609010437002
28049	-0.44931686547269767
28051	-1.513220742314336
28053	-1.1009579900382012
28055	-1.1009579900382012
28057	-1.9387822930509913
28059	-0.6620976408410253
28061	-2.151563068419319
28063	-1.513220742314336
28065	-1.1009579900382012
28067	-1.9387822930509913
28069	-1.1009579900382012
28071	-0.44931686547269767
28073	-1.0876591915776808
28075	-1.3004399669460083
28077	-0.874878416209353
28079	-0.874878416209353
28081	-1.513220742314336
28083	-0.6620976408410253
28085	-1.7260015176826637
28087	-0.44931686547269767
28089	-0.23653609010437002
28091	-0.6620976408410253
28093	-0.023755314736042366
28095	-2.151563068419319
28097	-0.874878416209353
28099	-1.7260015176826637
28101	-1.3004399669460083
28103	-1.1009579900382012
28105	-1.3004399669460083
28107	-0.874878416209353
28109	-0.6620976408410253
28111	-1.1009579900382012
28113	-1.0876591915776808
28115	-1.3004399669460083
28117	-1.513220742314336
28119	-1.1009579900382012
28121	-0.6620976408410253
28123	-1.7260015176826637
28125	-1.1009579900382012
28127	-1.7260015176826637
28129	-1.1009579900382012
28131	-1.7260015176826637
28133	-1.3004399669460083
28135	-1.513220742314336
28137	-0.44931686547269767
28139	-1.1009579900382012
28141	-1.0876591915776808
28143	-1.1009579900382012
28145	-1.0876591915776808
28147	-1.513220742314336
28149	-0.23653609010437002
28151	-1.0876591915776808
28153	-1.7260015176826637
28155	-1.3004399669460083
28157	-0.6620976408410253
28159	-0.44931686547269767
28161	-0.874878416209353
28163	-0.874878416209353
29001	0.8273677867372683
29003	0.6145870113689406
29005	0.24887005370462745
29007	-0.23653609010437002
29009	-0.023755314736042366
29011	0.24887005370462745
29013	0.6145870113689406
29015	-0.023755314736042366
29017	0.24887005370462745
29019	-0.23653609010437002
29021	-0.023755314736042366
29023	-1.0876591915776808
29025	0.24887005370462745
29027	0.40180623600061294
29029	-0.23653609010437002
29031	-1.0876591915776808
29033	0.24887005370462745
29035	0.24887005370462745
29037	-0.023755314736042366
29039	0.24887005370462745
29041	0.8273677867372683
29043	0.40180623600061294
29045	0.24887005370462745
29047	0.18902546063228529
29049	0.24887005370462745
29051	1.040148562105596
29053	1.678490888210579
29055	0.24887005370462745
29057	0.24887005370462745
29059	0.24887005370462745
29061	0.40180623600061294
29063	0.24887005370462745
29065	0.24887005370462745
29067	0.24887005370462745
29069	0.24887005370462745
29071	-0.44931686547269767
29073	-0.23653609010437002
29075	0.24887005370462745
29077	-0.874878416209353
29079	0.24887005370462745
29081	0.8273677867372683
29083	0.24887005370462745
29085	0.24887005370462745
29087	0.24887005370462745
29089	1.2529293374739237
29091	-0.6620976408410253
29093	0.24887005370462745
29095	-0.23653609010437002
29097	-0.44931686547269767
29099	1.4657101128422512
29101	0.8273677867372683
29103	0.24887005370462745
29105	0.24887005370462745
29107	0.18902546063228529
29109	0.24887005370462745
29111	-0.23653609010437002
29113	0.40180623600061294
29115	0.6145870113689406
29117	0.24887005370462745
29119	0.24887005370462745
29121	0.18902546063228529
29123	0.24887005370462745
29125	0.24887005370462745
29127	-1.0876591915776808
29129	0.24887005370462745
29131	-0.44931686547269767
29133	0.24887005370462745
29135	0.24887005370462745
29137	1.040148562105596
29139	1.040148562105596
29141	0.18902546063228529
29143	0.24887005370462745
29145	-0.44931686547269767
29147	-0.023755314736042366
29149	0.24887005370462745
29151	3.3807370911572003
29153	0.24887005370462745
29155	0.24887005370462745
29157	0.6145870113689406
29159	-1.0876591915776808
29161	-0.44931686547269767
29163	0.40180623600061294
29165	1.2529293374739237
29167	0.18902546063228529
29169	1.2529293374739237
29171	0.24887005370462745
29173	0.24887005370462745
29175	0.18902546063228529
29177	-0.6620976408410253
29179	0.24887005370462745
29181	1.2529293374739237
29183	1.4657101128422512
29185	0.24887005370462745
29186	0.18902546063228529
29187	0.18902546063228529
29189	0.8273677867372683
29195	0.40180623600061294
29197	0.24887005370462745
29199	0.24887005370462745
29201	-0.44931686547269767
29203	0.24887005370462745
29205	0.24887005370462745
29207	0.40180623600061294
29209	0.18902546063228529
29211	0.24887005370462745
29213	-1.3004399669460083
29215	-1.0876591915776808
29217	0.40180623600061294
29219	0.24887005370462745
29221	0.24887005370462745
29223	0.24887005370462745
29225	0.24887005370462745
29227	0.24887005370462745
29229	0.24887005370462745
29510	1.4657101128422512
30001	-1.0876591915776808
30003	0.40180623600061294
30005	2.1040524389472344
30007	-0.023755314736042366
30009	-0.023755314736042366
30011	0.6688252482275315
30013	0.40180623600061294
30015	1.040148562105596
30017	0.40180623600061294
30019	2.5296139896838894
30021	0.18902546063228529
30023	0.40180623600061294
30025	1.678490888210579
30027	0.18902546063228529
30029	0.40180623600061294
30031	1.2529293374739237
30033	0.6688252482275315
30035	1.040148562105596
30037	0.18902546063228529
30039	1.4657101128422512
30041	1.8912716635789066
30043	0.18902546063228529
30045	1.678490888210579
30047	0.6145870113689406
30049	0.40180623600061294
30051	1.040148562105596
30053	-0.23653609010437002
30055	0.6145870113689406
30057	0.8273677867372683
30059	-0.44931686547269767
30061	-0.23653609010437002
30063	1.2529293374739237
30065	0.40180623600061294
30067	-0.023755314736042366
30069	0.6688252482275315
30071	0.40180623600061294
30073	1.040148562105596
30075	1.4657101128422512
30077	0.40180623600061294
30079	-0.44931686547269767
30081	0.40180623600061294
30083	0.8273677867372683
30085	1.4657101128422512
30087	0.8273677867372683
30089	-0.023755314736042366
30091	0.40180623600061294
30093	0.6145870113689406
30095	1.2529293374739237
30097	1.4657101128422512
30099	-0.023755314736042366
30101	1.040148562105596
30103	0.6688252482275315
30105	1.2529293374739237
30107	1.2529293374739237
30109	0.6688252482275315
30111	-0.023755314736042366
31001	-0.023755314736042366
31003	0.6145870113689406
31005	2.5296139896838894
31007	0.5873708656822911
31009	0.5873708656822911
31011	0.6145870113689406
31013	0.8273677867372683
31015	1.040148562105596
31017	0.18902546063228529
31019	-0.023755314736042366
31021	1.2529293374739237
31023	2.316833214315562
31025	0.6145870113689406
31027	2.1040524389472344
31029	1.678490888210579
31031	-0.23653609010437002
31033	0.6145870113689406
31035	-0.44931686547269767
31037	0.40180623600061294
31039	1.040148562105596
31041	-0.23653609010437002
31043	0.6145870113689406
31045	1.040148562105596
31047	-0.23653609010437002
31049	0.40180623600061294
31051	1.4657101128422512
31053	0.40180623600061294
31055	1.040148562105596
31057	-0.6620976408410253
31059	1.678490888210579
31061	1.040148562105596
31063	0.8273677867372683
31065	-0.874878416209353
31067	1.678490888210579
31069	-0.023755314736042366
31071	0.40180623600061294
31073	0.6145870113689406
31075	0.8273677867372683
31077	1.2529293374739237
31079	0.40180623600061294
31081	0.40180623600061294
31083	0.5873708656822911
31085	0.18902546063228529
31087	-0.6620976408410253
31089	0.18902546063228529
31091	0.18902546063228529
31093	-0.023755314736042366
31095	0.18902546063228529
31097	1.2529293374739237
31099	0.40180623600061294
31101	0.6145870113689406
31103	0.18902546063228529
31105	-1.0876591915776808
31107	1.040148562105596
31109	0.8273677867372683
31111	-0.23653609010437002
31113	0.5873708656822911
31115	0.5873708656822911
31117	0.5873708656822911
31119	0.8273677867372683
31121	1.040148562105596
31123	-0.44931686547269767
31125	2.316833214315562
31127	-0.23653609010437002
31129	0.8273677867372683
31131	1.2529293374739237
31133	-1.0876591915776808
31135	-0.874878416209353
31137	0.6145870113689406
31139	0.8273677867372683
31141	1.4657101128422512
31143	1.2529293374739237
31145	0.18902546063228529
31147	1.040148562105596
31149	-0.23653609010437002
31151	0.40180623600061294
31153	1.040148562105596
31155	1.8912716635789066
31157	-1.0876591915776808
31159	1.040148562105596
31161	-0.023755314736042366
31163	0.40180623600061294
31165	1.040148562105596
31167	2.1040524389472344
31169	-0.023755314736042366
31171	-0.023755314736042366
31173	1.678490888210579
31175	0.40180623600061294
31177	1.2529293374739237
31179	0.6145870113689406
31181	0.40180623600061294
31183	0.5873708656822911
31185	0.40180623600061294
32001	0.40180623600061294
32003	0.18902546063228529
32005	1.040148562105596
32007	1.8912716635789066
32009	0.5294747012216099
32011	0.5294747012216099
32013	1.4657101128422512
32015	-0.023755314736042366
32017	-0.23653609010437002
32019	1.040148562105596
32021	0.8273677867372683
32023	-0.44931686547269767
32027	1.040148562105596
32029	-0.023755314736042366
32031	1.040148562105596
32033	-0.6620976408410253
32510	0.40180623600061294
33001	0.18902546063228529
33003	0.40180623600061294
33005	-0.023755314736042366
33007	0.40180623600061294
33009	0.6145870113689406
33011	0.40180623600061294
33013	-0.23653609010437002
33015	0.8273677867372683
33017	0.18902546063228529
33019	-0.23653609010437002
34001	0.40180623600061294
34003	0.18902546063228529
34005	-0.23653609010437002
34007	0.18902546063228529
34009	0.40180623600061294
34011	0.40180623600061294
34013	-0.23653609010437002
34015	0.6145870113689406
34017	0.18902546063228529
34019	0.40180623600061294
34021	-0.023755314736042366
34023	-0.6620976408410253
34025	0.40180623600061294
34027	0.18902546063228529
34029	-0.23653609010437002
34031	-0.23653609010437002
34033	-0.23653609010437002
34035	-0.44931686547269767
34037	0.40180623600061294
34039	-0.023755314736042366
34041	-0.023755314736042366
35001	-0.6620976408410253
35003	-0.874878416209353
35005	-0.23653609010437002
35006	-0.6620976408410253
35007	0.18902546063228529
35009	-0.23653609010437002
35011	-0.3979559886596588
35013	-0.023755314736042366
35015	-0.23653609010437002
35017	-0.023755314736042366
35019	-0.3979559886596588
35021	2.1040524389472344
35023	-0.3979559886596588
35025	-0.44931686547269767
35027	0.6145870113689406
35028	-1.0876591915776808
35029	0.18902546063228529
35031	-0.6620976408410253
35033	-0.6620976408410253
35035	-0.44931686547269767
35037	-1.7260015176826637
35039	-0.6620976408410253
35041	-0.6620976408410253
35043	-0.6620976408410253
35045	-0.6620976408410253
35047	-0.23653609010437002
35049	-0.44931686547269767
35051	-0.874878416209353
35053	-0.6620976408410253
35055	-0.23653609010437002
35057	-0.6620976408410253
35059	-0.3979559886596588
35061	-0.874878416209353
36001	0.6145870113689406
36003	1.2529293374739237
36005	-0.44931686547269767
36007	-0.23653609010437002
36009	-0.874878416209353
36011	1.2529293374739237
36013	1.040148562105596
36015	-0.023755314736042366
36017	0.8273677867372683
36019	1.4657101128422512
36021	1.4657101128422512
36023	-0.6620976408410253
36025	-0.6620976408410253
36027	0.6145870113689406
36029	0.6145870113689406
36031	0.40180623600061294
36033	1.040148562105596
36035	0.6145870113689406
36037	0.40180623600061294
36039	0.6145870113689406
36041	0.3529713039488677
36043	0.6145870113689406
36045	0.8273677867372683
36047	-0.44931686547269767
36049	0.8273677867372683
36051	-1.0876591915776808
36053	-0.23653609010437002
36055	-0.23653609010437002
36057	0.40180623600061294
36059	-0.023755314736042366
36061	1.040148562105596
36063	0.40180623600061294
36065	-0.44931686547269767
36067	0.6145870113689406
36069	-0.023755314736042366
36071	1.040148562105596
36073	-0.6620976408410253
36075	1.2529293374739237
36077	0.40180623600061294
36079	1.4657101128422512
36081	-0.23653609010437002
36083	1.2529293374739237
36085	0.18902546063228529
36087	-1.0876591915776808
36089	1.4657101128422512
36091	0.8273677867372683
36093	-0.23653609010437002
36095	-0.874878416209353
36097	1.8912716635789066
36099	-1.0876591915776808
36101	0.18902546063228529
36103	0.40180623600061294
36105	0.6145870113689406
36107	0.8273677867372683
36109	-0.44931686547269767
36111	1.8912716635789066
36113	1.2529293374739237
36115	-0.874878416209353
36117	-0.023755314736042366
36119	0.18902546063228529
36121	0.6145870113689406
36123	-0.23653609010437002
37001	-0.874878416209353
37003	-0.874878416209353
37005	0.18902546063228529
37007	-0.6182898341475414
37009	-1.513220742314336
37011	-0.6182898341475414
37013	-0.6182898341475414
37015	-0.6182898341475414
37017	-0.6182898341475414
37019	-0.23653609010437002
37021	-0.44931686547269767
37023	-1.7260015176826637
37025	-0.44931686547269767
37027	-1.513220742314336
37029	-0.6182898341475414
37031	1.040148562105596
37033	-0.6182898341475414
37035	-0.6620976408410253
37037	0.18902546063228529
37039	-1.513220742314336
37041	-0.6182898341475414
37043	-0.6182898341475414
37045	-1.3004399669460083
37047	-0.6182898341475414
37049	-0.874878416209353
37051	-1.0876591915776808
37053	2.316833214315562
37055	2.5296139896838894
37057	-0.23653609010437002
37059	-0.874878416209353
37061	-0.874878416209353
37063	-0.23653609010437002
37065	-0.6182898341475414
37067	-0.874878416209353
37069	0.18902546063228529
37071	-0.874878416209353
37073	-0.6182898341475414
37075	-0.6182898341475414
37077	-1.0876591915776808
37079	-0.6182898341475414
37081	-0.6620976408410253
37083	-2.151563068419319
37085	-0.6620976408410253
37087	-0.6620976408410253
37089	-1.0876591915776808
37091	-0.6182898341475414
37093	-1.0876591915776808
37095	-0.6182898341475414
37097	-0.023755314736042366
37099	-0.23653609010437002
37101	0.40180623600061294
37103	-0.6182898341475414
37105	-1.3004399669460083
37107	-1.7260015176826637
37109	-0.874878416209353
37111	-1.9387822930509913
37113	-1.0876591915776808
37115	-0.6182898341475414
37117	-0.6182898341475414
37119	-0.023755314736042366
37121	-0.6182898341475414
37123	-0.6182898341475414
37125	-0.44931686547269767
37127	-0.023755314736042366
37129	0.40180623600061294
37131	-0.6182898341475414
37133	0.40180623600061294
37135	-0.023755314736042366
37137	-0.6182898341475414
37139	-0.23653609010437002
37141	0.40180623600061294
37143	-0.6182898341475414
37145	-0.6182898341475414
37147	-0.6620976408410253
37149	-0.44931686547269767
37151	-1.0876591915776808
37153	-1.7260015176826637
37155	-1.513220742314336
37157	-0.023755314736042366
37159	-1.3004399669460083
37161	-1.513220742314336
37163	-1.0876591915776808
37165	-1.513220742314336
37167	-0.23653609010437002
37169	1.2529293374739237
37171	-0.6182898341475414
37173	-0.23653609010437002
37175	-0.6182898341475414
37177	-0.6182898341475414
37179	-0.44931686547269767
37181	-1.7260015176826637
37183	-0.23653609010437002
37185	-0.6182898341475414
37187	-0.6182898341475414
37189	-0.23653609010437002
37191	-1.3004399669460083
37193	-1.513220742314336
37195	-0.6182898341475414
37197	-0.6182898341475414
37199	-2.151563068419319
38001	0.18902546063228529
38003	0.18902546063228529
38005	1.040148562105596
38007	1.3441210983460583
38009	1.678490888210579
38011	0.8273677867372683
38013	1.678490888210579
38015	0.6145870113689406
38017	1.040148562105596
38019	0.8273677867372683
38021	2.316833214315562
38023	2.316833214315562
38025	1.2529293374739237
38027	1.678490888210579
38029	0.6145870113689406
38031	2.316833214315562
38033	1.040148562105596
38035	0.8273677867372683
38037	4.231860192630511
38039	0.40180623600061294
38041	-0.23653609010437002
38043	0.6145870113689406
38045	-0.44931686547269767
38047	0.8273677867372683
38049	2.1040524389472344
38051	0.8273677867372683
38053	3.593517866525528
38055	0.6145870113689406
38057	0.6145870113689406
38059	1.2529293374739237
38061	0.6145870113689406
38063	1.4657101128422512
38065	1.3441210983460583
38067	1.678490888210579
38069	1.4657101128422512
38071	2.742394765052217
38073	1.678490888210579
38075	1.8912716635789066
38077	1.2529293374739237
38079	2.5296139896838894
38081	2.1040524389472344
38083	1.3441210983460583
38085	2.316833214315562
38087	1.3441210983460583
38089	0.8273677867372683
38091	2.1040524389472344
38093	1.040148562105596
38095	0.40180623600061294
38097	-0.023755314736042366
38099	1.4657101128422512
38101	1.4657101128422512
38103	1.678490888210579
38105	2.316833214315562
39001	0.2672536868706349
39003	0.18902546063228529
39005	0.2672536868706349
39007	1.2529293374739237
39009	-1.3004399669460083
39011	0.40180623600061294
39013	1.4657101128422512
39015	0.2672536868706349
39017	0.6145870113689406
39019	0.18902546063228529
39021	0.18902546063228529
39023	-0.44931686547269767
39025	-0.23653609010437002
39027	0.2672536868706349
39029	-0.23653609010437002
39031	-0.44931686547269767
39033	2.316833214315562
39035	0.18902546063228529
39037	-1.0876591915776808
39039	-1.3004399669460083
39041	0.8273677867372683
39043	1.040148562105596
39045	-0.023755314736042366
39047	0.2672536868706349
39049	0.6145870113689406
39051	0.2672536868706349
39053	0.18902546063228529
39055	0.8273677867372683
39057	-0.44931686547269767
39059	-0.44931686547269767
39061	0.8273677867372683
39063	-1.0876591915776808
39065	0.2672536868706349
39067	0.40180623600061294
39069	-0.6620976408410253
39071	0.2672536868706349
39073	-0.023755314736042366
39075	0.2672536868706349
39077	2.1040524389472344
39079	0.2672536868706349
39081	0.8273677867372683
39083	-0.6620976408410253
39085	1.4657101128422512
39087	-0.6620976408410253
39089	0.8273677867372683
39091	0.40180623600061294
39093	0.6145870113689406
39095	0.6145870113689406
39097	0.40180623600061294
39099	-0.023755314736042366
39101	0.6145870113689406
39103	0.18902546063228529
39105	0.2672536868706349
39107	3.1679563157888726
39109	0.18902546063228529
39111	0.2672536868706349
39113	-0.23653609010437002
39115	0.2672536868706349
39117	0.2672536868706349
39119	0.18902546063228529
39121	0.2672536868706349
39123	2.316833214315562
39125	0.2672536868706349
39127	-0.023755314736042366
39129	-0.44931686547269767
39131	0.2672536868706349
39133	0.18902546063228529
39135	1.040148562105596
39137	1.4657101128422512
39139	-0.6620976408410253
39141	-0.23653609010437002
39143	1.040148562105596
39145	-0.023755314736042366
39147	0.8273677867372683
39149	-0.023755314736042366
39151	-0.44931686547269767
39153	0.40180623600061294
39155	0.6145870113689406
39157	-0.874878416209353
39159	1.2529293374739237
39161	0.2672536868706349
39163	0.2672536868706349
39165	0.6145870113689406
39167	-0.874878416209353
39169	-1.3004399669460083
39171	-1.0876591915776808
39173	0.6145870113689406
39175	0.2672536868706349
40001	-1.0876591915776808
40003	-0.7967140497475206
40005	-0.7967140497475206
40007	-0.7967140497475206
40009	-1.0876591915776808
40011	-0.44931686547269767
40013	-1.513220742314336
40015	-1.3004399669460083
40017	-0.23653609010437002
40019	-1.7260015176826637
40021	-0.6620976408410253
40023	-1.3004399669460083
40025	-0.7967140497475206
40027	-0.023755314736042366
40029	-0.7967140497475206
40031	0.40180623600061294
40033	-0.7967140497475206
40035	-0.6620976408410253
40037	-0.23653609010437002
40039	-1.0876591915776808
40041	-1.0876591915776808
40043	-0.7967140497475206
40045	-0.7967140497475206
40047	-0.23653609010437002
40049	-1.513220742314336
40051	-1.0876591915776808
40053	-0.7967140497475206
40055	-0.7967140497475206
40057	-0.7967140497475206
40059	-0.7967140497475206
40061	-0.7967140497475206
40063	-0.7967140497475206
40065	-1.513220742314336
40067	-0.7967140497475206
40069	-0.7967140497475206
40071	-0.6620976408410253
40073	0.6145870113689406
40075	-0.023755314736042366
40077	-0.7967140497475206
40079	-1.3004399669460083
40081	-1.0876591915776808
40083	0.40180623600061294
40085	1.040148562105596
40087	-1.0876591915776808
40089	-1.513220742314336
40091	-1.513220742314336
40093	-0.7967140497475206
40095	-0.7967140497475206
40097	-1.7260015176826637
40099	-0.44931686547269767
40101	-1.513220742314336
40103	-0.7967140497475206
40105	-0.7967140497475206
40107	-0.7967140497475206
40109	-0.23653609010437002
40111	-1.3004399669460083
40113	-0.6620976408410253
40115	-1.3004399669460083
40117	-0.7967140497475206
40119	-0.23653609010437002
40121	-0.23653609010437002
40123	-0.6620976408410253
40125	-0.023755314736042366
40127	-0.7967140497475206
40129	-0.7967140497475206
40131	-1.0876591915776808
40133	-1.9387822930509913
40135	-1.3004399669460083
40137	-1.0876591915776808
40139	-0.7967140497475206
40141	-0.7967140497475206
40143	-0.44931686547269767
40145	-1.513220742314336
40147	-1.3004399669460083
40149	-0.7967140497475206
40151	-0.23653609010437002
40153	-0.23653609010437002
41001	0.40180623600061294
41003	-0.44931686547269767
41005	0.18902546063228529
41007	-0.23653609010437002
41009	-0.023755314736042366
41011	0.40180623600061294
41013	0.025893532849894152
41015	0.18902546063228529
41017	0.18902546063228529
41019	-0.23653609010437002
41021	0.025893532849894152
41023	1.2529293374739237
41025	0.025893532849894152
41027	0.40180623600061294
41029	-0.44931686547269767
41031	0.6145870113689406
41033	-0.44931686547269767
41035	-0.44931686547269767
41037	0.025893532849894152
41039	0.18902546063228529
41041	0.6145870113689406
41043	0.18902546063228529
41045	-0.44931686547269767
41047	-0.874878416209353
41049	-0.023755314736042366
41051	0.6145870113689406
41053	-0.874878416209353
41055	0.025893532849894152
41057	1.2529293374739237
41059	-0.23653609010437002
41061	-0.874878416209353
41063	1.040148562105596
41065	-0.44931686547269767
41067	-0.23653609010437002
41069	0.025893532849894152
41071	-0.44931686547269767
42001	0.18902546063228529
42003	0.6145870113689406
42005	1.040148562105596
42007	-0.44931686547269767
42009	-1.7260015176826637
42011	-0.023755314736042366
42013	-0.23653609010437002
42015	0.18902546063228529
42017	0.6145870113689406
42019	-0.44931686547269767
42021	0.6145870113689406
42023	0.20253535113186916
42025	0.18902546063228529
42027	-0.44931686547269767
42029	0.6145870113689406
42031	-0.874878416209353
42033	0.18902546063228529
42035	1.8912716635789066
42037	0.18902546063228529
42039	-1.0876591915776808
42041	-0.44931686547269767
42043	0.40180623600061294
42045	1.040148562105596
42047	1.678490888210579
42049	0.6145870113689406
42051	0.40180623600061294
42053	0.20253535113186916
42055	-1.0876591915776808
42057	1.678490888210579
42059	0.8273677867372683
42061	1.040148562105596
42063	-0.023755314736042366
42065	1.040148562105596
42067	0.20253535113186916
42069	1.678490888210579
42071	-0.23653609010437002
42073	-1.0876591915776808
42075	-0.6620976408410253
42077	0.40180623600061294
42079	0.8273677867372683
42081	0.18902546063228529
42083	0.40180623600061294
42085	-0.6620976408410253
42087	-1.0876591915776808
42089	1.678490888210579
42091	0.18902546063228529
42093	-1.0876591915776808
42095	0.18902546063228529
42097	-0.023755314736042366
42099	-0.23653609010437002
42101	0.18902546063228529
42103	-0.23653609010437002
42105	0.40180623600061294
42107	0.6145870113689406
42109	-0.23653609010437002
42111	0.8273677867372683
42113	0.20253535113186916
42115	0.6145870113689406
42117	-0.23653609010437002
42119	-0.6620976408410253
42121	-0.023755314736042366
42123	1.2529293374739237
42125	-0.023755314736042366
42127	0.40180623600061294
42129	-0.023755314736042366
42131	1.2529293374739237
42133	-0.023755314736042366
44001	0.18902546063228529
44003	0.8273677867372683
44005	1.040148562105596
44007	0.40180623600061294
44009	1.2529293374739237
45001	-0.23653609010437002
45003	-0.44931686547269767
45005	0.40180623600061294
45007	-1.3004399669460083
45009	-1.513220742314336
45011	-1.513220742314336
45013	0.6145870113689406
45015	-0.023755314736042366
45017	-1.0876591915776808
45019	1.4657101128422512
45021	-1.0876591915776808
45023	-0.23653609010437002
45025	-0.874878416209353
45027	-0.6620976408410253
45029	-1.0876591915776808
45031	-1.3004399669460083
45033	-1.3004399669460083
45035	-0.23653609010437002
45037	-1.0876591915776808
45039	-1.0876591915776808
45041	-0.874878416209353
45043	-0.023755314736042366
45045	-0.6620976408410253
45047	-0.6620976408410253
45049	-1.0876591915776808
45051	0.18902546063228529
45053	0.6145870113689406
45055	-0.6620976408410253
45057	-0.23653609010437002
45059	-1.0876591915776808
45061	-0.874878416209353
45063	-0.23653609010437002
45065	-0.874878416209353
45067	-1.9387822930509913
45069	-0.874878416209353
45071	0.6145870113689406
45073	-0.874878416209353
45075	-1.0876591915776808
45077	-1.3004399669460083
45079	0.40180623600061294
45081	0.40180623600061294
45083	-0.874878416209353
45085	-0.6620976408410253
45087	-1.0876591915776808
45089	-1.3004399669460083
45091	-0.44931686547269767
46003	-0.23653609010437002
46005	0.6145870113689406
46007	2.1040524389472344
46009	-0.023755314736042366
46011	0.8273677867372683
46013	1.040148562105596
46015	-0.023755314736042366
46017	2.5296139896838894
46019	-1.513220742314336
46021	1.040148562105596
46023	1.2529293374739237
46025	0.18902546063228529
46027	0.8273677867372683
46029	1.2529293374739237
46031	1.8912716635789066
46033	-0.23653609010437002
46035	-0.6620976408410253
46037	0.6696165222400655
46039	1.2529293374739237
46041	0.8273677867372683
46043	-0.023755314736042366
46045	0.8273677867372683
46047	-0.023755314736042366
46049	0.6696165222400655
46051	1.4657101128422512
46053	1.678490888210579
46055	1.2529293374739237
46057	0.18902546063228529
46059	0.18902546063228529
46061	0.6696165222400655
46063	2.955175540420545
46065	0.18902546063228529
46067	0.40180623600061294
46069	0.6696165222400655
46071	0.18902546063228529
46073	-0.44931686547269767
46075	0.6696165222400655
46077	-0.6620976408410253
46079	1.040148562105596
46081	0.6145870113689406
46083	1.4657101128422512
46085	0.8273677867372683
46087	0.6145870113689406
46089	-0.6620976408410253
46091	1.040148562105596
46093	0.18902546063228529
46095	1.040148562105596
46097	0.6696165222400655
46099	1.040148562105596
46101	1.2529293374739237
46103	0.18902546063228529
46105	-0.44931686547269767
46107	0.6696165222400655
46109	0.6145870113689406
46111	0.6696165222400655
46113	1.678490888210579
46115	1.678490888210579
46117	0.8273677867372683
46119	-0.44931686547269767
46121	0.8273677867372683
46123	1.040148562105596
46125	0.6145870113689406
46127	0.40180623600061294
46129	-0.44931686547269767
46135	1.2529293374739237
46137	1.4657101128422512
47001	-1.0876591915776808
47003	-1.4381216451255143
47005	-1.4381216451255143
47007	-1.4381216451255143
47009	-1.7260015176826637
47011	-1.9387822930509913
47013	-1.4381216451255143
47015	-1.4381216451255143
47017	-1.9387822930509913
47019	-1.9387822930509913
47021	-1.4381216451255143
47023	-1.4381216451255143
47025	-1.4381216451255143
47027	-1.4381216451255143
47029	-1.4381216451255143
47031	-1.513220742314336
47033	-1.4381216451255143
47035	-2.3643438437876467
47037	-1.0876591915776808
47039	-1.4381216451255143
47041	-1.4381216451255143
47043	-1.4381216451255143
47045	-1.3004399669460083
47047	-1.4381216451255143
47049	-1.4381216451255143
47051	-1.0876591915776808
47053	-1.3004399669460083
47055	-1.4381216451255143
47057	-1.4381216451255143
47059	-2.7899053945243018
47061	-1.4381216451255143
47063	-1.4381216451255143
47065	-1.0876591915776808
47067	-1.4381216451255143
47069	-1.4381216451255143
47071	-1.4381216451255143
47073	-2.3643438437876467
47075	-1.4381216451255143
47077	-1.4381216451255143
47079	-1.3004399669460083
47081	-1.4381216451255143
47083	-1.4381216451255143
47085	-1.4381216451255143
47087	-1.4381216451255143
47089	-2.3643438437876467
47091	-1.4381216451255143
47093	-1.3004399669460083
47095	-1.4381216451255143
47097	-0.44931686547269767
47099	-1.4381216451255143
47101	-1.4381216451255143
47103	-1.4381216451255143
47105	-1.4381216451255143
47107	-2.3643438437876467
47109	-1.4381216451255143
47111	-1.4381216451255143
47113	-1.3004399669460083
47115	-1.4381216451255143
47117	-1.4381216451255143
47119	-0.6620976408410253
47121	-1.4381216451255143
47123	-1.4381216451255143
47125	0.18902546063228529
47127	-1.4381216451255143
47129	-1.4381216451255143
47131	-1.7260015176826637
47133	-1.4381216451255143
47135	-1.4381216451255143
47137	-1.4381216451255143
47139	-1.4381216451255143
47141	-2.151563068419319
47143	-1.4381216451255143
47145	-1.4381216451255143
47147	-1.4381216451255143
47149	-1.513220742314336
47151	-1.4381216451255143
47153	-1.4381216451255143
47155	-1.0876591915776808
47157	-0.6620976408410253
47159	-1.4381216451255143
47161	-1.4381216451255143
47163	-1.513220742314336
47165	-1.513220742314336
47167	-1.0876591915776808
47169	-1.4381216451255143
47171	-1.4381216451255143
47173	-1.4381216451255143
47175	-1.4381216451255143
47177	-1.4381216451255143
47179	-1.9387822930509913
47181	-1.4381216451255143
47183	-1.7260015176826637
47185	-1.4381216451255143
47187	-0.44931686547269767
47189	-0.44931686547269767
48001	2.1040524389472344
48003	0.12485348075929782
48005	-1.3004399669460083
48007	0.12485348075929782
48009	0.12485348075929782
48011	0.12485348075929782
48013	0.12485348075929782
48015	0.6145870113689406
48017	0.12485348075929782
48019	0.12485348075929782
48021	0.18902546063228529
48023	0.12485348075929782
48025	0.12485348075929782
48027	-0.6620976408410253
48029	0.6145870113689406
48031	0.12485348075929782
48033	0.12485348075929782
48035	0.12485348075929782
48037	-1.0876591915776808
48039	-0.874878416209353
48041	-0.6620976408410253
48043	-0.23653609010437002
48045	0.12485348075929782
48047	0.12485348075929782
48049	0.12485348075929782
48051	0.12485348075929782
48053	-0.6620976408410253
48055	0.12485348075929782
48057	0.12485348075929782
48059	0.12485348075929782
48061	-0.023755314736042366
48063	0.12485348075929782
48065	0.12485348075929782
48067	0.12485348075929782
48069	0.12485348075929782
48071	0.12485348075929782
48073	0.12485348075929782
48075	0.12485348075929782
48077	0.12485348075929782
48079	0.12485348075929782
48081	0.12485348075929782
48083	0.12485348075929782
48085	-0.6620976408410253
48087	0.12485348075929782
48089	0.40180623600061294
48091	0.6145870113689406
48093	0.12485348075929782
48095	0.12485348075929782
48097	0.12485348075929782
48099	0.12485348075929782
48101	0.12485348075929782
48103	0.12485348075929782
48105	0.12485348075929782
48107	0.12485348075929782
48109	0.12485348075929782
48111	0.12485348075929782
48113	-0.23653609010437002
48115	0.12485348075929782
48117	0.12485348075929782
48119	0.12485348075929782
48121	-0.6620976408410253
48123	0.12485348075929782
48125	0.12485348075929782
48127	0.12485348075929782
48129	0.12485348075929782
48131	0.12485348075929782
48133	0.12485348075929782
48135	-0.23653609010437002
48137	0.40180623600061294
48139	0.8273677867372683
48141	0.18902546063228529
48143	0.12485348075929782
48145	0.12485348075929782
48147	0.12485348075929782
48149	0.12485348075929782
48151	0.12485348075929782
48153	0.12485348075929782
48155	0.12485348075929782
48157	-0.023755314736042366
48159	0.12485348075929782
48161	0.12485348075929782
48163	0.12485348075929782
48165	0.12485348075929782
48167	-0.44931686547269767
48169	0.12485348075929782
48171	-0.44931686547269767
48173	0.12485348075929782
48175	0.12485348075929782
48177	0.12485348075929782
48179	0.12485348075929782
48181	-1.0876591915776808
48183	-0.44931686547269767
48185	0.12485348075929782
48187	0.6145870113689406
48189	0.12485348075929782
48191	0.12485348075929782
48193	0.12485348075929782
48195	0.12485348075929782
48197	0.12485348075929782
48199	0.12485348075929782
48201	0.18902546063228529
48203	0.18902546063228529
48205	0.12485348075929782
48207	0.12485348075929782
48209	0.40180623600061294
48211	0.12485348075929782
48213	0.6145870113689406
48215	-0.23653609010437002
48217	0.12485348075929782
48219	0.12485348075929782
48221	0.6145870113689406
48223	0.12485348075929782
48225	0.12485348075929782
48227	0.12485348075929782
48229	8.487475699997065
48231	1.678490888210579
48233	0.12485348075929782
48235	0.12485348075929782
48237	0.12485348075929782
48239	0.12485348075929782
48241	0.12485348075929782
48243	0.12485348075929782
48245	-0.874878416209353
48247	0.12485348075929782
48249	0.12485348075929782
48251	0.6145870113689406
48253	0.12485348075929782
48255	0.12485348075929782
48257	0.12485348075929782
48259	0.18902546063228529
48261	0.12485348075929782
48263	0.12485348075929782
48265	-0.23653609010437002
48267	0.12485348075929782
48269	0.12485348075929782
48271	0.12485348075929782
48273	0.12485348075929782
48275	0.12485348075929782
48277	0.12485348075929782
48279	0.12485348075929782
48281	0.12485348075929782
48283	0.12485348075929782
48285	0.12485348075929782
48287	0.12485348075929782
48289	0.12485348075929782
48291	0.12485348075929782
48293	0.12485348075929782
48295	0.12485348075929782
48297	0.12485348075929782
48299	0.12485348075929782
48301	0.12485348075929782
48303	-0.23653609010437002
48305	0.12485348075929782
48307	0.12485348075929782
48309	-0.6620976408410253
48311	0.12485348075929782
48313	0.12485348075929782
48315	0.12485348075929782
48317	0.12485348075929782
48319	0.12485348075929782
48321	0.12485348075929782
48323	-1.3004399669460083
48325	0.12485348075929782
48327	0.12485348075929782
48329	0.18902546063228529
48331	0.12485348075929782
48333	0.12485348075929782
48335	0.12485348075929782
48337	0.12485348075929782
48339	0.18902546063228529
48341	0.12485348075929782
48343	0.12485348075929782
48345	0.12485348075929782
48347	0.12485348075929782
48349	0.12485348075929782
48351	0.12485348075929782
48353	0.12485348075929782
48355	2.5296139896838894
48357	0.12485348075929782
48359	0.12485348075929782
48361	0.12485348075929782
48363	0.12485348075929782
48365	0.12485348075929782
48367	-0.44931686547269767
48369	0.12485348075929782
48371	0.12485348075929782
48373	-1.7260015176826637
48375	-0.23653609010437002
48377	0.12485348075929782
48379	0.12485348075929782
48381	-0.874878416209353
48383	0.12485348075929782
48385	0.12485348075929782
48387	0.12485348075929782
48389	0.12485348075929782
48391	0.12485348075929782
48393	0.12485348075929782
48395	0.12485348075929782
48397	0.12485348075929782
48399	0.12485348075929782
48401	0.12485348075929782
48403	0.12485348075929782
48405	0.12485348075929782
48407	0.12485348075929782
48409	0.12485348075929782
48411	0.12485348075929782
48413	0.12485348075929782
48415	0.12485348075929782
48417	0.12485348075929782
48419	0.12485348075929782
48421	0.12485348075929782
48423	-1.0876591915776808
48425	0.12485348075929782
48427	0.12485348075929782
48429	0.12485348075929782
48431	0.12485348075929782
48433	0.12485348075929782
48435	0.12485348075929782
48437	0.12485348075929782
48439	-0.023755314736042366
48441	-1.3004399669460083
48443	0.12485348075929782
48445	0.12485348075929782
48447	0.12485348075929782
48449	0.12485348075929782
48451	0.18902546063228529
48453	1.2529293374739237
48455	0.12485348075929782
48457	0.12485348075929782
48459	0.12485348075929782
48461	0.12485348075929782
48463	0.12485348075929782
48465	-0.874878416209353
48467	-1.3004399669460083
48469	1.8912716635789066
48471	0.12485348075929782
48473	0.12485348075929782
48475	0.12485348075929782
48477	0.12485348075929782
48479	0.6145870113689406
48481	1.4657101128422512
48483	0.12485348075929782
48485	-0.023755314736042366
48487	0.12485348075929782
48489	0.12485348075929782
48491	0.18902546063228529
48493	1.2529293374739237
48495	0.12485348075929782
48497	-0.23653609010437002
48499	0.12485348075929782
48501	0.12485348075929782
48503	0.12485348075929782
48505	0.12485348075929782
48507	0.12485348075929782
49001	-1.4174693933985887
49003	-1.9387822930509913
49005	-2.151563068419319
49007	-1.0876591915776808
49009	-1.4174693933985887
49011	-1.9387822930509913
49013	-1.513220742314336
49015	-1.0876591915776808
49017	-1.4174693933985887
49019	-0.023755314736042366
49021	-1.3004399669460083
49023	-1.4174693933985887
49025	-1.4174693933985887
49027	-2.5771246191559745
49029	-1.4174693933985887
49031	-1.4174693933985887
49033	-1.4174693933985887
49035	-0.874878416209353
49037	-1.9387822930509913
49039	-2.151563068419319
49041	-1.3004399669460083
49043	0.6145870113689406
49045	-1.0876591915776808
49047	-0.6620976408410253
49049	-2.5771246191559745
49051	-1.513220742314336
49053	-2.151563068419319
49055	-1.4174693933985887
49057	-1.0876591915776808
50001	0.6145870113689406
50003	0.18902546063228529
50005	-0.23653609010437002
50007	0.8273677867372683
50009	1.040148562105596
50011	0.8273677867372683
50013	0.8273677867372683
50015	1.2529293374739237
50017	1.040148562105596
50019	0.6145870113689406
50021	0.40180623600061294
50023	0.8273677867372683
50025	0.8273677867372683
50027	0.8273677867372683
51001	-0.23653609010437002
51003	-0.44931686547269767
51005	-0.12701657337068048
51007	-0.12701657337068048
51009	-0.12701657337068048
51011	-0.12701657337068048
51013	0.6145870113689406
51015	-0.874878416209353
51017	-0.12701657337068048
51019	0.18902546063228529
51021	-0.12701657337068048
51023	-0.12701657337068048
51025	-0.023755314736042366
51027	-0.12701657337068048
51029	-0.12701657337068048
51031	-1.0876591915776808
51033	-0.6620976408410253
51035	-0.6620976408410253
51036	-0.12701657337068048
51037	-0.12701657337068048
51041	-0.44931686547269767
51043	-0.12701657337068048
51045	-0.12701657337068048
51047	-0.023755314736042366
51049	-0.12701657337068048
51051	-0.12701657337068048
51053	0.40180623600061294
51057	-0.12701657337068048
51059	0.8273677867372683
51061	-0.023755314736042366
51063	-0.12701657337068048
51065	0.40180623600061294
51067	-1.513220742314336
51069	-0.23653609010437002
51071	-0.12701657337068048
51073	0.8273677867372683
51075	-0.44931686547269767
51077	-0.12701657337068048
51079	-0.12701657337068048
51081	-0.12701657337068048
51083	-1.0876591915776808
51085	0.18902546063228529
51087	0.40180623600061294
51089	-1.0876591915776808
51091	-0.12701657337068048
51093	-0.44931686547269767
51095	-1.513220742314336
51097	-0.12701657337068048
51099	-0.12701657337068048
51101	-0.12701657337068048
51103	0.6145870113689406
51105	-1.0876591915776808
51107	0.6145870113689406
51109	-0.23653609010437002
51111	-0.12701657337068048
51113	-0.12701657337068048
51115	-0.12701657337068048
51117	-1.0876591915776808
51119	2.742394765052217
51121	-0.44931686547269767
51125	-0.874878416209353
51127	-0.12701657337068048
51131	0.18902546063228529
51133	-0.12701657337068048
51135	1.4657101128422512
51137	0.40180623600061294
51139	-0.44931686547269767
51141	-0.874878416209353
51143	-1.513220742314336
51145	1.2529293374739237
51147	-0.12701657337068048
51149	0.40180623600061294
51153	0.6145870113689406
51155	-0.44931686547269767
51157	-0.12701657337068048
51159	-0.023755314736042366
51161	-0.874878416209353
51163	0.18902546063228529
51165	-1.0876591915776808
51167	-0.12701657337068048
51169	-0.12701657337068048
51171	-0.23653609010437002
51173	-0.12701657337068048
51175	2.1040524389472344
51177	-0.44931686547269767
51179	-0.23653609010437002
51181	-0.12701657337068048
51183	-0.12701657337068048
51185	-1.3004399669460083
51187	-0.44931686547269767
51191	-0.12701657337068048
51193	-0.12701657337068048
51195	-1.3004399669460083
51197	-0.12701657337068048
51199	-0.6620976408410253
51510	1.2529293374739237
51515	-0.12701657337068048
51520	-0.12701657337068048
51530	-0.12701657337068048
51540	-0.12701657337068048
51550	-0.023755314736042366
51570	-0.12701657337068048
51580	-0.12701657337068048
51590	-1.0876591915776808
51595	-0.12701657337068048
51600	-0.023755314736042366
51610	-0.12701657337068048
51620	-0.12701657337068048
51630	-0.12701657337068048
51640	-0.12701657337068048
51650	-0.023755314736042366
51660	-0.12701657337068048
51670	-0.12701657337068048
51678	-0.12701657337068048
51680	0.18902546063228529
51683	-0.12701657337068048
51685	-0.12701657337068048
51690	-0.12701657337068048
51700	0.18902546063228529
51710	0.6145870113689406
51720	-0.12701657337068048
51730	-0.12701657337068048
51735	-0.12701657337068048
51740	-0.44931686547269767
51750	-0.12701657337068048
51760	-0.023755314736042366
51770	-0.6620976408410253
51775	-0.12701657337068048
51790	-0.12701657337068048
51800	0.18902546063228529
51810	1.2529293374739237
51820	-0.12701657337068048
51830	-0.12701657337068048
51840	-0.12701657337068048
53001	-0.874878416209353
53003	-0.023755314736042366
53005	-0.6620976408410253
53007	-0.23653609010437002
53009	-0.44931686547269767
53011	-0.023755314736042366
53013	-0.23653609010437002
53015	0.6145870113689406
53017	-0.44931686547269767
53019	0.40180623600061294
53021	-0.44931686547269767
53023	-1.0876591915776808
53025	-0.44931686547269767
53027	1.2529293374739237
53029	-0.023755314736042366
53031	-0.023755314736042366
53033	0.40180623600061294
53035	0.18902546063228529
53037	0.18902546063228529
53039	-0.23653609010437002
53041	-0.44931686547269767
53043	-0.023755314736042366
53045	-0.023755314736042366
53047	-0.23653609010437002
53049	-0.23653609010437002
53051	0.18902546063228529
53053	-0.023755314736042366
53055	1.040148562105596
53057	-0.023755314736042366
53059	0.8273677867372683
53061	0.40180623600061294
53063	0.18902546063228529
53065	0.40180623600061294
53067	-0.023755314736042366
53069	0.40180623600061294
53071	-0.44931686547269767
53073	0.18902546063228529
53075	0.18902546063228529
53077	-0.44931686547269767
54001	-1.10285781838971
54003	-0.44931686547269767
54005	-1.513220742314336
54007	-1.10285781838971
54009	-0.23653609010437002
54011	-1.513220742314336
54013	-0.023755314736042366
54015	-1.10285781838971
54017	-1.513220742314336
54019	-0.23653609010437002
54021	-0.44931686547269767
54023	-1.10285781838971
54025	-1.9387822930509913
54027	-1.0876591915776808
54029	-0.23653609010437002
54031	-0.874878416209353
54033	-1.9387822930509913
54035	-1.0876591915776808
54037	-0.44931686547269767
54039	-1.3004399669460083
54041	-1.10285781838971
54043	-1.0876591915776808
54045	-1.3004399669460083
54047	-1.3004399669460083
54049	-1.513220742314336
54051	-0.6620976408410253
54053	-1.3004399669460083
54055	-2.151563068419319
54057	-1.9387822930509913
54059	-1.513220742314336
54061	-0.6620976408410253
54063	-1.0876591915776808
54065	-1.0876591915776808
54067	-1.513220742314336
54069	-0.874878416209353
54071	-1.10285781838971
54073	-1.10285781838971
54075	1.040148562105596
54077	-1.513220742314336
54079	-1.513220742314336
54081	-2.151563068419319
54083	-1.7260015176826637
54085	-1.10285781838971
54087	-0.6620976408410253
54089	-1.0876591915776808
54091	-1.513220742314336
54093	-1.10285781838971
54095	0.18902546063228529
54097	-1.10285781838971
54099	-1.0876591915776808
54101	-1.10285781838971
54103	-1.10285781838971
54105	-1.10285781838971
54107	-1.3004399669460083
54109	-2.151563068419319
55001	1.8912716635789066
55003	0.6145870113689406
55005	1.4657101128422512
55007	1.4657101128422512
55009	1.8912716635789066
55011	2.5296139896838894
55013	1.2529293374739237
55015	4.231860192630511
55017	1.040148562105596
55019	2.316833214315562
55021	3.1679563157888726
55023	1.2529293374739237
55025	1.4657101128422512
55027	2.316833214315562
55029	2.1040524389472344
55031	2.5296139896838894
55033	1.678490888210579
55035	1.678490888210579
55037	1.8912716635789066
55039	1.2529293374739237
55041	1.040148562105596
55043	2.1040524389472344
55045	1.8912716635789066
55047	1.040148562105596
55049	2.1040524389472344
55051	2.955175540420545
55053	3.1679563157888726
55055	1.4657101128422512
55057	2.316833214315562
55059	1.4657101128422512
55061	2.1040524389472344
55063	2.1040524389472344
55065	0.40180623600061294
55067	1.678490888210579
55069	1.4657101128422512
55071	2.316833214315562
55073	1.678490888210579
55075	1.040148562105596
55077	2.1040524389472344
55078	0.8273677867372683
55079	1.040148562105596
55081	2.1040524389472344
55083	2.5296139896838894
55085	1.2529293374739237
55087	2.5296139896838894
55089	2.1040524389472344
55091	0.8273677867372683
55093	3.1679563157888726
55095	2.1040524389472344
55097	1.8912716635789066
55099	1.2529293374739237
55101	1.678490888210579
55103	2.316833214315562
55105	2.1040524389472344
55107	0.18902546063228529
55109	2.955175540420545
55111	1.4657101128422512
55113	1.8912716635789066
55115	2.316833214315562
55117	2.5296139896838894
55119	2.955175540420545
55121	1.678490888210579
55123	1.4657101128422512
55125	1.8912716635789066
55127	1.4657101128422512
55129	2.1040524389472344
55131	2.5296139896838894
55133	1.678490888210579
55135	2.1040524389472344
55137	2.5296139896838894
55139	1.678490888210579
55141	1.2529293374739237
56001	-0.023755314736042366
56003	-1.0876591915776808
56005	0.8273677867372683
56007	0.18902546063228529
56009	0.8273677867372683
56011	-0.023755314736042366
56013	-0.023755314736042366
56015	0.18902546063228529
56017	-0.023755314736042366
56019	0.8273677867372683
56021	-0.23653609010437002
56023	-0.44931686547269767
56025	0.40180623600061294
56027	-0.23653609010437002
56029	-0.23653609010437002
56031	0.18902546063228529
56033	0.40180623600061294
56035	1.4657101128422512
56037	1.040148562105596
56039	1.040148562105596
56041	-0.44931686547269767
56043	-1.3004399669460083
56045	0.18902546063228529
