id	rate
1001	0.6962691889788589
1003	0.5627103467073077
1005	-1.5297115155470178
1007	-1.7523095859996054
1009	0.2955926621642018
1011	-2.1084664987237445
1013	1.5421418566986915
1015	0.7853084171598953
1017	0.9188672594314466
1019	0.20655343398316547
1021	0.384631890345235
1023	1.1414653298840343
1025	1.2305045580650706
1027	0.384631890345235
1029	0.20655343398316547
1031	0.1620338198926473
1033	0.8743476453409285
1035	0.7853084171598953
1037	0.1175142058021323
1039	0.7407888030693771
1041	0.6962691889788589
1043	0.20655343398316547
1045	0.25107304807368364
1047	1.5866614707892097
1049	0.34011227625471996
1051	0.6517495748883408
1053	-0.639319233736667
1055	0.6962691889788589
1057	0.20655343398316547
1059	0.07299459171161413
1061	0.4736711185262713
1063	1.0524261017029979
1065	1.1414653298840343
1067	0.8298280312504103
1069	0.9188672594314466
1071	0.34011227625471996
1073	1.2305045580650706
1075	0.5627103467073077
1077	0.9633868735219648
1079	0.6517495748883408
1081	0.25107304807368364
1083	-0.14960347874097354
1085	1.096945715793516
1087	1.7647399271512791
1089	0.5181907326167895
1091	1.319543786246104
1093	0.20655343398316547
1095	0.4291515044357531
1097	0.9633868735219648
1099	1.0524261017029979
1101	1.1414653298840343
1103	0.384631890345235
1105	1.4531026285176583
1107	0.9188672594314466
1109	0.8743476453409285
1111	0.6962691889788589
1113	0.4736711185262713
1115	0.07299459171161413
1117	0.5627103467073077
1119	2.1208968398754213
1121	0.6072299607978227
1123	0.6962691889788589
1125	0.7407888030693771
1127	0.6517495748883408
1129	0.5627103467073077
1131	1.0524261017029979
1133	0.4736711185262713
2013	-7.717937874128954
2016	-7.851496716400509
2020	-0.5947996196461489
2050	-0.7283584619177034
2060	-2.37558418326685
2068	-2.0639468846332294
2070	-0.8173976900987365
2090	-1.663270357818569
2100	-0.060564250559940365
2110	-0.46124077737459757
2122	-1.0399957605513241
2130	-0.9064369182797729
2150	-1.7077899719090872
2164	-1.3961526732754663
2170	-0.8619173041892547
2180	-1.1735546028228787
2185	-5.3583983273315265
2188	-1.7523095859996054
2201	-2.1084664987237445
2220	-0.28316232101252803
2232	-1.30711344509443
2240	-2.5091430255384046
2261	-1.3516330591849481
2270	-1.1735546028228787
2280	-0.7283584619177034
2282	-2.7317410959909925
2290	-1.7523095859996054
4001	0.25107304807368364
4003	-0.46124077737459757
4005	0.2955926621642018
4007	0.20655343398316547
4009	-1.3961526732754663
4011	-1.0845153746418423
4012	-0.46124077737459757
4013	0.25107304807368364
4015	-0.10508386465045537
4017	-0.0160446364694222
4019	0.384631890345235
4021	-0.9509565323702911
4023	0.8743476453409285
4025	0.5627103467073077
4027	-0.46124077737459757
5001	0.7407888030693771
5003	0.7407888030693771
5005	0.8743476453409285
5007	0.25107304807368364
5009	0.34011227625471996
5011	0.5627103467073077
5013	-0.46124077737459757
5015	0.384631890345235
5017	0.384631890345235
5019	1.0524261017029979
5021	0.4291515044357531
5023	0.34011227625471996
5025	0.5627103467073077
5027	1.007906487612483
5029	0.4736711185262713
5031	0.5627103467073077
5033	0.384631890345235
5035	1.2305045580650706
5037	0.7407888030693771
5039	0.6962691889788589
5041	1.4531026285176583
5043	0.6072299607978227
5045	0.4736711185262713
5047	0.34011227625471996
5049	0.34011227625471996
5051	0.7853084171598953
5053	0.20655343398316547
5055	0.384631890345235
5057	0.7407888030693771
5059	-0.8619173041892547
5061	0.5181907326167895
5063	0.5627103467073077
5065	-0.6838388478271852
5067	0.20655343398316547
5069	0.4736711185262713
5071	0.20655343398316547
5073	0.6962691889788589
5075	0.4291515044357531
5077	-2.5091430255384046
5079	-4.868682572335833
5081	0.4736711185262713
5083	0.20655343398316547
5085	0.34011227625471996
5087	-0.0160446364694222
5089	0.07299459171161413
5091	0.384631890345235
5093	0.6072299607978227
5095	1.1414653298840343
5097	0.028474977621095965
5099	0.384631890345235
5101	-0.14960347874097354
5103	1.2750241721555857
5105	0.1175142058021323
5107	1.3640634003366219
5109	0.07299459171161413
5111	0.7853084171598953
5113	0.4291515044357531
5115	0.1175142058021323
5117	0.384631890345235
5119	0.9188672594314466
5121	0.384631890345235
5123	-2.1084664987237445
5125	0.4291515044357531
5127	-0.23864270692200987
5129	-0.0160446364694222
5131	0.4736711185262713
5133	0.07299459171161413
5135	0.384631890345235
5137	0.25107304807368364
5139	0.6072299607978227
5141	0.028474977621095965
5143	-0.0160446364694222
5145	0.4736711185262713
5147	1.096945715793516
5149	0.1175142058021323
6001	0.4736711185262713
6003	-1.1290349887323605
6005	-1.3516330591849481
6007	0.20655343398316547
6009	0.028474977621095965
6011	-0.7283584619177034
6013	0.5627103467073077
6015	-2.37558418326685
6017	0.028474977621095965
6019	0.028474977621095965
6021	-0.1941230928314917
6023	0.028474977621095965
6025	-0.5057603914651158
6027	-0.060564250559940365
6029	-0.5502800055556307
6031	-2.5091430255384046
6033	0.028474977621095965
6035	-5.937153310508253
6037	0.34011227625471996
6039	0.6072299607978227
6041	0.5181907326167895
6043	-0.32768193510304305
6045	0.07299459171161413
6047	-0.23864270692200987
6049	-0.14960347874097354
6051	-1.5297115155470178
6053	-0.5947996196461489
6055	0.1175142058021323
6057	0.34011227625471996
6059	0.25107304807368364
6061	0.5627103467073077
6063	-0.0160446364694222
6065	0.1175142058021323
6067	0.5181907326167895
6069	-0.0160446364694222
6071	0.1175142058021323
6073	-0.10508386465045537
6075	-0.3722015491935612
6077	0.1175142058021323
6079	-0.4167211632840794
6081	0.34011227625471996
6083	-0.10508386465045537
6085	-0.10508386465045537
6087	0.1620338198926473
6089	0.4291515044357531
6091	-0.10508386465045537
6093	0.1620338198926473
6095	0.07299459171161413
6097	0.4291515044357531
6099	0.25107304807368364
6101	0.1175142058021323
6103	0.1175142058021323
6105	-0.5502800055556307
6107	-0.060564250559940365
6109	-0.9064369182797729
6111	0.20655343398316547
6113	0.6072299607978227
6115	-0.23864270692200987
8001	-0.10508386465045537
8003	0.028474977621095965
8005	0.384631890345235
8007	-0.0160446364694222
8009	0.1620338198926473
8011	-6.115231766870322
8013	-0.060564250559940365
8014	0.20655343398316547
8015	-1.30711344509443
8017	-0.060564250559940365
8019	-0.7283584619177034
8021	0.1175142058021323
8023	-0.7728780760082183
8025	-8.919967454572928
8027	-0.4167211632840794
8029	-0.10508386465045537
8031	-0.0160446364694222
8033	-0.639319233736667
8035	0.20655343398316547
8037	-1.3516330591849481
8039	-0.0160446364694222
8041	-0.10508386465045537
8043	-3.3550156932582373
8045	-0.5057603914651158
8047	-1.1735546028228787
8049	-1.3516330591849481
8051	-1.7968292000901236
8053	-0.32768193510304305
8055	-0.0160446364694222
8057	-1.7968292000901236
8059	0.1620338198926473
8061	0.34011227625471996
8063	-2.242025340995299
8065	-1.4851919014564996
8067	-0.32768193510304305
8069	0.1620338198926473
8071	-0.6838388478271852
8073	-3.933770676434964
8075	-3.043378394624613
8077	0.1620338198926473
8079	-0.32768193510304305
8081	-0.7728780760082183
8083	0.1175142058021323
8085	0.384631890345235
8087	0.1175142058021323
8089	0.34011227625471996
8091	0.6517495748883408
8093	-1.1290349887323605
8095	0.25107304807368364
8097	-1.262593831003912
8099	0.07299459171161413
8101	0.384631890345235
8103	-1.0399957605513241
8105	0.07299459171161413
8107	-1.1735546028228787
8109	-0.1941230928314917
8111	-3.3995353073487555
8113	-1.574231129637536
8115	-0.10508386465045537
8117	-1.974907656452193
8119	-0.4167211632840794
8121	-0.639319233736667
8123	-0.10508386465045537
8125	-0.0160446364694222
9001	0.6072299607978227
9003	0.6962691889788589
9005	0.34011227625471996
9007	0.5627103467073077
9009	0.7853084171598953
9011	0.028474977621095965
9013	-0.0160446364694222
9015	0.1620338198926473
10001	0.8298280312504103
10003	0.7407888030693771
10005	0.6517495748883408
11001	1.1859849439745525
12001	0.7853084171598953
12003	-0.9509565323702911
12005	0.20655343398316547
12007	-2.019427270542711
12009	0.5627103467073077
12011	0.6517495748883408
12013	-1.9303880423616748
12015	0.6517495748883408
12017	0.7407888030693771
12019	0.4291515044357531
12021	0.34011227625471996
12023	-0.7283584619177034
12027	-2.7762607100815075
12029	-1.574231129637536
12031	0.6962691889788589
12033	0.1620338198926473
12035	0.9188672594314466
12037	-3.2214568509866828
12039	-0.0160446364694222
12041	-1.0845153746418423
12043	-2.909819552353062
12045	-4.423486431430657
12047	-3.4885745355297884
12049	-1.5297115155470178
12051	-0.9509565323702911
12053	0.9633868735219648
12055	0.6072299607978227
12057	0.6072299607978227
12059	-1.4406722873659814
12061	0.9188672594314466
12063	-2.197505726904781
12065	-0.9954761464608061
12067	-4.334447203249621
12069	0.7407888030693771
12071	0.4291515044357531
12073	1.1414653298840343
12075	0.384631890345235
12077	-5.1803198709694565
12079	-1.1735546028228787
12081	0.7407888030693771
12083	0.9188672594314466
12085	0.20655343398316547
12086	0.6517495748883408
12087	-1.1735546028228787
12089	0.384631890345235
12091	-0.32768193510304305
12093	-1.663270357818569
12095	0.34011227625471996
12097	0.384631890345235
12099	0.7407888030693771
12101	0.6517495748883408
12103	0.9188672594314466
12105	0.4736711185262713
12107	0.2955926621642018
12109	0.6517495748883408
12111	0.5627103467073077
12113	-0.4167211632840794
12115	1.007906487612483
12117	0.7407888030693771
12119	-0.46124077737459757
12121	-1.0399957605513241
12123	-2.8207803241720257
12125	-6.515908293684983
12127	0.6072299607978227
12129	-2.242025340995299
12131	-0.32768193510304305
12133	-2.019427270542711
13001	-0.10508386465045537
13003	-0.10508386465045537
13005	0.384631890345235
13007	0.8743476453409285
13009	-0.0160446364694222
13011	-0.23864270692200987
13013	0.34011227625471996
13015	0.34011227625471996
13017	0.9633868735219648
13019	0.25107304807368364
13021	1.319543786246104
13023	1.0524261017029979
13025	0.25107304807368364
13027	0.7853084171598953
13029	0.20655343398316547
13031	0.25107304807368364
13033	0.9633868735219648
13035	-1.3961526732754663
13037	-4.245407975068588
13039	-0.5057603914651158
13043	0.4291515044357531
13045	0.5627103467073077
13047	0.6517495748883408
13049	-4.6906041159737635
13051	0.7853084171598953
13053	-6.73850636413757
13055	-0.46124077737459757
13057	0.34011227625471996
13059	1.007906487612483
13061	1.7647399271512791
13063	1.096945715793516
13065	0.1620338198926473
13067	0.7407888030693771
13069	-0.5057603914651158
13071	0.20655343398316547
13073	0.5181907326167895
13075	0.6517495748883408
13077	0.5181907326167895
13079	-0.28316232101252803
13081	1.0524261017029979
13083	0.34011227625471996
13085	0.07299459171161413
13087	0.6072299607978227
13089	1.007906487612483
13091	-1.0845153746418423
13093	-1.7968292000901236
13095	1.631181084879728
13097	0.8743476453409285
13099	1.4531026285176583
13101	0.2955926621642018
13103	0.1620338198926473
13105	1.0524261017029979
13107	0.384631890345235
13109	0.4736711185262713
13111	0.5627103467073077
13113	0.6962691889788589
13115	0.6962691889788589
13117	0.1620338198926473
13119	0.4736711185262713
13121	0.6072299607978227
13123	-0.10508386465045537
13125	0.6517495748883408
13127	1.2750241721555857
13129	0.1175142058021323
13131	0.6072299607978227
13133	0.6517495748883408
13135	0.4291515044357531
13137	1.1859849439745525
13139	0.028474977621095965
13141	-2.242025340995299
13143	0.7853084171598953
13145	0.07299459171161413
13147	0.384631890345235
13149	0.25107304807368364
13151	0.9188672594314466
13153	0.5627103467073077
13155	-0.5947996196461489
13157	0.20655343398316547
13159	0.4736711185262713
13161	0.20655343398316547
13163	0.7407888030693771
13165	-1.3516330591849481
13167	-2.865299938262544
13169	0.7407888030693771
13171	1.0524261017029979
13173	-0.4167211632840794
13175	1.0524261017029979
13177	-0.0160446364694222
13179	-0.32768193510304305
13181	0.34011227625471996
13183	0.028474977621095965
13185	0.4291515044357531
13187	0.028474977621095965
13189	1.40858301442714
13191	0.4291515044357531
13193	-1.974907656452193
13195	0.384631890345235
13197	0.34011227625471996
13199	0.9633868735219648
13201	0.4736711185262713
13205	-0.9509565323702911
13207	-0.10508386465045537
13209	-0.5502800055556307
13211	0.6962691889788589
13213	0.2955926621642018
13215	0.4291515044357531
13217	1.096945715793516
13219	0.6072299607978227
13221	0.1620338198926473
13223	0.5181907326167895
13225	0.7407888030693771
13227	0.4736711185262713
13229	0.2955926621642018
13231	0.25107304807368364
13233	0.34011227625471996
13235	3.1448479639573232
13237	0.7407888030693771
13239	1.1859849439745525
13241	0.34011227625471996
13243	1.631181084879728
13245	0.6962691889788589
13247	1.1859849439745525
13249	0.9188672594314466
13251	0.4736711185262713
13253	0.9188672594314466
13255	0.6962691889788589
13257	0.9188672594314466
13259	-4.8241629582453145
13261	1.1414653298840343
13263	0.9188672594314466
13265	0.20655343398316547
13267	-3.666652991891858
13269	1.0524261017029979
13271	-3.933770676434964
13273	1.007906487612483
13275	1.1859849439745525
13277	0.8743476453409285
13279	1.1414653298840343
13281	0.9188672594314466
13283	-0.14960347874097354
13285	0.8298280312504103
13287	0.34011227625471996
13289	0.6072299607978227
13291	0.6962691889788589
13293	1.096945715793516
13295	0.384631890345235
13297	0.6517495748883408
13299	0.1620338198926473
13301	1.3640634003366219
13303	-0.1941230928314917
13305	-0.8619173041892547
13307	-0.14960347874097354
13309	-6.73850636413757
13311	0.4736711185262713
13313	0.07299459171161413
13315	-4.067329518706519
13317	0.9633868735219648
13319	0.8298280312504103
13321	0.9633868735219648
15001	-0.0160446364694222
15003	-0.28316232101252803
15005	1.4976222426081733
15007	-0.060564250559940365
15009	-0.14960347874097354
16001	0.028474977621095965
16003	-0.46124077737459757
16005	0.1175142058021323
16007	0.1620338198926473
16009	-0.3722015491935612
16011	-0.10508386465045537
16013	-0.3722015491935612
16015	-0.5502800055556307
16017	0.028474977621095965
16019	0.1620338198926473
16021	-0.32768193510304305
16023	-0.6838388478271852
16025	-1.1290349887323605
16027	0.25107304807368364
16029	0.07299459171161413
16031	-0.28316232101252803
16033	-1.4406722873659814
16035	-2.019427270542711
16037	-0.639319233736667
16039	-0.9064369182797729
16041	-0.23864270692200987
16043	-1.0399957605513241
16045	0.25107304807368364
16047	-0.5502800055556307
16049	-0.9064369182797729
16051	-0.10508386465045537
16053	-0.5057603914651158
16055	0.34011227625471996
16057	-0.5502800055556307
16059	-0.4167211632840794
16061	-0.3722015491935612
16063	-0.5502800055556307
16065	-0.0160446364694222
16067	-0.14960347874097354
16069	0.25107304807368364
16071	-0.0160446364694222
16073	-0.32768193510304305
16075	0.2955926621642018
16077	-0.4167211632840794
16079	-0.060564250559940365
16081	-0.8619173041892547
16083	0.2955926621642018
16085	-0.7283584619177034
16087	0.028474977621095965
17001	0.6072299607978227
17003	-0.1941230928314917
17005	-1.0845153746418423
17007	0.1175142058021323
17009	-6.426869065503946
17011	0.4736711185262713
17013	-0.10508386465045537
17015	0.07299459171161413
17017	-0.3722015491935612
17019	0.028474977621095965
17021	-0.3722015491935612
17023	0.4291515044357531
17025	0.384631890345235
17027	-0.6838388478271852
17029	0.7853084171598953
17031	0.6962691889788589
17033	-0.7283584619177034
17035	0.028474977621095965
17037	0.25107304807368364
17039	0.07299459171161413
17041	0.20655343398316547
17043	0.4291515044357531
17045	0.6962691889788589
17047	0.5627103467073077
17049	0.1175142058021323
17051	-1.1735546028228787
17053	0.25107304807368364
17055	0.4291515044357531
17057	-0.9509565323702911
17059	0.6517495748883408
17061	-0.14960347874097354
17063	0.1175142058021323
17065	0.384631890345235
17067	0.34011227625471996
17069	-0.10508386465045537
17071	0.5181907326167895
17073	0.1175142058021323
17075	0.5627103467073077
17077	-0.1941230928314917
17079	-0.0160446364694222
17081	-0.5947996196461489
17083	0.5181907326167895
17085	-0.060564250559940365
17087	-2.5536626396289197
17089	0.07299459171161413
17091	0.4291515044357531
17093	0.25107304807368364
17095	-0.10508386465045537
17097	0.07299459171161413
17099	-0.0160446364694222
17101	-2.6872214819004743
17103	-1.1735546028228787
17105	-0.060564250559940365
17107	-0.23864270692200987
17109	0.25107304807368364
17111	0.1175142058021323
17113	0.5627103467073077
17115	0.9188672594314466
17117	0.2955926621642018
17119	0.5181907326167895
17121	0.5181907326167895
17123	0.25107304807368364
17125	0.34011227625471996
17127	1.096945715793516
17129	0.6517495748883408
17131	0.2955926621642018
17133	0.25107304807368364
17135	-0.9954761464608061
17137	-0.14960347874097354
17139	0.6072299607978227
17141	0.20655343398316547
17143	0.6962691889788589
17145	-1.974907656452193
17147	0.1175142058021323
17149	0.028474977621095965
17151	-1.0399957605513241
17153	0.9188672594314466
17155	-0.46124077737459757
17157	-2.197505726904781
17159	0.384631890345235
17161	0.384631890345235
17163	0.7853084171598953
17165	0.384631890345235
17167	0.9633868735219648
17169	-1.30711344509443
17171	0.6072299607978227
17173	0.20655343398316547
17175	0.1620338198926473
17177	0.7853084171598953
17179	0.2955926621642018
17181	0.028474977621095965
17183	0.1620338198926473
17185	0.4291515044357531
17187	0.6072299607978227
17189	-0.060564250559940365
17191	0.384631890345235
17193	0.6962691889788589
17195	0.34011227625471996
17197	0.1620338198926473
17199	0.20655343398316547
17201	0.5627103467073077
17203	0.20655343398316547
18001	0.25107304807368364
18003	0.5627103467073077
18005	0.1175142058021323
18007	0.20655343398316547
18009	0.1620338198926473
18011	0.25107304807368364
18013	0.1175142058021323
18015	0.028474977621095965
18017	0.028474977621095965
18019	0.4291515044357531
18021	0.384631890345235
18023	0.384631890345235
18025	-0.28316232101252803
18027	0.07299459171161413
18029	0.1175142058021323
18031	0.34011227625471996
18033	0.20655343398316547
18035	0.8298280312504103
18037	0.2955926621642018
18039	0.25107304807368364
18041	0.34011227625471996
18043	0.6517495748883408
18045	0.07299459171161413
18047	-0.0160446364694222
18049	-0.060564250559940365
18051	0.1175142058021323
18053	1.007906487612483
18055	0.028474977621095965
18057	0.5627103467073077
18059	0.384631890345235
18061	0.07299459171161413
18063	0.07299459171161413
18065	-0.639319233736667
18067	0.8298280312504103
18069	0.4291515044357531
18071	0.1175142058021323
18073	0.07299459171161413
18075	0.384631890345235
18077	0.8743476453409285
18079	-0.060564250559940365
18081	0.34011227625471996
18083	-0.23864270692200987
18085	0.1175142058021323
18087	-0.14960347874097354
18089	0.7853084171598953
18091	-0.7728780760082183
18093	0.25107304807368364
18095	0.07299459171161413
18097	0.8298280312504103
18099	0.20655343398316547
18101	-0.23864270692200987
18103	-1.574231129637536
18105	0.1620338198926473
18107	-0.10508386465045537
18109	0.25107304807368364
18111	-0.28316232101252803
18113	0.07299459171161413
18115	0.1620338198926473
18117	0.2955926621642018
18119	-0.060564250559940365
18121	1.4531026285176583
18123	-1.5297115155470178
18125	-0.0160446364694222
18127	0.4291515044357531
18129	0.1620338198926473
18131	-0.32768193510304305
18133	-1.262593831003912
18135	0.34011227625471996
18137	0.2955926621642018
18139	0.2955926621642018
18141	0.6962691889788589
18143	0.384631890345235
18145	0.20655343398316547
18147	-0.1941230928314917
18149	0.25107304807368364
18151	-0.32768193510304305
18153	-1.8413488141806418
18155	-0.4167211632840794
18157	-0.46124077737459757
18159	0.028474977621095965
18161	0.34011227625471996
18163	0.7407888030693771
18165	0.384631890345235
18167	-0.28316232101252803
18169	0.6072299607978227
18171	0.1175142058021323
18173	0.2955926621642018
18175	0.028474977621095965
18177	0.6962691889788589
18179	0.2955926621642018
18181	0.20655343398316547
18183	0.1175142058021323
19001	0.25107304807368364
19003	0.028474977621095965
19005	-0.46124077737459757
19007	0.34011227625471996
19009	0.9633868735219648
19011	0.028474977621095965
19013	0.5181907326167895
19015	-0.060564250559940365
19017	0.384631890345235
19019	0.1620338198926473
19021	-0.23864270692200987
19023	0.34011227625471996
19025	-0.6838388478271852
19027	0.5627103467073077
19029	0.4291515044357531
19031	0.20655343398316547
19033	0.4291515044357531
19035	0.25107304807368364
19037	-0.0160446364694222
19039	0.07299459171161413
19041	0.4291515044357531
19043	-0.0160446364694222
19045	0.4291515044357531
19047	-0.3722015491935612
19049	0.4291515044357531
19051	0.2955926621642018
19053	-0.0160446364694222
19055	-0.0160446364694222
19057	0.4736711185262713
19059	0.1620338198926473
19061	0.2955926621642018
19063	-0.0160446364694222
19065	0.07299459171161413
19067	0.4736711185262713
19069	-0.0160446364694222
19071	0.384631890345235
19073	0.6072299607978227
19075	0.384631890345235
19077	0.028474977621095965
19079	0.34011227625471996
19081	-0.10508386465045537
19083	0.1175142058021323
19085	0.20655343398316547
19087	-0.5502800055556307
19089	0.07299459171161413
19091	0.5627103467073077
19093	0.028474977621095965
19095	0.20655343398316547
19097	0.1175142058021323
19099	-0.32768193510304305
19101	-1.30711344509443
19103	0.07299459171161413
19105	-0.9064369182797729
19107	0.028474977621095965
19109	-0.060564250559940365
19111	-0.1941230928314917
19113	0.34011227625471996
19115	-0.46124077737459757
19117	-0.060564250559940365
19119	-0.060564250559940365
19121	0.1175142058021323
19123	-0.10508386465045537
19125	0.1175142058021323
19127	-0.10508386465045537
19129	-0.060564250559940365
19131	0.25107304807368364
19133	0.2955926621642018
19135	0.028474977621095965
19137	0.5627103467073077
19139	0.1620338198926473
19141	0.1175142058021323
19143	-0.23864270692200987
19145	-0.9954761464608061
19147	0.1175142058021323
19149	0.25107304807368364
19151	0.1175142058021323
19153	0.384631890345235
19155	0.4291515044357531
19157	0.4291515044357531
19159	0.34011227625471996
19161	0.4736711185262713
19163	0.4736711185262713
19165	0.4736711185262713
19167	-0.0160446364694222
19169	-0.7728780760082183
19171	0.5627103467073077
19173	-0.14960347874097354
19175	0.8298280312504103
19177	-0.32768193510304305
19179	0.384631890345235
19181	0.5181907326167895
19183	0.4291515044357531
19185	0.6517495748883408
19187	-0.639319233736667
19189	0.6072299607978227
19191	0.2955926621642018
19193	0.25107304807368364
19195	0.1175142058021323
19197	-0.10508386465045537
20001	0.5627103467073077
20003	0.25107304807368364
20005	0.5627103467073077
20007	-0.4167211632840794
20009	0.25107304807368364
20011	0.25107304807368364
20013	0.4291515044357531
20015	-0.060564250559940365
20017	-0.23864270692200987
20019	-0.8173976900987365
20021	0.25107304807368364
20023	-0.14960347874097354
20025	0.5627103467073077
20027	0.25107304807368364
20029	0.5181907326167895
20031	0.1620338198926473
20033	0.6517495748883408
20035	0.07299459171161413
20037	0.028474977621095965
20039	0.028474977621095965
20041	0.1175142058021323
20043	-0.32768193510304305
20045	0.028474977621095965
20047	-0.0160446364694222
20049	0.34011227625471996
20051	-0.10508386465045537
20053	-2.998858780534095
20055	-0.28316232101252803
20057	-0.6838388478271852
20059	0.20655343398316547
20061	-1.1735546028228787
20063	-0.14960347874097354
20065	0.2955926621642018
20067	-0.4167211632840794
20069	0.1620338198926473
20071	0.384631890345235
20073	0.028474977621095965
20075	-0.46124077737459757
20077	-0.28316232101252803
20079	0.4291515044357531
20081	0.4291515044357531
20083	0.07299459171161413
20085	-0.14960347874097354
20087	-0.3722015491935612
20089	-0.5502800055556307
20091	0.4736711185262713
20093	-0.32768193510304305
20095	-0.060564250559940365
20097	0.20655343398316547
20099	0.1620338198926473
20101	0.1620338198926473
20103	-1.4851919014564996
20105	0.1175142058021323
20107	0.20655343398316547
20109	-0.639319233736667
20111	0.5181907326167895
20113	0.384631890345235
20115	-0.0160446364694222
20117	0.1175142058021323
20119	-0.32768193510304305
20121	0.25107304807368364
20123	-0.32768193510304305
20125	0.4736711185262713
20127	0.25107304807368364
20129	-0.32768193510304305
20131	-0.10508386465045537
20133	0.25107304807368364
20135	0.028474977621095965
20137	-2.4201037973573682
20139	0.028474977621095965
20141	-0.23864270692200987
20143	-0.8619173041892547
20145	-2.331064569176332
20147	0.2955926621642018
20149	0.028474977621095965
20151	0.07299459171161413
20153	-0.0160446364694222
20155	-0.10508386465045537
20157	0.4736711185262713
20159	-0.10508386465045537
20161	-1.4406722873659814
20163	0.5627103467073077
20165	-0.0160446364694222
20167	0.25107304807368364
20169	0.20655343398316547
20171	-0.3722015491935612
20173	0.20655343398316547
20175	-0.6838388478271852
20177	0.6962691889788589
20179	-0.28316232101252803
20181	-0.14960347874097354
20183	0.20655343398316547
20185	-0.10508386465045537
20187	-0.639319233736667
20189	0.028474977621095965
20191	0.028474977621095965
20193	0.384631890345235
20195	0.384631890345235
20197	-0.3722015491935612
20199	0.25107304807368364
20201	-0.1941230928314917
20203	-0.7728780760082183
20205	0.4291515044357531
20207	0.028474977621095965
20209	0.2955926621642018
21001	0.34011227625471996
21003	0.34011227625471996
21005	0.4736711185262713
21007	0.20655343398316547
21009	0.6517495748883408
21011	0.384631890345235
21013	0.6517495748883408
21015	0.25107304807368364
21017	0.6072299607978227
21019	0.1620338198926473
21021	0.34011227625471996
21023	-0.060564250559940365
21025	0.07299459171161413
21027	-0.060564250559940365
21029	0.25107304807368364
21031	0.1620338198926473
21033	0.7407888030693771
21035	0.9188672594314466
21037	0.384631890345235
21039	0.6072299607978227
21041	-0.10508386465045537
21043	0.2955926621642018
21045	0.6072299607978227
21047	-0.9954761464608061
21049	0.6072299607978227
21051	-1.3516330591849481
21053	0.20655343398316547
21055	-0.14960347874097354
21057	0.4291515044357531
21059	0.6517495748883408
21061	0.07299459171161413
21063	-2.8207803241720257
21065	0.2955926621642018
21067	0.4291515044357531
21069	0.384631890345235
21071	0.6072299607978227
21073	0.8298280312504103
21075	0.20655343398316547
21077	-0.1941230928314917
21079	0.384631890345235
21081	-0.0160446364694222
21083	0.4291515044357531
21085	-0.10508386465045537
21087	0.20655343398316547
21089	0.6962691889788589
21091	-0.5947996196461489
21093	0.07299459171161413
21095	0.6517495748883408
21097	0.4291515044357531
21099	0.2955926621642018
21101	0.6962691889788589
21103	0.1175142058021323
21105	1.096945715793516
21107	0.5627103467073077
21109	0.1620338198926473
21111	0.7853084171598953
21113	0.6072299607978227
21115	0.4291515044357531
21117	0.2955926621642018
21119	0.1620338198926473
21121	0.6962691889788589
21123	0.20655343398316547
21125	0.5181907326167895
21127	0.07299459171161413
21129	-1.2180742169133938
21131	0.34011227625471996
21133	0.2955926621642018
21135	0.1620338198926473
21137	0.4291515044357531
21139	0.6962691889788589
21141	0.4736711185262713
21143	-2.4646234114478864
21145	0.9633868735219648
21147	-1.9303880423616748
21149	0.1175142058021323
21151	0.6962691889788589
21153	-0.0160446364694222
21155	-0.7283584619177034
21157	0.4291515044357531
21159	-2.37558418326685
21161	0.8298280312504103
21163	-0.10508386465045537
21165	-0.1941230928314917
21167	0.4736711185262713
21169	0.34011227625471996
21171	0.1175142058021323
21173	0.6517495748883408
21175	-2.8207803241720257
21177	-0.28316232101252803
21179	0.34011227625471996
21181	0.20655343398316547
21183	0.07299459171161413
21185	-1.0845153746418423
21187	0.1175142058021323
21189	0.34011227625471996
21191	-0.10508386465045537
21193	0.25107304807368364
21195	0.4736711185262713
21197	0.25107304807368364
21199	0.5181907326167895
21201	-1.0399957605513241
21203	0.4291515044357531
21205	0.6962691889788589
21207	0.5627103467073077
21209	0.384631890345235
21211	0.7407888030693771
21213	0.5181907326167895
21215	-0.1941230928314917
21217	0.8743476453409285
21219	0.384631890345235
21221	0.384631890345235
21223	-0.23864270692200987
21225	-0.7728780760082183
21227	0.4736711185262713
21229	0.6072299607978227
21231	0.2955926621642018
21233	0.1620338198926473
21235	0.4736711185262713
21237	0.384631890345235
21239	1.007906487612483
22001	0.6072299607978227
22003	-2.8207803241720257
22005	0.2955926621642018
22007	0.4736711185262713
22009	0.028474977621095965
22011	-0.46124077737459757
22013	1.007906487612483
22015	0.25107304807368364
22017	1.1414653298840343
22019	0.5627103467073077
22021	-0.46124077737459757
22023	0.25107304807368364
22025	-1.30711344509443
22027	-2.7762607100815075
22029	-0.1941230928314917
22031	0.7407888030693771
22033	0.9188672594314466
22035	-1.7523095859996054
22037	-1.618750743728054
22039	-0.23864270692200987
22041	0.5181907326167895
22043	-2.7317410959909925
22045	0.5181907326167895
22047	-0.5057603914651158
22049	-0.5057603914651158
22051	0.6517495748883408
22053	0.6072299607978227
22055	0.5181907326167895
22057	0.34011227625471996
22059	-0.639319233736667
22061	0.6517495748883408
22063	0.20655343398316547
22065	0.2955926621642018
22067	0.9188672594314466
22069	1.0524261017029979
22071	0.9188672594314466
22073	0.9633868735219648
22075	-0.0160446364694222
22077	0.8743476453409285
22079	0.7853084171598953
22081	0.7407888030693771
22083	0.9188672594314466
22085	0.1175142058021323
22087	0.20655343398316547
22089	0.25107304807368364
22091	0.384631890345235
22093	0.6517495748883408
22095	0.4291515044357531
22097	0.9633868735219648
22099	0.34011227625471996
22101	0.25107304807368364
22103	0.6517495748883408
22105	0.6962691889788589
22107	0.5627103467073077
22109	0.2955926621642018
22111	0.34011227625471996
22113	0.6517495748883408
22115	-1.1290349887323605
22117	0.1620338198926473
22119	0.6072299607978227
22121	0.34011227625471996
22123	-0.060564250559940365
22125	-6.961104434590158
22127	-1.3961526732754663
23001	0.4291515044357531
23003	0.34011227625471996
23005	0.6962691889788589
23007	0.4736711185262713
23009	0.5181907326167895
23011	0.6072299607978227
23013	0.2955926621642018
23015	0.5181907326167895
23017	0.1620338198926473
23019	0.2955926621642018
23021	0.1175142058021323
23023	0.6962691889788589
23025	0.20655343398316547
23027	0.5181907326167895
23029	0.384631890345235
23031	0.6072299607978227
24001	-0.9064369182797729
24003	0.25107304807368364
24005	1.1859849439745525
24009	0.34011227625471996
24011	0.6962691889788589
24013	0.2955926621642018
24015	0.20655343398316547
24017	0.7853084171598953
24019	0.9188672594314466
24021	0.34011227625471996
24023	0.1620338198926473
24025	0.4736711185262713
24027	0.4291515044357531
24029	1.096945715793516
24031	0.8298280312504103
24033	0.8743476453409285
24035	0.20655343398316547
24037	0.07299459171161413
24039	-1.8413488141806418
24041	1.0524261017029979
24043	-0.46124077737459757
24045	0.9633868735219648
24047	0.6517495748883408
24510	1.2750241721555857
25001	1.1414653298840343
25003	0.7853084171598953
25005	0.6962691889788589
25007	0.20655343398316547
25009	0.8298280312504103
25011	0.5181907326167895
25013	0.8298280312504103
25015	1.4976222426081733
25017	0.5627103467073077
25019	-0.5947996196461489
25021	0.9633868735219648
25023	0.6517495748883408
25025	0.7407888030693771
25027	0.34011227625471996
26001	-0.060564250559940365
26003	-2.1084664987237445
26005	0.07299459171161413
26007	0.34011227625471996
26009	0.1175142058021323
26011	-0.1941230928314917
26013	-2.1084664987237445
26015	-0.10508386465045537
26017	0.384631890345235
26019	0.20655343398316547
26021	0.5627103467073077
26023	-0.7283584619177034
26025	0.5627103467073077
26027	0.028474977621095965
26029	0.25107304807368364
26031	0.07299459171161413
26033	-2.2865449550858172
26035	0.07299459171161413
26037	0.2955926621642018
26039	-0.14960347874097354
26041	0.1620338198926473
26043	0.07299459171161413
26045	0.5627103467073077
26047	0.2955926621642018
26049	0.8298280312504103
26051	-0.060564250559940365
26053	-1.7523095859996054
26055	0.34011227625471996
26057	-1.5297115155470178
26059	0.20655343398316547
26061	-1.7523095859996054
26063	0.1620338198926473
26065	0.6962691889788589
26067	-1.574231129637536
26069	0.20655343398316547
26071	0.384631890345235
26073	0.6517495748883408
26075	-0.5057603914651158
26077	0.4291515044357531
26079	-0.1941230928314917
26081	0.4291515044357531
26083	-0.5502800055556307
26085	-0.28316232101252803
26087	-0.23864270692200987
26089	0.25107304807368364
26091	-0.23864270692200987
26093	0.028474977621095965
26095	-3.622133377801343
26097	-0.5057603914651158
26099	0.6517495748883408
26101	-0.7728780760082183
26103	-0.14960347874097354
26105	0.25107304807368364
26107	-0.0160446364694222
26109	-0.1941230928314917
26111	0.4291515044357531
26113	-0.32768193510304305
26115	0.34011227625471996
26117	-0.7728780760082183
26119	-0.32768193510304305
26121	0.2955926621642018
26123	-0.10508386465045537
26125	0.6962691889788589
26127	-0.0160446364694222
26129	0.20655343398316547
26131	-0.5502800055556307
26133	-0.14960347874097354
26135	-0.32768193510304305
26137	0.384631890345235
26139	0.384631890345235
26141	0.1175142058021323
26143	0.1175142058021323
26145	0.6962691889788589
26147	0.25107304807368364
26149	0.20655343398316547
26151	0.1620338198926473
26153	0.2955926621642018
26155	0.2955926621642018
26157	-0.060564250559940365
26159	0.2955926621642018
26161	0.34011227625471996
26163	0.8743476453409285
26165	0.1175142058021323
27001	-0.28316232101252803
27003	0.028474977621095965
27005	0.028474977621095965
27007	0.028474977621095965
27009	-0.0160446364694222
27011	0.5627103467073077
27013	-0.10508386465045537
27015	0.07299459171161413
27017	-0.8619173041892547
27019	0.1620338198926473
27021	-0.32768193510304305
27023	0.2955926621642018
27025	-0.7283584619177034
27027	0.384631890345235
27029	-0.32768193510304305
27031	0.34011227625471996
27033	0.2955926621642018
27035	0.07299459171161413
27037	0.384631890345235
27039	0.07299459171161413
27041	0.07299459171161413
27043	0.1620338198926473
27045	-0.0160446364694222
27047	0.20655343398316547
27049	0.1620338198926473
27051	0.1175142058021323
27053	0.384631890345235
27055	0.1620338198926473
27057	-0.0160446364694222
27059	-0.10508386465045537
27061	-0.1941230928314917
27063	-0.23864270692200987
27065	-0.23864270692200987
27067	-0.0160446364694222
27069	-0.10508386465045537
27071	0.07299459171161413
27073	0.07299459171161413
27075	-0.3722015491935612
27077	-0.5947996196461489
27079	-0.14960347874097354
27081	0.028474977621095965
27083	0.1620338198926473
27085	0.1620338198926473
27087	-0.10508386465045537
27089	-0.32768193510304305
27091	0.34011227625471996
27093	-0.4167211632840794
27095	-0.10508386465045537
27097	-0.14960347874097354
27099	0.1175142058021323
27101	0.1620338198926473
27103	-0.060564250559940365
27105	-0.7728780760082183
27107	-0.10508386465045537
27109	0.5181907326167895
27111	-0.10508386465045537
27113	0.07299459171161413
27115	-1.4851919014564996
27117	0.5627103467073077
27119	-0.0160446364694222
27121	-0.28316232101252803
27123	0.6517495748883408
27125	-0.28316232101252803
27127	0.1620338198926473
27129	-0.5057603914651158
27131	-0.46124077737459757
27133	0.384631890345235
27135	-0.46124077737459757
27137	-0.060564250559940365
27139	0.1175142058021323
27141	-0.46124077737459757
27143	0.028474977621095965
27145	-0.1941230928314917
27147	0.2955926621642018
27149	0.20655343398316547
27151	-0.1941230928314917
27153	-0.5502800055556307
27155	0.20655343398316547
27157	0.1175142058021323
27159	0.34011227625471996
27161	1.2750241721555857
27163	0.25107304807368364
27165	0.1620338198926473
27167	-0.28316232101252803
27169	0.34011227625471996
27171	-0.10508386465045537
27173	-0.3722015491935612
28001	-0.14960347874097354
28003	0.5181907326167895
28005	0.4291515044357531
28007	1.096945715793516
28009	0.07299459171161413
28011	1.5866614707892097
28013	0.8298280312504103
28015	-0.46124077737459757
28017	0.8743476453409285
28019	0.6962691889788589
28021	1.0524261017029979
28023	1.1859849439745525
28025	1.3640634003366219
28027	1.7647399271512791
28029	0.7853084171598953
28031	0.5181907326167895
28033	0.6962691889788589
28035	1.007906487612483
28037	0.5181907326167895
28039	-0.1941230928314917
28041	-4.245407975068588
28043	1.319543786246104
28045	0.25107304807368364
28047	0.1620338198926473
28049	1.4531026285176583
28051	1.319543786246104
28053	1.2305045580650706
28055	-4.423486431430657
28057	0.4736711185262713
28059	0.34011227625471996
28061	0.6962691889788589
28063	0.028474977621095965
28065	0.9633868735219648
28067	0.6072299607978227
28069	0.028474977621095965
28071	0.5181907326167895
28073	0.8298280312504103
28075	0.6962691889788589
28077	0.384631890345235
28079	-0.8619173041892547
28081	0.9633868735219648
28083	0.8743476453409285
28085	1.007906487612483
28087	1.096945715793516
28089	0.8743476453409285
28091	0.7407888030693771
28093	0.34011227625471996
28095	0.9188672594314466
28097	1.007906487612483
28099	1.0524261017029979
28101	0.8743476453409285
28103	0.7407888030693771
28105	0.1620338198926473
28107	0.7853084171598953
28109	0.34011227625471996
28111	0.5627103467073077
28113	1.1859849439745525
28115	0.20655343398316547
28117	0.34011227625471996
28119	1.0524261017029979
28121	0.7853084171598953
28123	0.5181907326167895
28125	1.631181084879728
28127	0.6072299607978227
28129	0.8743476453409285
28131	-0.0160446364694222
28133	-1.3961526732754663
28135	-2.4646234114478864
28137	0.8743476453409285
28139	0.34011227625471996
28141	0.7853084171598953
28143	0.9633868735219648
28145	0.5627103467073077
28147	0.8298280312504103
28149	1.0524261017029979
28151	1.319543786246104
28153	0.8743476453409285
28155	0.5181907326167895
28157	-1.3961526732754663
28159	0.5627103467073077
28161	0.8298280312504103
28163	-2.331064569176332
29001	0.9188672594314466
29003	0.2955926621642018
29005	0.20655343398316547
29007	2.076377225784903
29009	0.1620338198926473
29011	0.4291515044357531
29013	0.34011227625471996
29015	-0.0160446364694222
29017	0.028474977621095965
29019	0.7407888030693771
29021	-0.10508386465045537
29023	0.6072299607978227
29025	-0.14960347874097354
29027	-0.46124077737459757
29029	0.2955926621642018
29031	0.7853084171598953
29033	0.6072299607978227
29035	0.6517495748883408
29037	0.4736711185262713
29039	0.1175142058021323
29041	0.34011227625471996
29043	0.5627103467073077
29045	-0.14960347874097354
29047	0.4736711185262713
29049	-0.1941230928314917
29051	-0.1941230928314917
29053	-1.0845153746418423
29055	0.25107304807368364
29057	-0.23864270692200987
29059	0.07299459171161413
29061	-0.10508386465045537
29063	-5.714555240055665
29065	0.1620338198926473
29067	0.25107304807368364
29069	0.9188672594314466
29071	0.20655343398316547
29073	0.384631890345235
29075	0.6517495748883408
29077	0.5627103467073077
29079	1.0524261017029979
29081	0.028474977621095965
29083	0.4736711185262713
29085	0.6517495748883408
29087	0.5181907326167895
29089	0.1620338198926473
29091	0.5181907326167895
29093	0.34011227625471996
29095	0.7407888030693771
29097	0.4736711185262713
29099	0.1620338198926473
29101	-0.5057603914651158
29103	0.25107304807368364
29105	0.34011227625471996
29107	0.25107304807368364
29109	0.2955926621642018
29111	-0.060564250559940365
29113	-0.0160446364694222
29115	0.7407888030693771
29117	2.298975296237491
29119	-0.1941230928314917
29121	0.384631890345235
29123	0.384631890345235
29125	0.028474977621095965
29127	0.8298280312504103
29129	-0.0160446364694222
29131	0.1620338198926473
29133	-1.5297115155470178
29135	-1.30711344509443
29137	-0.10508386465045537
29139	0.25107304807368364
29141	-0.1941230928314917
29143	1.0524261017029979
29145	0.20655343398316547
29147	-0.1941230928314917
29149	0.4736711185262713
29151	-0.8619173041892547
29153	-0.10508386465045537
29155	1.1859849439745525
29157	0.07299459171161413
29159	0.2955926621642018
29161	-1.0399957605513241
29163	-2.1529861128142627
29165	0.34011227625471996
29167	0.5181907326167895
29169	-2.909819552353062
29171	-0.14960347874097354
29173	-0.1941230928314917
29175	-0.9064369182797729
29177	0.028474977621095965
29179	-0.5502800055556307
29181	0.2955926621642018
29183	0.4291515044357531
29185	-0.23864270692200987
29186	-0.28316232101252803
29187	-1.4851919014564996
29189	1.2305045580650706
29195	0.20655343398316547
29197	0.5627103467073077
29199	0.2955926621642018
29201	0.6517495748883408
29203	0.1620338198926473
29205	0.1620338198926473
29207	0.6517495748883408
29209	0.4736711185262713
29211	-0.32768193510304305
29213	0.6517495748883408
29215	-0.8619173041892547
29217	0.6517495748883408
29219	0.20655343398316547
29221	-0.639319233736667
29223	0.1620338198926473
29225	-0.3722015491935612
29227	0.20655343398316547
29229	0.4291515044357531
29510	0.7407888030693771
30001	-0.5057603914651158
30003	0.1620338198926473
30005	0.20655343398316547
30007	-0.32768193510304305
30009	-0.23864270692200987
30011	-0.46124077737459757
30013	-0.10508386465045537
30015	0.34011227625471996
30017	0.07299459171161413
30019	0.25107304807368364
30021	-0.5502800055556307
30023	-1.574231129637536
30025	-0.639319233736667
30027	-0.10508386465045537
30029	0.07299459171161413
30031	-0.639319233736667
30033	0.07299459171161413
30035	0.34011227625471996
30037	-0.6838388478271852
30039	-0.060564250559940365
30041	-0.1941230928314917
30043	-0.3722015491935612
30045	-0.9064369182797729
30047	0.4291515044357531
30049	0.34011227625471996
30051	0.9188672594314466
30053	-0.23864270692200987
30055	-0.32768193510304305
30057	-0.7728780760082183
30059	-0.46124077737459757
30061	-0.9954761464608061
30063	-0.060564250559940365
30065	0.07299459171161413
30067	0.028474977621095965
30069	-1.4851919014564996
30071	0.1620338198926473
30073	0.5627103467073077
30075	-0.1941230928314917
30077	-5.135800256878938
30079	-0.23864270692200987
30081	0.1620338198926473
30083	-0.9064369182797729
30085	0.20655343398316547
30087	-0.23864270692200987
30089	-0.3722015491935612
30091	-0.5057603914651158
30093	-0.32768193510304305
30095	-0.3722015491935612
30097	0.028474977621095965
30099	0.384631890345235
30101	-2.6872214819004743
30103	-0.46124077737459757
30105	-0.10508386465045537
30107	0.25107304807368364
30109	-0.060564250559940365
30111	0.4736711185262713
31001	-0.0160446364694222
31003	0.20655343398316547
31005	0.4291515044357531
31007	-0.9509565323702911
31009	-0.8173976900987365
31011	-0.10508386465045537
31013	0.028474977621095965
31015	0.25107304807368364
31017	0.7407888030693771
31019	0.20655343398316547
31021	0.384631890345235
31023	-0.23864270692200987
31025	-0.14960347874097354
31027	-0.14960347874097354
31029	0.5181907326167895
31031	0.34011227625471996
31033	0.20655343398316547
31035	-0.1941230928314917
31037	-0.7283584619177034
31039	0.1175142058021323
31041	0.1175142058021323
31043	-0.060564250559940365
31045	0.1620338198926473
31047	-0.3722015491935612
31049	0.07299459171161413
31051	0.07299459171161413
31053	0.4291515044357531
31055	0.384631890345235
31057	-0.1941230928314917
31059	0.25107304807368364
31061	-0.10508386465045537
31063	-0.5502800055556307
31065	0.1620338198926473
31067	0.2955926621642018
31069	-0.3722015491935612
31071	0.2955926621642018
31073	-0.7283584619177034
31075	-1.7523095859996054
31077	-0.5057603914651158
31079	-0.060564250559940365
31081	-0.0160446364694222
31083	-0.5947996196461489
31085	-0.9509565323702911
31087	-0.0160446364694222
31089	0.20655343398316547
31091	0.8298280312504103
31093	-0.32768193510304305
31095	0.20655343398316547
31097	-3.622133377801343
31099	0.4736711185262713
31101	0.1175142058021323
31103	0.2955926621642018
31105	-0.060564250559940365
31107	0.6072299607978227
31109	-0.0160446364694222
31111	0.20655343398316547
31113	0.7407888030693771
31115	0.028474977621095965
31117	0.028474977621095965
31119	0.20655343398316547
31121	0.1175142058021323
31123	-0.32768193510304305
31125	0.1620338198926473
31127	0.1620338198926473
31129	0.028474977621095965
31131	0.4736711185262713
31133	-0.10508386465045537
31135	-0.32768193510304305
31137	0.2955926621642018
31139	-0.23864270692200987
31141	-0.14960347874097354
31143	0.1620338198926473
31145	0.07299459171161413
31147	0.25107304807368364
31149	-0.639319233736667
31151	-0.46124077737459757
31153	0.028474977621095965
31155	-0.28316232101252803
31157	0.7407888030693771
31159	-0.46124077737459757
31161	0.2955926621642018
31163	0.5181907326167895
31165	-0.4167211632840794
31167	-0.23864270692200987
31169	0.6962691889788589
31171	-0.639319233736667
31173	0.34011227625471996
31175	0.20655343398316547
31177	0.028474977621095965
31179	-0.23864270692200987
31181	0.6072299607978227
31183	-0.1941230928314917
31185	0.4736711185262713
32001	-0.10508386465045537
32003	-0.060564250559940365
32005	0.028474977621095965
32007	-0.9064369182797729
32009	-3.3550156932582373
32011	-1.8413488141806418
32013	-0.9954761464608061
32015	-0.5057603914651158
32017	-1.8858684282711566
32019	-0.1941230928314917
32021	0.384631890345235
32023	-0.1941230928314917
32027	-5.981672924598771
32029	-0.7283584619177034
32031	-0.14960347874097354
32033	-3.2214568509866828
32510	-0.5057603914651158
33001	0.4291515044357531
33003	0.25107304807368364
33005	0.5627103467073077
33007	-0.4167211632840794
33009	0.25107304807368364
33011	0.20655343398316547
33013	0.34011227625471996
33015	0.2955926621642018
33017	0.6072299607978227
33019	0.25107304807368364
34001	0.6517495748883408
34003	0.7407888030693771
34005	0.384631890345235
34007	0.7407888030693771
34009	0.5627103467073077
34011	-0.639319233736667
34013	0.8743476453409285
34015	0.6962691889788589
34017	0.1175142058021323
34019	0.25107304807368364
34021	0.4736711185262713
34023	0.384631890345235
34025	0.6072299607978227
34027	0.4736711185262713
34029	0.8743476453409285
34031	0.6072299607978227
34033	0.5181907326167895
34035	0.5627103467073077
34037	0.1620338198926473
34039	0.6072299607978227
34041	0.5627103467073077
35001	0.4291515044357531
35003	-0.8619173041892547
35005	0.1175142058021323
35006	-0.4167211632840794
35007	-0.4167211632840794
35009	-0.6838388478271852
35011	0.1175142058021323
35013	0.34011227625471996
35015	-0.14960347874097354
35017	0.20655343398316547
35019	-3.1769372368961677
35021	-0.9509565323702911
35023	-0.32768193510304305
35025	-0.639319233736667
35027	0.2955926621642018
35028	-0.14960347874097354
35029	-0.060564250559940365
35031	0.8298280312504103
35033	-0.639319233736667
35035	-0.3722015491935612
35037	0.6517495748883408
35039	0.34011227625471996
35041	-0.10508386465045537
35043	0.4736711185262713
35045	0.20655343398316547
35047	0.2955926621642018
35049	0.5627103467073077
35051	-0.0160446364694222
35053	-0.46124077737459757
35055	0.384631890345235
35057	-0.9064369182797729
35059	-3.3995353073487555
35061	-0.10508386465045537
36001	0.7853084171598953
36003	-0.1941230928314917
36005	1.2750241721555857
36007	0.4736711185262713
36009	0.25107304807368364
36011	-0.46124077737459757
36013	0.25107304807368364
36015	0.1175142058021323
36017	0.07299459171161413
36019	-0.5057603914651158
36021	-0.060564250559940365
36023	0.5181907326167895
36025	-0.10508386465045537
36027	0.1620338198926473
36029	0.7407888030693771
36031	-0.8173976900987365
36033	-2.2865449550858172
36035	0.25107304807368364
36037	0.1620338198926473
36039	-0.9509565323702911
36041	-0.10508386465045537
36043	0.384631890345235
36045	-0.9509565323702911
36047	1.1859849439745525
36049	-0.23864270692200987
36051	-0.060564250559940365
36053	0.4291515044357531
36055	0.7853084171598953
36057	0.4291515044357531
36059	0.6962691889788589
36061	1.2750241721555857
36063	0.6072299607978227
36065	0.07299459171161413
36067	0.7853084171598953
36069	0.4736711185262713
36071	0.028474977621095965
36073	0.25107304807368364
36075	0.07299459171161413
36077	0.6517495748883408
36079	0.1175142058021323
36081	0.6517495748883408
36083	0.25107304807368364
36085	0.7407888030693771
36087	0.4291515044357531
36089	-0.3722015491935612
36091	0.2955926621642018
36093	0.6517495748883408
36095	0.1620338198926473
36097	-0.14960347874097354
36099	-0.9954761464608061
36101	0.20655343398316547
36103	0.384631890345235
36105	-0.5502800055556307
36107	0.20655343398316547
36109	0.34011227625471996
36111	0.1620338198926473
36113	0.5181907326167895
36115	-0.6838388478271852
36117	0.20655343398316547
36119	0.7853084171598953
36121	-1.974907656452193
36123	0.6072299607978227
37001	1.007906487612483
37003	-0.28316232101252803
37005	0.20655343398316547
37007	-0.7728780760082183
37009	0.4291515044357531
37011	-1.974907656452193
37013	0.8743476453409285
37015	0.07299459171161413
37017	0.8743476453409285
37019	0.6072299607978227
37021	0.8743476453409285
37023	0.028474977621095965
37025	0.5627103467073077
37027	0.2955926621642018
37029	0.1175142058021323
37031	0.2955926621642018
37033	-0.28316232101252803
37035	0.4291515044357531
37037	0.8298280312504103
37039	0.6072299607978227
37041	1.0524261017029979
37043	0.2955926621642018
37045	0.8743476453409285
37047	0.25107304807368364
37049	-0.28316232101252803
37051	0.5181907326167895
37053	0.25107304807368364
37055	0.1620338198926473
37057	0.4736711185262713
37059	0.5627103467073077
37061	0.34011227625471996
37063	0.9188672594314466
37065	1.5866614707892097
37067	1.096945715793516
37069	0.20655343398316547
37071	0.7407888030693771
37073	0.5181907326167895
37075	0.2955926621642018
37077	-0.46124077737459757
37079	-1.8858684282711566
37081	1.096945715793516
37083	1.0524261017029979
37085	0.2955926621642018
37087	0.8298280312504103
37089	0.7407888030693771
37091	0.4291515044357531
37093	0.34011227625471996
37095	-2.197505726904781
37097	0.34011227625471996
37099	0.384631890345235
37101	0.384631890345235
37103	0.7407888030693771
37105	0.4736711185262713
37107	1.007906487612483
37109	0.1175142058021323
37111	0.028474977621095965
37113	0.6962691889788589
37115	0.25107304807368364
37117	1.40858301442714
37119	0.8298280312504103
37121	0.4291515044357531
37123	0.6517495748883408
37125	0.9188672594314466
37127	0.7853084171598953
37129	0.8298280312504103
37131	0.8298280312504103
37133	-1.974907656452193
37135	1.096945715793516
37137	-0.5057603914651158
37139	0.4736711185262713
37141	0.07299459171161413
37143	0.8743476453409285
37145	0.6072299607978227
37147	1.2750241721555857
37149	1.007906487612483
37151	0.34011227625471996
37153	0.4291515044357531
37155	0.6962691889788589
37157	0.8298280312504103
37159	0.34011227625471996
37161	0.7853084171598953
37163	0.4291515044357531
37165	0.384631890345235
37167	0.028474977621095965
37169	0.5181907326167895
37171	0.5181907326167895
37173	0.7853084171598953
37175	0.8298280312504103
37177	-1.4851919014564996
37179	0.2955926621642018
37181	1.4976222426081733
37183	0.6072299607978227
37185	-0.3722015491935612
37187	1.2305045580650706
37189	0.028474977621095965
37191	0.384631890345235
37193	0.34011227625471996
37195	1.096945715793516
37197	0.25107304807368364
37199	0.384631890345235
38001	0.7853084171598953
38003	-0.060564250559940365
38005	-0.5502800055556307
38007	-1.618750743728054
38009	-1.0399957605513241
38011	-0.5502800055556307
38013	-1.3961526732754663
38015	0.25107304807368364
38017	-0.28316232101252803
38019	-0.32768193510304305
38021	0.20655343398316547
38023	-0.9064369182797729
38025	-1.262593831003912
38027	0.20655343398316547
38029	-0.32768193510304305
38031	0.20655343398316547
38033	-0.1941230928314917
38035	-0.6838388478271852
38037	-0.5947996196461489
38039	-0.4167211632840794
38041	0.9633868735219648
38043	-0.3722015491935612
38045	-0.5502800055556307
38047	-0.1941230928314917
38049	-1.262593831003912
38051	0.4736711185262713
38053	-1.262593831003912
38055	-0.5057603914651158
38057	-0.639319233736667
38059	-0.14960347874097354
38061	-2.0639468846332294
38063	-0.3722015491935612
38065	-0.639319233736667
38067	-0.46124077737459757
38069	-0.28316232101252803
38071	-0.060564250559940365
38073	-0.3722015491935612
38075	-0.9954761464608061
38077	-0.5947996196461489
38079	0.2955926621642018
38081	-1.3516330591849481
38083	-0.14960347874097354
38085	-0.0160446364694222
38087	-1.8858684282711566
38089	-0.8619173041892547
38091	-0.3722015491935612
38093	-0.5057603914651158
38095	-0.639319233736667
38097	-0.1941230928314917
38099	-0.32768193510304305
38101	-1.1735546028228787
38103	0.1620338198926473
38105	-1.7077899719090872
39001	0.384631890345235
39003	-0.10508386465045537
39005	0.4736711185262713
39007	-0.060564250559940365
39009	0.1175142058021323
39011	0.20655343398316547
39013	-0.32768193510304305
39015	0.25107304807368364
39017	0.4736711185262713
39019	0.028474977621095965
39021	0.1620338198926473
39023	0.6517495748883408
39025	0.384631890345235
39027	0.34011227625471996
39029	-0.14960347874097354
39031	0.20655343398316547
39033	0.6962691889788589
39035	1.096945715793516
39037	0.384631890345235
39039	0.2955926621642018
39041	0.25107304807368364
39043	0.5627103467073077
39045	0.1175142058021323
39047	0.384631890345235
39049	0.6072299607978227
39051	0.384631890345235
39053	0.34011227625471996
39055	0.34011227625471996
39057	0.4291515044357531
39059	0.384631890345235
39061	0.8298280312504103
39063	0.4736711185262713
39065	0.25107304807368364
39067	0.2955926621642018
39069	0.20655343398316547
39071	0.4736711185262713
39073	0.25107304807368364
39075	0.07299459171161413
39077	0.34011227625471996
39079	0.4291515044357531
39081	0.7853084171598953
39083	0.4291515044357531
39085	0.5181907326167895
39087	0.5627103467073077
39089	0.5181907326167895
39091	0.384631890345235
39093	0.34011227625471996
39095	0.6962691889788589
39097	-1.8413488141806418
39099	0.6517495748883408
39101	-1.3516330591849481
39103	0.2955926621642018
39105	0.4291515044357531
39107	-0.0160446364694222
39109	0.384631890345235
39111	-0.060564250559940365
39113	0.8743476453409285
39115	0.1620338198926473
39117	0.028474977621095965
39119	0.6962691889788589
39121	-3.666652991891858
39123	0.25107304807368364
39125	0.1175142058021323
39127	-0.0160446364694222
39129	-1.1735546028228787
39131	0.07299459171161413
39133	0.5627103467073077
39135	0.20655343398316547
39137	0.028474977621095965
39139	-0.1941230928314917
39141	-1.1290349887323605
39143	0.34011227625471996
39145	0.34011227625471996
39147	0.028474977621095965
39149	-0.0160446364694222
39151	0.6962691889788589
39153	0.7407888030693771
39155	0.6072299607978227
39157	0.2955926621642018
39159	1.096945715793516
39161	0.5181907326167895
39163	0.028474977621095965
39165	-0.10508386465045537
39167	0.4736711185262713
39169	0.25107304807368364
39171	0.1620338198926473
39173	0.4291515044357531
39175	0.25107304807368364
40001	0.028474977621095965
40003	-4.245407975068588
40005	-0.7728780760082183
40007	-0.14960347874097354
40009	-1.5297115155470178
40011	0.34011227625471996
40013	0.5627103467073077
40015	-0.7728780760082183
40017	0.20655343398316547
40019	0.5627103467073077
40021	0.34011227625471996
40023	0.6072299607978227
40025	0.20655343398316547
40027	0.07299459171161413
40029	0.6517495748883408
40031	-0.8173976900987365
40033	0.028474977621095965
40035	-0.32768193510304305
40037	0.2955926621642018
40039	0.07299459171161413
40041	0.34011227625471996
40043	0.384631890345235
40045	0.5181907326167895
40047	0.1620338198926473
40049	0.384631890345235
40051	0.1175142058021323
40053	0.384631890345235
40055	-3.043378394624613
40057	0.6517495748883408
40059	0.07299459171161413
40061	0.07299459171161413
40063	-1.618750743728054
40065	0.1175142058021323
40067	-0.10508386465045537
40069	0.5627103467073077
40071	0.25107304807368364
40073	0.25107304807368364
40075	0.2955926621642018
40077	-0.3722015491935612
40079	0.028474977621095965
40081	0.1175142058021323
40083	0.2955926621642018
40085	0.20655343398316547
40087	0.1620338198926473
40089	0.4736711185262713
40091	0.25107304807368364
40093	0.4736711185262713
40095	0.1620338198926473
40097	0.1620338198926473
40099	-0.060564250559940365
40101	0.5181907326167895
40103	0.34011227625471996
40105	0.4291515044357531
40107	-1.3516330591849481
40109	0.4736711185262713
40111	0.25107304807368364
40113	-0.10508386465045537
40115	0.4736711185262713
40117	0.1175142058021323
40119	-0.5057603914651158
40121	-0.3722015491935612
40123	0.5627103467073077
40125	1.0524261017029979
40127	0.4736711185262713
40129	0.1620338198926473
40131	0.1175142058021323
40133	0.384631890345235
40135	0.34011227625471996
40137	0.6072299607978227
40139	-1.262593831003912
40141	-0.10508386465045537
40143	0.6072299607978227
40145	0.34011227625471996
40147	0.6517495748883408
40149	0.1620338198926473
40151	-1.5297115155470178
40153	-1.30711344509443
41001	-0.28316232101252803
41003	-0.060564250559940365
41005	0.384631890345235
41007	0.2955926621642018
41009	0.1175142058021323
41011	0.384631890345235
41013	0.25107304807368364
41015	0.384631890345235
41017	0.34011227625471996
41019	0.34011227625471996
41021	-0.28316232101252803
41023	0.1175142058021323
41025	-0.28316232101252803
41027	-0.060564250559940365
41029	0.6072299607978227
41031	-0.060564250559940365
41033	0.6072299607978227
41035	0.028474977621095965
41037	-1.3516330591849481
41039	0.4291515044357531
41041	0.6517495748883408
41043	0.25107304807368364
41045	-1.8858684282711566
41047	0.07299459171161413
41049	-0.5502800055556307
41051	0.2955926621642018
41053	0.7853084171598953
41055	0.1175142058021323
41057	-0.10508386465045537
41059	-0.9509565323702911
41061	0.4291515044357531
41063	0.5627103467073077
41065	0.20655343398316547
41067	0.34011227625471996
41069	-0.10508386465045537
41071	0.07299459171161413
42001	0.384631890345235
42003	0.8743476453409285
42005	0.25107304807368364
42007	0.6962691889788589
42009	0.1175142058021323
42011	0.384631890345235
42013	0.6072299607978227
42015	0.25107304807368364
42017	0.4736711185262713
42019	0.34011227625471996
42021	0.20655343398316547
42023	0.20655343398316547
42025	0.25107304807368364
42027	-0.9064369182797729
42029	0.384631890345235
42031	0.5627103467073077
42033	-0.8173976900987365
42035	0.5181907326167895
42037	0.8298280312504103
42039	0.4736711185262713
42041	0.34011227625471996
42043	0.7407888030693771
42045	0.9188672594314466
42047	-0.0160446364694222
42049	0.34011227625471996
42051	0.384631890345235
42053	-7.495339803676367
42055	0.5181907326167895
42057	-0.10508386465045537
42059	-0.7728780760082183
42061	-1.3961526732754663
42063	0.1175142058021323
42065	0.1620338198926473
42067	0.07299459171161413
42069	0.7853084171598953
42071	0.5181907326167895
42073	0.7853084171598953
42075	0.5181907326167895
42077	0.6072299607978227
42079	0.384631890345235
42081	0.384631890345235
42083	-0.5057603914651158
42085	0.4291515044357531
42087	0.4291515044357531
42089	0.2955926621642018
42091	0.6517495748883408
42093	0.9633868735219648
42095	0.4736711185262713
42097	-0.0160446364694222
42099	-0.10508386465045537
42101	1.2305045580650706
42103	-0.0160446364694222
42105	-0.0160446364694222
42107	-0.4167211632840794
42109	0.2955926621642018
42111	-0.7283584619177034
42113	-0.8173976900987365
42115	-0.10508386465045537
42117	0.2955926621642018
42119	-2.331064569176332
42121	0.4291515044357531
42123	-0.0160446364694222
42125	0.5181907326167895
42127	-1.2180742169133938
42129	0.5181907326167895
42131	-0.0160446364694222
42133	0.2955926621642018
44001	0.8743476453409285
44003	0.7853084171598953
44005	0.4736711185262713
44007	0.6962691889788589
44009	0.7407888030693771
45001	0.6517495748883408
45003	0.6962691889788589
45005	-1.7523095859996054
45007	0.7853084171598953
45009	1.0524261017029979
45011	1.0524261017029979
45013	0.34011227625471996
45015	0.028474977621095965
45017	0.6072299607978227
45019	0.7407888030693771
45021	0.6517495748883408
45023	0.7853084171598953
45025	0.6072299607978227
45027	0.384631890345235
45029	1.007906487612483
45031	1.2305045580650706
45033	1.2305045580650706
45035	0.5627103467073077
45037	-1.7077899719090872
45039	1.007906487612483
45041	1.3640634003366219
45043	1.0524261017029979
45045	0.6517495748883408
45047	1.4531026285176583
45049	-0.639319233736667
45051	0.6517495748883408
45053	-0.7283584619177034
45055	0.6962691889788589
45057	0.4291515044357531
45059	0.6962691889788589
45061	-0.9064369182797729
45063	0.5627103467073077
45065	-2.0639468846332294
45067	1.720220313060761
45069	-1.4406722873659814
45071	0.5181907326167895
45073	0.2955926621642018
45075	1.3640634003366219
45077	0.1175142058021323
45079	0.6517495748883408
45081	-0.1941230928314917
45083	0.6962691889788589
45085	0.7407888030693771
45087	1.1414653298840343
45089	0.6517495748883408
45091	0.7853084171598953
46003	-0.6838388478271852
46005	-0.23864270692200987
46007	0.8298280312504103
46009	-3.622133377801343
46011	-0.3722015491935612
46013	0.4736711185262713
46015	0.4736711185262713
46017	0.34011227625471996
46019	-0.10508386465045537
46021	-1.0399957605513241
46023	0.20655343398316547
46025	-0.23864270692200987
46027	0.384631890345235
46029	0.028474977621095965
46031	-0.5057603914651158
46033	-0.0160446364694222
46035	0.1620338198926473
46037	-0.32768193510304305
46039	-0.7728780760082183
46041	0.5181907326167895
46043	-0.0160446364694222
46045	-0.28316232101252803
46047	-0.4167211632840794
46049	-0.23864270692200987
46051	-0.46124077737459757
46053	-0.28316232101252803
46055	-0.10508386465045537
46057	-0.10508386465045537
46059	-0.10508386465045537
46061	-0.639319233736667
46063	-1.574231129637536
46065	0.6072299607978227
46067	0.384631890345235
46069	-0.46124077737459757
46071	-0.14960347874097354
46073	0.028474977621095965
46075	1.5421418566986915
46077	-0.32768193510304305
46079	-0.5502800055556307
46081	0.20655343398316547
46083	0.25107304807368364
46085	-1.1735546028228787
46087	-0.10508386465045537
46089	0.4736711185262713
46091	-2.019427270542711
46093	-0.8619173041892547
46095	-1.2180742169133938
46097	-0.23864270692200987
46099	-0.0160446364694222
46101	-0.1941230928314917
46103	0.028474977621095965
46105	-0.5947996196461489
46107	0.4736711185262713
46109	-0.0160446364694222
46111	-1.1735546028228787
46113	0.6962691889788589
46115	-0.14960347874097354
46117	-0.5502800055556307
46119	-1.30711344509443
46121	0.4736711185262713
46123	0.2955926621642018
46125	-0.10508386465045537
46127	-0.1941230928314917
46129	0.34011227625471996
46135	-0.8173976900987365
46137	0.20655343398316547
47001	0.6962691889788589
47003	0.2955926621642018
47005	0.2955926621642018
47007	-1.8858684282711566
47009	0.6962691889788589
47011	0.6072299607978227
47013	0.6072299607978227
47015	0.2955926621642018
47017	0.6072299607978227
47019	0.5181907326167895
47021	0.1175142058021323
47023	0.9633868735219648
47025	0.5627103467073077
47027	0.4736711185262713
47029	0.7407888030693771
47031	0.6517495748883408
47033	1.007906487612483
47035	0.5627103467073077
47037	0.7853084171598953
47039	0.384631890345235
47041	0.20655343398316547
47043	0.384631890345235
47045	0.7407888030693771
47047	0.1620338198926473
47049	0.4736711185262713
47051	0.6517495748883408
47053	1.096945715793516
47055	0.4736711185262713
47057	-0.0160446364694222
47059	0.4291515044357531
47061	0.2955926621642018
47063	0.5627103467073077
47065	0.8298280312504103
47067	0.34011227625471996
47069	-1.974907656452193
47071	0.6962691889788589
47073	0.4736711185262713
47075	1.5421418566986915
47077	0.8298280312504103
47079	0.6962691889788589
47081	-1.1290349887323605
47083	0.25107304807368364
47085	0.20655343398316547
47087	-0.0160446364694222
47089	0.4291515044357531
47091	-1.574231129637536
47093	0.6517495748883408
47095	-5.937153310508253
47097	-1.0399957605513241
47099	0.5181907326167895
47101	0.4291515044357531
47103	0.5181907326167895
47105	0.5181907326167895
47107	0.5627103467073077
47109	0.4736711185262713
47111	0.6072299607978227
47113	1.1859849439745525
47115	0.384631890345235
47117	0.4291515044357531
47119	0.7407888030693771
47121	0.1175142058021323
47123	0.25107304807368364
47125	0.1175142058021323
47127	0.4291515044357531
47129	-2.331064569176332
47131	0.7853084171598953
47133	0.384631890345235
47135	-0.1941230928314917
47137	0.1175142058021323
47139	0.25107304807368364
47141	0.2955926621642018
47143	0.384631890345235
47145	0.384631890345235
47147	0.34011227625471996
47149	0.34011227625471996
47151	0.384631890345235
47153	0.384631890345235
47155	0.4291515044357531
47157	1.0524261017029979
47159	0.1620338198926473
47161	-0.060564250559940365
47163	0.7407888030693771
47165	0.5627103467073077
47167	0.2955926621642018
47169	0.34011227625471996
47171	0.384631890345235
47173	0.25107304807368364
47175	0.2955926621642018
47177	0.2955926621642018
47179	0.5181907326167895
47181	-2.242025340995299
47183	0.5627103467073077
47185	0.4736711185262713
47187	0.6072299607978227
47189	0.4736711185262713
48001	-4.779643344154796
48003	-0.28316232101252803
48005	0.5181907326167895
48007	0.2955926621642018
48009	0.028474977621095965
48011	0.34011227625471996
48013	0.1620338198926473
48015	0.1620338198926473
48017	-0.5057603914651158
48019	0.2955926621642018
48021	-0.4167211632840794
48023	0.7853084171598953
48025	-4.378966817340139
48027	0.028474977621095965
48029	0.384631890345235
48031	-0.1941230928314917
48033	-0.7728780760082183
48035	0.2955926621642018
48037	-0.14960347874097354
48039	-0.32768193510304305
48041	-0.23864270692200987
48043	0.028474977621095965
48045	0.5181907326167895
48047	0.07299459171161413
48049	0.20655343398316547
48051	0.2955926621642018
48053	0.4291515044357531
48055	-0.1941230928314917
48057	-0.4167211632840794
48059	0.4291515044357531
48061	0.7853084171598953
48063	0.4736711185262713
48065	-0.10508386465045537
48067	0.6962691889788589
48069	-0.7728780760082183
48071	-0.14960347874097354
48073	-0.3722015491935612
48075	-4.067329518706519
48077	0.07299459171161413
48079	0.6517495748883408
48081	0.6962691889788589
48083	0.1620338198926473
48085	0.384631890345235
48087	0.4291515044357531
48089	0.028474977621095965
48091	0.34011227625471996
48093	0.2955926621642018
48095	-8.474771313667754
48097	0.25107304807368364
48099	0.1620338198926473
48101	1.2750241721555857
48103	0.20655343398316547
48105	0.2955926621642018
48107	0.4291515044357531
48109	0.7853084171598953
48111	-0.7728780760082183
48113	0.2955926621642018
48115	-3.0878980087151313
48117	0.25107304807368364
48119	0.25107304807368364
48121	0.34011227625471996
48123	-0.8619173041892547
48125	-3.1324176228056495
48127	0.4736711185262713
48129	0.4291515044357531
48131	-0.8173976900987365
48133	0.4291515044357531
48135	-0.060564250559940365
48137	0.07299459171161413
48139	0.2955926621642018
48141	0.4736711185262713
48143	0.34011227625471996
48145	1.1414653298840343
48147	-1.30711344509443
48149	0.4291515044357531
48151	0.20655343398316547
48153	0.1620338198926473
48155	1.096945715793516
48157	0.384631890345235
48159	0.384631890345235
48161	-0.9064369182797729
48163	-3.7556922200728944
48165	-0.32768193510304305
48167	0.25107304807368364
48169	-6.159751380960841
48171	0.8298280312504103
48173	-1.4406722873659814
48175	-0.1941230928314917
48177	-0.1941230928314917
48179	-1.0399957605513241
48181	0.5627103467073077
48183	0.4736711185262713
48185	-1.974907656452193
48187	0.34011227625471996
48189	-0.8173976900987365
48191	0.384631890345235
48193	0.2955926621642018
48195	-0.3722015491935612
48197	-0.46124077737459757
48199	0.2955926621642018
48201	0.07299459171161413
48203	0.5181907326167895
48205	-5.09128064278842
48207	-1.1290349887323605
48209	0.1175142058021323
48211	-0.23864270692200987
48213	0.5181907326167895
48215	0.4736711185262713
48217	0.4736711185262713
48219	0.2955926621642018
48221	0.34011227625471996
48223	0.2955926621642018
48225	-1.3961526732754663
48227	-2.909819552353062
48229	0.028474977621095965
48231	0.34011227625471996
48233	0.1175142058021323
48235	-0.46124077737459757
48237	-2.5536626396289197
48239	0.1620338198926473
48241	0.34011227625471996
48243	-0.23864270692200987
48245	-0.46124077737459757
48247	0.1175142058021323
48249	0.2955926621642018
48251	0.028474977621095965
48253	-5.402917941422045
48255	-3.933770676434964
48257	0.4291515044357531
48259	0.5181907326167895
48261	-0.28316232101252803
48263	0.6072299607978227
48265	0.7853084171598953
48267	0.25107304807368364
48269	-0.3722015491935612
48271	-2.4646234114478864
48273	-0.4167211632840794
48275	0.384631890345235
48277	0.7853084171598953
48279	-0.060564250559940365
48281	0.2955926621642018
48283	-3.8447314482539308
48285	0.5181907326167895
48287	-0.14960347874097354
48289	0.07299459171161413
48291	0.4291515044357531
48293	-0.6838388478271852
48295	-0.5947996196461489
48297	-1.7523095859996054
48299	0.8298280312504103
48301	-1.618750743728054
48303	0.25107304807368364
48305	-0.10508386465045537
48307	0.25107304807368364
48309	0.5627103467073077
48311	-0.1941230928314917
48313	-3.4440549214392706
48315	0.4291515044357531
48317	-0.1941230928314917
48319	0.1620338198926473
48321	0.07299459171161413
48323	0.25107304807368364
48325	-0.6838388478271852
48327	-0.0160446364694222
48329	0.07299459171161413
48331	0.2955926621642018
48333	0.2955926621642018
48335	-5.09128064278842
48337	0.25107304807368364
48339	0.20655343398316547
48341	-0.8619173041892547
48343	0.8743476453409285
48345	-0.8173976900987365
48347	0.9633868735219648
48349	0.25107304807368364
48351	-0.639319233736667
48353	-0.060564250559940365
48355	0.384631890345235
48357	-0.5947996196461489
48359	-0.32768193510304305
48361	0.20655343398316547
48363	0.4736711185262713
48365	0.25107304807368364
48367	-0.1941230928314917
48369	-0.7283584619177034
48371	-2.95433916644358
48373	-1.5297115155470178
48375	-0.5947996196461489
48377	0.1175142058021323
48379	-0.14960347874097354
48381	0.4736711185262713
48383	-0.9064369182797729
48385	0.25107304807368364
48387	0.7853084171598953
48389	-4.512525659611693
48391	0.1620338198926473
48393	0.5181907326167895
48395	0.2955926621642018
48397	0.4291515044357531
48399	0.1175142058021323
48401	-1.262593831003912
48403	0.4736711185262713
48405	0.6072299607978227
48407	-0.10508386465045537
48409	0.028474977621095965
48411	-2.0639468846332294
48413	-0.28316232101252803
48415	-1.7523095859996054
48417	0.6072299607978227
48419	0.20655343398316547
48421	-0.9064369182797729
48423	0.7853084171598953
48425	0.4736711185262713
48427	0.6072299607978227
48429	-0.9064369182797729
48431	-1.3516330591849481
48433	0.5627103467073077
48435	-0.1941230928314917
48437	-1.262593831003912
48439	0.4736711185262713
48441	0.5627103467073077
48443	-1.1290349887323605
48445	-1.1735546028228787
48447	0.5627103467073077
48449	0.2955926621642018
48451	0.25107304807368364
48453	-0.1941230928314917
48455	0.7407888030693771
48457	-1.7077899719090872
48459	0.25107304807368364
48461	-0.3722015491935612
48463	0.4291515044357531
48465	-0.23864270692200987
48467	0.4736711185262713
48469	0.4736711185262713
48471	-3.8002118341634126
48473	0.1620338198926473
48475	0.1620338198926473
48477	0.2955926621642018
48479	0.4736711185262713
48481	0.384631890345235
48483	-0.23864270692200987
48485	-0.6838388478271852
48487	0.4291515044357531
48489	-2.1084664987237445
48491	0.384631890345235
48493	-0.0160446364694222
48495	-0.639319233736667
48497	-0.10508386465045537
48499	0.4736711185262713
48501	0.1620338198926473
48503	0.2955926621642018
48505	-0.14960347874097354
48507	0.1175142058021323
49001	-0.7283584619177034
49003	-0.32768193510304305
49005	0.1175142058021323
49007	0.20655343398316547
49009	-2.37558418326685
49011	-0.10508386465045537
49013	-0.32768193510304305
49015	-0.3722015491935612
49017	-0.9064369182797729
49019	-0.0160446364694222
49021	0.028474977621095965
49023	-0.46124077737459757
49025	-0.10508386465045537
49027	-0.46124077737459757
49029	-0.28316232101252803
49031	-0.639319233736667
49033	-0.1941230928314917
49035	-0.10508386465045537
49037	0.028474977621095965
49039	-0.9954761464608061
49041	-0.3722015491935612
49043	-0.5502800055556307
49045	-0.1941230928314917
49047	-0.3722015491935612
49049	-0.10508386465045537
49051	-0.5502800055556307
49053	0.2955926621642018
49055	-0.060564250559940365
49057	-0.060564250559940365
50001	0.07299459171161413
50003	0.7407888030693771
50005	0.07299459171161413
50007	0.5181907326167895
50009	-0.28316232101252803
50011	0.20655343398316547
50013	0.20655343398316547
50015	0.07299459171161413
50017	0.1175142058021323
50019	-0.10508386465045537
50021	0.34011227625471996
50023	0.25107304807368364
50025	0.384631890345235
50027	0.4736711185262713
51001	0.6962691889788589
51003	1.007906487612483
51005	0.384631890345235
51007	0.5627103467073077
51009	1.0524261017029979
51011	0.7407888030693771
51013	-0.0160446364694222
51015	-0.1941230928314917
51017	0.028474977621095965
51019	0.20655343398316547
51021	-2.242025340995299
51023	0.25107304807368364
51025	-1.2180742169133938
51027	-0.46124077737459757
51029	-2.1529861128142627
51031	0.7407888030693771
51033	0.384631890345235
51035	0.1620338198926473
51036	0.5181907326167895
51037	0.2955926621642018
51041	0.8743476453409285
51043	0.1175142058021323
51045	0.1175142058021323
51047	-0.14960347874097354
51049	0.6962691889788589
51051	-0.23864270692200987
51053	0.4291515044357531
51057	1.2750241721555857
51059	0.25107304807368364
51061	0.2955926621642018
51063	-0.0160446364694222
51065	1.9428183835133486
51067	0.34011227625471996
51069	0.1620338198926473
51071	0.4736711185262713
51073	0.2955926621642018
51075	0.20655343398316547
51077	0.5181907326167895
51079	0.2955926621642018
51081	-5.046761028697902
51083	0.9633868735219648
51085	0.4736711185262713
51087	1.2750241721555857
51089	0.7853084171598953
51091	0.34011227625471996
51093	0.6072299607978227
51095	0.7853084171598953
51097	0.07299459171161413
51099	-0.1941230928314917
51101	0.6072299607978227
51103	1.5421418566986915
51105	-0.9509565323702911
51107	0.20655343398316547
51109	0.384631890345235
51111	-1.3516330591849481
51113	0.6962691889788589
51115	0.7853084171598953
51117	0.8298280312504103
51119	0.1620338198926473
51121	-0.8173976900987365
51125	0.4736711185262713
51127	-0.32768193510304305
51131	1.007906487612483
51133	0.2955926621642018
51135	-1.5297115155470178
51137	0.4291515044357531
51139	0.2955926621642018
51141	0.34011227625471996
51143	0.4736711185262713
51145	-1.663270357818569
51147	0.34011227625471996
51149	-2.242025340995299
51153	0.1175142058021323
51155	0.028474977621095965
51157	0.2955926621642018
51159	-2.5536626396289197
51161	0.9633868735219648
51163	0.25107304807368364
51165	0.5181907326167895
51167	0.5181907326167895
51169	-0.060564250559940365
51171	0.5627103467073077
51173	0.4736711185262713
51175	-0.7283584619177034
51177	0.4291515044357531
51179	-0.10508386465045537
51181	0.1620338198926473
51183	-4.156368746887551
51185	0.1620338198926473
51187	0.1175142058021323
51191	0.34011227625471996
51193	0.6072299607978227
51195	-0.7728780760082183
51197	0.5181907326167895
51199	0.384631890345235
51510	0.6517495748883408
51515	1.9873379976038668
51520	1.319543786246104
51530	1.319543786246104
51540	0.6962691889788589
51550	0.5627103467073077
51570	1.5866614707892097
51580	0.384631890345235
51590	1.8982987694228337
51595	1.631181084879728
51600	0.384631890345235
51610	0.4291515044357531
51620	2.1654164539659364
51630	1.9428183835133486
51640	1.40858301442714
51650	0.8743476453409285
51660	1.0524261017029979
51670	1.4976222426081733
51678	-2.5536626396289197
51680	1.3640634003366219
51683	-0.23864270692200987
51685	-0.5057603914651158
51690	1.9428183835133486
51700	0.7407888030693771
51710	-0.9509565323702911
51720	1.4531026285176583
51730	1.5866614707892097
51735	0.1620338198926473
51740	0.8743476453409285
51750	1.1859849439745525
51760	1.096945715793516
51770	0.9633868735219648
51775	1.007906487612483
51790	2.254455682146973
51800	0.7853084171598953
51810	0.4291515044357531
51820	1.2305045580650706
51830	1.5421418566986915
51840	0.2955926621642018
53001	-0.32768193510304305
53003	0.8743476453409285
53005	-0.0160446364694222
53007	0.07299459171161413
53009	0.1620338198926473
53011	0.2955926621642018
53013	0.25107304807368364
53015	0.20655343398316547
53017	-0.14960347874097354
53019	-0.7728780760082183
53021	-0.9509565323702911
53023	0.5627103467073077
53025	-0.28316232101252803
53027	-0.5947996196461489
53029	0.1620338198926473
53031	0.2955926621642018
53033	0.028474977621095965
53035	-0.3722015491935612
53037	-0.14960347874097354
53039	-0.14960347874097354
53041	0.028474977621095965
53043	-0.060564250559940365
53045	-0.7283584619177034
53047	-0.1941230928314917
53049	0.028474977621095965
53051	-0.4167211632840794
53053	0.1620338198926473
53055	0.7853084171598953
53057	0.20655343398316547
53059	-0.32768193510304305
53061	-0.0160446364694222
53063	0.25107304807368364
53065	-0.0160446364694222
53067	0.4736711185262713
53069	0.1620338198926473
53071	-0.3722015491935612
53073	0.20655343398316547
53075	-0.3722015491935612
53077	-0.060564250559940365
54001	0.5627103467073077
54003	0.2955926621642018
54005	0.20655343398316547
54007	-0.14960347874097354
54009	0.5627103467073077
54011	0.6072299607978227
54013	-0.060564250559940365
54015	0.028474977621095965
54017	-1.7968292000901236
54019	-0.14960347874097354
54021	-4.557045273702209
54023	0.20655343398316547
54025	0.384631890345235
54027	-0.28316232101252803
54029	0.7853084171598953
54031	-0.14960347874097354
54033	0.5181907326167895
54035	0.384631890345235
54037	0.2955926621642018
54039	0.8743476453409285
54041	0.20655343398316547
54043	0.1620338198926473
54045	0.1175142058021323
54047	0.2955926621642018
54049	0.4736711185262713
54051	0.4291515044357531
54053	0.8298280312504103
54055	0.9633868735219648
54057	0.1620338198926473
54059	0.4291515044357531
54061	-0.639319233736667
54063	0.25107304807368364
54065	0.20655343398316547
54067	0.384631890345235
54069	0.9633868735219648
54071	-0.46124077737459757
54073	-1.574231129637536
54075	-0.639319233736667
54077	-0.639319233736667
54079	0.384631890345235
54081	0.028474977621095965
54083	-0.6838388478271852
54085	0.1620338198926473
54087	0.25107304807368364
54089	2.298975296237491
54091	-0.23864270692200987
54093	-0.28316232101252803
54095	0.4736711185262713
54097	0.2955926621642018
54099	0.5627103467073077
54101	0.07299459171161413
54103	0.34011227625471996
54105	-0.10508386465045537
54107	0.7853084171598953
54109	0.20655343398316547
55001	-1.574231129637536
55003	-0.0160446364694222
55005	0.1620338198926473
55007	-0.46124077737459757
55009	0.20655343398316547
55011	-0.3722015491935612
55013	-0.32768193510304305
55015	-0.0160446364694222
55017	-0.7728780760082183
55019	-0.23864270692200987
55021	-0.23864270692200987
55023	-0.639319233736667
55025	0.20655343398316547
55027	-1.2180742169133938
55029	0.384631890345235
55031	-0.0160446364694222
55033	-0.14960347874097354
55035	0.34011227625471996
55037	-0.639319233736667
55039	0.384631890345235
55041	-0.4167211632840794
55043	-0.8619173041892547
55045	0.20655343398316547
55047	-0.10508386465045537
55049	0.028474977621095965
55051	0.1175142058021323
55053	-1.4406722873659814
55055	0.1175142058021323
55057	-1.30711344509443
55059	0.25107304807368364
55061	-0.32768193510304305
55063	0.4736711185262713
55065	-0.4167211632840794
55067	-0.060564250559940365
55069	-0.23864270692200987
55071	0.07299459171161413
55073	-0.060564250559940365
55075	0.028474977621095965
55077	-0.32768193510304305
55078	0.4291515044357531
55079	0.7853084171598953
55081	-0.23864270692200987
55083	-0.4167211632840794
55085	0.07299459171161413
55087	0.1175142058021323
55089	0.4291515044357531
55091	-0.1941230928314917
55093	0.2955926621642018
55095	-0.14960347874097354
55097	-0.060564250559940365
55099	-0.32768193510304305
55101	0.20655343398316547
55103	-0.060564250559940365
55105	0.4291515044357531
55107	0.028474977621095965
55109	0.028474977621095965
55111	0.1620338198926473
55113	-0.23864270692200987
55115	0.028474977621095965
55117	-0.060564250559940365
55119	-0.3722015491935612
55121	-0.23864270692200987
55123	0.028474977621095965
55125	-0.23864270692200987
55127	0.028474977621095965
55129	0.25107304807368364
55131	0.1620338198926473
55133	0.4291515044357531
55135	-0.14960347874097354
55137	-1.0845153746418423
55139	-0.10508386465045537
55141	0.34011227625471996
56001	-0.9509565323702911
56003	-0.1941230928314917
56005	-0.8619173041892547
56007	-2.0639468846332294
56009	-0.3722015491935612
56011	-0.46124077737459757
56013	0.028474977621095965
56015	-0.9954761464608061
56017	0.25107304807368364
56019	-0.4167211632840794
56021	-0.10508386465045537
56023	-0.28316232101252803
56025	-0.1941230928314917
56027	1.8092595412417973
56029	0.20655343398316547
56031	-0.14960347874097354
56033	0.028474977621095965
56035	-1.618750743728054
56037	-0.9064369182797729
56039	-0.8619173041892547
56041	-0.28316232101252803
56043	-0.10508386465045537
56045	-1.0399957605513241
