id	rate
1001	0.060275250220426096
1003	0.26880673769463964
1005	0.7901354563801742
1007	1.6242614062770295
1009	0.3730724814317467
1011	0.9323160160216878
1013	-0.04399049351668092
1015	1.6242614062770295
1017	0.7901354563801742
1019	1.728527150014137
1021	1.4157299188028163
1023	1.1029326875914949
1025	-0.5653192122022155
1027	1.8327928937512434
1029	1.728527150014137
1031	0.060275250220426096
1033	1.3114641750657088
1035	1.728527150014137
1037	1.1029326875914949
1039	1.728527150014137
1041	0.26880673769463964
1043	0.8944012001172817
1045	0.3730724814317467
1047	0.060275250220426096
1049	1.4157299188028163
1051	0.8944012001172817
1053	1.2071984313286024
1055	1.519995662539923
1057	1.728527150014137
1059	0.8944012001172817
1061	-0.14825623725378795
1063	1.8327928937512434
1065	0.5816039689059602
1067	-0.04399049351668092
1069	0.7901354563801742
1071	1.8327928937512434
1073	0.3730724814317467
1075	2.562653099910992
1077	0.060275250220426096
1079	2.0413243812254573
1081	1.728527150014137
1083	-0.46105346846510853
1085	0.6858697126430677
1087	-0.6695849559393225
1089	-0.04399049351668092
1091	0.9986669438543883
1093	0.7901354563801742
1095	1.3114641750657088
1097	1.3114641750657088
1099	1.519995662539923
1101	0.26880673769463964
1103	0.4773382251688537
1105	0.6858697126430677
1107	-0.25252198099089496
1109	0.26880673769463964
1111	1.3114641750657088
1113	1.519995662539923
1115	0.4773382251688537
1117	0.060275250220426096
1119	1.937058637488351
1121	1.6242614062770295
1123	1.728527150014137
1125	0.5816039689059602
1127	3.0839818185965266
1129	-0.3567877247280015
1131	0.060275250220426096
1133	3.0839818185965266
2013	0.26880673769463964
2016	-1.5037109058361777
2020	-0.5653192122022155
2050	-0.9823821871506432
2060	-2.3378368557330336
2068	-1.2951794183619643
2070	-1.2951794183619643
2090	-0.5653192122022155
2100	-1.6079766495732848
2110	-0.5653192122022155
2122	-0.5653192122022155
2130	-0.3567877247280015
2150	-1.5037109058361777
2164	-0.9823821871506432
2170	-0.25252198099089496
2180	-1.1909136746248572
2185	-1.9207738807846055
2188	-1.8165081370474985
2201	-0.7738506996764296
2220	-1.0866479308877501
2232	-1.7122423933103919
2240	-1.3994451620990707
2261	-0.14825623725378795
2270	-0.04399049351668092
2280	-0.25252198099089496
2282	-0.9823821871506432
2290	-1.0866479308877501
4001	0.7901354563801742
4003	0.26880673769463964
4005	-0.46105346846510853
4007	2.0413243812254573
4009	0.7901354563801742
4011	0.1645409939575331
4012	1.728527150014137
4013	-0.3567877247280015
4015	0.8944012001172817
4017	0.1645409939575331
4019	-0.04399049351668092
4021	-0.04399049351668092
4023	-0.6695849559393225
4025	0.5816039689059602
4027	-0.46105346846510853
5001	0.4773382251688537
5003	-0.5653192122022155
5005	0.5816039689059602
5007	-0.5653192122022155
5009	0.4773382251688537
5011	0.1645409939575331
5013	0.7707718182575667
5015	0.5816039689059602
5017	0.3730724814317467
5019	-0.9823821871506432
5021	-0.14825623725378795
5023	0.9986669438543883
5025	1.4157299188028163
5027	1.1029326875914949
5029	2.771184587385206
5031	-0.04399049351668092
5033	0.8944012001172817
5035	0.6858697126430677
5037	0.9986669438543883
5039	0.7707718182575667
5041	0.6858697126430677
5043	1.2071984313286024
5045	-0.04399049351668092
5047	1.519995662539923
5049	-0.25252198099089496
5051	1.8327928937512434
5053	1.519995662539923
5055	-0.25252198099089496
5057	0.3730724814317467
5059	2.3541216124367783
5061	-0.46105346846510853
5063	0.8944012001172817
5065	2.562653099910992
5067	1.2071984313286024
5069	0.5816039689059602
5071	-0.14825623725378795
5073	1.728527150014137
5075	0.7707718182575667
5077	0.4773382251688537
5079	-0.5653192122022155
5081	0.4773382251688537
5083	-0.6695849559393225
5085	0.3730724814317467
5087	-1.5037109058361777
5089	0.6858697126430677
5091	0.6858697126430677
5093	1.3114641750657088
5095	0.7707718182575667
5097	1.1029326875914949
5099	6.837548593132375
5101	0.1645409939575331
5103	2.666918843648099
5105	0.5816039689059602
5107	1.519995662539923
5109	-0.46105346846510853
5111	3.1882475623336335
5113	0.4773382251688537
5115	-0.3567877247280015
5117	-0.46105346846510853
5119	-0.25252198099089496
5121	1.728527150014137
5123	2.4583873561738856
5125	0.6858697126430677
5127	0.6858697126430677
5129	1.519995662539923
5131	0.060275250220426096
5133	0.1645409939575331
5135	3.1882475623336335
5137	2.145590124962564
5139	0.6858697126430677
5141	0.5816039689059602
5143	-0.3567877247280015
5145	-0.46105346846510853
5147	0.7707718182575667
5149	0.060275250220426096
6001	-0.3567877247280015
6003	0.3054928327132463
6005	0.6858697126430677
6007	0.9986669438543883
6009	0.7901354563801742
6011	-0.9823821871506432
6013	-0.14825623725378795
6015	0.4773382251688537
6017	-0.46105346846510853
6019	0.1645409939575331
6021	-0.46105346846510853
6023	0.3730724814317467
6025	0.26880673769463964
6027	0.3054928327132463
6029	0.6858697126430677
6031	0.7901354563801742
6033	0.9986669438543883
6035	0.5816039689059602
6037	0.1645409939575331
6039	1.1029326875914949
6041	-0.5653192122022155
6043	-0.14825623725378795
6045	0.4773382251688537
6047	0.6858697126430677
6049	0.3054928327132565
6051	-0.46105346846510853
6053	1.1029326875914949
6055	0.4773382251688537
6057	-0.5653192122022155
6059	-0.3567877247280015
6061	-0.6695849559393225
6063	-0.14825623725378795
6065	0.5816039689059602
6067	0.1645409939575331
6069	-0.9823821871506432
6071	0.5816039689059602
6073	0.1645409939575331
6075	-0.46105346846510853
6077	0.4773382251688537
6079	-0.04399049351668092
6081	-0.3567877247280015
6083	-0.25252198099089496
6085	-0.8781164434135361
6087	0.1645409939575331
6089	0.5816039689059602
6091	0.3054928327132565
6093	1.4157299188028163
6095	-0.25252198099089496
6097	-0.14825623725378795
6099	0.3730724814317467
6101	-0.25252198099089496
6103	1.519995662539923
6105	5.899156899498413
6107	0.9986669438543883
6109	0.1645409939575331
6111	0.060275250220426096
6113	-0.3567877247280015
6115	1.8327928937512434
8001	0.060275250220426096
8003	-0.46105346846510853
8005	-0.3567877247280015
8007	0.1645409939575331
8009	-1.0866479308877501
8011	0.5816039689059602
8013	-0.7738506996764296
8014	-0.3567877247280015
8015	-0.9823821871506432
8017	-2.1293053682588194
8019	-0.6695849559393225
8021	0.26880673769463964
8023	-1.8165081370474985
8025	-0.47508924166048966
8027	-1.0866479308877501
8029	0.3730724814317467
8031	-0.3567877247280015
8033	-0.47508924166048966
8035	-1.1909136746248572
8037	-1.5037109058361777
8039	-0.6695849559393225
8041	-0.14825623725378795
8043	-0.04399049351668092
8045	-0.7738506996764296
8047	-0.47508924166048966
8049	0.4773382251688537
8051	-1.0866479308877501
8053	-0.47508924166048966
8055	2.9797160748594202
8057	-0.47508924166048966
8059	-0.6695849559393225
8061	-0.47508924166048966
8063	-1.5037109058361777
8065	-0.9823821871506432
8067	-1.0866479308877501
8069	-0.46105346846510853
8071	-0.6695849559393225
8073	-0.47508924166048966
8075	-0.5653192122022155
8077	-0.04399049351668092
8079	-0.47508924166048966
8081	-0.3567877247280015
8083	0.3730724814317467
8085	-0.7738506996764296
8087	-0.8781164434135361
8089	0.26880673769463964
8091	-0.47508924166048966
8093	-0.14825623725378795
8095	-0.8781164434135361
8097	-0.8781164434135361
8099	0.1645409939575331
8101	0.3730724814317467
8103	-0.25252198099089496
8105	1.3114641750657088
8107	-1.3994451620990707
8109	-0.46105346846510853
8111	-0.47508924166048966
8113	-0.47508924166048966
8115	-0.04399049351668092
8117	-1.7122423933103919
8119	-0.25252198099089496
8121	-0.47508924166048966
8123	-0.5653192122022155
8125	-2.025039624521712
9001	-0.7738506996764296
9003	-0.46105346846510853
9005	-0.5653192122022155
9007	-0.3567877247280015
9009	-0.04399049351668092
9011	-0.6695849559393225
9013	-0.7738506996764296
9015	-0.3567877247280015
10001	-0.04399049351668092
10003	-0.3567877247280015
10005	-0.14825623725378795
11001	-0.6695849559393225
12001	-0.25252198099089496
12003	1.2071984313286024
12005	2.145590124962564
12007	1.519995662539923
12009	0.7901354563801742
12011	-0.14825623725378795
12013	2.0413243812254573
12015	1.519995662539923
12017	1.1029326875914949
12019	-0.04399049351668092
12021	0.060275250220426096
12023	0.9986669438543883
12027	-0.04399049351668092
12029	0.9986669438543883
12031	0.26880673769463964
12033	1.3114641750657088
12035	1.3114641750657088
12037	0.3730724814317467
12039	-0.25252198099089496
12041	-0.25252198099089496
12043	-0.25252198099089496
12045	-0.5653192122022155
12047	2.771184587385206
12049	-1.0866479308877501
12051	-0.04399049351668092
12053	2.4583873561738856
12055	0.6858697126430677
12057	0.5816039689059602
12059	0.060275250220426096
12061	0.4773382251688537
12063	0.060275250220426096
12065	1.1029326875914949
12067	0.3730724814317467
12069	0.060275250220426096
12071	0.8944012001172817
12073	-0.3567877247280015
12075	0.6858697126430677
12077	-0.5653192122022155
12079	0.7901354563801742
12081	0.26880673769463964
12083	1.3114641750657088
12085	-0.25252198099089496
12086	-0.25252198099089496
12087	-0.04399049351668092
12089	0.26880673769463964
12091	-0.3567877247280015
12093	-0.14825623725378795
12095	-0.3567877247280015
12097	-0.04399049351668092
12099	-0.14825623725378795
12101	1.4157299188028163
12103	0.4773382251688537
12105	0.1645409939575331
12107	2.2498558686996715
12109	-0.25252198099089496
12111	0.5816039689059602
12113	-0.46105346846510853
12115	0.5816039689059602
12117	-0.5653192122022155
12119	0.060275250220426096
12121	1.1029326875914949
12123	1.3114641750657088
12125	0.5816039689059602
12127	1.4157299188028163
12129	0.8944012001172817
12131	0.8944012001172817
12133	2.3541216124367783
13001	0.9986669438543883
13003	0.1645409939575331
13005	0.1645409939575331
13007	0.1645409939575331
13009	1.2071984313286024
13011	0.1645409939575331
13013	0.7901354563801742
13015	1.1029326875914949
13017	0.1645409939575331
13019	0.26880673769463964
13021	0.060275250220426096
13023	0.26880673769463964
13025	0.6858697126430677
13027	1.3114641750657088
13029	0.8944012001172817
13031	0.060275250220426096
13033	0.1645409939575331
13035	0.1645409939575331
13037	0.1645409939575331
13039	-0.5653192122022155
13043	0.1645409939575331
13045	0.5816039689059602
13047	1.937058637488351
13049	1.6242614062770295
13051	-0.7738506996764296
13053	0.1645409939575331
13055	3.396779049807847
13057	-0.8781164434135361
13059	0.7901354563801742
13061	0.1645409939575331
13063	0.1645409939575331
13065	0.1645409939575331
13067	-0.7738506996764296
13069	0.1645409939575331
13071	1.519995662539923
13073	-0.7738506996764296
13075	-0.8781164434135361
13077	-0.14825623725378795
13079	2.2498558686996715
13081	1.1029326875914949
13083	2.0413243812254573
13085	-0.8781164434135361
13087	-0.04399049351668092
13089	-0.5653192122022155
13091	1.2071984313286024
13093	0.1645409939575331
13095	-0.25252198099089496
13097	-0.04399049351668092
13099	0.1645409939575331
13101	0.1645409939575331
13103	-0.3567877247280015
13105	0.5816039689059602
13107	-0.9823821871506432
13109	0.1645409939575331
13111	1.8327928937512434
13113	-0.6695849559393225
13115	1.937058637488351
13117	-1.0866479308877501
13119	0.1645409939575331
13121	-0.8781164434135361
13123	0.26880673769463964
13125	0.1645409939575331
13127	-1.0866479308877501
13129	0.8944012001172817
13131	-0.7738506996764296
13133	-0.04399049351668092
13135	-0.8781164434135361
13137	-0.3567877247280015
13139	-0.14825623725378795
13141	0.1645409939575331
13143	0.6858697126430677
13145	-0.8781164434135361
13147	0.1645409939575331
13149	0.1645409939575331
13151	-0.6695849559393225
13153	-1.1909136746248572
13155	0.1645409939575331
13157	0.7901354563801742
13159	0.1645409939575331
13161	0.6858697126430677
13163	0.060275250220426096
13165	0.1645409939575331
13167	1.3114641750657088
13169	0.8944012001172817
13171	0.1645409939575331
13173	0.9986669438543883
13175	0.060275250220426096
13177	-0.25252198099089496
13179	-0.46105346846510853
13181	-2.1293053682588194
13183	0.1645409939575331
13185	-0.3567877247280015
13187	-1.0866479308877501
13189	0.060275250220426096
13191	-0.5653192122022155
13193	0.1645409939575331
13195	1.1029326875914949
13197	1.2071984313286024
13199	-0.3567877247280015
13201	-1.1909136746248572
13205	0.1645409939575331
13207	-1.6079766495732848
13209	-0.04399049351668092
13211	0.1645409939575331
13213	1.728527150014137
13215	0.26880673769463964
13217	-0.9823821871506432
13219	0.1645409939575331
13221	0.7901354563801742
13223	0.6858697126430677
13225	-0.04399049351668092
13227	-0.3567877247280015
13229	-1.1909136746248572
13231	0.1645409939575331
13233	2.145590124962564
13235	-0.5653192122022155
13237	-0.46105346846510853
13239	0.1645409939575331
13241	-0.5653192122022155
13243	0.1645409939575331
13245	-0.14825623725378795
13247	-0.9823821871506432
13249	0.1645409939575331
13251	-0.8781164434135361
13253	0.1645409939575331
13255	-0.14825623725378795
13257	0.1645409939575331
13259	0.1645409939575331
13261	-0.5653192122022155
13263	0.1645409939575331
13265	0.1645409939575331
13267	2.0413243812254573
13269	0.1645409939575331
13271	0.060275250220426096
13273	0.1645409939575331
13275	0.3730724814317467
13277	0.060275250220426096
13279	0.060275250220426096
13281	-1.8165081370474985
13283	-1.0866479308877501
13285	0.3730724814317467
13287	3.396779049807847
13289	0.1645409939575331
13291	-1.3994451620990707
13293	0.7901354563801742
13295	1.1029326875914949
13297	-0.6695849559393225
13299	-0.04399049351668092
13301	-0.6695849559393225
13303	0.1645409939575331
13305	0.8944012001172817
13307	0.1645409939575331
13309	0.1645409939575331
13311	2.771184587385206
13313	0.26880673769463964
13315	-0.14825623725378795
13317	0.1645409939575331
13319	1.4157299188028163
13321	-1.0866479308877501
15001	-0.3567877247280015
15003	-0.8781164434135361
15005	-0.643518520005046
15007	-0.6695849559393225
15009	-0.6695849559393225
16001	-0.3567877247280015
16003	0.5816039689059602
16005	0.060275250220426096
16007	0.4773382251688537
16009	0.4773382251688537
16011	-0.6695849559393225
16013	-1.1909136746248572
16015	0.9986669438543883
16017	0.060275250220426096
16019	-0.04399049351668092
16021	0.1645409939575331
16023	0.4773382251688537
16025	-0.09739489884544074
16027	0.26880673769463964
16029	-0.14825623725378795
16031	-0.14825623725378795
16033	-0.09739489884544074
16035	0.3730724814317467
16037	-0.3567877247280015
16039	-1.0866479308877501
16041	0.3730724814317467
16043	-0.3567877247280015
16045	0.9986669438543883
16047	-0.5653192122022155
16049	-0.5653192122022155
16051	-0.14825623725378795
16053	-0.3567877247280015
16055	-0.14825623725378795
16057	-0.7738506996764296
16059	-0.5653192122022155
16061	-0.7738506996764296
16063	-0.09739489884544074
16065	-0.9823821871506432
16067	0.1645409939575331
16069	-0.04399049351668092
16071	-0.7738506996764296
16073	0.26880673769463964
16075	0.1645409939575331
16077	0.26880673769463964
16079	-0.04399049351668092
16081	-0.3567877247280015
16083	-0.14825623725378795
16085	-0.5653192122022155
16087	0.9986669438543883
17001	-0.25252198099089496
17003	-0.48269352848601504
17005	-0.9823821871506432
17007	-0.46105346846510853
17009	-0.48269352848601504
17011	-0.7738506996764296
17013	-0.48269352848601504
17015	-0.48269352848601504
17017	-0.48269352848601504
17019	-0.5653192122022155
17021	-0.48269352848601504
17023	-0.48269352848601504
17025	-0.48269352848601504
17027	-1.5037109058361777
17029	-0.46105346846510853
17031	-0.04399049351668092
17033	-0.48269352848601504
17035	-0.48269352848601504
17037	-0.04399049351668092
17039	-0.48269352848601504
17041	-1.8165081370474985
17043	-0.46105346846510853
17045	-0.48269352848601504
17047	-0.48269352848601504
17049	-1.3994451620990707
17051	0.060275250220426096
17053	-2.1293053682588194
17055	-0.48269352848601504
17057	-0.48269352848601504
17059	-0.48269352848601504
17061	-0.48269352848601504
17063	1.4157299188028163
17065	-0.48269352848601504
17067	-0.48269352848601504
17069	-0.48269352848601504
17071	-0.48269352848601504
17073	-0.3567877247280015
17075	-1.0866479308877501
17077	0.9986669438543883
17079	-0.48269352848601504
17081	-0.46105346846510853
17083	-0.9823821871506432
17085	-0.48269352848601504
17087	-0.48269352848601504
17089	-0.5653192122022155
17091	-0.04399049351668092
17093	-1.0866479308877501
17095	-0.9823821871506432
17097	-0.3567877247280015
17099	-0.8781164434135361
17101	-0.48269352848601504
17103	-0.48269352848601504
17105	1.1029326875914949
17107	0.5816039689059602
17109	-1.8165081370474985
17111	-0.25252198099089496
17113	-0.5653192122022155
17115	-0.5653192122022155
17117	-0.25252198099089496
17119	0.3730724814317467
17121	0.5816039689059602
17123	-0.48269352848601504
17125	-0.48269352848601504
17127	-0.48269352848601504
17129	-0.48269352848601504
17131	-0.48269352848601504
17133	0.5816039689059602
17135	-0.9823821871506432
17137	-0.8781164434135361
17139	-0.48269352848601504
17141	-0.8781164434135361
17143	-0.9823821871506432
17145	-0.48269352848601504
17147	-0.48269352848601504
17149	-0.48269352848601504
17151	-0.48269352848601504
17153	-0.48269352848601504
17155	-0.48269352848601504
17157	-0.48269352848601504
17159	-0.48269352848601504
17161	0.060275250220426096
17163	-0.04399049351668092
17165	-0.48269352848601504
17167	0.1645409939575331
17169	-0.48269352848601504
17171	-0.48269352848601504
17173	-1.0866479308877501
17175	-0.48269352848601504
17177	-0.48269352848601504
17179	-0.8781164434135361
17181	-0.48269352848601504
17183	0.3730724814317467
17185	-0.48269352848601504
17187	-0.3567877247280015
17189	-1.0866479308877501
17191	-0.48269352848601504
17193	-0.48269352848601504
17195	-1.3994451620990707
17197	-0.3567877247280015
17199	-0.25252198099089496
17201	-0.04399049351668092
17203	-1.5037109058361777
18001	-0.7738506996764296
18003	-0.25252198099089496
18005	-0.5653192122022155
18007	-0.9823821871506432
18009	1.519995662539923
18011	-0.7738506996764296
18013	-1.0866479308877501
18015	-0.25252198099089496
18017	0.060275250220426096
18019	1.3114641750657088
18021	-1.2951794183619643
18023	0.5816039689059602
18025	0.6858697126430677
18027	0.26880673769463964
18029	-0.14825623725378795
18031	1.2071984313286024
18033	-0.14825623725378795
18035	1.4157299188028163
18037	-1.8165081370474985
18039	0.060275250220426096
18041	3.2925133060707408
18043	0.1645409939575331
18045	-0.14825623725378795
18047	-0.46105346846510853
18049	0.4773382251688537
18051	0.6858697126430677
18053	0.7901354563801742
18055	-0.14825623725378795
18057	-1.1909136746248572
18059	0.4773382251688537
18061	0.4773382251688537
18063	-0.8781164434135361
18065	0.3730724814317467
18067	1.4157299188028163
18069	-0.5653192122022155
18071	0.5816039689059602
18073	1.1029326875914949
18075	0.4773382251688537
18077	1.3114641750657088
18079	1.6242614062770295
18081	-0.3567877247280015
18083	1.8327928937512434
18085	-0.3567877247280015
18087	0.1645409939575331
18089	-0.04399049351668092
18091	-0.04399049351668092
18093	0.4773382251688537
18095	1.3114641750657088
18097	0.26880673769463964
18099	-0.46105346846510853
18101	0.21023047716817425
18103	0.4773382251688537
18105	0.26880673769463964
18107	0.4773382251688537
18109	-0.8781164434135361
18111	1.519995662539923
18113	0.3730724814317467
18115	0.21023047716817425
18117	2.771184587385206
18119	0.060275250220426096
18121	-0.14825623725378795
18123	0.7901354563801742
18125	0.21023047716817425
18127	-0.14825623725378795
18129	-1.2951794183619643
18131	-0.5653192122022155
18133	-0.7738506996764296
18135	0.060275250220426096
18137	0.4773382251688537
18139	-0.5653192122022155
18141	-0.14825623725378795
18143	0.4773382251688537
18145	0.9986669438543883
18147	-0.3567877247280015
18149	1.3114641750657088
18151	0.1645409939575331
18153	0.4773382251688537
18155	0.1645409939575331
18157	0.3730724814317467
18159	-0.04399049351668092
18161	-0.6695849559393225
18163	0.6858697126430677
18165	0.060275250220426096
18167	1.1029326875914949
18169	-0.6695849559393225
18171	0.1645409939575331
18173	0.5816039689059602
18175	0.3730724814317467
18177	1.1029326875914949
18179	-0.14825623725378795
18181	-0.25252198099089496
18183	-1.6079766495732848
19001	-1.033855149248714
19003	2.666918843648099
19005	-1.6079766495732848
19007	-0.25252198099089496
19009	-0.9823821871506432
19011	-1.5037109058361777
19013	-0.5653192122022155
19015	-0.3567877247280015
19017	-0.8781164434135361
19019	-1.5037109058361777
19021	-1.5037109058361777
19023	-1.6079766495732848
19025	-0.9823821871506432
19027	-0.9823821871506432
19029	-0.5653192122022155
19031	-1.9207738807846055
19033	-0.46105346846510853
19035	-2.44210259947014
19037	-1.7122423933103919
19039	-1.033855149248714
19041	-1.3994451620990707
19043	-0.9823821871506432
19045	-0.8781164434135361
19047	-1.1909136746248572
19049	-1.0866479308877501
19051	-1.0866479308877501
19053	-1.2951794183619643
19055	-1.0866479308877501
19057	-0.5653192122022155
19059	-1.2951794183619643
19061	-1.7122423933103919
19063	-1.5037109058361777
19065	-0.5653192122022155
19067	-1.8165081370474985
19069	-0.46105346846510853
19071	-1.033855149248714
19073	-0.5653192122022155
19075	-1.0338551492487034
19077	-2.1293053682588194
19079	-0.7738506996764296
19081	-0.7738506996764296
19083	-0.9823821871506432
19085	-1.3994451620990707
19087	-0.9823821871506432
19089	-1.033855149248714
19091	-1.033855149248714
19093	-1.9207738807846055
19095	-1.1909136746248572
19097	-1.3994451620990707
19099	0.1645409939575331
19101	-2.025039624521712
19103	-1.2951794183619643
19105	-1.033855149248714
19107	-1.033855149248714
19109	-0.9823821871506432
19111	-1.0866479308877501
19113	-0.5653192122022155
19115	-1.033855149248714
19117	-1.033855149248714
19119	-2.650634086944354
19121	-0.46105346846510853
19123	-1.3994451620990707
19125	-1.6079766495732848
19127	-0.5653192122022155
19129	0.3730724814317467
19131	-1.033855149248714
19133	-2.1293053682588194
19135	0.6858697126430677
19137	0.8944012001172817
19139	-0.25252198099089496
19141	-1.9207738807846055
19143	-1.033855149248714
19145	-0.3567877247280015
19147	-1.033855149248714
19149	-1.7122423933103919
19151	-2.44210259947014
19153	-0.7738506996764296
19155	-0.3567877247280015
19157	-0.6695849559393225
19159	-1.033855149248714
19161	-1.033855149248714
19163	-0.6695849559393225
19165	-1.6079766495732848
19167	-1.9207738807846055
19169	-1.3994451620990707
19171	-0.9823821871506432
19173	-1.033855149248714
19175	-1.033855149248714
19177	-1.5037109058361777
19179	-0.6695849559393225
19181	-0.9823821871506432
19183	-0.3567877247280015
19185	-1.033855149248714
19187	-0.6695849559393225
19189	-1.033855149248714
19191	-1.9207738807846055
19193	-1.0866479308877501
19195	-1.0338551492487034
19197	-0.5653192122022155
20001	-0.6695849559393225
20003	-0.25252198099089496
20005	-0.5653192122022155
20007	-2.44210259947014
20009	-0.46105346846510853
20011	1.2071984313286024
20013	-2.025039624521712
20015	-0.3567877247280015
20017	-0.8026609709722108
20019	-0.8026609709722108
20021	-0.25252198099089496
20023	-0.8026609709722108
20025	-0.8026609709722108
20027	-1.3994451620990707
20029	-0.6695849559393225
20031	-1.6079766495732848
20033	-0.8026609709722108
20035	-0.46105346846510853
20037	-0.3567877247280015
20039	-0.8026609709722108
20041	-0.7738506996764296
20043	0.060275250220426096
20045	-0.9823821871506432
20047	-0.8026609709722108
20049	-0.8026609709722108
20051	-1.6079766495732848
20053	-1.5037109058361777
20055	-0.7738506996764296
20057	-1.3994451620990707
20059	-0.8781164434135361
20061	-0.6695849559393225
20063	-0.5653192122022155
20065	-0.8026609709722108
20067	-1.1909136746248572
20069	-1.2951794183619643
20071	-0.8026609709722108
20073	0.4773382251688537
20075	-0.8026609709722108
20077	-1.8165081370474985
20079	-1.2951794183619643
20081	-0.8026609709722108
20083	-0.8026609709722108
20085	-0.46105346846510853
20087	-0.5653192122022155
20089	-1.9207738807846055
20091	-1.1909136746248572
20093	-1.2951794183619643
20095	-1.6079766495732848
20097	-0.8026609709722108
20099	-0.04399049351668092
20101	-0.8026609709722108
20103	-1.2951794183619643
20105	-0.8026609709722108
20107	-0.25252198099089496
20109	0.26880673769463964
20111	-0.8781164434135361
20113	-1.3994451620990707
20115	-0.9823821871506432
20117	-1.2951794183619643
20119	-0.3567877247280015
20121	-0.9823821871506432
20123	-2.44210259947014
20125	-0.14825623725378795
20127	-0.8026609709722108
20129	-0.8026609709722108
20131	-1.2951794183619643
20133	-0.5653192122022155
20135	-0.8781164434135361
20137	-0.9823821871506432
20139	-0.5653192122022155
20141	-0.8026609709722108
20143	-2.025039624521712
20145	-0.5653192122022155
20147	-1.0866479308877501
20149	-1.1909136746248572
20151	-1.6079766495732848
20153	-0.8026609709722108
20155	-0.46105346846510853
20157	-0.8026609709722108
20159	-0.46105346846510853
20161	-0.7738506996764296
20163	-0.7738506996764296
20165	-0.8026609709722108
20167	-0.25252198099089496
20169	-0.14825623725378795
20171	-1.1909136746248572
20173	-0.3567877247280015
20175	-1.2951794183619643
20177	-0.46105346846510853
20179	-0.8026609709722108
20181	-1.7122423933103919
20183	-0.8026609709722108
20185	-0.8026609709722108
20187	-0.8026609709722108
20189	-2.546368343207247
20191	-0.25252198099089496
20193	-1.0866479308877501
20195	0.060275250220426096
20197	-0.7738506996764296
20199	-0.8026609709722108
20201	-0.8026609709722108
20203	-0.8026609709722108
20205	0.1645409939575331
20207	2.9797160748594202
20209	0.4773382251688537
21001	1.519995662539923
21003	2.562653099910992
21005	-1.1909136746248572
21007	2.145590124962564
21009	0.4773382251688537
21011	1.6242614062770295
21013	2.666918843648099
21015	-0.25252198099089496
21017	1.3171001612136657
21019	1.6242614062770295
21021	1.937058637488351
21023	0.26880673769463964
21025	1.728527150014137
21027	1.728527150014137
21029	1.4157299188028163
21031	0.6858697126430677
21033	0.9986669438543883
21035	-0.46105346846510853
21037	1.4157299188028163
21039	1.3171001612136555
21041	3.501044793544955
21043	1.728527150014137
21045	1.6242614062770295
21047	0.1645409939575331
21049	1.3114641750657088
21051	2.4583873561738856
21053	0.8944012001172817
21055	0.26880673769463964
21057	1.519995662539923
21059	0.1645409939575331
21061	1.3114641750657088
21063	1.2071984313286024
21065	3.1882475623336335
21067	-0.25252198099089496
21069	1.1029326875914949
21071	3.0839818185965266
21073	0.9986669438543883
21075	4.543702230916024
21077	0.7901354563801742
21079	2.771184587385206
21081	1.6242614062770295
21083	0.26880673769463964
21085	0.3730724814317467
21087	1.6242614062770295
21089	0.6858697126430677
21091	0.060275250220426096
21093	0.060275250220426096
21095	2.2498558686996715
21097	1.3171001612136657
21099	0.4773382251688537
21101	0.7901354563801742
21103	1.3171001612136555
21105	1.519995662539923
21107	1.1029326875914949
21109	3.501044793544955
21111	0.26880673769463964
21113	0.4773382251688537
21115	3.396779049807847
21117	0.3730724814317467
21119	1.2071984313286024
21121	2.666918843648099
21123	1.3114641750657088
21125	0.6858697126430677
21127	1.519995662539923
21129	4.33517074344181
21131	2.771184587385206
21133	1.8327928937512434
21135	1.4157299188028163
21137	1.6242614062770295
21139	2.8754503311223125
21141	1.2071984313286024
21143	1.3171001612136657
21145	0.26880673769463964
21147	2.771184587385206
21149	0.3730724814317467
21151	0.1645409939575331
21153	2.8754503311223125
21155	1.1029326875914949
21157	0.9986669438543883
21159	2.4583873561738856
21161	0.1645409939575331
21163	0.9986669438543883
21165	0.8944012001172817
21167	0.8944012001172817
21169	1.4157299188028163
21171	0.6858697126430677
21173	1.3114641750657088
21175	2.2498558686996715
21177	0.4773382251688537
21179	-0.04399049351668092
21181	1.3171001612136657
21183	1.6242614062770295
21185	0.26880673769463964
21187	0.5816039689059602
21189	1.4157299188028163
21191	2.562653099910992
21193	3.2925133060707408
21195	3.501044793544955
21197	1.3171001612136657
21199	0.4773382251688537
21201	0.8944012001172817
21203	1.6242614062770295
21205	1.4157299188028163
21207	0.4773382251688537
21209	-0.04399049351668092
21211	-0.25252198099089496
21213	1.1029326875914949
21215	1.3171001612136657
21217	0.6858697126430677
21219	1.937058637488351
21221	1.2071984313286024
21223	1.3171001612136657
21225	0.7901354563801742
21227	0.8944012001172817
21229	0.4773382251688537
21231	2.2498558686996715
21233	-0.46105346846510853
21235	2.3541216124367783
21237	2.145590124962564
21239	-0.6695849559393225
22001	-0.14825623725378795
22003	1.3114641750657088
22005	-0.3567877247280015
22007	0.26880673769463964
22009	0.060275250220426096
22011	0.060275250220426096
22013	-0.04399049351668092
22015	0.060275250220426096
22017	-0.6695849559393225
22019	-0.14825623725378795
22021	-0.012710770395549046
22023	-0.012710770395549046
22025	0.5816039689059602
22027	-0.8781164434135361
22029	-0.5653192122022155
22031	0.7901354563801742
22033	-0.9823821871506432
22035	-0.6695849559393225
22037	-0.3567877247280015
22039	0.060275250220426096
22041	-1.5037109058361777
22043	0.8944012001172817
22045	-0.6695849559393225
22047	0.9986669438543883
22049	-0.5653192122022155
22051	0.26880673769463964
22053	-0.04399049351668092
22055	-0.5653192122022155
22057	0.060275250220426096
22059	0.060275250220426096
22061	-0.46105346846510853
22063	0.26880673769463964
22065	-0.3567877247280015
22067	0.4773382251688537
22069	1.1029326875914949
22071	0.8944012001172817
22073	-0.14825623725378795
22075	-0.3567877247280015
22077	-0.012710770395549046
22079	0.26880673769463964
22081	-0.6695849559393225
22083	-0.6695849559393225
22085	0.6858697126430677
22087	3.709576281019168
22089	-0.46105346846510853
22091	-0.3567877247280015
22093	-0.25252198099089496
22095	0.5816039689059602
22097	0.3730724814317467
22099	-0.25252198099089496
22101	-0.04399049351668092
22103	0.060275250220426096
22105	0.4773382251688537
22107	-1.8165081370474985
22109	0.26880673769463964
22111	0.1645409939575331
22113	0.060275250220426096
22115	-0.04399049351668092
22117	-0.46105346846510853
22119	-0.6695849559393225
22121	0.3730724814317467
22123	-0.14825623725378795
22125	-0.012710770395549046
22127	-0.6695849559393225
23001	0.1645409939575331
23003	0.1645409939575331
23005	-0.25252198099089496
23007	0.3730724814317467
23009	-0.25252198099089496
23011	0.1645409939575331
23013	0.1645409939575331
23015	0.1645409939575331
23017	0.3730724814317467
23019	0.26880673769463964
23021	0.3730724814317467
23023	0.1645409939575331
23025	0.8944012001172817
23027	0.4773382251688537
23029	0.26880673769463964
23031	-0.25252198099089496
24001	0.26880673769463964
24003	-0.3567877247280015
24005	-0.04399049351668092
24009	-0.04399049351668092
24011	0.4773382251688537
24013	-0.14825623725378795
24015	0.3730724814317467
24017	-0.6695849559393225
24019	-0.5653192122022155
24021	-0.3567877247280015
24023	0.1645409939575331
24025	0.26880673769463964
24027	-1.0866479308877501
24029	-0.14825623725378795
24031	-0.9823821871506432
24033	-0.5653192122022155
24035	-0.3567877247280015
24037	-0.6695849559393225
24039	0.6858697126430677
24041	-0.5653192122022155
24043	0.1645409939575331
24045	-0.14825623725378795
24047	-0.14825623725378795
24510	0.3730724814317467
25001	-0.25252198099089496
25003	0.060275250220426096
25005	0.26880673769463964
25007	-0.04399049351668092
25009	-0.3567877247280015
25011	-0.25252198099089496
25013	0.3730724814317467
25015	-0.6695849559393225
25017	-0.8781164434135361
25019	-0.9823821871506432
25021	-0.8781164434135361
25023	0.060275250220426096
25025	-0.04399049351668092
25027	-0.14825623725378795
26001	0.23595588692815272
26003	0.23595588692815272
26005	0.1645409939575331
26007	0.060275250220426096
26009	1.937058637488351
26011	4.7522337183902374
26013	0.23595588692815272
26015	-0.3567877247280015
26017	0.6858697126430677
26019	-1.0866479308877501
26021	-0.25252198099089496
26023	0.6858697126430677
26025	1.4157299188028163
26027	0.5816039689059602
26029	-1.0866479308877501
26031	-0.3567877247280015
26033	-0.14825623725378795
26035	1.8327928937512434
26037	-0.25252198099089496
26039	0.23595588692815272
26041	0.26880673769463964
26043	-0.6695849559393225
26045	0.1645409939575331
26047	0.3730724814317467
26049	0.6858697126430677
26051	0.6858697126430677
26053	0.1645409939575331
26055	-0.04399049351668092
26057	2.0413243812254573
26059	0.060275250220426096
26061	-2.2335711119959263
26063	0.5816039689059602
26065	0.060275250220426096
26067	0.26880673769463964
26069	1.4157299188028163
26071	0.1645409939575331
26073	-0.5653192122022155
26075	0.4773382251688537
26077	0.060275250220426096
26079	0.8944012001172817
26081	-0.3567877247280015
26083	0.23595588692815272
26085	0.23595588692815272
26087	0.060275250220426096
26089	1.2071984313286024
26091	-0.9823821871506432
26093	0.060275250220426096
26095	-0.6695849559393225
26097	0.23595588692815272
26099	0.1645409939575331
26101	1.1029326875914949
26103	-0.8781164434135361
26105	0.1645409939575331
26107	0.5816039689059602
26109	0.3730724814317467
26111	-0.46105346846510853
26113	-0.25252198099089496
26115	0.3730724814317467
26117	-0.6695849559393225
26119	0.23595588692815272
26121	1.4157299188028163
26123	0.8944012001172817
26125	-0.14825623725378795
26127	1.1029326875914949
26129	0.6858697126430677
26131	0.23595588692815272
26133	-0.7738506996764296
26135	0.23595588692815272
26137	0.5816039689059602
26139	-0.7738506996764296
26141	-0.9823821871506432
26143	0.6858697126430677
26145	0.26880673769463964
26147	0.9986669438543883
26149	-0.5653192122022155
26151	-0.04399049351668092
26153	-0.9823821871506432
26155	0.8944012001172817
26157	0.1645409939575331
26159	-0.25252198099089496
26161	-0.04399049351668092
26163	0.4773382251688537
26165	0.3730724814317467
27001	-0.25252198099089496
27003	-0.6695849559393225
27005	-1.5037109058361777
27007	-0.46105346846510853
27009	-1.0866479308877501
27011	-0.8267856157275751
27013	-1.2951794183619643
27015	-1.6079766495732848
27017	0.3730724814317467
27019	-0.5653192122022155
27021	0.060275250220426096
27023	-0.8267856157275751
27025	-0.6695849559393225
27027	-0.7738506996764296
27029	-1.0866479308877501
27031	-1.2951794183619643
27033	-2.44210259947014
27035	0.3730724814317467
27037	-1.0866479308877501
27039	-1.3994451620990707
27041	-1.6079766495732848
27043	-0.8267856157275751
27045	-2.025039624521712
27047	0.3730724814317467
27049	-0.8781164434135361
27051	-0.8267856157275751
27053	-1.0866479308877501
27055	-0.7738506996764296
27057	-0.8781164434135361
27059	-0.04399049351668092
27061	-1.5037109058361777
27063	-1.2951794183619643
27065	0.4773382251688537
27067	-1.7122423933103919
27069	-0.8267856157275751
27071	-0.04399049351668092
27073	-0.8267856157275751
27075	-1.6079766495732848
27077	-0.8267856157275751
27079	-1.9207738807846055
27081	-0.8267856157275751
27083	-0.9823821871506432
27085	-1.2951794183619643
27087	2.2498558686996715
27089	-0.8267856157275751
27091	-1.2951794183619643
27093	-1.7122423933103919
27095	-0.8781164434135361
27097	0.3730724814317467
27099	0.1645409939575331
27101	-0.8267856157275751
27103	-1.7122423933103919
27105	-2.44210259947014
27107	-0.8267856157275751
27109	-1.5037109058361777
27111	-0.25252198099089496
27113	-1.0866479308877501
27115	-0.25252198099089496
27117	-0.8267856157275751
27119	-1.1909136746248572
27121	-0.9823821871506432
27123	-0.9823821871506432
27125	-0.8267856157275751
27127	-1.8165081370474985
27129	-0.8267856157275751
27131	-0.6695849559393225
27133	-0.8267856157275751
27135	-0.8267856157275751
27137	-0.25252198099089496
27139	-1.0866479308877501
27141	-0.8781164434135361
27143	-0.8267856157275751
27145	-1.3994451620990707
27147	-1.3994451620990707
27149	-0.04399049351668092
27151	-0.8267856157275751
27153	-1.3994451620990707
27155	-0.8267856157275751
27157	-0.04399049351668092
27159	1.6242614062770295
27161	-0.8267856157275751
27163	-1.3994451620990707
27165	-0.8267856157275751
27167	-0.8267856157275751
27169	-0.6695849559393225
27171	-1.5037109058361777
27173	0.8944012001172817
28001	1.1029326875914949
28003	0.1645409939575331
28005	0.060275250220426096
28007	0.7901354563801742
28009	0.6330769310040204
28011	-0.14825623725378795
28013	1.937058637488351
28015	0.5816039689059602
28017	0.26880673769463964
28019	-0.5653192122022155
28021	1.1029326875914949
28023	0.3730724814317467
28025	1.519995662539923
28027	0.7901354563801742
28029	0.060275250220426096
28031	-0.46105346846510853
28033	-0.14825623725378795
28035	0.8944012001172817
28037	1.3114641750657088
28039	0.7901354563801742
28041	-0.7738506996764296
28043	0.3730724814317467
28045	1.3114641750657088
28047	1.6242614062770295
28049	0.4773382251688537
28051	0.5816039689059602
28053	0.060275250220426096
28055	0.6330769310040204
28057	1.728527150014137
28059	0.7901354563801742
28061	-0.5653192122022155
28063	-0.25252198099089496
28065	1.728527150014137
28067	0.7901354563801742
28069	0.3730724814317467
28071	0.1645409939575331
28073	0.1645409939575331
28075	0.5816039689059602
28077	0.26880673769463964
28079	0.8944012001172817
28081	0.26880673769463964
28083	0.3730724814317467
28085	0.4773382251688537
28087	0.3730724814317467
28089	-0.8781164434135361
28091	1.3114641750657088
28093	0.1645409939575331
28095	1.8327928937512434
28097	-0.5653192122022155
28099	-0.04399049351668092
28101	1.4157299188028163
28103	-0.04399049351668092
28105	-0.25252198099089496
28107	0.8944012001172817
28109	1.728527150014137
28111	0.3730724814317467
28113	1.6242614062770295
28115	1.3114641750657088
28117	1.1029326875914949
28119	0.6858697126430677
28121	-0.04399049351668092
28123	0.8944012001172817
28125	0.6330769310040204
28127	0.1645409939575331
28129	0.5816039689059602
28131	0.5816039689059602
28133	0.060275250220426096
28135	2.9797160748594202
28137	1.4157299188028163
28139	2.3541216124367783
28141	1.6242614062770295
28143	-0.14825623725378795
28145	0.060275250220426096
28147	0.26880673769463964
28149	0.5816039689059602
28151	0.060275250220426096
28153	0.7901354563801742
28155	1.6242614062770295
28157	0.4773382251688537
28159	1.3114641750657088
28161	1.4157299188028163
28163	0.060275250220426096
29001	0.9986669438543883
29003	-1.3994451620990707
29005	0.060275250220426096
29007	1.3114641750657088
29009	1.728527150014137
29011	0.5140031020874013
29013	-0.5653192122022155
29015	0.5140031020874013
29017	-0.46105346846510853
29019	0.4773382251688537
29021	0.7901354563801742
29023	1.3114641750657088
29025	0.5140031020874013
29027	0.3730724814317467
29029	0.8944012001172817
29031	1.1029326875914949
29033	-0.8781164434135361
29035	0.5140031020874013
29037	-0.14825623725378795
29039	0.5140031020874013
29041	1.8327928937512434
29043	0.1645409939575331
29045	-0.3567877247280015
29047	0.4773382251688537
29049	0.5816039689059602
29051	-1.0866479308877501
29053	0.5140031020874013
29055	0.4773382251688537
29057	0.5140031020874013
29059	0.5140031020874013
29061	0.7901354563801742
29063	-0.14825623725378795
29065	0.5140031020874013
29067	0.26880673769463964
29069	1.519995662539923
29071	0.4773382251688537
29073	0.3730724814317467
29075	0.3730724814317467
29077	0.060275250220426096
29079	-0.3567877247280015
29081	-1.2951794183619643
29083	1.3114641750657088
29085	6.524751361921056
29087	0.5140031020874013
29089	-0.8781164434135361
29091	2.4583873561738856
29093	2.3541216124367783
29095	0.26880673769463964
29097	1.2071984313286024
29099	1.2071984313286024
29101	-1.0866479308877501
29103	0.5140031020874013
29105	0.1645409939575331
29107	-1.1909136746248572
29109	-0.14825623725378795
29111	-0.46105346846510853
29113	1.4157299188028163
29115	0.5816039689059602
29117	-0.04399049351668092
29119	0.26880673769463964
29121	0.7901354563801742
29123	0.5140031020874013
29125	0.5140031020874013
29127	0.26880673769463964
29129	0.5140031020874013
29131	-0.7738506996764296
29133	0.5140031020874013
29135	-0.5653192122022155
29137	-0.46105346846510853
29139	0.5140031020874013
29141	1.519995662539923
29143	0.5140031020874013
29145	0.060275250220426096
29147	-0.3567877247280015
29149	-0.6695849559393225
29151	-1.2951794183619643
29153	0.5140031020874013
29155	1.1029326875914949
29157	-0.5653192122022155
29159	1.728527150014137
29161	0.3730724814317467
29163	1.3114641750657088
29165	-0.14825623725378795
29167	-0.3567877247280015
29169	-0.14825623725378795
29171	0.5140031020874013
29173	0.5140031020874013
29175	1.6242614062770295
29177	2.4583873561738856
29179	2.0413243812254573
29181	2.4583873561738856
29183	-0.46105346846510853
29185	0.5140031020874013
29186	0.7901354563801742
29187	0.7901354563801742
29189	-0.46105346846510853
29195	-0.5653192122022155
29197	0.5140031020874013
29199	0.26880673769463964
29201	0.7901354563801742
29203	-0.6695849559393225
29205	-1.6079766495732848
29207	0.9986669438543883
29209	0.5140031020874013
29211	3.396779049807847
29213	1.728527150014137
29215	1.2071984313286024
29217	1.2071984313286024
29219	-0.25252198099089496
29221	1.519995662539923
29223	2.0413243812254573
29225	0.3730724814317467
29227	0.5140031020874013
29229	0.5816039689059602
29510	0.9986669438543883
30001	-0.5653192122022155
30003	-0.3567877247280015
30005	-0.3567877247280015
30007	-1.3994451620990707
30009	-1.3994451620990707
30011	-1.2951794183619643
30013	0.060275250220426096
30015	-0.9823821871506432
30017	-0.8781164434135361
30019	-0.5154529869366445
30021	-0.9823821871506432
30023	1.728527150014137
30025	-0.5154529869366445
30027	-1.2951794183619643
30029	-0.14825623725378795
30031	-1.1909136746248572
30033	-0.5154529869366445
30035	1.1029326875914949
30037	-0.5154529869366445
30039	-0.5154529869366445
30041	0.1645409939575331
30043	-0.5653192122022155
30045	-2.025039624521712
30047	0.4773382251688537
30049	-0.5653192122022155
30051	-0.5154529869366445
30053	0.26880673769463964
30055	-1.9207738807846055
30057	-0.7738506996764296
30059	-0.5154529869366445
30061	0.3730724814317467
30063	-0.04399049351668092
30065	-0.8781164434135361
30067	-0.46105346846510853
30069	-0.5154529869366445
30071	-0.46105346846510853
30073	-0.6695849559393225
30075	-2.1293053682588194
30077	0.26880673769463964
30079	-0.7738506996764296
30081	-0.46105346846510853
30083	-0.7738506996764296
30085	-0.5653192122022155
30087	-0.25252198099089496
30089	-0.9823821871506432
30091	-0.14825623725378795
30093	0.5816039689059602
30095	-0.6695849559393225
30097	-0.25252198099089496
30099	-0.6695849559393225
30101	-1.1909136746248572
30103	-0.5154529869366445
30105	-0.3567877247280015
30107	-0.25252198099089496
30109	-0.5154529869366445
30111	-0.04399049351668092
31001	-1.0866479308877501
31003	-1.1909136746248572
31005	-1.6079766495732848
31007	-1.0407213532892619
31009	-1.0407213532892619
31011	-1.7122423933103919
31013	0.1645409939575331
31015	-1.0407213532892619
31017	-0.7738506996764296
31019	-1.2951794183619643
31021	-0.7738506996764296
31023	-0.46105346846510853
31025	-1.2951794183619643
31027	-1.9207738807846055
31029	-1.0866479308877501
31031	-1.0866479308877501
31033	-1.0866479308877501
31035	-0.6695849559393225
31037	-1.0866479308877501
31039	-1.6079766495732848
31041	-1.6079766495732848
31043	-0.04399049351668092
31045	-0.5653192122022155
31047	-1.5037109058361777
31049	-0.5653192122022155
31051	-1.1909136746248572
31053	-0.6695849559393225
31055	-0.7738506996764296
31057	-0.14825623725378795
31059	-1.6079766495732848
31061	-0.46105346846510853
31063	-1.5037109058361777
31065	-0.7738506996764296
31067	0.8944012001172817
31069	0.3730724814317467
31071	-0.14825623725378795
31073	-1.5037109058361777
31075	-1.5037109058361777
31077	-1.7122423933103919
31079	-0.8781164434135361
31081	-1.6079766495732848
31083	-1.0407213532892619
31085	-0.8781164434135361
31087	-0.25252198099089496
31089	-1.0866479308877501
31091	-2.2335711119959263
31093	-1.0866479308877501
31095	-0.25252198099089496
31097	-1.7122423933103919
31099	-1.0866479308877501
31101	-0.9823821871506432
31103	-1.0407213532892619
31105	0.26880673769463964
31107	-0.7738506996764296
31109	-0.6695849559393225
31111	-0.46105346846510853
31113	-1.5037109058361777
31115	-1.0407213532892619
31117	-1.0407213532892619
31119	-1.3994451620990707
31121	-0.8781164434135361
31123	-1.2951794183619643
31125	-1.5037109058361777
31127	0.1645409939575331
31129	-1.2951794183619643
31131	-1.2951794183619643
31133	-1.2951794183619643
31135	-1.5037109058361777
31137	-1.9207738807846055
31139	-1.1909136746248572
31141	-1.2951794183619643
31143	-2.2335711119959263
31145	-0.5653192122022155
31147	-0.7738506996764296
31149	-1.2951794183619643
31151	-0.7738506996764296
31153	-1.0866479308877501
31155	-0.8781164434135361
31157	0.3730724814317467
31159	-1.1909136746248572
31161	-1.1909136746248572
31163	-1.7122423933103919
31165	-1.0407213532892619
31167	-1.2951794183619643
31169	-1.1909136746248572
31171	-2.546368343207247
31173	-0.8781164434135361
31175	-1.3994451620990707
31177	-1.1909136746248572
31179	-1.5037109058361777
31181	-1.1909136746248572
31183	-1.0407213532892619
31185	-1.3994451620990707
32001	0.3730724814317467
32003	0.26880673769463964
32005	0.26880673769463964
32007	-0.04399049351668092
32009	0.2539116314464862
32011	0.2539116314464862
32013	0.5816039689059602
32015	0.2539116314464862
32017	-0.9823821871506432
32019	0.8944012001172817
32021	0.7901354563801742
32023	1.2071984313286024
32027	1.519995662539923
32029	-0.04399049351668092
32031	-0.04399049351668092
32033	-0.9823821871506432
32510	-0.25252198099089496
33001	0.060275250220426096
33003	-0.14825623725378795
33005	-0.04399049351668092
33007	1.3114641750657088
33009	-0.14825623725378795
33011	-0.46105346846510853
33013	-0.3567877247280015
33015	-0.46105346846510853
33017	0.1645409939575331
33019	0.26880673769463964
34001	0.4773382251688537
34003	-0.6695849559393225
34005	-0.04399049351668092
34007	0.5816039689059602
34009	-0.3567877247280015
34011	0.4773382251688537
34013	-0.14825623725378795
34015	0.060275250220426096
34017	-0.14825623725378795
34019	-1.0866479308877501
34021	-0.7738506996764296
34023	-0.5653192122022155
34025	-0.14825623725378795
34027	-0.7738506996764296
34029	-0.04399049351668092
34031	-0.04399049351668092
34033	0.3730724814317467
34035	-1.0866479308877501
34037	-0.46105346846510853
34039	-0.3567877247280015
34041	0.060275250220426096
35001	-0.04399049351668092
35003	0.5816039689059602
35005	0.060275250220426096
35006	0.4773382251688537
35007	0.5816039689059602
35009	0.26880673769463964
35011	1.1029326875914949
35013	-0.14825623725378795
35015	0.9986669438543883
35017	0.8944012001172817
35019	-0.3567877247280015
35021	0.20826533810535452
35023	0.20826533810535452
35025	-0.6695849559393225
35027	-0.5653192122022155
35028	-0.7738506996764296
35029	0.4773382251688537
35031	-0.04399049351668092
35033	0.5816039689059602
35035	-0.46105346846510853
35037	0.6858697126430677
35039	0.1645409939575331
35041	-0.7738506996764296
35043	-0.14825623725378795
35045	0.060275250220426096
35047	0.8944012001172817
35049	-0.04399049351668092
35051	0.26880673769463964
35053	0.26880673769463964
35055	0.26880673769463964
35057	1.519995662539923
35059	-0.5653192122022155
35061	0.8944012001172817
36001	-0.25252198099089496
36003	-0.25252198099089496
36005	0.4773382251688537
36007	0.1645409939575331
36009	-0.6695849559393225
36011	-0.14825623725378795
36013	0.5816039689059602
36015	1.8327928937512434
36017	-0.8781164434135361
36019	0.060275250220426096
36021	0.5816039689059602
36023	0.1645409939575331
36025	-1.1909136746248572
36027	-0.3567877247280015
36029	-0.25252198099089496
36031	0.4773382251688537
36033	-0.6695849559393225
36035	1.8327928937512434
36037	0.6858697126430677
36039	-1.0866479308877501
36041	-0.04051496872544718
36043	0.9986669438543883
36045	0.060275250220426096
36047	0.060275250220426096
36049	0.1645409939575331
36051	-2.025039624521712
36053	0.1645409939575331
36055	-0.14825623725378795
36057	-0.25252198099089496
36059	-0.8781164434135361
36061	-0.04399049351668092
36063	0.6858697126430677
36065	0.5816039689059602
36067	0.1645409939575331
36069	-0.14825623725378795
36071	-0.46105346846510853
36073	-0.14825623725378795
36075	-0.04399049351668092
36077	0.4773382251688537
36079	-1.3994451620990707
36081	-0.04399049351668092
36083	0.060275250220426096
36085	0.3730724814317467
36087	-0.7738506996764296
36089	0.7901354563801742
36091	-0.9823821871506432
36093	-1.0866479308877501
36095	-0.3567877247280015
36097	1.1029326875914949
36099	0.1645409939575331
36101	0.3730724814317467
36103	-0.14825623725378795
36105	-0.14825623725378795
36107	0.060275250220426096
36109	-0.14825623725378795
36111	-0.14825623725378795
36113	-1.1909136746248572
36115	-0.46105346846510853
36117	0.9986669438543883
36119	-0.7738506996764296
36121	0.9986669438543883
36123	-0.04051496872544718
37001	0.060275250220426096
37003	1.1029326875914949
37005	0.8944012001172817
37007	0.11408982763312982
37009	-0.04399049351668092
37011	-0.8781164434135361
37013	-1.1909136746248572
37015	-1.2951794183619643
37017	0.6858697126430677
37019	-0.04399049351668092
37021	0.26880673769463964
37023	1.3114641750657088
37025	-0.3567877247280015
37027	0.26880673769463964
37029	-1.3994451620990707
37031	-0.14825623725378795
37033	1.1029326875914949
37035	0.1645409939575331
37037	0.060275250220426096
37039	-0.46105346846510853
37041	0.26880673769463964
37043	1.728527150014137
37045	1.519995662539923
37047	0.9986669438543883
37049	-0.3567877247280015
37051	0.4773382251688537
37053	0.11408982763312982
37055	0.5816039689059602
37057	0.8944012001172817
37059	-0.6695849559393225
37061	-1.0866479308877501
37063	-0.6695849559393225
37065	-1.5037109058361777
37067	-0.5653192122022155
37069	0.8944012001172817
37071	0.9986669438543883
37073	0.4773382251688537
37075	0.1645409939575331
37077	0.3730724814317467
37079	-1.6079766495732848
37081	-0.46105346846510853
37083	0.7901354563801742
37085	-0.04399049351668092
37087	1.3114641750657088
37089	-0.04399049351668092
37091	-0.8781164434135361
37093	-0.46105346846510853
37095	0.11408982763312982
37097	-0.5653192122022155
37099	0.3730724814317467
37101	0.1645409939575331
37103	2.771184587385206
37105	0.4773382251688537
37107	1.2071984313286024
37109	-0.25252198099089496
37111	0.9986669438543883
37113	0.3730724814317467
37115	0.11408982763312982
37117	0.11408982763312982
37119	-0.3567877247280015
37121	1.2071984313286024
37123	-1.5037109058361777
37125	-0.46105346846510853
37127	-0.46105346846510853
37129	-0.14825623725378795
37131	0.060275250220426096
37133	0.26880673769463964
37135	-0.46105346846510853
37137	0.11408982763312982
37139	-0.25252198099089496
37141	-0.8781164434135361
37143	-1.6079766495732848
37145	-0.7738506996764296
37147	-0.3567877247280015
37149	0.3730724814317467
37151	0.1645409939575331
37153	2.2498558686996715
37155	0.1645409939575331
37157	0.4773382251688537
37159	0.6858697126430677
37161	1.3114641750657088
37163	-1.2951794183619643
37165	0.7901354563801742
37167	2.0413243812254573
37169	1.8327928937512434
37171	-0.04399049351668092
37173	0.060275250220426096
37175	-0.3567877247280015
37177	0.11408982763312982
37179	-0.6695849559393225
37181	-0.46105346846510853
37183	-0.9823821871506432
37185	0.3730724814317467
37187	-0.8781164434135361
37189	-0.3567877247280015
37191	-0.04399049351668092
37193	0.8944012001172817
37195	-0.46105346846510853
37197	1.1029326875914949
37199	0.5816039689059602
38001	-0.5653192122022155
38003	-1.3994451620990707
38005	-0.7738506996764296
38007	-0.9823821871506432
38009	-1.3994451620990707
38011	-2.1293053682588194
38013	-2.025039624521712
38015	-1.1909136746248572
38017	-1.1909136746248572
38019	-1.5037109058361777
38021	-1.0866479308877501
38023	-0.6695849559393225
38025	-0.8781164434135361
38027	-1.0866479308877501
38029	-0.9823821871506432
38031	-1.8165081370474985
38033	-2.3378368557330336
38035	-1.2951794183619643
38037	-1.9207738807846055
38039	-1.128354228382593
38041	-2.025039624521712
38043	-1.2951794183619643
38045	-1.7122423933103919
38047	-0.04399049351668092
38049	-0.7738506996764296
38051	-0.5653192122022155
38053	-0.8781164434135361
38055	-0.8781164434135361
38057	-1.2951794183619643
38059	-1.0866479308877501
38061	-1.0866479308877501
38063	-2.2335711119959263
38065	-1.8165081370474985
38067	-1.6079766495732848
38069	-0.25252198099089496
38071	-1.0866479308877501
38073	-0.3567877247280015
38075	-1.128354228382593
38077	-1.1909136746248572
38079	-0.14825623725378795
38081	-0.46105346846510853
38083	-0.14825623725378795
38085	0.26880673769463964
38087	-1.128354228382593
38089	-1.2951794183619643
38091	-1.2951794183619643
38093	-1.0866479308877501
38095	-1.8165081370474985
38097	-1.3994451620990707
38099	-1.0866479308877501
38101	-1.3994451620990707
38103	-0.3567877247280015
38105	-0.7738506996764296
39001	1.8327928937512434
39003	0.4773382251688537
39005	-0.04399049351668092
39007	0.7901354563801742
39009	1.728527150014137
39011	-0.3567877247280015
39013	2.145590124962564
39015	-0.3567877247280015
39017	0.1645409939575331
39019	0.7901354563801742
39021	0.1645409939575331
39023	0.060275250220426096
39025	0.5816039689059602
39027	0.3870593494940399
39029	0.1645409939575331
39031	0.9986669438543883
39033	0.26880673769463964
39035	0.5816039689059602
39037	-0.5653192122022155
39039	0.4773382251688537
39041	-1.0866479308877501
39043	1.937058637488351
39045	0.3730724814317467
39047	1.728527150014137
39049	0.3730724814317467
39051	1.2071984313286024
39053	2.2498558686996715
39055	-0.46105346846510853
39057	-0.7738506996764296
39059	0.8944012001172817
39061	0.1645409939575331
39063	-1.1909136746248572
39065	1.2071984313286024
39067	-0.46105346846510853
39069	0.3870593494940399
39071	0.6858697126430677
39073	0.8944012001172817
39075	0.3870593494940399
39077	0.7901354563801742
39079	1.6242614062770295
39081	1.2071984313286024
39083	-0.3567877247280015
39085	-0.14825623725378795
39087	2.666918843648099
39089	0.060275250220426096
39091	-1.1909136746248572
39093	-0.25252198099089496
39095	0.9986669438543883
39097	0.6858697126430677
39099	0.1645409939575331
39101	1.4157299188028163
39103	-0.46105346846510853
39105	0.3870593494940399
39107	-0.9823821871506432
39109	0.060275250220426096
39111	0.3870593494940399
39113	0.26880673769463964
39115	0.060275250220426096
39117	0.7901354563801742
39119	0.3730724814317467
39121	0.5816039689059602
39123	-1.1909136746248572
39125	0.3870593494940399
39127	0.060275250220426096
39129	1.1029326875914949
39131	2.145590124962564
39133	-0.5653192122022155
39135	0.7901354563801742
39137	-2.1293053682588194
39139	0.4773382251688537
39141	1.519995662539923
39143	0.060275250220426096
39145	2.771184587385206
39147	-0.8781164434135361
39149	0.6858697126430677
39151	0.3730724814317467
39153	0.060275250220426096
39155	0.7901354563801742
39157	-0.3567877247280015
39159	-0.25252198099089496
39161	0.7901354563801742
39163	0.9986669438543883
39165	-0.14825623725378795
39167	0.1645409939575331
39169	-0.14825623725378795
39171	-0.9823821871506432
39173	0.1645409939575331
39175	-0.5653192122022155
40001	-0.8781164434135361
40003	-0.04399049351668092
40005	2.2498558686996715
40007	0.7999103698555284
40009	0.9986669438543883
40011	0.1645409939575331
40013	0.8944012001172817
40015	0.26880673769463964
40017	0.26880673769463964
40019	1.2071984313286024
40021	0.7901354563801742
40023	-0.7738506996764296
40025	0.7999103698555284
40027	0.3730724814317467
40029	0.7999103698555284
40031	1.3114641750657088
40033	0.7999103698555284
40035	0.7901354563801742
40037	1.1029326875914949
40039	-0.7738506996764296
40041	0.6858697126430677
40043	0.7999103698555284
40045	0.7999103698555284
40047	-0.46105346846510853
40049	3.2925133060707408
40051	0.7901354563801742
40053	0.7999103698555284
40055	0.7999103698555284
40057	0.7999103698555284
40059	0.7999103698555284
40061	0.26880673769463964
40063	0.060275250220426096
40065	0.060275250220426096
40067	1.519995662539923
40069	2.145590124962564
40071	1.519995662539923
40073	-0.14825623725378795
40075	0.3730724814317467
40077	2.3541216124367783
40079	0.7901354563801742
40081	0.9986669438543883
40083	0.8944012001172817
40085	1.937058637488351
40087	-0.14825623725378795
40089	0.4773382251688537
40091	2.3541216124367783
40093	-0.9823821871506432
40095	0.7901354563801742
40097	0.4773382251688537
40099	0.6858697126430677
40101	2.145590124962564
40103	0.7999103698555284
40105	1.937058637488351
40107	-0.6695849559393225
40109	0.7901354563801742
40111	1.6242614062770295
40113	0.3730724814317467
40115	1.519995662539923
40117	1.1029326875914949
40119	1.2071984313286024
40121	2.2498558686996715
40123	1.2071984313286024
40125	0.9986669438543883
40127	1.6242614062770295
40129	0.7999103698555284
40131	-0.04399049351668092
40133	2.0413243812254573
40135	1.728527150014137
40137	0.3730724814317467
40139	-1.7122423933103919
40141	2.8754503311223125
40143	0.4773382251688537
40145	1.3114641750657088
40147	-0.25252198099089496
40149	0.5816039689059602
40151	0.7999103698555284
40153	-0.9823821871506432
41001	-1.0866479308877501
41003	-0.6695849559393225
41005	-0.6695849559393225
41007	-0.25252198099089496
41009	0.5816039689059602
41011	-0.3567877247280015
41013	-0.46105346846510853
41015	-0.25252198099089496
41017	-0.3567877247280015
41019	0.4773382251688537
41021	-0.4089205965965552
41023	-0.4089205965965552
41025	-0.4089205965965552
41027	-0.4089205965965552
41029	0.6858697126430677
41031	-1.3994451620990707
41033	0.26880673769463964
41035	0.1645409939575331
41037	-0.4089205965965552
41039	0.4773382251688537
41041	0.060275250220426096
41043	-0.25252198099089496
41045	-1.9207738807846055
41047	-0.5653192122022155
41049	-0.4089205965965552
41051	-0.3567877247280015
41053	-0.25252198099089496
41055	-0.4089205965965552
41057	-0.5653192122022155
41059	0.26880673769463964
41061	-0.46105346846510853
41063	-2.1293053682588194
41065	-1.1909136746248572
41067	-0.7738506996764296
41069	-0.4089205965965552
41071	-0.46105346846510853
42001	-0.3567877247280015
42003	-0.04399049351668092
42005	0.1645409939575331
42007	-0.3567877247280015
42009	-0.6695849559393225
42011	-0.04399049351668092
42013	0.1645409939575331
42015	-1.0866479308877501
42017	-0.04399049351668092
42019	-0.3567877247280015
42021	0.7901354563801742
42023	0.11077896984308717
42025	0.5816039689059602
42027	-0.5653192122022155
42029	-0.6695849559393225
42031	-0.8781164434135361
42033	-0.7738506996764296
42035	0.26880673769463964
42037	-0.25252198099089496
42039	1.1029326875914949
42041	-0.8781164434135361
42043	0.4773382251688537
42045	0.26880673769463964
42047	3.6053105372820613
42049	0.5816039689059602
42051	0.9986669438543883
42053	3.918107768493382
42055	-0.8781164434135361
42057	0.11077896984308717
42059	1.8327928937512434
42061	0.060275250220426096
42063	-0.25252198099089496
42065	1.2071984313286024
42067	-1.0866479308877501
42069	0.3730724814317467
42071	-0.3567877247280015
42073	0.3730724814317467
42075	-0.46105346846510853
42077	-0.14825623725378795
42079	0.5816039689059602
42081	-0.04399049351668092
42083	-0.04399049351668092
42085	-0.5653192122022155
42087	1.1029326875914949
42089	0.3730724814317467
42091	-0.46105346846510853
42093	-1.0866479308877501
42095	0.3730724814317467
42097	0.060275250220426096
42099	-0.25252198099089496
42101	1.1029326875914949
42103	-0.6695849559393225
42105	-0.5653192122022155
42107	0.060275250220426096
42109	-0.9823821871506432
42111	0.4773382251688537
42113	0.11077896984308717
42115	1.3114641750657088
42117	-1.0866479308877501
42119	-0.6695849559393225
42121	0.060275250220426096
42123	-0.14825623725378795
42125	0.1645409939575331
42127	0.7901354563801742
42129	0.1645409939575331
42131	0.5816039689059602
42133	-0.14825623725378795
44001	-0.6695849559393225
44003	0.4773382251688537
44005	-0.5653192122022155
44007	0.1645409939575331
44009	-0.3567877247280015
45001	0.8944012001172817
45003	0.060275250220426096
45005	-0.6695849559393225
45007	0.5816039689059602
45009	-0.14825623725378795
45011	0.6858697126430677
45013	-0.6695849559393225
45015	0.3730724814317467
45017	0.3730724814317467
45019	-0.3567877247280015
45021	0.8944012001172817
45023	2.3541216124367783
45025	0.060275250220426096
45027	0.26880673769463964
45029	0.5816039689059602
45031	0.3730724814317467
45033	0.5816039689059602
45035	0.26880673769463964
45037	-0.14825623725378795
45039	0.26880673769463964
45041	-0.04399049351668092
45043	0.1645409939575331
45045	-0.14825623725378795
45047	0.060275250220426096
45049	-0.46105346846510853
45051	0.3730724814317467
45053	-0.04399049351668092
45055	-0.7738506996764296
45057	0.5816039689059602
45059	1.1029326875914949
45061	0.8944012001172817
45063	0.1645409939575331
45065	2.4583873561738856
45067	-0.04399049351668092
45069	0.5816039689059602
45071	0.7901354563801742
45073	0.7901354563801742
45075	0.1645409939575331
45077	0.26880673769463964
45079	-0.25252198099089496
45081	-0.6695849559393225
45083	0.7901354563801742
45085	0.060275250220426096
45087	-0.14825623725378795
45089	0.3730724814317467
45091	-0.46105346846510853
46003	-1.8165081370474985
46005	-1.7122423933103919
46007	-0.5653192122022155
46009	-1.0866479308877501
46011	-1.1909136746248572
46013	-1.0866479308877501
46015	-0.14825623725378795
46017	0.4773382251688537
46019	-0.9823821871506432
46021	-1.0191818614107997
46023	-1.5037109058361777
46025	-1.0191818614107997
46027	-1.2951794183619643
46029	-1.5037109058361777
46031	0.7901354563801742
46033	0.4773382251688537
46035	-1.7122423933103919
46037	-1.0191818614107997
46039	-1.1909136746248572
46041	-0.6695849559393225
46043	-0.3567877247280015
46045	-2.546368343207247
46047	-1.0191818614107997
46049	-1.0191818614107997
46051	0.6858697126430677
46053	-2.025039624521712
46055	-1.0191818614107997
46057	-2.025039624521712
46059	-1.3994451620990707
46061	-0.04399049351668092
46063	-1.0191818614107997
46065	-1.3994451620990707
46067	-2.1293053682588194
46069	-1.0191818614107997
46071	-0.25252198099089496
46073	-0.5653192122022155
46075	-1.0191818614107997
46077	-2.44210259947014
46079	0.8944012001172817
46081	-1.0866479308877501
46083	-1.8165081370474985
46085	-1.6079766495732848
46087	-1.0191818614107997
46089	-1.0191818614107997
46091	-1.1909136746248572
46093	-1.0866479308877501
46095	0.5816039689059602
46097	-1.0191818614107997
46099	-0.8781164434135361
46101	-0.7738506996764296
46103	-0.46105346846510853
46105	-2.025039624521712
46107	-2.44210259947014
46109	-1.3994451620990707
46111	-1.0191818614107997
46113	-0.14825623725378795
46115	-1.8165081370474985
46117	-1.9207738807846055
46119	-1.0191818614107997
46121	-0.46105346846510853
46123	-1.0191818614107997
46125	-1.5037109058361777
46127	-1.9207738807846055
46129	-1.1909136746248572
46135	-0.3567877247280015
46137	-0.14825623725378795
47001	0.3730724814317467
47003	0.1645409939575331
47005	-0.25252198099089496
47007	0.8944012001172817
47009	-0.9823821871506432
47011	0.9986669438543883
47013	2.2498558686996715
47015	0.262123036173027
47017	0.7901354563801742
47019	1.3114641750657088
47021	-0.25252198099089496
47023	-0.8781164434135361
47025	0.8944012001172817
47027	0.262123036173027
47029	1.2071984313286024
47031	1.6242614062770295
47033	1.6242614062770295
47035	-1.1909136746248572
47037	-0.8781164434135361
47039	-1.5037109058361777
47041	0.7901354563801742
47043	1.3114641750657088
47045	-0.3567877247280015
47047	-0.46105346846510853
47049	-0.46105346846510853
47051	0.26880673769463964
47053	0.1645409939575331
47055	0.26880673769463964
47057	0.262123036173027
47059	0.5816039689059602
47061	3.8138420247562754
47063	1.2071984313286024
47065	-0.3567877247280015
47067	0.262123036173027
47069	-0.9823821871506432
47071	-0.04399049351668092
47073	0.4773382251688537
47075	-0.5653192122022155
47077	-0.7738506996764296
47079	0.8944012001172817
47081	1.519995662539923
47083	0.262123036173027
47085	0.262123036173027
47087	0.262123036173027
47089	2.9797160748594202
47091	-0.5653192122022155
47093	0.060275250220426096
47095	0.262123036173027
47097	-0.04399049351668092
47099	0.4773382251688537
47101	2.145590124962564
47103	0.5816039689059602
47105	-0.5653192122022155
47107	1.2071984313286024
47109	0.1645409939575331
47111	0.6858697126430677
47113	-0.46105346846510853
47115	-0.04399049351668092
47117	-0.5653192122022155
47119	-0.3567877247280015
47121	0.262123036173027
47123	-0.04399049351668092
47125	-0.7738506996764296
47127	0.262123036173027
47129	0.262123036173027
47131	-0.5653192122022155
47133	0.26880673769463964
47135	0.262123036173027
47137	0.262123036173027
47139	2.562653099910992
47141	-0.14825623725378795
47143	1.3114641750657088
47145	-0.5653192122022155
47147	-1.5037109058361777
47149	-0.8781164434135361
47151	0.9986669438543883
47153	0.3730724814317467
47155	-0.6695849559393225
47157	-0.7738506996764296
47159	0.262123036173027
47161	0.262123036173027
47163	0.9986669438543883
47165	-0.14825623725378795
47167	-0.5653192122022155
47169	0.262123036173027
47171	1.1029326875914949
47173	0.262123036173027
47175	0.7901354563801742
47177	1.4157299188028163
47179	0.26880673769463964
47181	0.26880673769463964
47183	-0.46105346846510853
47185	-0.3567877247280015
47187	-1.7122423933103919
47189	0.060275250220426096
48001	-0.04399049351668092
48003	0.10131602169141543
48005	0.3730724814317467
48007	0.10131602169141543
48009	0.10131602169141543
48011	0.10131602169141543
48013	0.10131602169141543
48015	-0.25252198099089496
48017	0.10131602169141543
48019	3.0839818185965266
48021	0.6858697126430677
48023	0.10131602169141543
48025	0.10131602169141543
48027	0.26880673769463964
48029	-0.25252198099089496
48031	0.10131602169141543
48033	0.10131602169141543
48035	0.10131602169141543
48037	1.1029326875914949
48039	-0.8781164434135361
48041	-0.7738506996764296
48043	-1.1909136746248572
48045	0.10131602169141543
48047	0.10131602169141543
48049	-0.14825623725378795
48051	0.10131602169141543
48053	-0.7738506996764296
48055	0.10131602169141543
48057	0.10131602169141543
48059	0.10131602169141543
48061	-0.25252198099089496
48063	0.10131602169141543
48065	0.10131602169141543
48067	-0.6695849559393225
48069	0.10131602169141543
48071	0.10131602169141543
48073	0.4773382251688537
48075	0.10131602169141543
48077	0.10131602169141543
48079	0.10131602169141543
48081	0.10131602169141543
48083	0.10131602169141543
48085	-1.1909136746248572
48087	0.10131602169141543
48089	0.10131602169141543
48091	0.10131602169141543
48093	-0.25252198099089496
48095	0.10131602169141543
48097	-1.2951794183619643
48099	1.3114641750657088
48101	0.10131602169141543
48103	0.10131602169141543
48105	0.10131602169141543
48107	0.10131602169141543
48109	0.10131602169141543
48111	0.10131602169141543
48113	-0.25252198099089496
48115	0.10131602169141543
48117	0.10131602169141543
48119	0.10131602169141543
48121	-1.0866479308877501
48123	0.10131602169141543
48125	0.10131602169141543
48127	0.10131602169141543
48129	0.10131602169141543
48131	0.10131602169141543
48133	0.10131602169141543
48135	0.060275250220426096
48137	-1.0866479308877501
48139	-0.6695849559393225
48141	-0.3567877247280015
48143	0.6858697126430677
48145	0.9986669438543883
48147	0.10131602169141543
48149	0.10131602169141543
48151	0.10131602169141543
48153	0.10131602169141543
48155	0.10131602169141543
48157	-0.8781164434135361
48159	0.10131602169141543
48161	-0.04399049351668092
48163	0.10131602169141543
48165	0.10131602169141543
48167	-0.3567877247280015
48169	0.10131602169141543
48171	-1.2951794183619643
48173	0.10131602169141543
48175	0.10131602169141543
48177	1.8327928937512434
48179	0.10131602169141543
48181	1.1029326875914949
48183	-0.7738506996764296
48185	0.10131602169141543
48187	-0.5653192122022155
48189	-0.25252198099089496
48191	0.10131602169141543
48193	0.10131602169141543
48195	0.10131602169141543
48197	0.10131602169141543
48199	0.1645409939575331
48201	-0.25252198099089496
48203	1.3114641750657088
48205	0.10131602169141543
48207	0.10131602169141543
48209	-0.5653192122022155
48211	0.10131602169141543
48213	0.5816039689059602
48215	-0.04399049351668092
48217	0.10131602169141543
48219	1.2071984313286024
48221	0.10131602169141543
48223	0.10131602169141543
48225	0.6858697126430677
48227	0.10131602169141543
48229	0.10131602169141543
48231	-0.04399049351668092
48233	0.10131602169141543
48235	0.10131602169141543
48237	0.10131602169141543
48239	0.10131602169141543
48241	-0.8781164434135361
48243	0.10131602169141543
48245	-0.14825623725378795
48247	0.10131602169141543
48249	0.10131602169141543
48251	0.5816039689059602
48253	0.10131602169141543
48255	0.10131602169141543
48257	1.8327928937512434
48259	0.10131602169141543
48261	0.10131602169141543
48263	0.10131602169141543
48265	0.1645409939575331
48267	0.10131602169141543
48269	0.10131602169141543
48271	0.10131602169141543
48273	0.10131602169141543
48275	0.10131602169141543
48277	0.1645409939575331
48279	0.10131602169141543
48281	0.10131602169141543
48283	0.10131602169141543
48285	0.10131602169141543
48287	0.10131602169141543
48289	0.060275250220426096
48291	2.562653099910992
48293	0.10131602169141543
48295	0.10131602169141543
48297	0.10131602169141543
48299	0.10131602169141543
48301	0.10131602169141543
48303	0.060275250220426096
48305	0.10131602169141543
48307	0.10131602169141543
48309	1.4157299188028163
48311	0.10131602169141543
48313	0.10131602169141543
48315	0.10131602169141543
48317	0.10131602169141543
48319	0.10131602169141543
48321	0.5816039689059602
48323	0.060275250220426096
48325	-1.8165081370474985
48327	0.10131602169141543
48329	-0.5653192122022155
48331	0.10131602169141543
48333	0.10131602169141543
48335	0.10131602169141543
48337	0.10131602169141543
48339	0.26880673769463964
48341	0.10131602169141543
48343	0.10131602169141543
48345	0.10131602169141543
48347	1.728527150014137
48349	0.10131602169141543
48351	0.10131602169141543
48353	0.10131602169141543
48355	-0.3567877247280015
48357	0.10131602169141543
48359	0.10131602169141543
48361	1.937058637488351
48363	0.10131602169141543
48365	0.10131602169141543
48367	-0.25252198099089496
48369	0.10131602169141543
48371	0.4773382251688537
48373	1.1029326875914949
48375	0.3730724814317467
48377	0.10131602169141543
48379	0.10131602169141543
48381	-0.6695849559393225
48383	0.10131602169141543
48385	0.10131602169141543
48387	0.10131602169141543
48389	0.10131602169141543
48391	0.10131602169141543
48393	0.10131602169141543
48395	0.10131602169141543
48397	0.10131602169141543
48399	0.10131602169141543
48401	0.7901354563801742
48403	0.10131602169141543
48405	0.10131602169141543
48407	0.10131602169141543
48409	-0.46105346846510853
48411	0.10131602169141543
48413	0.10131602169141543
48415	0.10131602169141543
48417	0.10131602169141543
48419	0.3730724814317467
48421	0.10131602169141543
48423	-0.14825623725378795
48425	0.10131602169141543
48427	1.1029326875914949
48429	0.10131602169141543
48431	0.10131602169141543
48433	0.10131602169141543
48435	0.10131602169141543
48437	0.10131602169141543
48439	-0.5653192122022155
48441	1.3114641750657088
48443	0.10131602169141543
48445	3.501044793544955
48447	0.10131602169141543
48449	0.060275250220426096
48451	-0.25252198099089496
48453	-0.3567877247280015
48455	0.10131602169141543
48457	0.10131602169141543
48459	-2.2335711119959263
48461	0.10131602169141543
48463	0.10131602169141543
48465	0.060275250220426096
48467	0.6858697126430677
48469	1.4157299188028163
48471	1.8327928937512434
48473	0.10131602169141543
48475	0.10131602169141543
48477	-2.025039624521712
48479	-0.6695849559393225
48481	0.3730724814317467
48483	0.10131602169141543
48485	-0.7738506996764296
48487	0.10131602169141543
48489	0.10131602169141543
48491	-1.5037109058361777
48493	-0.7738506996764296
48495	0.10131602169141543
48497	-0.14825623725378795
48499	1.6242614062770295
48501	0.10131602169141543
48503	0.10131602169141543
48505	-1.8165081370474985
48507	0.10131602169141543
49001	-1.6079766495732848
49003	-0.46105346846510853
49005	-1.0866479308877501
49007	0.7901354563801742
49009	-0.3567877247280015
49011	-0.5653192122022155
49013	-0.25252198099089496
49015	0.26880673769463964
49017	-2.3378368557330336
49019	0.7901354563801742
49021	-0.14825623725378795
49023	-0.9823821871506432
49025	-0.04399049351668092
49027	-0.04399049351668092
49029	-1.2951794183619643
49031	2.0413243812254573
49033	-0.3567877247280015
49035	-0.25252198099089496
49037	-0.46105346846510853
49039	-0.04399049351668092
49041	0.3730724814317467
49043	-1.3994451620990707
49045	-0.14825623725378795
49047	-0.14825623725378795
49049	-0.46105346846510853
49051	-0.9823821871506432
49053	-0.7738506996764296
49055	-0.3567877247280015
49057	-0.04399049351668092
50001	-0.3567877247280015
50003	0.1645409939575331
50005	0.060275250220426096
50007	-0.6695849559393225
50009	0.7901354563801742
50011	-0.04399049351668092
50013	-0.46105346846510853
50015	0.1645409939575331
50017	-0.14825623725378795
50019	0.1645409939575331
50021	0.060275250220426096
50023	-0.46105346846510853
50025	0.1645409939575331
50027	-0.25252198099089496
51001	-0.3567877247280015
51003	-1.2951794183619643
51005	0.5816039689059602
51007	0.7901354563801742
51009	-0.6695849559393225
51011	-0.46105346846510853
51013	-1.3994451620990707
51015	-0.7738506996764296
51017	-0.047427825727791084
51019	0.6858697126430677
51021	-0.047427825727791084
51023	-0.14825623725378795
51025	1.4157299188028163
51027	1.519995662539923
51029	0.9986669438543883
51031	-0.7738506996764296
51033	-0.047427825727791084
51035	-1.0866479308877501
51036	-0.6695849559393225
51037	-0.047427825727791084
51041	-0.46105346846510853
51043	-0.14825623725378795
51045	-0.047427825727791084
51047	0.26880673769463964
51049	-0.5653192122022155
51051	2.9797160748594202
51053	-0.46105346846510853
51057	-0.047427825727791084
51059	-1.5037109058361777
51061	-0.25252198099089496
51063	-0.6695849559393225
51065	-1.6079766495732848
51067	0.060275250220426096
51069	-0.25252198099089496
51071	-1.2951794183619643
51073	0.26880673769463964
51075	-0.047427825727791084
51077	1.728527150014137
51079	-0.047427825727791084
51081	-0.14825623725378795
51083	0.26880673769463964
51085	0.060275250220426096
51087	-0.9823821871506432
51089	1.3114641750657088
51091	-0.047427825727791084
51093	-0.46105346846510853
51095	-0.5653192122022155
51097	-0.047427825727791084
51099	-0.047427825727791084
51101	-1.9207738807846055
51103	-0.047427825727791084
51105	1.519995662539923
51107	-1.1909136746248572
51109	-0.9823821871506432
51111	-0.46105346846510853
51113	2.0413243812254573
51115	-0.047427825727791084
51117	-0.5653192122022155
51119	-0.047427825727791084
51121	0.4773382251688537
51125	-0.047427825727791084
51127	0.4773382251688537
51131	0.6858697126430677
51133	-0.047427825727791084
51135	0.060275250220426096
51137	-0.5653192122022155
51139	0.26880673769463964
51141	2.2498558686996715
51143	0.4773382251688537
51145	-0.047427825727791084
51147	0.26880673769463964
51149	-1.5037109058361777
51153	-0.6695849559393225
51155	1.2071984313286024
51157	-0.047427825727791084
51159	0.7901354563801742
51161	-0.46105346846510853
51163	-2.2335711119959263
51165	-0.9823821871506432
51167	1.519995662539923
51169	0.5816039689059602
51171	-0.7738506996764296
51173	2.145590124962564
51175	-0.047427825727791084
51177	-0.6695849559393225
51179	0.060275250220426096
51181	-0.047427825727791084
51183	-0.047427825727791084
51185	2.8754503311223125
51187	0.7901354563801742
51191	0.26880673769463964
51193	-0.047427825727791084
51195	3.1882475623336335
51197	0.060275250220426096
51199	-1.0866479308877501
51510	-1.5037109058361777
51515	-0.047427825727791084
51520	-0.047427825727791084
51530	-0.047427825727791084
51540	-2.3378368557330336
51550	-1.2951794183619643
51570	-0.047427825727791084
51580	-0.047427825727791084
51590	-1.2951794183619643
51595	-0.047427825727791084
51600	-2.025039624521712
51610	-0.047427825727791084
51620	-0.5653192122022155
51630	0.26880673769463964
51640	-0.047427825727791084
51650	-0.04399049351668092
51660	-0.047427825727791084
51670	0.7901354563801742
51678	-0.047427825727791084
51680	-0.7738506996764296
51683	-0.047427825727791084
51685	-0.047427825727791084
51690	-0.047427825727791084
51700	0.7901354563801742
51710	0.060275250220426096
51720	-0.047427825727791084
51730	-0.047427825727791084
51735	-0.047427825727791084
51740	0.8944012001172817
51750	-0.8781164434135361
51760	-0.25252198099089496
51770	0.7901354563801742
51775	-0.047427825727791084
51790	-0.047427825727791084
51800	-0.7738506996764296
51810	-0.04399049351668092
51820	-0.047427825727791084
51830	-0.047427825727791084
51840	-0.047427825727791084
53001	-1.0866479308877501
53003	0.1645409939575331
53005	-0.46105346846510853
53007	-0.7738506996764296
53009	0.26880673769463964
53011	-0.14825623725378795
53013	-0.25252198099089496
53015	0.5816039689059602
53017	-0.5653192122022155
53019	-0.46105346846510853
53021	-0.9823821871506432
53023	0.26880673769463964
53025	-0.6695849559393225
53027	0.7901354563801742
53029	-0.14825623725378795
53031	0.5816039689059602
53033	-0.6695849559393225
53035	-0.14825623725378795
53037	-0.46105346846510853
53039	-0.3567877247280015
53041	-0.14825623725378795
53043	-0.14825623725378795
53045	0.8944012001172817
53047	0.3730724814317467
53049	0.9986669438543883
53051	-0.5653192122022155
53053	0.060275250220426096
53055	-0.8781164434135361
53057	0.3730724814317467
53059	-0.25252198099089496
53061	0.060275250220426096
53063	0.060275250220426096
53065	0.1645409939575331
53067	0.060275250220426096
53069	0.7901354563801742
53071	-0.7738506996764296
53073	-0.14825623725378795
53075	-0.5653192122022155
53077	0.060275250220426096
54001	0.1645409939575331
54003	0.26880673769463964
54005	2.0413243812254573
54007	-0.14825623725378795
54009	0.6858697126430677
54011	1.2071984313286024
54013	0.3730724814317467
54015	0.5816039689059602
54017	0.26880673769463964
54019	1.6242614062770295
54021	0.8944012001172817
54023	1.8327928937512434
54025	0.1645409939575331
54027	-0.14825623725378795
54029	0.9986669438543883
54031	0.3730724814317467
54033	0.7901354563801742
54035	0.26880673769463964
54037	-0.25252198099089496
54039	0.7901354563801742
54041	2.145590124962564
54043	1.1029326875914949
54045	2.4583873561738856
54047	2.0413243812254573
54049	-0.14825623725378795
54051	0.7901354563801742
54053	0.26880673769463964
54055	1.6242614062770295
54057	-0.04399049351668092
54059	2.8754503311223125
54061	0.6858697126430677
54063	0.5816039689059602
54065	0.26880673769463964
54067	0.9986669438543883
54069	-0.14825623725378795
54071	-1.0866479308877501
54073	-0.46105346846510853
54075	0.3730724814317467
54077	0.3730724814317467
54079	0.060275250220426096
54081	1.4157299188028163
54083	1.1029326875914949
54085	-0.25252198099089496
54087	0.060275250220426096
54089	0.4773382251688537
54091	0.5816039689059602
54093	0.6858697126430677
54095	-0.5653192122022155
54097	-0.3567877247280015
54099	2.666918843648099
54101	0.1645409939575331
54103	0.1645409939575331
54105	-1.0866479308877501
54107	1.6242614062770295
54109	4.33517074344181
55001	-0.25252198099089496
55003	0.3730724814317467
55005	-0.7738506996764296
55007	-0.14825623725378795
55009	-0.3567877247280015
55011	-0.8781164434135361
55013	-1.1909136746248572
55015	-1.0866479308877501
55017	-0.8781164434135361
55019	-1.0866479308877501
55021	-1.0866479308877501
55023	-0.9823821871506432
55025	-0.5653192122022155
55027	-0.04399049351668092
55029	-0.9823821871506432
55031	-0.6695849559393225
55033	-1.7122423933103919
55035	-1.6079766495732848
55037	-1.1909136746248572
55039	-0.7738506996764296
55041	-1.1909136746248572
55043	-1.2951794183619643
55045	-1.3994451620990707
55047	0.26880673769463964
55049	-0.6695849559393225
55051	-1.1909136746248572
55053	2.8754503311223125
55055	-0.3567877247280015
55057	-0.7239844744108581
55059	0.26880673769463964
55061	-0.7738506996764296
55063	-0.9823821871506432
55065	-1.3994451620990707
55067	-0.5653192122022155
55069	-0.46105346846510853
55071	-0.6695849559393225
55073	-1.2951794183619643
55075	-0.04399049351668092
55077	-0.04399049351668092
55078	-1.3994451620990707
55079	0.060275250220426096
55081	-0.25252198099089496
55083	0.26880673769463964
55085	-0.7738506996764296
55087	-1.2951794183619643
55089	-0.9823821871506432
55091	-0.7239844744108581
55093	-1.5037109058361777
55095	-0.9823821871506432
55097	-1.1909136746248572
55099	-1.5037109058361777
55101	0.1645409939575331
55103	-0.7239844744108581
55105	-0.04399049351668092
55107	-1.9207738807846055
55109	-1.3994451620990707
55111	-0.8781164434135361
55113	-0.7738506996764296
55115	-0.46105346846510853
55117	-0.3567877247280015
55119	-0.8781164434135361
55121	-0.9823821871506432
55123	-0.7738506996764296
55125	-0.9823821871506432
55127	-0.46105346846510853
55129	-0.7738506996764296
55131	-1.2951794183619643
55133	-0.7738506996764296
55135	-1.5037109058361777
55137	-0.8781164434135361
55139	-0.14825623725378795
55141	-0.46105346846510853
56001	-0.04399049351668092
56003	-0.6695849559393225
56005	-0.7738506996764296
56007	-0.14825623725378795
56009	-0.8781164434135361
56011	-0.3567877247280015
56013	0.060275250220426096
56015	0.1645409939575331
56017	-0.04399049351668092
56019	-0.25252198099089496
56021	-0.46105346846510853
56023	-0.8781164434135361
56025	0.060275250220426096
56027	0.26880673769463964
56029	-0.7738506996764296
56031	-1.0866479308877501
56033	0.060275250220426096
56035	-0.6695849559393225
56037	0.1645409939575331
56039	-1.2951794183619643
56041	-0.04399049351668092
56043	-1.2951794183619643
56045	-0.5653192122022155
