id	rate
1001	0.3448275862068965
1003	0.3448275862068965
1005	0.6551724137931034
1007	0.37931034482758624
1009	0.27586206896551724
1011	0.6896551724137931
1013	0.6206896551724137
1015	0.44827586206896547
1017	0.5862068965517242
1019	0.37931034482758624
1021	0.3448275862068965
1023	0.5172413793103448
1025	0.6206896551724137
1027	0.44827586206896547
1029	0.3448275862068965
1031	0.37931034482758624
1033	0.41379310344827586
1035	0.6551724137931034
1037	0.44827586206896547
1039	0.41379310344827586
1041	0.44827586206896547
1043	0.3448275862068965
1045	0.44827586206896547
1047	0.8620689655172413
1049	0.3448275862068965
1051	0.3448275862068965
1053	0.5517241379310345
1055	0.41379310344827586
1057	0.41379310344827586
1059	0.37931034482758624
1061	0.41379310344827586
1063	0.8275862068965516
1065	0.6551724137931034
1067	0.41379310344827586
1069	0.44827586206896547
1071	0.3448275862068965
1073	0.4827586206896552
1075	0.41379310344827586
1077	0.37931034482758624
1079	0.37931034482758624
1081	0.44827586206896547
1083	0.3103448275862069
1085	0.7586206896551724
1087	0.7586206896551724
1089	0.37931034482758624
1091	0.5862068965517242
1093	0.41379310344827586
1095	0.3448275862068965
1097	0.5172413793103448
1099	0.6206896551724137
1101	0.5862068965517242
1103	0.3448275862068965
1105	0.7931034482758621
1107	0.5862068965517242
1109	0.5862068965517242
1111	0.4827586206896552
1113	0.5862068965517242
1115	0.3103448275862069
1117	0.24137931034482757
1119	0.8275862068965516
1121	0.5172413793103448
1123	0.4827586206896552
1125	0.4827586206896552
1127	0.37931034482758624
1129	0.44827586206896547
1131	0.896551724137931
1133	0.44827586206896547
2013	0.5172413793103448
2016	0.44827586206896547
2020	0.3103448275862069
2050	0.5517241379310345
2060	0.27586206896551724
2068	0.3448275862068965
2070	0.44827586206896547
2090	0.3103448275862069
2100	0.3103448275862069
2110	0.24137931034482757
2122	0.3103448275862069
2130	0.3448275862068965
2150	0.3448275862068965
2164	0.44827586206896547
2170	0.27586206896551724
2180	0.5517241379310345
2185	0.37931034482758624
2188	0.5517241379310345
2201	0.44827586206896547
2220	0.3103448275862069
2232	0.44827586206896547
2240	0.37931034482758624
2261	0.27586206896551724
2270	0.7241379310344827
2280	0.3448275862068965
2282	0.37931034482758624
2290	0.5517241379310345
4001	0.7586206896551724
4003	0.41379310344827586
4005	0.5172413793103448
4007	0.44827586206896547
4009	0.41379310344827586
4011	0.41379310344827586
4012	0.44827586206896547
4013	0.41379310344827586
4015	0.4827586206896552
4017	0.6206896551724137
4019	0.41379310344827586
4021	0.37931034482758624
4023	0.5172413793103448
4025	0.44827586206896547
4027	0.6896551724137931
5001	0.5172413793103448
5003	0.5862068965517242
5005	0.41379310344827586
5007	0.3448275862068965
5009	0.41379310344827586
5011	0.6206896551724137
5013	0.4827586206896552
5015	0.37931034482758624
5017	0.7931034482758621
5019	0.6206896551724137
5021	0.5517241379310345
5023	0.41379310344827586
5025	0.44827586206896547
5027	0.6206896551724137
5029	0.5172413793103448
5031	0.5172413793103448
5033	0.44827586206896547
5035	0.7586206896551724
5037	0.5517241379310345
5039	0.6551724137931034
5041	0.7586206896551724
5043	0.6551724137931034
5045	0.44827586206896547
5047	0.41379310344827586
5049	0.41379310344827586
5051	0.4827586206896552
5053	0.3448275862068965
5055	0.4827586206896552
5057	0.5862068965517242
5059	0.44827586206896547
5061	0.5517241379310345
5063	0.5172413793103448
5065	0.44827586206896547
5067	0.5862068965517242
5069	0.7241379310344827
5071	0.44827586206896547
5073	0.6551724137931034
5075	0.5172413793103448
5077	0.8275862068965516
5079	0.6551724137931034
5081	0.44827586206896547
5083	0.41379310344827586
5085	0.37931034482758624
5087	0.41379310344827586
5089	0.41379310344827586
5091	0.5517241379310345
5093	0.6896551724137931
5095	0.6896551724137931
5097	0.44827586206896547
5099	0.5862068965517242
5101	0.4827586206896552
5103	0.6551724137931034
5105	0.37931034482758624
5107	0.8620689655172413
5109	0.4827586206896552
5111	0.5517241379310345
5113	0.44827586206896547
5115	0.44827586206896547
5117	0.4827586206896552
5119	0.5517241379310345
5121	0.4827586206896552
5123	0.7931034482758621
5125	0.3448275862068965
5127	0.41379310344827586
5129	0.4827586206896552
5131	0.4827586206896552
5133	0.44827586206896547
5135	0.4827586206896552
5137	0.4827586206896552
5139	0.5862068965517242
5141	0.4827586206896552
5143	0.44827586206896547
5145	0.4827586206896552
5147	0.6896551724137931
5149	0.41379310344827586
6001	0.41379310344827586
6003	0.37931034482758624
6005	0.37931034482758624
6007	0.4827586206896552
6009	0.37931034482758624
6011	0.4827586206896552
6013	0.3103448275862069
6015	0.5172413793103448
6017	0.3103448275862069
6019	0.5172413793103448
6021	0.44827586206896547
6023	0.4827586206896552
6025	0.6551724137931034
6027	0.3448275862068965
6029	0.44827586206896547
6031	0.4827586206896552
6033	0.5517241379310345
6035	0.44827586206896547
6037	0.41379310344827586
6039	0.41379310344827586
6041	0.27586206896551724
6043	0.37931034482758624
6045	0.41379310344827586
6047	0.5172413793103448
6049	0.4827586206896552
6051	0.3448275862068965
6053	0.37931034482758624
6055	0.27586206896551724
6057	0.3448275862068965
6059	0.27586206896551724
6061	0.3103448275862069
6063	0.4827586206896552
6065	0.37931034482758624
6067	0.44827586206896547
6069	0.3448275862068965
6071	0.37931034482758624
6073	0.37931034482758624
6075	0.44827586206896547
6077	0.4827586206896552
6079	0.3448275862068965
6081	0.24137931034482757
6083	0.3448275862068965
6085	0.3103448275862069
6087	0.37931034482758624
6089	0.4827586206896552
6091	0.44827586206896547
6093	0.5517241379310345
6095	0.37931034482758624
6097	0.3103448275862069
6099	0.4827586206896552
6101	0.5172413793103448
6103	0.4827586206896552
6105	0.5172413793103448
6107	0.4827586206896552
6109	0.41379310344827586
6111	0.27586206896551724
6113	0.44827586206896547
6115	0.5517241379310345
8001	0.3448275862068965
8003	0.37931034482758624
8005	0.37931034482758624
8007	0.3103448275862069
8009	0.3103448275862069
8011	0.44827586206896547
8013	0.3448275862068965
8014	0.27586206896551724
8015	0.3103448275862069
8017	0.20689655172413796
8019	0.3103448275862069
8021	0.3103448275862069
8023	0.37931034482758624
8025	0.41379310344827586
8027	0.3103448275862069
8029	0.37931034482758624
8031	0.44827586206896547
8033	0.37931034482758624
8035	0.20689655172413796
8037	0.3103448275862069
8039	0.20689655172413796
8041	0.41379310344827586
8043	0.41379310344827586
8045	0.3103448275862069
8047	0.3103448275862069
8049	0.3103448275862069
8051	0.37931034482758624
8053	0.20689655172413796
8055	0.41379310344827586
8057	0.27586206896551724
8059	0.3103448275862069
8061	0.3103448275862069
8063	0.3103448275862069
8065	0.3448275862068965
8067	0.3103448275862069
8069	0.3448275862068965
8071	0.37931034482758624
8073	0.3103448275862069
8075	0.3448275862068965
8077	0.37931034482758624
8079	0.24137931034482757
8081	0.3103448275862069
8083	0.41379310344827586
8085	0.37931034482758624
8087	0.3103448275862069
8089	0.41379310344827586
8091	0.27586206896551724
8093	0.24137931034482757
8095	0.3103448275862069
8097	0.3448275862068965
8099	0.3448275862068965
8101	0.37931034482758624
8103	0.3103448275862069
8105	0.3448275862068965
8107	0.3103448275862069
8109	0.41379310344827586
8111	0.4827586206896552
8113	0.3448275862068965
8115	0.3103448275862069
8117	0.3103448275862069
8119	0.27586206896551724
8121	0.27586206896551724
8123	0.3448275862068965
8125	0.27586206896551724
9001	0.27586206896551724
9003	0.3448275862068965
9005	0.24137931034482757
9007	0.24137931034482757
9009	0.3448275862068965
9011	0.3103448275862069
9013	0.24137931034482757
9015	0.3103448275862069
10001	0.3103448275862069
10003	0.27586206896551724
10005	0.24137931034482757
11001	0.3448275862068965
12001	0.5172413793103448
12003	0.41379310344827586
12005	0.41379310344827586
12007	0.44827586206896547
12009	0.37931034482758624
12011	0.41379310344827586
12013	0.4827586206896552
12015	0.3448275862068965
12017	0.37931034482758624
12019	0.3103448275862069
12021	0.3103448275862069
12023	0.4827586206896552
12027	0.44827586206896547
12029	0.44827586206896547
12031	0.5172413793103448
12033	0.4827586206896552
12035	0.41379310344827586
12037	0.4827586206896552
12039	0.6551724137931034
12041	0.41379310344827586
12043	0.44827586206896547
12045	0.4827586206896552
12047	0.5517241379310345
12049	0.41379310344827586
12051	0.5172413793103448
12053	0.37931034482758624
12055	0.41379310344827586
12057	0.44827586206896547
12059	0.41379310344827586
12061	0.41379310344827586
12063	0.41379310344827586
12065	0.4827586206896552
12067	0.41379310344827586
12069	0.37931034482758624
12071	0.37931034482758624
12073	0.5517241379310345
12075	0.44827586206896547
12077	0.44827586206896547
12079	0.5862068965517242
12081	0.37931034482758624
12083	0.41379310344827586
12085	0.3448275862068965
12086	0.37931034482758624
12087	0.3103448275862069
12089	0.3448275862068965
12091	0.37931034482758624
12093	0.4827586206896552
12095	0.44827586206896547
12097	0.37931034482758624
12099	0.37931034482758624
12101	0.37931034482758624
12103	0.41379310344827586
12105	0.44827586206896547
12107	0.5172413793103448
12109	0.3103448275862069
12111	0.44827586206896547
12113	0.3448275862068965
12115	0.3448275862068965
12117	0.3448275862068965
12119	0.3103448275862069
12121	0.44827586206896547
12123	0.44827586206896547
12125	0.4827586206896552
12127	0.41379310344827586
12129	0.37931034482758624
12131	0.3448275862068965
12133	0.4827586206896552
13001	0.44827586206896547
13003	0.5862068965517242
13005	0.44827586206896547
13007	0.6896551724137931
13009	0.6551724137931034
13011	0.3103448275862069
13013	0.3103448275862069
13015	0.37931034482758624
13017	0.6896551724137931
13019	0.4827586206896552
13021	0.6551724137931034
13023	0.5517241379310345
13025	0.37931034482758624
13027	0.5172413793103448
13029	0.3103448275862069
13031	0.6206896551724137
13033	0.6551724137931034
13035	0.41379310344827586
13037	0.6896551724137931
13039	0.41379310344827586
13043	0.4827586206896552
13045	0.44827586206896547
13047	0.27586206896551724
13049	0.41379310344827586
13051	0.5172413793103448
13053	0.6896551724137931
13055	0.44827586206896547
13057	0.20689655172413796
13059	0.6206896551724137
13061	0.7931034482758621
13063	0.6551724137931034
13065	0.5172413793103448
13067	0.37931034482758624
13069	0.5517241379310345
13071	0.4827586206896552
13073	0.27586206896551724
13075	0.5172413793103448
13077	0.3448275862068965
13079	0.44827586206896547
13081	0.6896551724137931
13083	0.3103448275862069
13085	0.27586206896551724
13087	0.6551724137931034
13089	0.5862068965517242
13091	0.5172413793103448
13093	0.6896551724137931
13095	0.7931034482758621
13097	0.44827586206896547
13099	0.6206896551724137
13101	0.41379310344827586
13103	0.3103448275862069
13105	0.5172413793103448
13107	0.5862068965517242
13109	0.5172413793103448
13111	0.37931034482758624
13113	0.24137931034482757
13115	0.44827586206896547
13117	0.13793103448275862
13119	0.44827586206896547
13121	0.5517241379310345
13123	0.37931034482758624
13125	0.4827586206896552
13127	0.4827586206896552
13129	0.37931034482758624
13131	0.5172413793103448
13133	0.5172413793103448
13135	0.3448275862068965
13137	0.3448275862068965
13139	0.3103448275862069
13141	0.8275862068965516
13143	0.41379310344827586
13145	0.24137931034482757
13147	0.4827586206896552
13149	0.44827586206896547
13151	0.37931034482758624
13153	0.41379310344827586
13155	0.5172413793103448
13157	0.3103448275862069
13159	0.44827586206896547
13161	0.5517241379310345
13163	0.7586206896551724
13165	0.6896551724137931
13167	0.5517241379310345
13169	0.37931034482758624
13171	0.5172413793103448
13173	0.4827586206896552
13175	0.5862068965517242
13177	0.3448275862068965
13179	0.5517241379310345
13181	0.5172413793103448
13183	0.44827586206896547
13185	0.5517241379310345
13187	0.37931034482758624
13189	0.5517241379310345
13191	0.44827586206896547
13193	0.7586206896551724
13195	0.3448275862068965
13197	0.5172413793103448
13199	0.5172413793103448
13201	0.44827586206896547
13205	0.5862068965517242
13207	0.37931034482758624
13209	0.5172413793103448
13211	0.37931034482758624
13213	0.41379310344827586
13215	0.5862068965517242
13217	0.4827586206896552
13219	0.20689655172413796
13221	0.3448275862068965
13223	0.3103448275862069
13225	0.6206896551724137
13227	0.27586206896551724
13229	0.41379310344827586
13231	0.3103448275862069
13233	0.41379310344827586
13235	0.4827586206896552
13237	0.44827586206896547
13239	0.6206896551724137
13241	0.44827586206896547
13243	0.6896551724137931
13245	0.6551724137931034
13247	0.4827586206896552
13249	0.5517241379310345
13251	0.5862068965517242
13253	0.5172413793103448
13255	0.5517241379310345
13257	0.41379310344827586
13259	0.6896551724137931
13261	0.7241379310344827
13263	0.5862068965517242
13265	0.6551724137931034
13267	0.5172413793103448
13269	0.6551724137931034
13271	0.7241379310344827
13273	0.6896551724137931
13275	0.5862068965517242
13277	0.5172413793103448
13279	0.5517241379310345
13281	0.3103448275862069
13283	0.6206896551724137
13285	0.5517241379310345
13287	0.5862068965517242
13289	0.5862068965517242
13291	0.3103448275862069
13293	0.5172413793103448
13295	0.3448275862068965
13297	0.3448275862068965
13299	0.5517241379310345
13301	0.7586206896551724
13303	0.6206896551724137
13305	0.4827586206896552
13307	0.44827586206896547
13309	0.5862068965517242
13311	0.3448275862068965
13313	0.37931034482758624
13315	0.5862068965517242
13317	0.6206896551724137
13319	0.4827586206896552
13321	0.4827586206896552
15001	0.37931034482758624
15003	0.3103448275862069
15005	0.5862068965517242
15007	0.3103448275862069
15009	0.3103448275862069
16001	0.3448275862068965
16003	0.4827586206896552
16005	0.37931034482758624
16007	0.3103448275862069
16009	0.4827586206896552
16011	0.3103448275862069
16013	0.3103448275862069
16015	0.37931034482758624
16017	0.44827586206896547
16019	0.3103448275862069
16021	0.44827586206896547
16023	0.3448275862068965
16025	0.44827586206896547
16027	0.41379310344827586
16029	0.27586206896551724
16031	0.3448275862068965
16033	0.27586206896551724
16035	0.44827586206896547
16037	0.37931034482758624
16039	0.41379310344827586
16041	0.27586206896551724
16043	0.27586206896551724
16045	0.41379310344827586
16047	0.3448275862068965
16049	0.44827586206896547
16051	0.27586206896551724
16053	0.37931034482758624
16055	0.41379310344827586
16057	0.4827586206896552
16059	0.4827586206896552
16061	0.37931034482758624
16063	0.37931034482758624
16065	0.5862068965517242
16067	0.3103448275862069
16069	0.37931034482758624
16071	0.3103448275862069
16073	0.41379310344827586
16075	0.37931034482758624
16077	0.3103448275862069
16079	0.5172413793103448
16081	0.27586206896551724
16083	0.37931034482758624
16085	0.41379310344827586
16087	0.37931034482758624
17001	0.27586206896551724
17003	0.6206896551724137
17005	0.27586206896551724
17007	0.24137931034482757
17009	0.24137931034482757
17011	0.27586206896551724
17013	0.27586206896551724
17015	0.27586206896551724
17017	0.27586206896551724
17019	0.44827586206896547
17021	0.3103448275862069
17023	0.3103448275862069
17025	0.3448275862068965
17027	0.20689655172413796
17029	0.41379310344827586
17031	0.37931034482758624
17033	0.27586206896551724
17035	0.27586206896551724
17037	0.3448275862068965
17039	0.24137931034482757
17041	0.20689655172413796
17043	0.1724137931034483
17045	0.3103448275862069
17047	0.24137931034482757
17049	0.20689655172413796
17051	0.3448275862068965
17053	0.24137931034482757
17055	0.37931034482758624
17057	0.3103448275862069
17059	0.3103448275862069
17061	0.27586206896551724
17063	0.24137931034482757
17065	0.24137931034482757
17067	0.27586206896551724
17069	0.37931034482758624
17071	0.24137931034482757
17073	0.20689655172413796
17075	0.24137931034482757
17077	0.5172413793103448
17079	0.20689655172413796
17081	0.3448275862068965
17083	0.24137931034482757
17085	0.20689655172413796
17087	0.3103448275862069
17089	0.20689655172413796
17091	0.37931034482758624
17093	0.13793103448275862
17095	0.3448275862068965
17097	0.20689655172413796
17099	0.27586206896551724
17101	0.3448275862068965
17103	0.27586206896551724
17105	0.27586206896551724
17107	0.3103448275862069
17109	0.37931034482758624
17111	0.1724137931034483
17113	0.3103448275862069
17115	0.41379310344827586
17117	0.27586206896551724
17119	0.3103448275862069
17121	0.3448275862068965
17123	0.20689655172413796
17125	0.3103448275862069
17127	0.3103448275862069
17129	0.20689655172413796
17131	0.24137931034482757
17133	0.1724137931034483
17135	0.37931034482758624
17137	0.3103448275862069
17139	0.20689655172413796
17141	0.27586206896551724
17143	0.37931034482758624
17145	0.37931034482758624
17147	0.1724137931034483
17149	0.27586206896551724
17151	0.3103448275862069
17153	0.4827586206896552
17155	0.27586206896551724
17157	0.3103448275862069
17159	0.3103448275862069
17161	0.27586206896551724
17163	0.44827586206896547
17165	0.3448275862068965
17167	0.3103448275862069
17169	0.24137931034482757
17171	0.27586206896551724
17173	0.24137931034482757
17175	0.27586206896551724
17177	0.3448275862068965
17179	0.20689655172413796
17181	0.37931034482758624
17183	0.41379310344827586
17185	0.27586206896551724
17187	0.27586206896551724
17189	0.20689655172413796
17191	0.27586206896551724
17193	0.27586206896551724
17195	0.27586206896551724
17197	0.20689655172413796
17199	0.3103448275862069
17201	0.41379310344827586
17203	0.1724137931034483
18001	0.3448275862068965
18003	0.37931034482758624
18005	0.3103448275862069
18007	0.3103448275862069
18009	0.41379310344827586
18011	0.24137931034482757
18013	0.3103448275862069
18015	0.27586206896551724
18017	0.3448275862068965
18019	0.3448275862068965
18021	0.37931034482758624
18023	0.3103448275862069
18025	0.37931034482758624
18027	0.3103448275862069
18029	0.3103448275862069
18031	0.37931034482758624
18033	0.3103448275862069
18035	0.4827586206896552
18037	0.24137931034482757
18039	0.37931034482758624
18041	0.4827586206896552
18043	0.3448275862068965
18045	0.3103448275862069
18047	0.3103448275862069
18049	0.3448275862068965
18051	0.3103448275862069
18053	0.44827586206896547
18055	0.3448275862068965
18057	0.20689655172413796
18059	0.24137931034482757
18061	0.27586206896551724
18063	0.24137931034482757
18065	0.37931034482758624
18067	0.41379310344827586
18069	0.3103448275862069
18071	0.3103448275862069
18073	0.27586206896551724
18075	0.3103448275862069
18077	0.3448275862068965
18079	0.37931034482758624
18081	0.27586206896551724
18083	0.3448275862068965
18085	0.27586206896551724
18087	0.3103448275862069
18089	0.44827586206896547
18091	0.41379310344827586
18093	0.41379310344827586
18095	0.41379310344827586
18097	0.5172413793103448
18099	0.3103448275862069
18101	0.27586206896551724
18103	0.41379310344827586
18105	0.4827586206896552
18107	0.37931034482758624
18109	0.3103448275862069
18111	0.3448275862068965
18113	0.3103448275862069
18115	0.3103448275862069
18117	0.41379310344827586
18119	0.37931034482758624
18121	0.3448275862068965
18123	0.3103448275862069
18125	0.3103448275862069
18127	0.27586206896551724
18129	0.27586206896551724
18131	0.3448275862068965
18133	0.3448275862068965
18135	0.37931034482758624
18137	0.3103448275862069
18139	0.3448275862068965
18141	0.44827586206896547
18143	0.41379310344827586
18145	0.3103448275862069
18147	0.27586206896551724
18149	0.37931034482758624
18151	0.3103448275862069
18153	0.41379310344827586
18155	0.3448275862068965
18157	0.44827586206896547
18159	0.3103448275862069
18161	0.3448275862068965
18163	0.41379310344827586
18165	0.41379310344827586
18167	0.4827586206896552
18169	0.3448275862068965
18171	0.27586206896551724
18173	0.24137931034482757
18175	0.3448275862068965
18177	0.44827586206896547
18179	0.27586206896551724
18181	0.3103448275862069
18183	0.27586206896551724
19001	0.24137931034482757
19003	0.24137931034482757
19005	0.27586206896551724
19007	0.3448275862068965
19009	0.27586206896551724
19011	0.24137931034482757
19013	0.37931034482758624
19015	0.24137931034482757
19017	0.20689655172413796
19019	0.27586206896551724
19021	0.24137931034482757
19023	0.24137931034482757
19025	0.27586206896551724
19027	0.24137931034482757
19029	0.3103448275862069
19031	0.20689655172413796
19033	0.3103448275862069
19035	0.24137931034482757
19037	0.24137931034482757
19039	0.27586206896551724
19041	0.27586206896551724
19043	0.27586206896551724
19045	0.3103448275862069
19047	0.20689655172413796
19049	0.20689655172413796
19051	0.3103448275862069
19053	0.3448275862068965
19055	0.24137931034482757
19057	0.3448275862068965
19059	0.24137931034482757
19061	0.27586206896551724
19063	0.24137931034482757
19065	0.3103448275862069
19067	0.3103448275862069
19069	0.24137931034482757
19071	0.24137931034482757
19073	0.27586206896551724
19075	0.20689655172413796
19077	0.24137931034482757
19079	0.3103448275862069
19081	0.24137931034482757
19083	0.27586206896551724
19085	0.24137931034482757
19087	0.3448275862068965
19089	0.27586206896551724
19091	0.27586206896551724
19093	0.27586206896551724
19095	0.24137931034482757
19097	0.3103448275862069
19099	0.3448275862068965
19101	0.3103448275862069
19103	0.3448275862068965
19105	0.24137931034482757
19107	0.27586206896551724
19109	0.20689655172413796
19111	0.37931034482758624
19113	0.27586206896551724
19115	0.24137931034482757
19117	0.3103448275862069
19119	0.20689655172413796
19121	0.27586206896551724
19123	0.3448275862068965
19125	0.24137931034482757
19127	0.27586206896551724
19129	0.1724137931034483
19131	0.20689655172413796
19133	0.3448275862068965
19135	0.27586206896551724
19137	0.3103448275862069
19139	0.27586206896551724
19141	0.24137931034482757
19143	0.24137931034482757
19145	0.3103448275862069
19147	0.27586206896551724
19149	0.20689655172413796
19151	0.27586206896551724
19153	0.3103448275862069
19155	0.27586206896551724
19157	0.27586206896551724
19159	0.27586206896551724
19161	0.24137931034482757
19163	0.3448275862068965
19165	0.24137931034482757
19167	0.1724137931034483
19169	0.37931034482758624
19171	0.27586206896551724
19173	0.27586206896551724
19175	0.3448275862068965
19177	0.3103448275862069
19179	0.3448275862068965
19181	0.20689655172413796
19183	0.24137931034482757
19185	0.27586206896551724
19187	0.37931034482758624
19189	0.27586206896551724
19191	0.24137931034482757
19193	0.3103448275862069
19195	0.27586206896551724
19197	0.27586206896551724
20001	0.37931034482758624
20003	0.3448275862068965
20005	0.37931034482758624
20007	0.27586206896551724
20009	0.3103448275862069
20011	0.37931034482758624
20013	0.41379310344827586
20015	0.27586206896551724
20017	0.3103448275862069
20019	0.3448275862068965
20021	0.37931034482758624
20023	0.27586206896551724
20025	0.3103448275862069
20027	0.3103448275862069
20029	0.3103448275862069
20031	0.3103448275862069
20033	0.24137931034482757
20035	0.37931034482758624
20037	0.44827586206896547
20039	0.27586206896551724
20041	0.3103448275862069
20043	0.3448275862068965
20045	0.44827586206896547
20047	0.27586206896551724
20049	0.3448275862068965
20051	0.3448275862068965
20053	0.24137931034482757
20055	0.24137931034482757
20057	0.24137931034482757
20059	0.37931034482758624
20061	0.4827586206896552
20063	0.24137931034482757
20065	0.24137931034482757
20067	0.1724137931034483
20069	0.20689655172413796
20071	0.20689655172413796
20073	0.3448275862068965
20075	0.20689655172413796
20077	0.3103448275862069
20079	0.3103448275862069
20081	0.20689655172413796
20083	0.20689655172413796
20085	0.3103448275862069
20087	0.24137931034482757
20089	0.27586206896551724
20091	0.27586206896551724
20093	0.20689655172413796
20095	0.3103448275862069
20097	0.3103448275862069
20099	0.41379310344827586
20101	0.24137931034482757
20103	0.37931034482758624
20105	0.27586206896551724
20107	0.3448275862068965
20109	0.27586206896551724
20111	0.37931034482758624
20113	0.24137931034482757
20115	0.27586206896551724
20117	0.27586206896551724
20119	0.24137931034482757
20121	0.27586206896551724
20123	0.24137931034482757
20125	0.41379310344827586
20127	0.3103448275862069
20129	0.24137931034482757
20131	0.27586206896551724
20133	0.37931034482758624
20135	0.20689655172413796
20137	0.27586206896551724
20139	0.3103448275862069
20141	0.27586206896551724
20143	0.27586206896551724
20145	0.27586206896551724
20147	0.27586206896551724
20149	0.27586206896551724
20151	0.3103448275862069
20153	0.3103448275862069
20155	0.3448275862068965
20157	0.27586206896551724
20159	0.3103448275862069
20161	0.4827586206896552
20163	0.3448275862068965
20165	0.3103448275862069
20167	0.27586206896551724
20169	0.37931034482758624
20171	0.1724137931034483
20173	0.37931034482758624
20175	0.24137931034482757
20177	0.41379310344827586
20179	0.27586206896551724
20181	0.3448275862068965
20183	0.27586206896551724
20185	0.27586206896551724
20187	0.13793103448275862
20189	0.20689655172413796
20191	0.3448275862068965
20193	0.3103448275862069
20195	0.24137931034482757
20197	0.24137931034482757
20199	0.24137931034482757
20201	0.27586206896551724
20203	0.24137931034482757
20205	0.37931034482758624
20207	0.41379310344827586
20209	0.5172413793103448
21001	0.37931034482758624
21003	0.37931034482758624
21005	0.3103448275862069
21007	0.3103448275862069
21009	0.41379310344827586
21011	0.4827586206896552
21013	0.5862068965517242
21015	0.24137931034482757
21017	0.41379310344827586
21019	0.37931034482758624
21021	0.41379310344827586
21023	0.3448275862068965
21025	0.5172413793103448
21027	0.37931034482758624
21029	0.27586206896551724
21031	0.37931034482758624
21033	0.37931034482758624
21035	0.37931034482758624
21037	0.3103448275862069
21039	0.27586206896551724
21041	0.4827586206896552
21043	0.41379310344827586
21045	0.41379310344827586
21047	0.5517241379310345
21049	0.37931034482758624
21051	0.5862068965517242
21053	0.44827586206896547
21055	0.37931034482758624
21057	0.4827586206896552
21059	0.3448275862068965
21061	0.37931034482758624
21063	0.5172413793103448
21065	0.44827586206896547
21067	0.41379310344827586
21069	0.37931034482758624
21071	0.4827586206896552
21073	0.37931034482758624
21075	0.6551724137931034
21077	0.37931034482758624
21079	0.3448275862068965
21081	0.3448275862068965
21083	0.37931034482758624
21085	0.44827586206896547
21087	0.37931034482758624
21089	0.3448275862068965
21091	0.27586206896551724
21093	0.41379310344827586
21095	0.5862068965517242
21097	0.41379310344827586
21099	0.41379310344827586
21101	0.37931034482758624
21103	0.37931034482758624
21105	0.37931034482758624
21107	0.37931034482758624
21109	0.5862068965517242
21111	0.44827586206896547
21113	0.3448275862068965
21115	0.41379310344827586
21117	0.3448275862068965
21119	0.4827586206896552
21121	0.5862068965517242
21123	0.3448275862068965
21125	0.41379310344827586
21127	0.44827586206896547
21129	0.5862068965517242
21131	0.4827586206896552
21133	0.5172413793103448
21135	0.5172413793103448
21137	0.44827586206896547
21139	0.3103448275862069
21141	0.37931034482758624
21143	0.37931034482758624
21145	0.41379310344827586
21147	0.5862068965517242
21149	0.3448275862068965
21151	0.41379310344827586
21153	0.5862068965517242
21155	0.37931034482758624
21157	0.3103448275862069
21159	0.5517241379310345
21161	0.41379310344827586
21163	0.37931034482758624
21165	0.5172413793103448
21167	0.37931034482758624
21169	0.3448275862068965
21171	0.41379310344827586
21173	0.44827586206896547
21175	0.5172413793103448
21177	0.37931034482758624
21179	0.37931034482758624
21181	0.3448275862068965
21183	0.3448275862068965
21185	0.20689655172413796
21187	0.3448275862068965
21189	0.5517241379310345
21191	0.3448275862068965
21193	0.4827586206896552
21195	0.41379310344827586
21197	0.5172413793103448
21199	0.44827586206896547
21201	0.44827586206896547
21203	0.41379310344827586
21205	0.4827586206896552
21207	0.41379310344827586
21209	0.3103448275862069
21211	0.3103448275862069
21213	0.41379310344827586
21215	0.24137931034482757
21217	0.41379310344827586
21219	0.41379310344827586
21221	0.3448275862068965
21223	0.3448275862068965
21225	0.41379310344827586
21227	0.41379310344827586
21229	0.3448275862068965
21231	0.5172413793103448
21233	0.3448275862068965
21235	0.4827586206896552
21237	0.6206896551724137
21239	0.27586206896551724
22001	0.3448275862068965
22003	0.3448275862068965
22005	0.24137931034482757
22007	0.37931034482758624
22009	0.41379310344827586
22011	0.27586206896551724
22013	0.4827586206896552
22015	0.27586206896551724
22017	0.4827586206896552
22019	0.3448275862068965
22021	0.37931034482758624
22023	0.10344827586206895
22025	0.37931034482758624
22027	0.5172413793103448
22029	0.5862068965517242
22031	0.41379310344827586
22033	0.44827586206896547
22035	0.896551724137931
22037	0.41379310344827586
22039	0.41379310344827586
22041	0.5172413793103448
22043	0.3103448275862069
22045	0.37931034482758624
22047	0.44827586206896547
22049	0.41379310344827586
22051	0.3448275862068965
22053	0.3103448275862069
22055	0.3448275862068965
22057	0.20689655172413796
22059	0.1724137931034483
22061	0.5517241379310345
22063	0.20689655172413796
22065	0.7241379310344827
22067	0.5862068965517242
22069	0.5517241379310345
22071	0.6206896551724137
22073	0.4827586206896552
22075	0.24137931034482757
22077	0.37931034482758624
22079	0.41379310344827586
22081	0.41379310344827586
22083	0.44827586206896547
22085	0.3103448275862069
22087	0.3448275862068965
22089	0.24137931034482757
22091	0.5517241379310345
22093	0.41379310344827586
22095	0.41379310344827586
22097	0.4827586206896552
22099	0.3448275862068965
22101	0.41379310344827586
22103	0.20689655172413796
22105	0.41379310344827586
22107	0.6551724137931034
22109	0.27586206896551724
22111	0.37931034482758624
22113	0.27586206896551724
22115	0.3448275862068965
22117	0.4827586206896552
22119	0.44827586206896547
22121	0.37931034482758624
22123	0.44827586206896547
22125	0.41379310344827586
22127	0.41379310344827586
23001	0.41379310344827586
23003	0.44827586206896547
23005	0.3448275862068965
23007	0.41379310344827586
23009	0.37931034482758624
23011	0.37931034482758624
23013	0.3448275862068965
23015	0.3103448275862069
23017	0.41379310344827586
23019	0.44827586206896547
23021	0.44827586206896547
23023	0.3103448275862069
23025	0.44827586206896547
23027	0.37931034482758624
23029	0.4827586206896552
23031	0.3448275862068965
24001	0.3103448275862069
24003	0.1724137931034483
24005	0.27586206896551724
24009	0.13793103448275862
24011	0.27586206896551724
24013	0.10344827586206895
24015	0.24137931034482757
24017	0.24137931034482757
24019	0.41379310344827586
24021	0.13793103448275862
24023	0.24137931034482757
24025	0.1724137931034483
24027	0.13793103448275862
24029	0.27586206896551724
24031	0.13793103448275862
24033	0.37931034482758624
24035	0.13793103448275862
24037	0.1724137931034483
24039	0.4827586206896552
24041	0.24137931034482757
24043	0.3103448275862069
24045	0.37931034482758624
24047	0.3103448275862069
24510	0.6551724137931034
25001	0.1724137931034483
25003	0.24137931034482757
25005	0.27586206896551724
25007	0.1724137931034483
25009	0.20689655172413796
25011	0.20689655172413796
25013	0.3103448275862069
25015	0.20689655172413796
25017	0.1724137931034483
25019	0.1724137931034483
25021	0.1724137931034483
25023	0.1724137931034483
25025	0.44827586206896547
25027	0.20689655172413796
26001	0.3448275862068965
26003	0.3448275862068965
26005	0.24137931034482757
26007	0.3448275862068965
26009	0.3103448275862069
26011	0.37931034482758624
26013	0.4827586206896552
26015	0.20689655172413796
26017	0.3103448275862069
26019	0.3103448275862069
26021	0.41379310344827586
26023	0.3448275862068965
26025	0.37931034482758624
26027	0.27586206896551724
26029	0.3103448275862069
26031	0.3448275862068965
26033	0.41379310344827586
26035	0.44827586206896547
26037	0.20689655172413796
26039	0.3448275862068965
26041	0.3103448275862069
26043	0.27586206896551724
26045	0.27586206896551724
26047	0.3448275862068965
26049	0.44827586206896547
26051	0.41379310344827586
26053	0.37931034482758624
26055	0.27586206896551724
26057	0.37931034482758624
26059	0.3448275862068965
26061	0.41379310344827586
26063	0.27586206896551724
26065	0.44827586206896547
26067	0.3103448275862069
26069	0.37931034482758624
26071	0.3103448275862069
26073	0.4827586206896552
26075	0.3448275862068965
26077	0.37931034482758624
26079	0.3448275862068965
26081	0.3103448275862069
26083	0.37931034482758624
26085	0.44827586206896547
26087	0.3103448275862069
26089	0.24137931034482757
26091	0.3103448275862069
26093	0.20689655172413796
26095	0.37931034482758624
26097	0.37931034482758624
26099	0.3448275862068965
26101	0.3448275862068965
26103	0.3448275862068965
26105	0.3448275862068965
26107	0.41379310344827586
26109	0.27586206896551724
26111	0.27586206896551724
26113	0.3448275862068965
26115	0.27586206896551724
26117	0.37931034482758624
26119	0.44827586206896547
26121	0.41379310344827586
26123	0.3103448275862069
26125	0.3448275862068965
26127	0.3448275862068965
26129	0.37931034482758624
26131	0.37931034482758624
26133	0.37931034482758624
26135	0.44827586206896547
26137	0.3103448275862069
26139	0.24137931034482757
26141	0.3448275862068965
26143	0.41379310344827586
26145	0.41379310344827586
26147	0.37931034482758624
26149	0.3103448275862069
26151	0.3448275862068965
26153	0.37931034482758624
26155	0.3103448275862069
26157	0.3448275862068965
26159	0.3448275862068965
26161	0.3448275862068965
26163	0.5862068965517242
26165	0.37931034482758624
27001	0.24137931034482757
27003	0.13793103448275862
27005	0.20689655172413796
27007	0.3103448275862069
27009	0.24137931034482757
27011	0.20689655172413796
27013	0.27586206896551724
27015	0.1724137931034483
27017	0.24137931034482757
27019	0.10344827586206895
27021	0.27586206896551724
27023	0.20689655172413796
27025	0.1724137931034483
27027	0.20689655172413796
27029	0.3448275862068965
27031	0.20689655172413796
27033	0.20689655172413796
27035	0.24137931034482757
27037	0.13793103448275862
27039	0.10344827586206895
27041	0.1724137931034483
27043	0.20689655172413796
27045	0.20689655172413796
27047	0.20689655172413796
27049	0.1724137931034483
27051	0.20689655172413796
27053	0.27586206896551724
27055	0.1724137931034483
27057	0.24137931034482757
27059	0.1724137931034483
27061	0.24137931034482757
27063	0.1724137931034483
27065	0.27586206896551724
27067	0.20689655172413796
27069	0.1724137931034483
27071	0.27586206896551724
27073	0.13793103448275862
27075	0.20689655172413796
27077	0.20689655172413796
27079	0.1724137931034483
27081	0.13793103448275862
27083	0.24137931034482757
27085	0.20689655172413796
27087	0.3448275862068965
27089	0.1724137931034483
27091	0.20689655172413796
27093	0.20689655172413796
27095	0.27586206896551724
27097	0.24137931034482757
27099	0.20689655172413796
27101	0.13793103448275862
27103	0.1724137931034483
27105	0.20689655172413796
27107	0.1724137931034483
27109	0.1724137931034483
27111	0.20689655172413796
27113	0.20689655172413796
27115	0.27586206896551724
27117	0.1724137931034483
27119	0.20689655172413796
27121	0.13793103448275862
27123	0.3103448275862069
27125	0.20689655172413796
27127	0.20689655172413796
27129	0.20689655172413796
27131	0.20689655172413796
27133	0.1724137931034483
27135	0.1724137931034483
27137	0.27586206896551724
27139	0.10344827586206895
27141	0.1724137931034483
27143	0.1724137931034483
27145	0.24137931034482757
27147	0.1724137931034483
27149	0.20689655172413796
27151	0.20689655172413796
27153	0.20689655172413796
27155	0.1724137931034483
27157	0.13793103448275862
27159	0.3103448275862069
27161	0.1724137931034483
27163	0.13793103448275862
27165	0.1724137931034483
27167	0.13793103448275862
27169	0.24137931034482757
27171	0.13793103448275862
27173	0.1724137931034483
28001	0.6896551724137931
28003	0.4827586206896552
28005	0.6206896551724137
28007	0.6551724137931034
28009	0.6206896551724137
28011	0.8275862068965516
28013	0.5172413793103448
28015	0.5517241379310345
28017	0.6551724137931034
28019	0.5517241379310345
28021	0.8620689655172413
28023	0.5862068965517242
28025	0.7931034482758621
28027	0.9310344827586206
28029	0.6206896551724137
28031	0.5517241379310345
28033	0.3448275862068965
28035	0.6551724137931034
28037	0.5517241379310345
28039	0.41379310344827586
28041	0.5172413793103448
28043	0.5862068965517242
28045	0.41379310344827586
28047	0.5172413793103448
28049	0.7241379310344827
28051	1.0
28053	1.0
28055	0.7931034482758621
28057	0.37931034482758624
28059	0.4827586206896552
28061	0.5862068965517242
28063	0.9655172413793103
28065	0.6896551724137931
28067	0.4827586206896552
28069	0.7241379310344827
28071	0.5172413793103448
28073	0.44827586206896547
28075	0.6206896551724137
28077	0.5172413793103448
28079	0.6206896551724137
28081	0.5172413793103448
28083	0.9310344827586206
28085	0.5172413793103448
28087	0.6551724137931034
28089	0.44827586206896547
28091	0.5862068965517242
28093	0.6206896551724137
28095	0.5517241379310345
28097	0.7241379310344827
28099	0.4827586206896552
28101	0.4827586206896552
28103	0.896551724137931
28105	0.7241379310344827
28107	0.6551724137931034
28109	0.44827586206896547
28111	0.4827586206896552
28113	0.6896551724137931
28115	0.37931034482758624
28117	0.4827586206896552
28119	0.8620689655172413
28121	0.3448275862068965
28123	0.4827586206896552
28125	0.8275862068965516
28127	0.5172413793103448
28129	0.4827586206896552
28131	0.44827586206896547
28133	0.9310344827586206
28135	0.7241379310344827
28137	0.5172413793103448
28139	0.5172413793103448
28141	0.44827586206896547
28143	0.9310344827586206
28145	0.4827586206896552
28147	0.6206896551724137
28149	0.6551724137931034
28151	0.9310344827586206
28153	0.6206896551724137
28155	0.5862068965517242
28157	0.7241379310344827
28159	0.6896551724137931
28161	0.5517241379310345
28163	0.7931034482758621
29001	0.44827586206896547
29003	0.24137931034482757
29005	0.3103448275862069
29007	0.37931034482758624
29009	0.3448275862068965
29011	0.41379310344827586
29013	0.41379310344827586
29015	0.37931034482758624
29017	0.37931034482758624
29019	0.44827586206896547
29021	0.37931034482758624
29023	0.44827586206896547
29025	0.37931034482758624
29027	0.3103448275862069
29029	0.37931034482758624
29031	0.37931034482758624
29033	0.3448275862068965
29035	0.4827586206896552
29037	0.3103448275862069
29039	0.41379310344827586
29041	0.3448275862068965
29043	0.3103448275862069
29045	0.37931034482758624
29047	0.3103448275862069
29049	0.3448275862068965
29051	0.37931034482758624
29053	0.41379310344827586
29055	0.41379310344827586
29057	0.41379310344827586
29059	0.41379310344827586
29061	0.3448275862068965
29063	0.37931034482758624
29065	0.41379310344827586
29067	0.44827586206896547
29069	0.5517241379310345
29071	0.3448275862068965
29073	0.3448275862068965
29075	0.3448275862068965
29077	0.41379310344827586
29079	0.3448275862068965
29081	0.3448275862068965
29083	0.41379310344827586
29085	0.44827586206896547
29087	0.3448275862068965
29089	0.37931034482758624
29091	0.41379310344827586
29093	0.44827586206896547
29095	0.4827586206896552
29097	0.41379310344827586
29099	0.3103448275862069
29101	0.41379310344827586
29103	0.37931034482758624
29105	0.44827586206896547
29107	0.3448275862068965
29109	0.3448275862068965
29111	0.3448275862068965
29113	0.3448275862068965
29115	0.37931034482758624
29117	0.41379310344827586
29119	0.37931034482758624
29121	0.3448275862068965
29123	0.37931034482758624
29125	0.3103448275862069
29127	0.37931034482758624
29129	0.3448275862068965
29131	0.41379310344827586
29133	0.5517241379310345
29135	0.3448275862068965
29137	0.37931034482758624
29139	0.37931034482758624
29141	0.41379310344827586
29143	0.5172413793103448
29145	0.3448275862068965
29147	0.4827586206896552
29149	0.44827586206896547
29151	0.27586206896551724
29153	0.37931034482758624
29155	0.6551724137931034
29157	0.3103448275862069
29159	0.37931034482758624
29161	0.41379310344827586
29163	0.37931034482758624
29165	0.3103448275862069
29167	0.44827586206896547
29169	0.4827586206896552
29171	0.37931034482758624
29173	0.27586206896551724
29175	0.41379310344827586
29177	0.3448275862068965
29179	0.4827586206896552
29181	0.4827586206896552
29183	0.24137931034482757
29185	0.41379310344827586
29186	0.3103448275862069
29187	0.44827586206896547
29189	0.41379310344827586
29195	0.41379310344827586
29197	0.44827586206896547
29199	0.3448275862068965
29201	0.44827586206896547
29203	0.44827586206896547
29205	0.37931034482758624
29207	0.41379310344827586
29209	0.44827586206896547
29211	0.3448275862068965
29213	0.44827586206896547
29215	0.41379310344827586
29217	0.41379310344827586
29219	0.3448275862068965
29221	0.4827586206896552
29223	0.44827586206896547
29225	0.37931034482758624
29227	0.3103448275862069
29229	0.4827586206896552
29510	0.7586206896551724
30001	0.3448275862068965
30003	0.5517241379310345
30005	0.41379310344827586
30007	0.3103448275862069
30009	0.27586206896551724
30011	0.27586206896551724
30013	0.3448275862068965
30015	0.3448275862068965
30017	0.3103448275862069
30019	0.24137931034482757
30021	0.27586206896551724
30023	0.41379310344827586
30025	0.20689655172413796
30027	0.3103448275862069
30029	0.37931034482758624
30031	0.3448275862068965
30033	0.24137931034482757
30035	0.5517241379310345
30037	0.3103448275862069
30039	0.37931034482758624
30041	0.3448275862068965
30043	0.20689655172413796
30045	0.24137931034482757
30047	0.44827586206896547
30049	0.27586206896551724
30051	0.41379310344827586
30053	0.4827586206896552
30055	0.20689655172413796
30057	0.3103448275862069
30059	0.3448275862068965
30061	0.44827586206896547
30063	0.37931034482758624
30065	0.27586206896551724
30067	0.3103448275862069
30069	0.27586206896551724
30071	0.27586206896551724
30073	0.3448275862068965
30075	0.24137931034482757
30077	0.3448275862068965
30079	0.27586206896551724
30081	0.3448275862068965
30083	0.27586206896551724
30085	0.44827586206896547
30087	0.37931034482758624
30089	0.4827586206896552
30091	0.24137931034482757
30093	0.3448275862068965
30095	0.24137931034482757
30097	0.24137931034482757
30099	0.27586206896551724
30101	0.3103448275862069
30103	0.27586206896551724
30105	0.3103448275862069
30107	0.27586206896551724
30109	0.27586206896551724
30111	0.27586206896551724
31001	0.27586206896551724
31003	0.27586206896551724
31005	0.3103448275862069
31007	0.37931034482758624
31009	0.41379310344827586
31011	0.20689655172413796
31013	0.3448275862068965
31015	0.24137931034482757
31017	0.27586206896551724
31019	0.27586206896551724
31021	0.24137931034482757
31023	0.24137931034482757
31025	0.20689655172413796
31027	0.20689655172413796
31029	0.20689655172413796
31031	0.24137931034482757
31033	0.27586206896551724
31035	0.20689655172413796
31037	0.20689655172413796
31039	0.24137931034482757
31041	0.20689655172413796
31043	0.3103448275862069
31045	0.41379310344827586
31047	0.24137931034482757
31049	0.24137931034482757
31051	0.24137931034482757
31053	0.27586206896551724
31055	0.3448275862068965
31057	0.24137931034482757
31059	0.20689655172413796
31061	0.24137931034482757
31063	0.24137931034482757
31065	0.3103448275862069
31067	0.27586206896551724
31069	0.24137931034482757
31071	0.27586206896551724
31073	0.24137931034482757
31075	0.3448275862068965
31077	0.24137931034482757
31079	0.27586206896551724
31081	0.20689655172413796
31083	0.24137931034482757
31085	0.24137931034482757
31087	0.27586206896551724
31089	0.20689655172413796
31091	0.24137931034482757
31093	0.20689655172413796
31095	0.24137931034482757
31097	0.27586206896551724
31099	0.1724137931034483
31101	0.27586206896551724
31103	0.3103448275862069
31105	0.24137931034482757
31107	0.27586206896551724
31109	0.3448275862068965
31111	0.24137931034482757
31113	0.20689655172413796
31115	0.3103448275862069
31117	0.27586206896551724
31119	0.27586206896551724
31121	0.27586206896551724
31123	0.27586206896551724
31125	0.27586206896551724
31127	0.3103448275862069
31129	0.27586206896551724
31131	0.27586206896551724
31133	0.27586206896551724
31135	0.20689655172413796
31137	0.24137931034482757
31139	0.20689655172413796
31141	0.24137931034482757
31143	0.20689655172413796
31145	0.27586206896551724
31147	0.3103448275862069
31149	0.1724137931034483
31151	0.27586206896551724
31153	0.24137931034482757
31155	0.20689655172413796
31157	0.27586206896551724
31159	0.20689655172413796
31161	0.3103448275862069
31163	0.24137931034482757
31165	0.24137931034482757
31167	0.20689655172413796
31169	0.24137931034482757
31171	0.24137931034482757
31173	0.44827586206896547
31175	0.24137931034482757
31177	0.20689655172413796
31179	0.3103448275862069
31181	0.27586206896551724
31183	0.27586206896551724
31185	0.27586206896551724
32001	0.3448275862068965
32003	0.41379310344827586
32005	0.3448275862068965
32007	0.1724137931034483
32009	0.37931034482758624
32011	0.27586206896551724
32013	0.24137931034482757
32015	0.1724137931034483
32017	0.41379310344827586
32019	0.41379310344827586
32021	0.4827586206896552
32023	0.44827586206896547
32027	0.37931034482758624
32029	0.24137931034482757
32031	0.37931034482758624
32033	0.3103448275862069
32510	0.37931034482758624
33001	0.20689655172413796
33003	0.20689655172413796
33005	0.24137931034482757
33007	0.3103448275862069
33009	0.20689655172413796
33011	0.20689655172413796
33013	0.20689655172413796
33015	0.1724137931034483
33017	0.24137931034482757
33019	0.20689655172413796
34001	0.37931034482758624
34003	0.20689655172413796
34005	0.24137931034482757
34007	0.3448275862068965
34009	0.3448275862068965
34011	0.41379310344827586
34013	0.5172413793103448
34015	0.24137931034482757
34017	0.41379310344827586
34019	0.10344827586206895
34021	0.27586206896551724
34023	0.24137931034482757
34025	0.20689655172413796
34027	0.13793103448275862
34029	0.24137931034482757
34031	0.37931034482758624
34033	0.3448275862068965
34035	0.13793103448275862
34037	0.1724137931034483
34039	0.3103448275862069
34041	0.20689655172413796
35001	0.44827586206896547
35003	0.41379310344827586
35005	0.44827586206896547
35006	0.4827586206896552
35007	0.44827586206896547
35009	0.44827586206896547
35011	0.37931034482758624
35013	0.44827586206896547
35015	0.3103448275862069
35017	0.37931034482758624
35019	0.41379310344827586
35021	0.3448275862068965
35023	0.41379310344827586
35025	0.3448275862068965
35027	0.37931034482758624
35028	0.27586206896551724
35029	0.6551724137931034
35031	0.6206896551724137
35033	0.3448275862068965
35035	0.4827586206896552
35037	0.41379310344827586
35039	0.3448275862068965
35041	0.4827586206896552
35043	0.37931034482758624
35045	0.4827586206896552
35047	0.41379310344827586
35049	0.3448275862068965
35051	0.4827586206896552
35053	0.41379310344827586
35055	0.44827586206896547
35057	0.4827586206896552
35059	0.37931034482758624
35061	0.37931034482758624
36001	0.3103448275862069
36003	0.27586206896551724
36005	0.6206896551724137
36007	0.3103448275862069
36009	0.27586206896551724
36011	0.24137931034482757
36013	0.3103448275862069
36015	0.3103448275862069
36017	0.24137931034482757
36019	0.3103448275862069
36021	0.20689655172413796
36023	0.27586206896551724
36025	0.27586206896551724
36027	0.20689655172413796
36029	0.3103448275862069
36031	0.27586206896551724
36033	0.3103448275862069
36035	0.3103448275862069
36037	0.24137931034482757
36039	0.27586206896551724
36041	0.1724137931034483
36043	0.27586206896551724
36045	0.3448275862068965
36047	0.5517241379310345
36049	0.27586206896551724
36051	0.24137931034482757
36053	0.24137931034482757
36055	0.3103448275862069
36057	0.3103448275862069
36059	0.10344827586206895
36061	0.41379310344827586
36063	0.27586206896551724
36065	0.3103448275862069
36067	0.3103448275862069
36069	0.20689655172413796
36071	0.20689655172413796
36073	0.27586206896551724
36075	0.3103448275862069
36077	0.27586206896551724
36079	0.06896551724137931
36081	0.3448275862068965
36083	0.27586206896551724
36085	0.24137931034482757
36087	0.20689655172413796
36089	0.3448275862068965
36091	0.1724137931034483
36093	0.27586206896551724
36095	0.24137931034482757
36097	0.20689655172413796
36099	0.24137931034482757
36101	0.27586206896551724
36103	0.10344827586206895
36105	0.3103448275862069
36107	0.1724137931034483
36109	0.3103448275862069
36111	0.24137931034482757
36113	0.24137931034482757
36115	0.24137931034482757
36117	0.20689655172413796
36119	0.20689655172413796
36121	0.24137931034482757
36123	0.24137931034482757
37001	0.44827586206896547
37003	0.41379310344827586
37005	0.41379310344827586
37007	0.6551724137931034
37009	0.41379310344827586
37011	0.44827586206896547
37013	0.5172413793103448
37015	0.6896551724137931
37017	0.6206896551724137
37019	0.41379310344827586
37021	0.41379310344827586
37023	0.44827586206896547
37025	0.37931034482758624
37027	0.44827586206896547
37029	0.27586206896551724
37031	0.37931034482758624
37033	0.5172413793103448
37035	0.41379310344827586
37037	0.3103448275862069
37039	0.41379310344827586
37041	0.5862068965517242
37043	0.41379310344827586
37045	0.5172413793103448
37047	0.5862068965517242
37049	0.4827586206896552
37051	0.5862068965517242
37053	0.27586206896551724
37055	0.37931034482758624
37057	0.41379310344827586
37059	0.3103448275862069
37061	0.5172413793103448
37063	0.5172413793103448
37065	0.7586206896551724
37067	0.4827586206896552
37069	0.44827586206896547
37071	0.4827586206896552
37073	0.44827586206896547
37075	0.4827586206896552
37077	0.44827586206896547
37079	0.5172413793103448
37081	0.5172413793103448
37083	0.7241379310344827
37085	0.4827586206896552
37087	0.3448275862068965
37089	0.3103448275862069
37091	0.6896551724137931
37093	0.5172413793103448
37095	0.5517241379310345
37097	0.37931034482758624
37099	0.41379310344827586
37101	0.37931034482758624
37103	0.5172413793103448
37105	0.4827586206896552
37107	0.6206896551724137
37109	0.37931034482758624
37111	0.44827586206896547
37113	0.41379310344827586
37115	0.37931034482758624
37117	0.6206896551724137
37119	0.4827586206896552
37121	0.44827586206896547
37123	0.5172413793103448
37125	0.37931034482758624
37127	0.5862068965517242
37129	0.44827586206896547
37131	0.6896551724137931
37133	0.44827586206896547
37135	0.41379310344827586
37137	0.41379310344827586
37139	0.5517241379310345
37141	0.44827586206896547
37143	0.4827586206896552
37145	0.4827586206896552
37147	0.6206896551724137
37149	0.3448275862068965
37151	0.37931034482758624
37153	0.6206896551724137
37155	0.6551724137931034
37157	0.4827586206896552
37159	0.44827586206896547
37161	0.5172413793103448
37163	0.4827586206896552
37165	0.7586206896551724
37167	0.41379310344827586
37169	0.37931034482758624
37171	0.41379310344827586
37173	0.4827586206896552
37175	0.37931034482758624
37177	0.5172413793103448
37179	0.27586206896551724
37181	0.7241379310344827
37183	0.37931034482758624
37185	0.6896551724137931
37187	0.6551724137931034
37189	0.5172413793103448
37191	0.5517241379310345
37193	0.44827586206896547
37195	0.6551724137931034
37197	0.37931034482758624
37199	0.41379310344827586
38001	0.10344827586206895
38003	0.10344827586206895
38005	0.3448275862068965
38007	0.03448275862068967
38009	0.06896551724137931
38011	0.03448275862068967
38013	0.06896551724137931
38015	0.06896551724137931
38017	0.1724137931034483
38019	0.03448275862068967
38021	0.10344827586206895
38023	0.03448275862068967
38025	0.0
38027	0.1724137931034483
38029	0.1724137931034483
38031	0.10344827586206895
38033	0.10344827586206895
38035	0.20689655172413796
38037	0.13793103448275862
38039	0.06896551724137931
38041	0.06896551724137931
38043	0.13793103448275862
38045	0.03448275862068967
38047	0.06896551724137931
38049	0.13793103448275862
38051	0.06896551724137931
38053	0.06896551724137931
38055	0.10344827586206895
38057	0.06896551724137931
38059	0.06896551724137931
38061	0.06896551724137931
38063	0.06896551724137931
38065	0.06896551724137931
38067	0.10344827586206895
38069	0.13793103448275862
38071	0.1724137931034483
38073	0.10344827586206895
38075	0.03448275862068967
38077	0.10344827586206895
38079	0.41379310344827586
38081	0.06896551724137931
38083	0.13793103448275862
38085	0.4827586206896552
38087	0.0
38089	0.03448275862068967
38091	0.03448275862068967
38093	0.10344827586206895
38095	0.03448275862068967
38097	0.10344827586206895
38099	0.10344827586206895
38101	0.10344827586206895
38103	0.10344827586206895
38105	0.03448275862068967
39001	0.4827586206896552
39003	0.44827586206896547
39005	0.3448275862068965
39007	0.41379310344827586
39009	0.5517241379310345
39011	0.27586206896551724
39013	0.37931034482758624
39015	0.3448275862068965
39017	0.37931034482758624
39019	0.3448275862068965
39021	0.3448275862068965
39023	0.41379310344827586
39025	0.3103448275862069
39027	0.44827586206896547
39029	0.37931034482758624
39031	0.41379310344827586
39033	0.37931034482758624
39035	0.5172413793103448
39037	0.3103448275862069
39039	0.3448275862068965
39041	0.1724137931034483
39043	0.37931034482758624
39045	0.3103448275862069
39047	0.44827586206896547
39049	0.4827586206896552
39051	0.27586206896551724
39053	0.41379310344827586
39055	0.24137931034482757
39057	0.37931034482758624
39059	0.41379310344827586
39061	0.4827586206896552
39063	0.3448275862068965
39065	0.41379310344827586
39067	0.41379310344827586
39069	0.3103448275862069
39071	0.44827586206896547
39073	0.37931034482758624
39075	0.3103448275862069
39077	0.37931034482758624
39079	0.4827586206896552
39081	0.44827586206896547
39083	0.3448275862068965
39085	0.27586206896551724
39087	0.37931034482758624
39089	0.3448275862068965
39091	0.3448275862068965
39093	0.37931034482758624
39095	0.4827586206896552
39097	0.3448275862068965
39099	0.44827586206896547
39101	0.41379310344827586
39103	0.24137931034482757
39105	0.44827586206896547
39107	0.24137931034482757
39109	0.3448275862068965
39111	0.37931034482758624
39113	0.4827586206896552
39115	0.44827586206896547
39117	0.3103448275862069
39119	0.44827586206896547
39121	0.41379310344827586
39123	0.3103448275862069
39125	0.3103448275862069
39127	0.41379310344827586
39129	0.3448275862068965
39131	0.5172413793103448
39133	0.37931034482758624
39135	0.3103448275862069
39137	0.24137931034482757
39139	0.41379310344827586
39141	0.41379310344827586
39143	0.3448275862068965
39145	0.4827586206896552
39147	0.37931034482758624
39149	0.3103448275862069
39151	0.37931034482758624
39153	0.41379310344827586
39155	0.41379310344827586
39157	0.3448275862068965
39159	0.24137931034482757
39161	0.3103448275862069
39163	0.44827586206896547
39165	0.24137931034482757
39167	0.3448275862068965
39169	0.3103448275862069
39171	0.3448275862068965
39173	0.3448275862068965
39175	0.3103448275862069
40001	0.4827586206896552
40003	0.3103448275862069
40005	0.44827586206896547
40007	0.27586206896551724
40009	0.3448275862068965
40011	0.3448275862068965
40013	0.41379310344827586
40015	0.41379310344827586
40017	0.27586206896551724
40019	0.41379310344827586
40021	0.4827586206896552
40023	0.5172413793103448
40025	0.37931034482758624
40027	0.37931034482758624
40029	0.44827586206896547
40031	0.5172413793103448
40033	0.37931034482758624
40035	0.37931034482758624
40037	0.37931034482758624
40039	0.37931034482758624
40041	0.41379310344827586
40043	0.3103448275862069
40045	0.27586206896551724
40047	0.37931034482758624
40049	0.37931034482758624
40051	0.3448275862068965
40053	0.3103448275862069
40055	0.41379310344827586
40057	0.4827586206896552
40059	0.24137931034482757
40061	0.41379310344827586
40063	0.4827586206896552
40065	0.41379310344827586
40067	0.37931034482758624
40069	0.44827586206896547
40071	0.41379310344827586
40073	0.27586206896551724
40075	0.44827586206896547
40077	0.44827586206896547
40079	0.4827586206896552
40081	0.37931034482758624
40083	0.3448275862068965
40085	0.3448275862068965
40087	0.3103448275862069
40089	0.5862068965517242
40091	0.4827586206896552
40093	0.3103448275862069
40095	0.3448275862068965
40097	0.41379310344827586
40099	0.3448275862068965
40101	0.5172413793103448
40103	0.3448275862068965
40105	0.41379310344827586
40107	0.5517241379310345
40109	0.44827586206896547
40111	0.5172413793103448
40113	0.41379310344827586
40115	0.44827586206896547
40117	0.37931034482758624
40119	0.5172413793103448
40121	0.41379310344827586
40123	0.41379310344827586
40125	0.41379310344827586
40127	0.4827586206896552
40129	0.27586206896551724
40131	0.3103448275862069
40133	0.4827586206896552
40135	0.4827586206896552
40137	0.3448275862068965
40139	0.3103448275862069
40141	0.41379310344827586
40143	0.44827586206896547
40145	0.3103448275862069
40147	0.3448275862068965
40149	0.3448275862068965
40151	0.37931034482758624
40153	0.3103448275862069
41001	0.44827586206896547
41003	0.41379310344827586
41005	0.3103448275862069
41007	0.37931034482758624
41009	0.3448275862068965
41011	0.44827586206896547
41013	0.4827586206896552
41015	0.41379310344827586
41017	0.41379310344827586
41019	0.44827586206896547
41021	0.3448275862068965
41023	0.4827586206896552
41025	0.4827586206896552
41027	0.24137931034482757
41029	0.44827586206896547
41031	0.44827586206896547
41033	0.4827586206896552
41035	0.44827586206896547
41037	0.44827586206896547
41039	0.41379310344827586
41041	0.37931034482758624
41043	0.41379310344827586
41045	0.41379310344827586
41047	0.37931034482758624
41049	0.27586206896551724
41051	0.41379310344827586
41053	0.3448275862068965
41055	0.41379310344827586
41057	0.37931034482758624
41059	0.3448275862068965
41061	0.41379310344827586
41063	0.37931034482758624
41065	0.37931034482758624
41067	0.3103448275862069
41069	0.3448275862068965
41071	0.3448275862068965
42001	0.20689655172413796
42003	0.3448275862068965
42005	0.3103448275862069
42007	0.3103448275862069
42009	0.3103448275862069
42011	0.27586206896551724
42013	0.3103448275862069
42015	0.27586206896551724
42017	0.20689655172413796
42019	0.24137931034482757
42021	0.3448275862068965
42023	0.37931034482758624
42025	0.27586206896551724
42027	0.37931034482758624
42029	0.20689655172413796
42031	0.3448275862068965
42033	0.3103448275862069
42035	0.3448275862068965
42037	0.3448275862068965
42039	0.3448275862068965
42041	0.24137931034482757
42043	0.37931034482758624
42045	0.3448275862068965
42047	0.24137931034482757
42049	0.3448275862068965
42051	0.37931034482758624
42053	0.3448275862068965
42055	0.27586206896551724
42057	0.3103448275862069
42059	0.3103448275862069
42061	0.3103448275862069
42063	0.3448275862068965
42065	0.3103448275862069
42067	0.27586206896551724
42069	0.3448275862068965
42071	0.24137931034482757
42073	0.3103448275862069
42075	0.24137931034482757
42077	0.3103448275862069
42079	0.37931034482758624
42081	0.3448275862068965
42083	0.3448275862068965
42085	0.3448275862068965
42087	0.3103448275862069
42089	0.3103448275862069
42091	0.24137931034482757
42093	0.24137931034482757
42095	0.27586206896551724
42097	0.3448275862068965
42099	0.24137931034482757
42101	0.6206896551724137
42103	0.27586206896551724
42105	0.3103448275862069
42107	0.3103448275862069
42109	0.27586206896551724
42111	0.3103448275862069
42113	0.27586206896551724
42115	0.27586206896551724
42117	0.3103448275862069
42119	0.3103448275862069
42121	0.3103448275862069
42123	0.27586206896551724
42125	0.27586206896551724
42127	0.27586206896551724
42129	0.27586206896551724
42131	0.3103448275862069
42133	0.27586206896551724
44001	0.27586206896551724
44003	0.3103448275862069
44005	0.3103448275862069
44007	0.44827586206896547
44009	0.27586206896551724
45001	0.44827586206896547
45003	0.41379310344827586
45005	0.8620689655172413
45007	0.37931034482758624
45009	0.7241379310344827
45011	0.6551724137931034
45013	0.3103448275862069
45015	0.37931034482758624
45017	0.4827586206896552
45019	0.44827586206896547
45021	0.5172413793103448
45023	0.5862068965517242
45025	0.5517241379310345
45027	0.6206896551724137
45029	0.5517241379310345
45031	0.5517241379310345
45033	0.7241379310344827
45035	0.3448275862068965
45037	0.44827586206896547
45039	0.6206896551724137
45041	0.5172413793103448
45043	0.44827586206896547
45045	0.3448275862068965
45047	0.4827586206896552
45049	0.6206896551724137
45051	0.41379310344827586
45053	0.4827586206896552
45055	0.37931034482758624
45057	0.4827586206896552
45059	0.44827586206896547
45061	0.6896551724137931
45063	0.27586206896551724
45065	0.5172413793103448
45067	0.7586206896551724
45069	0.7586206896551724
45071	0.41379310344827586
45073	0.37931034482758624
45075	0.6896551724137931
45077	0.3448275862068965
45079	0.5172413793103448
45081	0.37931034482758624
45083	0.41379310344827586
45085	0.5517241379310345
45087	0.5517241379310345
45089	0.7241379310344827
45091	0.37931034482758624
46003	0.1724137931034483
46005	0.24137931034482757
46007	0.4827586206896552
46009	0.24137931034482757
46011	0.3448275862068965
46013	0.24137931034482757
46015	0.24137931034482757
46017	0.6896551724137931
46019	0.27586206896551724
46021	0.24137931034482757
46023	0.3448275862068965
46025	0.24137931034482757
46027	0.41379310344827586
46029	0.24137931034482757
46031	0.5862068965517242
46033	0.24137931034482757
46035	0.27586206896551724
46037	0.37931034482758624
46039	0.1724137931034483
46041	0.5862068965517242
46043	0.20689655172413796
46045	0.20689655172413796
46047	0.3103448275862069
46049	0.24137931034482757
46051	0.27586206896551724
46053	0.27586206896551724
46055	0.20689655172413796
46057	0.20689655172413796
46059	0.24137931034482757
46061	0.24137931034482757
46063	0.24137931034482757
46065	0.24137931034482757
46067	0.20689655172413796
46069	0.20689655172413796
46071	0.41379310344827586
46073	0.20689655172413796
46075	0.24137931034482757
46077	0.20689655172413796
46079	0.27586206896551724
46081	0.3103448275862069
46083	0.1724137931034483
46085	0.3448275862068965
46087	0.20689655172413796
46089	0.27586206896551724
46091	0.3103448275862069
46093	0.24137931034482757
46095	0.5517241379310345
46097	0.20689655172413796
46099	0.27586206896551724
46101	0.27586206896551724
46103	0.27586206896551724
46105	0.27586206896551724
46107	0.24137931034482757
46109	0.3448275862068965
46111	0.24137931034482757
46113	0.7586206896551724
46115	0.24137931034482757
46117	0.1724137931034483
46119	0.1724137931034483
46121	0.6551724137931034
46123	0.3103448275862069
46125	0.1724137931034483
46127	0.20689655172413796
46129	0.27586206896551724
46135	0.24137931034482757
46137	0.5517241379310345
47001	0.37931034482758624
47003	0.41379310344827586
47005	0.41379310344827586
47007	0.41379310344827586
47009	0.3103448275862069
47011	0.37931034482758624
47013	0.44827586206896547
47015	0.3103448275862069
47017	0.44827586206896547
47019	0.41379310344827586
47021	0.27586206896551724
47023	0.37931034482758624
47025	0.41379310344827586
47027	0.41379310344827586
47029	0.4827586206896552
47031	0.37931034482758624
47033	0.44827586206896547
47035	0.3448275862068965
47037	0.4827586206896552
47039	0.37931034482758624
47041	0.3448275862068965
47043	0.3448275862068965
47045	0.5172413793103448
47047	0.41379310344827586
47049	0.41379310344827586
47051	0.3448275862068965
47053	0.4827586206896552
47055	0.41379310344827586
47057	0.37931034482758624
47059	0.44827586206896547
47061	0.44827586206896547
47063	0.37931034482758624
47065	0.41379310344827586
47067	0.5517241379310345
47069	0.5862068965517242
47071	0.41379310344827586
47073	0.3448275862068965
47075	0.6206896551724137
47077	0.41379310344827586
47079	0.41379310344827586
47081	0.3448275862068965
47083	0.41379310344827586
47085	0.3448275862068965
47087	0.41379310344827586
47089	0.41379310344827586
47091	0.44827586206896547
47093	0.3448275862068965
47095	0.6206896551724137
47097	0.6206896551724137
47099	0.41379310344827586
47101	0.41379310344827586
47103	0.3103448275862069
47105	0.27586206896551724
47107	0.37931034482758624
47109	0.44827586206896547
47111	0.37931034482758624
47113	0.4827586206896552
47115	0.37931034482758624
47117	0.41379310344827586
47119	0.41379310344827586
47121	0.41379310344827586
47123	0.41379310344827586
47125	0.41379310344827586
47127	0.27586206896551724
47129	0.37931034482758624
47131	0.4827586206896552
47133	0.37931034482758624
47135	0.4827586206896552
47137	0.44827586206896547
47139	0.3448275862068965
47141	0.41379310344827586
47143	0.44827586206896547
47145	0.3448275862068965
47147	0.3103448275862069
47149	0.3448275862068965
47151	0.5517241379310345
47153	0.3448275862068965
47155	0.3448275862068965
47157	0.5862068965517242
47159	0.3448275862068965
47161	0.37931034482758624
47163	0.3448275862068965
47165	0.27586206896551724
47167	0.37931034482758624
47169	0.3448275862068965
47171	0.37931034482758624
47173	0.37931034482758624
47175	0.41379310344827586
47177	0.41379310344827586
47179	0.37931034482758624
47181	0.41379310344827586
47183	0.4827586206896552
47185	0.41379310344827586
47187	0.1724137931034483
47189	0.24137931034482757
48001	0.5517241379310345
48003	0.27586206896551724
48005	0.5172413793103448
48007	0.41379310344827586
48009	0.37931034482758624
48011	0.37931034482758624
48013	0.3103448275862069
48015	0.37931034482758624
48017	0.3448275862068965
48019	0.41379310344827586
48021	0.37931034482758624
48023	0.41379310344827586
48025	0.44827586206896547
48027	0.5517241379310345
48029	0.41379310344827586
48031	0.3448275862068965
48033	0.37931034482758624
48035	0.41379310344827586
48037	0.5862068965517242
48039	0.41379310344827586
48041	0.6206896551724137
48043	0.37931034482758624
48045	0.37931034482758624
48047	0.44827586206896547
48049	0.44827586206896547
48051	0.41379310344827586
48053	0.41379310344827586
48055	0.44827586206896547
48057	0.37931034482758624
48059	0.37931034482758624
48061	0.4827586206896552
48063	0.5517241379310345
48065	0.27586206896551724
48067	0.6206896551724137
48069	0.41379310344827586
48071	0.37931034482758624
48073	0.5517241379310345
48075	0.41379310344827586
48077	0.3448275862068965
48079	0.3448275862068965
48081	0.41379310344827586
48083	0.5517241379310345
48085	0.37931034482758624
48087	0.41379310344827586
48089	0.44827586206896547
48091	0.3448275862068965
48093	0.44827586206896547
48095	0.3448275862068965
48097	0.41379310344827586
48099	0.5517241379310345
48101	0.44827586206896547
48103	0.3103448275862069
48105	0.3103448275862069
48107	0.44827586206896547
48109	0.3448275862068965
48111	0.3448275862068965
48113	0.5517241379310345
48115	0.37931034482758624
48117	0.3103448275862069
48119	0.4827586206896552
48121	0.41379310344827586
48123	0.37931034482758624
48125	0.4827586206896552
48127	0.3448275862068965
48129	0.44827586206896547
48131	0.3103448275862069
48133	0.4827586206896552
48135	0.3448275862068965
48137	0.3103448275862069
48139	0.41379310344827586
48141	0.41379310344827586
48143	0.5172413793103448
48145	0.5862068965517242
48147	0.5172413793103448
48149	0.41379310344827586
48151	0.37931034482758624
48153	0.41379310344827586
48155	0.44827586206896547
48157	0.37931034482758624
48159	0.41379310344827586
48161	0.44827586206896547
48163	0.3448275862068965
48165	0.3448275862068965
48167	0.4827586206896552
48169	0.37931034482758624
48171	0.3448275862068965
48173	0.27586206896551724
48175	0.3448275862068965
48177	0.41379310344827586
48179	0.37931034482758624
48181	0.4827586206896552
48183	0.5172413793103448
48185	0.44827586206896547
48187	0.3103448275862069
48189	0.41379310344827586
48191	0.5517241379310345
48193	0.37931034482758624
48195	0.3103448275862069
48197	0.4827586206896552
48199	0.44827586206896547
48201	0.5172413793103448
48203	0.5172413793103448
48205	0.3448275862068965
48207	0.44827586206896547
48209	0.41379310344827586
48211	0.3448275862068965
48213	0.4827586206896552
48215	0.4827586206896552
48217	0.4827586206896552
48219	0.3448275862068965
48221	0.37931034482758624
48223	0.4827586206896552
48225	0.6206896551724137
48227	0.41379310344827586
48229	0.41379310344827586
48231	0.5172413793103448
48233	0.37931034482758624
48235	0.27586206896551724
48237	0.44827586206896547
48239	0.37931034482758624
48241	0.5862068965517242
48243	0.27586206896551724
48245	0.6551724137931034
48247	0.20689655172413796
48249	0.3103448275862069
48251	0.37931034482758624
48253	0.44827586206896547
48255	0.44827586206896547
48257	0.41379310344827586
48259	0.3103448275862069
48261	0.44827586206896547
48263	0.37931034482758624
48265	0.41379310344827586
48267	0.37931034482758624
48269	0.41379310344827586
48271	0.41379310344827586
48273	0.41379310344827586
48275	0.4827586206896552
48277	0.5862068965517242
48279	0.41379310344827586
48281	0.44827586206896547
48283	0.3103448275862069
48285	0.3448275862068965
48287	0.41379310344827586
48289	0.44827586206896547
48291	0.4827586206896552
48293	0.4827586206896552
48295	0.3448275862068965
48297	0.3448275862068965
48299	0.41379310344827586
48301	0.44827586206896547
48303	0.4827586206896552
48305	0.41379310344827586
48307	0.41379310344827586
48309	0.5517241379310345
48311	0.3103448275862069
48313	0.5172413793103448
48315	0.6206896551724137
48317	0.3448275862068965
48319	0.3448275862068965
48321	0.5172413793103448
48323	0.4827586206896552
48325	0.3448275862068965
48327	0.44827586206896547
48329	0.3103448275862069
48331	0.5172413793103448
48333	0.37931034482758624
48335	0.41379310344827586
48337	0.41379310344827586
48339	0.37931034482758624
48341	0.3103448275862069
48343	0.5862068965517242
48345	0.4827586206896552
48347	0.6206896551724137
48349	0.5172413793103448
48351	0.6206896551724137
48353	0.44827586206896547
48355	0.41379310344827586
48357	0.3448275862068965
48359	0.44827586206896547
48361	0.5172413793103448
48363	0.44827586206896547
48365	0.44827586206896547
48367	0.37931034482758624
48369	0.3448275862068965
48371	0.3103448275862069
48373	0.5172413793103448
48375	0.5172413793103448
48377	0.44827586206896547
48379	0.41379310344827586
48381	0.37931034482758624
48383	0.20689655172413796
48385	0.44827586206896547
48387	0.5862068965517242
48389	0.41379310344827586
48391	0.3448275862068965
48393	0.3103448275862069
48395	0.5517241379310345
48397	0.3103448275862069
48399	0.44827586206896547
48401	0.4827586206896552
48403	0.6551724137931034
48405	0.6896551724137931
48407	0.4827586206896552
48409	0.37931034482758624
48411	0.44827586206896547
48413	0.3448275862068965
48415	0.37931034482758624
48417	0.3448275862068965
48419	0.5517241379310345
48421	0.3448275862068965
48423	0.5172413793103448
48425	0.37931034482758624
48427	0.5172413793103448
48429	0.41379310344827586
48431	0.3448275862068965
48433	0.37931034482758624
48435	0.20689655172413796
48437	0.41379310344827586
48439	0.4827586206896552
48441	0.4827586206896552
48443	0.3448275862068965
48445	0.37931034482758624
48447	0.37931034482758624
48449	0.44827586206896547
48451	0.41379310344827586
48453	0.4827586206896552
48455	0.4827586206896552
48457	0.5517241379310345
48459	0.44827586206896547
48461	0.3103448275862069
48463	0.41379310344827586
48465	0.3448275862068965
48467	0.44827586206896547
48469	0.41379310344827586
48471	0.6206896551724137
48473	0.5172413793103448
48475	0.37931034482758624
48477	0.4827586206896552
48479	0.37931034482758624
48481	0.4827586206896552
48483	0.3448275862068965
48485	0.4827586206896552
48487	0.4827586206896552
48489	0.5517241379310345
48491	0.37931034482758624
48493	0.27586206896551724
48495	0.27586206896551724
48497	0.37931034482758624
48499	0.44827586206896547
48501	0.24137931034482757
48503	0.41379310344827586
48505	0.3448275862068965
48507	0.5517241379310345
49001	0.37931034482758624
49003	0.3448275862068965
49005	0.41379310344827586
49007	0.41379310344827586
49009	0.41379310344827586
49011	0.3103448275862069
49013	0.3448275862068965
49015	0.37931034482758624
49017	0.44827586206896547
49019	0.44827586206896547
49021	0.5172413793103448
49023	0.41379310344827586
49025	0.3448275862068965
49027	0.3448275862068965
49029	0.27586206896551724
49031	0.41379310344827586
49033	0.3103448275862069
49035	0.37931034482758624
49037	0.5517241379310345
49039	0.41379310344827586
49041	0.41379310344827586
49043	0.3103448275862069
49045	0.3448275862068965
49047	0.3103448275862069
49049	0.37931034482758624
49051	0.3448275862068965
49053	0.41379310344827586
49055	0.5172413793103448
49057	0.37931034482758624
50001	0.27586206896551724
50003	0.3103448275862069
50005	0.3448275862068965
50007	0.3103448275862069
50009	0.3448275862068965
50011	0.27586206896551724
50013	0.24137931034482757
50015	0.3103448275862069
50017	0.27586206896551724
50019	0.3448275862068965
50021	0.3448275862068965
50023	0.27586206896551724
50025	0.3103448275862069
50027	0.27586206896551724
51001	0.37931034482758624
51003	0.20689655172413796
51005	0.20689655172413796
51007	0.24137931034482757
51009	0.27586206896551724
51011	0.3103448275862069
51013	0.1724137931034483
51015	0.1724137931034483
51017	0.1724137931034483
51019	0.13793103448275862
51021	0.20689655172413796
51023	0.10344827586206895
51025	0.5862068965517242
51027	0.3103448275862069
51029	0.44827586206896547
51031	0.24137931034482757
51033	0.27586206896551724
51035	0.27586206896551724
51036	0.3448275862068965
51037	0.37931034482758624
51041	0.1724137931034483
51043	0.13793103448275862
51045	0.1724137931034483
51047	0.20689655172413796
51049	0.3448275862068965
51051	0.3103448275862069
51053	0.3103448275862069
51057	0.3448275862068965
51059	0.10344827586206895
51061	0.10344827586206895
51063	0.20689655172413796
51065	0.13793103448275862
51067	0.24137931034482757
51069	0.13793103448275862
51071	0.24137931034482757
51073	0.1724137931034483
51075	0.10344827586206895
51077	0.3103448275862069
51079	0.13793103448275862
51081	0.5172413793103448
51083	0.44827586206896547
51085	0.13793103448275862
51087	0.3103448275862069
51089	0.37931034482758624
51091	0.1724137931034483
51093	0.24137931034482757
51095	0.1724137931034483
51097	0.27586206896551724
51099	0.20689655172413796
51101	0.20689655172413796
51103	0.3103448275862069
51105	0.3448275862068965
51107	0.03448275862068967
51109	0.24137931034482757
51111	0.41379310344827586
51113	0.20689655172413796
51115	0.1724137931034483
51117	0.44827586206896547
51119	0.20689655172413796
51121	0.37931034482758624
51125	0.24137931034482757
51127	0.13793103448275862
51131	0.44827586206896547
51133	0.27586206896551724
51135	0.41379310344827586
51137	0.24137931034482757
51139	0.3103448275862069
51141	0.27586206896551724
51143	0.3103448275862069
51145	0.10344827586206895
51147	0.44827586206896547
51149	0.24137931034482757
51153	0.13793103448275862
51155	0.27586206896551724
51157	0.1724137931034483
51159	0.3448275862068965
51161	0.13793103448275862
51163	0.20689655172413796
51165	0.1724137931034483
51167	0.3103448275862069
51169	0.27586206896551724
51171	0.20689655172413796
51173	0.3448275862068965
51175	0.37931034482758624
51177	0.1724137931034483
51179	0.13793103448275862
51181	0.3448275862068965
51183	0.4827586206896552
51185	0.27586206896551724
51187	0.20689655172413796
51191	0.24137931034482757
51193	0.3103448275862069
51195	0.3448275862068965
51197	0.24137931034482757
51199	0.13793103448275862
51510	0.27586206896551724
51515	0.44827586206896547
51520	0.41379310344827586
51530	0.3448275862068965
51540	0.4827586206896552
51550	0.24137931034482757
51570	0.24137931034482757
51580	0.37931034482758624
51590	0.6206896551724137
51595	0.7586206896551724
51600	0.13793103448275862
51610	0.13793103448275862
51620	0.6551724137931034
51630	0.4827586206896552
51640	0.37931034482758624
51650	0.44827586206896547
51660	0.5172413793103448
51670	0.5172413793103448
51678	0.4827586206896552
51680	0.4827586206896552
51683	0.20689655172413796
51685	0.13793103448275862
51690	0.6896551724137931
51700	0.44827586206896547
51710	0.5172413793103448
51720	0.37931034482758624
51730	0.7241379310344827
51735	0.06896551724137931
51740	0.5172413793103448
51750	0.5172413793103448
51760	0.6206896551724137
51770	0.44827586206896547
51775	0.24137931034482757
51790	0.3448275862068965
51800	0.3448275862068965
51810	0.24137931034482757
51820	0.3448275862068965
51830	0.5172413793103448
51840	0.37931034482758624
53001	0.3103448275862069
53003	0.37931034482758624
53005	0.3103448275862069
53007	0.3103448275862069
53009	0.37931034482758624
53011	0.37931034482758624
53013	0.3448275862068965
53015	0.44827586206896547
53017	0.3103448275862069
53019	0.4827586206896552
53021	0.3448275862068965
53023	0.3103448275862069
53025	0.37931034482758624
53027	0.44827586206896547
53029	0.3103448275862069
53031	0.37931034482758624
53033	0.3448275862068965
53035	0.3103448275862069
53037	0.44827586206896547
53039	0.41379310344827586
53041	0.41379310344827586
53043	0.3103448275862069
53045	0.37931034482758624
53047	0.41379310344827586
53049	0.41379310344827586
53051	0.44827586206896547
53053	0.37931034482758624
53055	0.3103448275862069
53057	0.3448275862068965
53059	0.3448275862068965
53061	0.3103448275862069
53063	0.37931034482758624
53065	0.41379310344827586
53067	0.3448275862068965
53069	0.41379310344827586
53071	0.3448275862068965
53073	0.37931034482758624
53075	0.5517241379310345
53077	0.37931034482758624
54001	0.3448275862068965
54003	0.3103448275862069
54005	0.41379310344827586
54007	0.41379310344827586
54009	0.3448275862068965
54011	0.41379310344827586
54013	0.44827586206896547
54015	0.4827586206896552
54017	0.3448275862068965
54019	0.37931034482758624
54021	0.44827586206896547
54023	0.37931034482758624
54025	0.37931034482758624
54027	0.44827586206896547
54029	0.37931034482758624
54031	0.3448275862068965
54033	0.3448275862068965
54035	0.3448275862068965
54037	0.24137931034482757
54039	0.3448275862068965
54041	0.37931034482758624
54043	0.44827586206896547
54045	0.41379310344827586
54047	0.5172413793103448
54049	0.3448275862068965
54051	0.3448275862068965
54053	0.41379310344827586
54055	0.41379310344827586
54057	0.37931034482758624
54059	0.41379310344827586
54061	0.41379310344827586
54063	0.27586206896551724
54065	0.37931034482758624
54067	0.37931034482758624
54069	0.3448275862068965
54071	0.3103448275862069
54073	0.3448275862068965
54075	0.41379310344827586
54077	0.27586206896551724
54079	0.20689655172413796
54081	0.37931034482758624
54083	0.3448275862068965
54085	0.3448275862068965
54087	0.44827586206896547
54089	0.37931034482758624
54091	0.3448275862068965
54093	0.37931034482758624
54095	0.3448275862068965
54097	0.3448275862068965
54099	0.3448275862068965
54101	0.4827586206896552
54103	0.37931034482758624
54105	0.37931034482758624
54107	0.3448275862068965
54109	0.37931034482758624
55001	0.27586206896551724
55003	0.3448275862068965
55005	0.27586206896551724
55007	0.3103448275862069
55009	0.24137931034482757
55011	0.20689655172413796
55013	0.3103448275862069
55015	0.13793103448275862
55017	0.24137931034482757
55019	0.27586206896551724
55021	0.20689655172413796
55023	0.27586206896551724
55025	0.27586206896551724
55027	0.24137931034482757
55029	0.27586206896551724
55031	0.27586206896551724
55033	0.27586206896551724
55035	0.3103448275862069
55037	0.24137931034482757
55039	0.24137931034482757
55041	0.3103448275862069
55043	0.27586206896551724
55045	0.20689655172413796
55047	0.24137931034482757
55049	0.20689655172413796
55051	0.37931034482758624
55053	0.3103448275862069
55055	0.24137931034482757
55057	0.27586206896551724
55059	0.27586206896551724
55061	0.1724137931034483
55063	0.27586206896551724
55065	0.20689655172413796
55067	0.27586206896551724
55069	0.27586206896551724
55071	0.24137931034482757
55073	0.24137931034482757
55075	0.27586206896551724
55077	0.27586206896551724
55078	0.4827586206896552
55079	0.4827586206896552
55081	0.27586206896551724
55083	0.24137931034482757
55085	0.24137931034482757
55087	0.20689655172413796
55089	0.13793103448275862
55091	0.20689655172413796
55093	0.20689655172413796
55095	0.24137931034482757
55097	0.27586206896551724
55099	0.24137931034482757
55101	0.3103448275862069
55103	0.24137931034482757
55105	0.27586206896551724
55107	0.3103448275862069
55109	0.1724137931034483
55111	0.24137931034482757
55113	0.3448275862068965
55115	0.24137931034482757
55117	0.20689655172413796
55119	0.27586206896551724
55121	0.20689655172413796
55123	0.24137931034482757
55125	0.3103448275862069
55127	0.24137931034482757
55129	0.24137931034482757
55131	0.1724137931034483
55133	0.1724137931034483
55135	0.24137931034482757
55137	0.24137931034482757
55139	0.27586206896551724
55141	0.24137931034482757
56001	0.44827586206896547
56003	0.27586206896551724
56005	0.20689655172413796
56007	0.27586206896551724
56009	0.24137931034482757
56011	0.27586206896551724
56013	0.3448275862068965
56015	0.3448275862068965
56017	0.3448275862068965
56019	0.27586206896551724
56021	0.3103448275862069
56023	0.27586206896551724
56025	0.27586206896551724
56027	0.3448275862068965
56029	0.3103448275862069
56031	0.27586206896551724
56033	0.3103448275862069
56035	0.1724137931034483
56037	0.24137931034482757
56039	0.3103448275862069
56041	0.27586206896551724
56043	0.3103448275862069
56045	0.27586206896551724
