id	rate
1001	0.08100558659217877
1003	0.13128491620111732
1005	0.10335195530726257
1007	0.05027932960893855
1009	0.05307262569832402
1011	0.05307262569832402
1013	0.06983240223463687
1015	0.1452513966480447
1017	0.06424581005586592
1019	0.04189944134078213
1021	0.0558659217877095
1023	0.12569832402234637
1025	0.0782122905027933
1027	0.04189944134078213
1029	0.019553072625698324
1031	0.08659217877094973
1033	0.111731843575419
1035	0.0446927374301676
1037	0.08113450795015029
1039	0.09497206703910614
1041	0.03910614525139665
1043	0.12011173184357542
1045	0.09497206703910614
1047	0.09217877094972067
1049	0.0670391061452514
1051	0.03910614525139665
1053	0.10893854748603353
1055	0.12849162011173185
1057	0.08379888268156425
1059	0.06145251396648045
1061	0.019553072625698324
1063	0.030726256983240226
1065	0.036312849162011177
1067	0.08100558659217877
1069	0.15921787709497207
1071	0.0893854748603352
1073	0.22067039106145253
1075	0.05865921787709497
1077	0.13966480446927373
1079	0.01675977653631285
1081	0.0782122905027933
1083	0.0782122905027933
1085	0.08113450795015029
1087	0.06983240223463687
1089	0.15363128491620112
1091	0.06983240223463687
1093	0.0558659217877095
1095	0.0893854748603352
1097	0.1340782122905028
1099	0.06145251396648045
1101	0.18156424581005587
1103	0.1340782122905028
1105	0.0558659217877095
1107	0.02793296089385475
1109	0.07541899441340782
1111	0.036312849162011177
1113	0.04189944134078213
1115	0.0782122905027933
1117	0.13128491620111732
1119	0.04189944134078213
1121	0.07541899441340782
1123	0.0893854748603352
1125	0.1340782122905028
1127	0.10893854748603353
1129	0.0335195530726257
1131	0.05027932960893855
1133	0.04748603351955307
2013	0.0893854748603352
2016	0.20391061452513967
2020	0.2905027932960894
2050	0.329608938547486
2060	0.2905027932960894
2068	0.0
2070	0.3910614525139665
2090	0.3128491620111732
2100	0.10893854748603353
2110	0.2569832402234637
2122	0.18156424581005587
2130	0.16201117318435754
2150	0.1787709497206704
2164	0.0
2170	0.13128491620111732
2180	0.17039106145251398
2185	0.1452513966480447
2188	0.10893854748603353
2201	0.09776536312849163
2220	0.3715083798882682
2232	0.0
2240	0.15921787709497207
2261	0.11452513966480447
2270	0.17168027503223043
2280	0.2709497206703911
2282	0.0
2290	0.09776536312849163
4001	0.1871508379888268
4003	0.11452513966480447
4005	0.20391061452513967
4007	0.15921787709497207
4009	0.1787709497206704
4011	0.06145251396648045
4012	0.1229050279329609
4013	0.17597765363128492
4015	0.10614525139664804
4017	0.17039106145251398
4019	0.15921787709497207
4021	0.06983240223463687
4023	0.0782122905027933
4025	0.1675977653631285
4027	0.07541899441340782
5001	0.12011173184357542
5003	0.11731843575418995
5005	0.12849162011173185
5007	0.12011173184357542
5009	0.14804469273743018
5011	0.1005586592178771
5013	0.09317637669592989
5015	0.06983240223463687
5017	0.1229050279329609
5019	0.1229050279329609
5021	0.12569832402234637
5023	0.09776536312849163
5025	0.09317637669592989
5027	0.11452513966480447
5029	0.0782122905027933
5031	0.19832402234636873
5033	0.0446927374301676
5035	0.13966480446927373
5037	0.15921787709497207
5039	0.06983240223463687
5041	0.0446927374301676
5043	0.07541899441340782
5045	0.10335195530726257
5047	0.04748603351955307
5049	0.0446927374301676
5051	0.1675977653631285
5053	0.0782122905027933
5055	0.0782122905027933
5057	0.111731843575419
5059	0.05027932960893855
5061	0.06145251396648045
5063	0.09776536312849163
5065	0.10335195530726257
5067	0.0782122905027933
5069	0.08659217877094973
5071	0.09776536312849163
5073	0.09317637669592989
5075	0.0670391061452514
5077	0.08379888268156425
5079	0.019553072625698324
5081	0.08659217877094973
5083	0.1005586592178771
5085	0.07541899441340782
5087	0.05307262569832402
5089	0.0335195530726257
5091	0.09776536312849163
5093	0.08100558659217877
5095	0.07262569832402235
5097	0.06145251396648045
5099	0.030726256983240226
5101	0.09317637669592989
5103	0.1005586592178771
5105	0.09317637669592989
5107	0.09497206703910614
5109	0.1005586592178771
5111	0.0335195530726257
5113	0.09497206703910614
5115	0.11731843575418995
5117	0.0670391061452514
5119	0.19273743016759778
5121	0.111731843575419
5123	0.07262569832402235
5125	0.06983240223463687
5127	0.05027932960893855
5129	0.06983240223463687
5131	0.19832402234636873
5133	0.09776536312849163
5135	0.08100558659217877
5137	0.0670391061452514
5139	0.1452513966480447
5141	0.09776536312849163
5143	0.1452513966480447
5145	0.0893854748603352
5147	0.11731843575418995
5149	0.03910614525139665
6001	0.2458100558659218
6003	0.0
6005	0.23743016759776536
6007	0.18994413407821228
6009	0.13128491620111732
6011	0.09217877094972067
6013	0.223463687150838
6015	0.2011173184357542
6017	0.22067039106145253
6019	0.1564245810055866
6021	0.2011173184357542
6023	0.21787709497206706
6025	0.09217877094972067
6027	0.2122905027932961
6029	0.12849162011173185
6031	0.16201117318435754
6033	0.11452513966480447
6035	0.30446927374301674
6037	0.21787709497206706
6039	0.12011173184357542
6041	0.29608938547486036
6043	0.14245810055865923
6045	0.21508379888268156
6047	0.11452513966480447
6049	0.21508379888268156
6051	0.1005586592178771
6053	0.17318435754189945
6055	0.21508379888268156
6057	0.22625698324022347
6059	0.28212290502793297
6061	0.2737430167597765
6063	0.29608938547486036
6065	0.1340782122905028
6067	0.2011173184357542
6069	0.13128491620111732
6071	0.17597765363128492
6073	0.22067039106145253
6075	0.388268156424581
6077	0.15363128491620112
6079	0.21508379888268156
6081	0.2681564245810056
6083	0.20949720670391062
6085	0.29608938547486036
6087	0.19832402234636873
6089	0.19553072625698326
6091	0.18435754189944134
6093	0.223463687150838
6095	0.23743016759776536
6097	0.24022346368715083
6099	0.16201117318435754
6101	0.20670391061452514
6103	0.15921787709497207
6105	0.10335195530726257
6107	0.13128491620111732
6109	0.29608938547486036
6111	0.223463687150838
6113	0.1452513966480447
6115	0.08379888268156425
8001	0.1452513966480447
8003	0.3268156424581006
8005	0.26256983240223464
8007	0.15921787709497207
8009	0.15083798882681565
8011	0.1383612662942271
8013	0.2569832402234637
8014	0.276536312849162
8015	0.15083798882681565
8017	0.0
8019	0.09217877094972067
8021	0.0335195530726257
8023	0.0
8025	0.1383612662942271
8027	0.1383612662942271
8029	0.1005586592178771
8031	0.18156424581005587
8033	0.13687150837988826
8035	0.18156424581005587
8037	0.17597765363128492
8039	0.036312849162011177
8041	0.2709497206703911
8043	0.0893854748603352
8045	0.18994413407821228
8047	0.1383612662942271
8049	0.0782122905027933
8051	0.10893854748603353
8053	0.0
8055	0.04189944134078213
8057	0.0
8059	0.2346368715083799
8061	0.0
8063	0.0335195530726257
8065	0.15363128491620112
8067	0.23184357541899442
8069	0.20949720670391062
8071	0.1340782122905028
8073	0.2569832402234637
8075	0.13687150837988826
8077	0.19553072625698326
8079	0.0
8081	0.12849162011173185
8083	0.15363128491620112
8085	0.2122905027932961
8087	0.17597765363128492
8089	0.05865921787709497
8091	0.3687150837988827
8093	0.0335195530726257
8095	0.06424581005586592
8097	0.16201117318435754
8099	0.15921787709497207
8101	0.19832402234636873
8103	0.164804469273743
8105	0.11731843575418995
8107	0.26256983240223464
8109	0.0446927374301676
8111	0.0
8113	0.1452513966480447
8115	0.11731843575418995
8117	0.2346368715083799
8119	0.13128491620111732
8121	0.11731843575418995
8123	0.10893854748603353
8125	0.10893854748603353
9001	0.24301675977653633
9003	0.26536312849162014
9005	0.164804469273743
9007	0.19553072625698326
9009	0.19553072625698326
9011	0.18435754189944134
9013	0.12849162011173185
9015	0.11731843575418995
10001	0.10893854748603353
10003	0.15363128491620112
10005	0.06424581005586592
11001	0.3240223463687151
12001	0.44134078212290506
12003	0.11452513966480447
12005	0.12849162011173185
12007	0.06145251396648045
12009	0.15363128491620112
12011	0.1871508379888268
12013	0.1340782122905028
12015	0.13687150837988826
12017	0.0782122905027933
12019	0.13128491620111732
12021	0.1787709497206704
12023	0.1229050279329609
12027	0.0558659217877095
12029	0.06983240223463687
12031	0.19553072625698326
12033	0.15363128491620112
12035	0.0893854748603352
12037	0.04748603351955307
12039	0.06145251396648045
12041	0.0670391061452514
12043	0.04189944134078213
12045	0.06983240223463687
12047	0.03910614525139665
12049	0.08100558659217877
12051	0.111731843575419
12053	0.10893854748603353
12055	0.09776536312849163
12057	0.14245810055865923
12059	0.11452513966480447
12061	0.17039106145251398
12063	0.0558659217877095
12065	0.0782122905027933
12067	0.11401726764855251
12069	0.1229050279329609
12071	0.12569832402234637
12073	0.10335195530726257
12075	0.06983240223463687
12077	0.1005586592178771
12079	0.07541899441340782
12081	0.12569832402234637
12083	0.1005586592178771
12085	0.19273743016759778
12086	0.15921787709497207
12087	0.14245810055865923
12089	0.0782122905027933
12091	0.1871508379888268
12093	0.1005586592178771
12095	0.1229050279329609
12097	0.0782122905027933
12099	0.19273743016759778
12101	0.08379888268156425
12103	0.17597765363128492
12105	0.0782122905027933
12107	0.08100558659217877
12109	0.13687150837988826
12111	0.09776536312849163
12113	0.0670391061452514
12115	0.19273743016759778
12117	0.14804469273743018
12119	0.07541899441340782
12121	0.05027932960893855
12123	0.1340782122905028
12125	0.0558659217877095
12127	0.1229050279329609
12129	0.0446927374301676
12131	0.10335195530726257
12133	0.0782122905027933
13001	0.030726256983240226
13003	0.0335195530726257
13005	0.05027932960893855
13007	0.0
13009	0.10893854748603353
13011	0.013966480446927375
13013	0.06145251396648045
13015	0.08100558659217877
13017	0.09497206703910614
13019	0.0446927374301676
13021	0.1564245810055866
13023	0.0446927374301676
13025	0.0893284688176947
13027	0.01675977653631285
13029	0.09217877094972067
13031	0.09776536312849163
13033	0.025139664804469275
13035	0.04748603351955307
13037	0.08659217877094973
13039	0.09217877094972067
13043	0.025139664804469275
13045	0.0782122905027933
13047	0.05027932960893855
13049	0.0223463687150838
13051	0.17318435754189945
13053	1.0
13055	0.1005586592178771
13057	0.13687150837988826
13059	0.15083798882681565
13061	0.0
13063	0.06983240223463687
13065	0.04189944134078213
13067	0.1787709497206704
13069	0.08379888268156425
13071	0.0670391061452514
13073	0.14804469273743018
13075	0.08100558659217877
13077	0.09776536312849163
13079	0.0893284688176947
13081	0.10893854748603353
13083	0.0670391061452514
13085	0.111731843575419
13087	0.09217877094972067
13089	0.15363128491620112
13091	0.11731843575418995
13093	0.0782122905027933
13095	0.16201117318435754
13097	0.12569832402234637
13099	0.10614525139664804
13101	0.0893284688176947
13103	0.030726256983240226
13105	0.08659217877094973
13107	0.025139664804469275
13109	0.0782122905027933
13111	0.08100558659217877
13113	0.25139664804469275
13115	0.111731843575419
13117	0.10335195530726257
13119	0.06424581005586592
13121	0.18156424581005587
13123	0.0670391061452514
13125	0.0
13127	0.13687150837988826
13129	0.06424581005586592
13131	0.0670391061452514
13133	0.17039106145251398
13135	0.15921787709497207
13137	0.1229050279329609
13139	0.12849162011173185
13141	0.030726256983240226
13143	0.05865921787709497
13145	0.04189944134078213
13147	0.0782122905027933
13149	0.0893284688176947
13151	0.0893854748603352
13153	0.1340782122905028
13155	0.05865921787709497
13157	0.13687150837988826
13159	0.04189944134078213
13161	0.019553072625698324
13163	0.06983240223463687
13165	0.0893284688176947
13167	0.0893284688176947
13169	0.030726256983240226
13171	0.030726256983240226
13173	0.02793296089385475
13175	0.11731843575418995
13177	0.04748603351955307
13179	0.2709497206703911
13181	0.036312849162011177
13183	0.0893284688176947
13185	0.15921787709497207
13187	0.07262569832402235
13189	0.0893854748603352
13191	0.03910614525139665
13193	0.03910614525139665
13195	0.0111731843575419
13197	0.0335195530726257
13199	0.03910614525139665
13201	0.14245810055865923
13205	0.04748603351955307
13207	0.04189944134078213
13209	0.0893284688176947
13211	0.12569832402234637
13213	0.02793296089385475
13215	0.13687150837988826
13217	0.04748603351955307
13219	0.11452513966480447
13221	0.019553072625698324
13223	0.03910614525139665
13225	0.11452513966480447
13227	0.09497206703910614
13229	0.0446927374301676
13231	0.04748603351955307
13233	0.06145251396648045
13235	0.025139664804469275
13237	0.05307262569832402
13239	0.11731843575418995
13241	0.10335195530726257
13243	0.03910614525139665
13245	0.5
13247	0.19273743016759778
13249	0.0893284688176947
13251	0.05865921787709497
13253	0.1564245810055866
13255	0.0782122905027933
13257	0.09776536312849163
13259	0.0893284688176947
13261	0.1340782122905028
13263	0.04189944134078213
13265	0.0
13267	0.0223463687150838
13269	0.0335195530726257
13271	0.0335195530726257
13273	0.030726256983240226
13275	0.111731843575419
13277	0.111731843575419
13279	0.111731843575419
13281	0.10335195530726257
13283	0.04189944134078213
13285	0.15083798882681565
13287	0.06983240223463687
13289	0.0893284688176947
13291	0.11731843575418995
13293	0.06424581005586592
13295	0.02793296089385475
13297	0.0670391061452514
13299	0.12569832402234637
13301	0.1005586592178771
13303	0.0670391061452514
13305	0.06424581005586592
13307	0.0
13309	0.0893284688176947
13311	0.08100558659217877
13313	0.11731843575418995
13315	0.09217877094972067
13317	0.0558659217877095
13319	0.030726256983240226
13321	0.05307262569832402
15001	0.1675977653631285
15003	0.25139664804469275
15005	0.0
15007	0.17318435754189945
15009	0.17318435754189945
16001	0.223463687150838
16003	0.1452513966480447
16005	0.24860335195530728
16007	0.13966480446927373
16009	0.27932960893854747
16011	0.14245810055865923
16013	0.2346368715083799
16015	0.13693646875406007
16017	0.13687150837988826
16019	0.2541899441340782
16021	0.1787709497206704
16023	0.0
16025	0.0
16027	0.11452513966480447
16029	0.164804469273743
16031	0.1787709497206704
16033	0.0
16035	0.13128491620111732
16037	0.13128491620111732
16039	0.20391061452513967
16041	0.15083798882681565
16043	0.15083798882681565
16045	0.15083798882681565
16047	0.07541899441340782
16049	0.10335195530726257
16051	0.07262569832402235
16053	0.08659217877094973
16055	0.18994413407821228
16057	0.12569832402234637
16059	0.1452513966480447
16061	0.14245810055865923
16063	0.05307262569832402
16065	0.14245810055865923
16067	0.08379888268156425
16069	0.18994413407821228
16071	0.06424581005586592
16073	0.04748603351955307
16075	0.14804469273743018
16077	0.07262569832402235
16079	0.13128491620111732
16081	0.16201117318435754
16083	0.20391061452513967
16085	0.20391061452513967
16087	0.08379888268156425
17001	0.18435754189944134
17003	0.07262569832402235
17005	0.06424581005586592
17007	0.09776536312849163
17009	0.1124805621148419
17011	0.0893854748603352
17013	0.0558659217877095
17015	0.07541899441340782
17017	0.14804469273743018
17019	0.1564245810055866
17021	0.06424581005586592
17023	0.0335195530726257
17025	0.1452513966480447
17027	0.08100558659217877
17029	0.13128491620111732
17031	0.223463687150838
17033	0.1005586592178771
17035	0.025139664804469275
17037	0.14804469273743018
17039	0.08379888268156425
17041	0.12569832402234637
17043	0.2681564245810056
17045	0.06145251396648045
17047	0.04189944134078213
17049	0.1871508379888268
17051	0.0893854748603352
17053	0.1005586592178771
17055	0.1005586592178771
17057	0.05307262569832402
17059	0.1124805621148419
17061	0.08100558659217877
17063	0.0782122905027933
17065	0.0335195530726257
17067	0.05865921787709497
17069	0.1340782122905028
17071	0.3603351955307263
17073	0.1005586592178771
17075	0.08659217877094973
17077	0.1787709497206704
17079	0.02793296089385475
17081	0.1229050279329609
17083	0.13687150837988826
17085	0.111731843575419
17087	0.0670391061452514
17089	0.16201117318435754
17091	0.12011173184357542
17093	0.09776536312849163
17095	0.09776536312849163
17097	0.29329608938547486
17099	0.1340782122905028
17101	0.0335195530726257
17103	0.10335195530726257
17105	0.09497206703910614
17107	0.12011173184357542
17109	0.10335195530726257
17111	0.17039106145251398
17113	0.1675977653631285
17115	0.1452513966480447
17117	0.1005586592178771
17119	0.2122905027932961
17121	0.1005586592178771
17123	0.09217877094972067
17125	0.0782122905027933
17127	0.111731843575419
17129	0.0446927374301676
17131	0.0335195530726257
17133	0.2011173184357542
17135	0.1787709497206704
17137	0.12849162011173185
17139	0.036312849162011177
17141	0.09497206703910614
17143	0.18994413407821228
17145	0.0893854748603352
17147	0.10335195530726257
17149	0.12011173184357542
17151	0.1124805621148419
17153	0.1124805621148419
17155	0.09497206703910614
17157	0.09217877094972067
17159	0.06983240223463687
17161	0.1564245810055866
17163	0.18435754189944134
17165	0.111731843575419
17167	0.18994413407821228
17169	0.036312849162011177
17171	0.05307262569832402
17173	0.07541899441340782
17175	0.1124805621148419
17177	0.1564245810055866
17179	0.1229050279329609
17181	0.111731843575419
17183	0.08379888268156425
17185	0.07262569832402235
17187	0.09497206703910614
17189	0.0782122905027933
17191	0.0670391061452514
17193	0.09497206703910614
17195	0.10614525139664804
17197	0.13966480446927373
17199	0.1340782122905028
17201	0.1871508379888268
17203	0.05027932960893855
18001	0.111731843575419
18003	0.16201117318435754
18005	0.16201117318435754
18007	0.06424581005586592
18009	0.0670391061452514
18011	0.12011173184357542
18013	0.036312849162011177
18015	0.111731843575419
18017	0.06424581005586592
18019	0.09497206703910614
18021	0.06145251396648045
18023	0.1005586592178771
18025	0.025139664804469275
18027	0.06983240223463687
18029	0.0446927374301676
18031	0.06424581005586592
18033	0.12569832402234637
18035	0.15363128491620112
18037	0.15921787709497207
18039	0.09217877094972067
18041	0.09497206703910614
18043	0.16201117318435754
18045	0.0670391061452514
18047	0.15921787709497207
18049	0.1229050279329609
18051	0.11731843575418995
18053	0.1452513966480447
18055	0.09497206703910614
18057	0.20391061452513967
18059	0.10614525139664804
18061	0.11452513966480447
18063	0.12569832402234637
18065	0.09217877094972067
18067	0.22625698324022347
18069	0.09217877094972067
18071	0.16201117318435754
18073	0.07541899441340782
18075	0.0782122905027933
18077	0.17318435754189945
18079	0.03910614525139665
18081	0.1675977653631285
18083	0.12569832402234637
18085	0.08379888268156425
18087	0.07262569832402235
18089	0.1452513966480447
18091	0.12849162011173185
18093	0.10893854748603353
18095	0.13128491620111732
18097	0.22067039106145253
18099	0.10614525139664804
18101	0.0558659217877095
18103	0.05307262569832402
18105	0.1340782122905028
18107	0.12569832402234637
18109	0.11731843575418995
18111	0.019553072625698324
18113	0.06983240223463687
18115	0.09217877094972067
18117	0.08379888268156425
18119	0.03910614525139665
18121	0.06424581005586592
18123	0.1005586592178771
18125	0.0223463687150838
18127	0.14245810055865923
18129	0.0558659217877095
18131	0.06424581005586592
18133	0.08100558659217877
18135	0.0558659217877095
18137	0.030726256983240226
18139	0.09776536312849163
18141	0.15921787709497207
18143	0.06983240223463687
18145	0.09497206703910614
18147	0.10614525139664804
18149	0.025139664804469275
18151	0.09776536312849163
18153	0.0782122905027933
18155	0.02793296089385475
18157	0.12011173184357542
18159	0.14245810055865923
18161	0.10141813493768799
18163	0.1787709497206704
18165	0.06983240223463687
18167	0.15083798882681565
18169	0.12011173184357542
18171	0.0335195530726257
18173	0.11452513966480447
18175	0.06145251396648045
18177	0.14804469273743018
18179	0.0893854748603352
18181	0.09217877094972067
18183	0.10893854748603353
19001	0.07541899441340782
19003	0.14245810055865923
19005	0.0782122905027933
19007	0.0670391061452514
19009	0.04748603351955307
19011	0.06424581005586592
19013	0.18156424581005587
19015	0.13687150837988826
19017	0.15921787709497207
19019	0.09217877094972067
19021	0.16201117318435754
19023	0.0558659217877095
19025	0.13966480446927373
19027	0.16201117318435754
19029	0.164804469273743
19031	0.15083798882681565
19033	0.17318435754189945
19035	0.09217877094972067
19037	0.11452513966480447
19039	0.05865921787709497
19041	0.23743016759776536
19043	0.12569832402234637
19045	0.15083798882681565
19047	0.111731843575419
19049	0.07541899441340782
19051	0.06424581005586592
19053	0.17039106145251398
19055	0.14245810055865923
19057	0.1871508379888268
19059	0.14804469273743018
19061	0.20949720670391062
19063	0.13966480446927373
19065	0.15083798882681565
19067	0.10335195530726257
19069	0.10614525139664804
19071	0.03910614525139665
19073	0.09217877094972067
19075	0.0670391061452514
19077	0.10335195530726257
19079	0.12849162011173185
19081	0.12569832402234637
19083	0.1452513966480447
19085	0.05865921787709497
19087	0.15083798882681565
19089	0.05865921787709497
19091	0.11452513966480447
19093	0.0782122905027933
19095	0.08659217877094973
19097	0.14245810055865923
19099	0.1452513966480447
19101	0.15083798882681565
19103	0.5670391061452514
19105	0.09497206703910614
19107	0.05307262569832402
19109	0.1452513966480447
19111	0.10893854748603353
19113	0.18994413407821228
19115	0.09776536312849163
19117	0.09497206703910614
19119	0.12011173184357542
19121	0.07262569832402235
19123	0.1005586592178771
19125	0.1675977653631285
19127	0.12849162011173185
19129	0.111731843575419
19131	0.13128491620111732
19133	0.09217877094972067
19135	0.10335195530726257
19137	0.1340782122905028
19139	0.111731843575419
19141	0.1787709497206704
19143	0.0446927374301676
19145	0.24860335195530728
19147	0.06145251396648045
19149	0.1340782122905028
19151	0.1564245810055866
19153	0.18156424581005587
19155	0.13128491620111732
19157	0.15083798882681565
19159	0.0558659217877095
19161	0.08379888268156425
19163	0.1871508379888268
19165	0.13966480446927373
19167	0.11452513966480447
19169	0.13128491620111732
19171	0.04748603351955307
19173	0.13687150837988826
19175	0.111731843575419
19177	0.036312849162011177
19179	0.15921787709497207
19181	0.0893854748603352
19183	0.1005586592178771
19185	0.0446927374301676
19187	0.18156424581005587
19189	0.2122905027932961
19191	0.17318435754189945
19193	0.17597765363128492
19195	0.07541899441340782
19197	0.04189944134078213
20001	0.14804469273743018
20003	0.10614525139664804
20005	0.11731843575418995
20007	0.10274351457492123
20009	0.13128491620111732
20011	0.0558659217877095
20013	0.08379888268156425
20015	0.0670391061452514
20017	0.0
20019	0.0782122905027933
20021	0.09217877094972067
20023	0.20670391061452514
20025	0.0
20027	0.1005586592178771
20029	0.0893854748603352
20031	0.0670391061452514
20033	0.0
20035	0.10893854748603353
20037	0.14245810055865923
20039	0.09497206703910614
20041	0.11452513966480447
20043	0.036312849162011177
20045	0.15363128491620112
20047	0.09497206703910614
20049	0.0
20051	0.22067039106145253
20053	0.08659217877094973
20055	0.15921787709497207
20057	0.12011173184357542
20059	0.07541899441340782
20061	0.3128491620111732
20063	0.1005586592178771
20065	0.0
20067	0.10614525139664804
20069	0.10274351457492123
20071	0.0
20073	0.08659217877094973
20075	0.10614525139664804
20077	0.18994413407821228
20079	0.16201117318435754
20081	0.10274351457492123
20083	0.0
20085	0.10335195530726257
20087	0.0446927374301676
20089	0.09217877094972067
20091	0.21787709497206706
20093	0.06983240223463687
20095	0.06983240223463687
20097	0.111731843575419
20099	0.08100558659217877
20101	0.0
20103	0.1005586592178771
20105	0.0893854748603352
20107	0.0893854748603352
20109	0.19832402234636873
20111	0.17597765363128492
20113	0.13128491620111732
20115	0.06983240223463687
20117	0.1675977653631285
20119	0.06424581005586592
20121	0.0670391061452514
20123	0.13128491620111732
20125	0.13966480446927373
20127	0.04748603351955307
20129	0.0893854748603352
20131	0.22067039106145253
20133	0.08379888268156425
20135	0.0
20137	0.14804469273743018
20139	0.0335195530726257
20141	0.1452513966480447
20143	0.13966480446927373
20145	0.08100558659217877
20147	0.15083798882681565
20149	0.06145251396648045
20151	0.17039106145251398
20153	0.21508379888268156
20155	0.13128491620111732
20157	0.05865921787709497
20159	0.13966480446927373
20161	0.15083798882681565
20163	0.10893854748603353
20165	0.08659217877094973
20167	0.08100558659217877
20169	0.15921787709497207
20171	0.111731843575419
20173	0.15363128491620112
20175	0.08379888268156425
20177	0.1675977653631285
20179	0.10893854748603353
20181	0.13687150837988826
20183	0.22625698324022347
20185	0.06424581005586592
20187	0.0
20189	0.09497206703910614
20191	0.09497206703910614
20193	0.13966480446927373
20195	0.0
20197	0.10274351457492123
20199	0.0
20201	0.05027932960893855
20203	0.12849162011173185
20205	0.09217877094972067
20207	0.08659217877094973
20209	0.10335195530726257
21001	0.0446927374301676
21003	0.08379888268156425
21005	0.13966480446927373
21007	0.0670391061452514
21009	0.08379888268156425
21011	0.0223463687150838
21013	0.12011173184357542
21015	0.17597765363128492
21017	0.18156424581005587
21019	0.18994413407821228
21021	0.2122905027932961
21023	0.0670391061452514
21025	0.08379888268156425
21027	0.04189944134078213
21029	0.08659217877094973
21031	0.0223463687150838
21033	0.08659217877094973
21035	0.11731843575418995
21037	0.1229050279329609
21039	0.0558659217877095
21041	0.10335195530726257
21043	0.08100558659217877
21045	0.01675977653631285
21047	0.3715083798882682
21049	0.12569832402234637
21051	0.03910614525139665
21053	0.08379888268156425
21055	0.030726256983240226
21057	0.08100558659217877
21059	0.15921787709497207
21061	0.0223463687150838
21063	0.10893854748603353
21065	0.1340782122905028
21067	0.3575418994413408
21069	0.0782122905027933
21071	0.19553072625698326
21073	0.20391061452513967
21075	0.0446927374301676
21077	0.0335195530726257
21079	0.0670391061452514
21081	0.0782122905027933
21083	0.0893854748603352
21085	0.09776536312849163
21087	0.1005586592178771
21089	0.11452513966480447
21091	0.16201117318435754
21093	0.22625698324022347
21095	0.0782122905027933
21097	0.10614525139664804
21099	0.07541899441340782
21101	0.13128491620111732
21103	0.05307262569832402
21105	0.10292585929362738
21107	0.13128491620111732
21109	0.12569832402234637
21111	0.26256983240223464
21113	0.1005586592178771
21115	0.07262569832402235
21117	0.1340782122905028
21119	0.10614525139664804
21121	0.0782122905027933
21123	0.05865921787709497
21125	0.10893854748603353
21127	0.05307262569832402
21129	0.11452513966480447
21131	0.1005586592178771
21133	0.08379888268156425
21135	0.03910614525139665
21137	0.0111731843575419
21139	0.030726256983240226
21141	0.08379888268156425
21143	0.0670391061452514
21145	0.24301675977653633
21147	0.01675977653631285
21149	0.030726256983240226
21151	0.11452513966480447
21153	0.10893854748603353
21155	0.09776536312849163
21157	0.06424581005586592
21159	0.0446927374301676
21161	0.19273743016759778
21163	0.0670391061452514
21165	0.0893854748603352
21167	0.06424581005586592
21169	0.0558659217877095
21171	0.1564245810055866
21173	0.14245810055865923
21175	0.08379888268156425
21177	0.0893854748603352
21179	0.13687150837988826
21181	0.12011173184357542
21183	0.08100558659217877
21185	0.111731843575419
21187	0.10614525139664804
21189	0.10292585929362738
21191	0.03910614525139665
21193	0.19832402234636873
21195	0.1675977653631285
21197	0.111731843575419
21199	0.1871508379888268
21201	0.0
21203	0.01675977653631285
21205	0.15363128491620112
21207	0.06424581005586592
21209	0.08379888268156425
21211	0.11452513966480447
21213	0.17318435754189945
21215	0.0782122905027933
21217	0.0782122905027933
21219	0.0223463687150838
21221	0.05865921787709497
21223	0.06424581005586592
21225	0.111731843575419
21227	0.17597765363128492
21229	0.11731843575418995
21231	0.08100558659217877
21233	0.06145251396648045
21235	0.1564245810055866
21237	0.03910614525139665
21239	0.15363128491620112
22001	0.08659217877094973
22003	0.06424581005586592
22005	0.0782122905027933
22007	0.036312849162011177
22009	0.0670391061452514
22011	0.05307262569832402
22013	0.03910614525139665
22015	0.1340782122905028
22017	0.2011173184357542
22019	0.14804469273743018
22021	0.08379888268156425
22023	0.09200141881706116
22025	0.10893854748603353
22027	0.08379888268156425
22029	0.09497206703910614
22031	0.030726256983240226
22033	0.19273743016759778
22035	0.036312849162011177
22037	0.0558659217877095
22039	0.09217877094972067
22041	0.05307262569832402
22043	0.013966480446927375
22045	0.13687150837988826
22047	0.1005586592178771
22049	0.0335195530726257
22051	0.22067039106145253
22053	0.06145251396648045
22055	0.1787709497206704
22057	0.11731843575418995
22059	0.0558659217877095
22061	0.1005586592178771
22063	0.06983240223463687
22065	0.04748603351955307
22067	0.10335195530726257
22069	0.0782122905027933
22071	0.17597765363128492
22073	0.15363128491620112
22075	0.06983240223463687
22077	0.08659217877094973
22079	0.12569832402234637
22081	0.06145251396648045
22083	0.12011173184357542
22085	0.04748603351955307
22087	0.0782122905027933
22089	0.08379888268156425
22091	0.025139664804469275
22093	0.0893854748603352
22095	0.07541899441340782
22097	0.08379888268156425
22099	0.05307262569832402
22101	0.12011173184357542
22103	0.21787709497206706
22105	0.12849162011173185
22107	0.17039106145251398
22109	0.11731843575418995
22111	0.025139664804469275
22113	0.06983240223463687
22115	0.17597765363128492
22117	0.0782122905027933
22119	0.06983240223463687
22121	0.0446927374301676
22123	0.025139664804469275
22125	0.0893854748603352
22127	0.07541899441340782
23001	0.14245810055865923
23003	0.1229050279329609
23005	0.22625698324022347
23007	0.12011173184357542
23009	0.13687150837988826
23011	0.19553072625698326
23013	0.17039106145251398
23015	0.1229050279329609
23017	0.09776536312849163
23019	0.19832402234636873
23021	0.08100558659217877
23023	0.19273743016759778
23025	0.05307262569832402
23027	0.0782122905027933
23029	0.10335195530726257
23031	0.10893854748603353
24001	0.1871508379888268
24003	0.18435754189944134
24005	0.20391061452513967
24009	0.11731843575418995
24011	0.1452513966480447
24013	0.1675977653631285
24015	0.1005586592178771
24017	0.1871508379888268
24019	0.12849162011173185
24021	0.18156424581005587
24023	0.09217877094972067
24025	0.1675977653631285
24027	0.223463687150838
24029	0.09776536312849163
24031	0.32122905027932963
24033	0.16201117318435754
24035	0.10335195530726257
24037	0.1340782122905028
24039	0.30726256983240224
24041	0.2122905027932961
24043	0.15921787709497207
24045	0.21508379888268156
24047	0.1452513966480447
24510	0.15921787709497207
25001	0.2569832402234637
25003	0.20949720670391062
25005	0.16201117318435754
25007	0.16201117318435754
25009	0.22905027932960895
25011	0.17318435754189945
25013	0.20949720670391062
25015	0.18156424581005587
25017	0.25139664804469275
25019	0.21508379888268156
25021	0.31005586592178774
25023	0.18994413407821228
25025	0.4888268156424581
25027	0.18156424581005587
26001	0.025139664804469275
26003	0.11731843575418995
26005	0.07262569832402235
26007	0.2122905027932961
26009	0.09497206703910614
26011	0.10893854748603353
26013	0.16201117318435754
26015	0.07541899441340782
26017	0.18435754189944134
26019	0.09497206703910614
26021	0.14245810055865923
26023	0.13966480446927373
26025	0.17039106145251398
26027	0.05307262569832402
26029	0.35195530726256985
26031	0.13128491620111732
26033	0.18156424581005587
26035	0.07262569832402235
26037	0.07541899441340782
26039	0.1005586592178771
26041	0.15921787709497207
26043	0.2569832402234637
26045	0.18435754189944134
26047	0.2541899441340782
26049	0.1871508379888268
26051	0.0670391061452514
26053	0.1229050279329609
26055	0.24860335195530728
26057	0.10614525139664804
26059	0.0782122905027933
26061	0.13966480446927373
26063	0.12011173184357542
26065	0.20670391061452514
26067	0.11452513966480447
26069	0.15363128491620112
26071	0.09776536312849163
26073	0.13128491620111732
26075	0.15921787709497207
26077	0.18435754189944134
26079	0.09776536312849163
26081	0.1871508379888268
26083	0.0
26085	0.14804469273743018
26087	0.11731843575418995
26089	0.11452513966480447
26091	0.11452513966480447
26093	0.1675977653631285
26095	0.12849162011173185
26097	0.15083798882681565
26099	0.22067039106145253
26101	0.17039106145251398
26103	0.223463687150838
26105	0.1452513966480447
26107	0.1564245810055866
26109	0.17597765363128492
26111	0.18994413407821228
26113	0.036312849162011177
26115	0.10335195530726257
26117	0.12011173184357542
26119	0.0893854748603352
26121	0.15083798882681565
26123	0.12849162011173185
26125	0.28212290502793297
26127	0.07541899441340782
26129	0.09217877094972067
26131	0.13128491620111732
26133	0.036312849162011177
26135	0.0670391061452514
26137	0.18435754189944134
26139	0.15083798882681565
26141	0.08659217877094973
26143	0.12849162011173185
26145	0.1787709497206704
26147	0.1452513966480447
26149	0.09497206703910614
26151	0.08100558659217877
26153	0.13687150837988826
26155	0.1229050279329609
26157	0.09776536312849163
26159	0.1005586592178771
26161	0.42178770949720673
26163	0.1675977653631285
26165	0.16201117318435754
27001	0.05307262569832402
27003	0.1675977653631285
27005	0.15921787709497207
27007	0.17597765363128492
27009	0.08659217877094973
27011	0.0558659217877095
27013	0.22905027932960895
27015	0.14245810055865923
27017	0.164804469273743
27019	0.11731843575418995
27021	0.1871508379888268
27023	0.11452513966480447
27025	0.12569832402234637
27027	0.1564245810055866
27029	0.09497206703910614
27031	0.10614525139664804
27033	0.1452513966480447
27035	0.2122905027932961
27037	0.1787709497206704
27039	0.0558659217877095
27041	0.18994413407821228
27043	0.09776536312849163
27045	0.14804469273743018
27047	0.0893854748603352
27049	0.13128491620111732
27051	0.09217877094972067
27053	0.24301675977653633
27055	0.1340782122905028
27057	0.09497206703910614
27059	0.10893854748603353
27061	0.14804469273743018
27063	0.10893854748603353
27065	0.13966480446927373
27067	0.18435754189944134
27069	0.1229050279329609
27071	0.10614525139664804
27073	0.15921787709497207
27075	0.10335195530726257
27077	0.06983240223463687
27079	0.08100558659217877
27081	0.09497206703910614
27083	0.12011173184357542
27085	0.2011173184357542
27087	0.13339612836169945
27089	0.05865921787709497
27091	0.1229050279329609
27093	0.07262569832402235
27095	0.12849162011173185
27097	0.08379888268156425
27099	0.12849162011173185
27101	0.09776536312849163
27103	0.1787709497206704
27105	0.14245810055865923
27107	0.12569832402234637
27109	0.223463687150838
27111	0.1564245810055866
27113	0.13966480446927373
27115	0.0670391061452514
27117	0.0893854748603352
27119	0.14245810055865923
27121	0.07541899441340782
27123	0.22067039106145253
27125	0.06983240223463687
27127	0.1229050279329609
27129	0.14804469273743018
27131	0.15363128491620112
27133	0.11731843575418995
27135	0.10893854748603353
27137	0.2122905027932961
27139	0.1229050279329609
27141	0.11731843575418995
27143	0.111731843575419
27145	0.19553072625698326
27147	0.22905027932960895
27149	0.2011173184357542
27151	0.11731843575418995
27153	0.11452513966480447
27155	0.08100558659217877
27157	0.18156424581005587
27159	0.16201117318435754
27161	0.13128491620111732
27163	0.19273743016759778
27165	0.1005586592178771
27167	0.17039106145251398
27169	0.14804469273743018
27171	0.1005586592178771
27173	0.10893854748603353
28001	0.1229050279329609
28003	0.12011173184357542
28005	0.06424581005586592
28007	0.1005586592178771
28009	0.0335195530726257
28011	0.09776536312849163
28013	0.0558659217877095
28015	0.05307262569832402
28017	0.09776536312849163
28019	0.1005586592178771
28021	0.06145251396648045
28023	0.05027932960893855
28025	0.04189944134078213
28027	0.1229050279329609
28029	0.08659217877094973
28031	0.08659217877094973
28033	0.10335195530726257
28035	0.0893854748603352
28037	0.036312849162011177
28039	0.07262569832402235
28041	0.05865921787709497
28043	0.11731843575418995
28045	0.0670391061452514
28047	0.19832402234636873
28049	0.24301675977653633
28051	0.0446927374301676
28053	0.08576851453946424
28055	0.0
28057	0.04748603351955307
28059	0.1005586592178771
28061	0.0670391061452514
28063	0.08576851453946424
28065	0.09217877094972067
28067	0.1229050279329609
28069	0.05307262569832402
28071	0.10335195530726257
28073	0.2569832402234637
28075	0.12849162011173185
28077	0.0446927374301676
28079	0.04748603351955307
28081	0.1675977653631285
28083	0.0893854748603352
28085	0.0893854748603352
28087	0.1871508379888268
28089	0.17597765363128492
28091	0.06424581005586592
28093	0.03910614525139665
28095	0.1005586592178771
28097	0.0782122905027933
28099	0.15083798882681565
28101	0.05027932960893855
28103	0.05027932960893855
28105	0.08659217877094973
28107	0.07262569832402235
28109	0.0558659217877095
28111	0.0223463687150838
28113	0.13128491620111732
28115	0.036312849162011177
28117	0.10893854748603353
28119	0.036312849162011177
28121	0.164804469273743
28123	0.09776536312849163
28125	0.08576851453946424
28127	0.06983240223463687
28129	0.05027932960893855
28131	0.06145251396648045
28133	0.06983240223463687
28135	0.0558659217877095
28137	0.06983240223463687
28139	0.06424581005586592
28141	0.02793296089385475
28143	0.08576851453946424
28145	0.08100558659217877
28147	0.0558659217877095
28149	0.12849162011173185
28151	0.1005586592178771
28153	0.04189944134078213
28155	0.111731843575419
28157	0.0893854748603352
28159	0.05865921787709497
28161	0.0446927374301676
28163	0.06145251396648045
29001	0.14245810055865923
29003	0.06424581005586592
29005	0.15363128491620112
29007	0.07541899441340782
29009	0.06983240223463687
29011	0.0223463687150838
29013	0.0335195530726257
29015	0.05865921787709497
29017	0.0446927374301676
29019	0.164804469273743
29021	0.16201117318435754
29023	0.14804469273743018
29025	0.030726256983240226
29027	0.0558659217877095
29029	0.1340782122905028
29031	0.19832402234636873
29033	0.1229050279329609
29035	0.0446927374301676
29037	0.08379888268156425
29039	0.08100558659217877
29041	0.036312849162011177
29043	0.08379888268156425
29045	0.08100558659217877
29047	0.1564245810055866
29049	0.13687150837988826
29051	0.14804469273743018
29053	0.0782122905027933
29055	0.0335195530726257
29057	0.036312849162011177
29059	0.0670391061452514
29061	0.0670391061452514
29063	0.0223463687150838
29065	0.12569832402234637
29067	0.08379888268156425
29069	0.0893854748603352
29071	0.11731843575418995
29073	0.0558659217877095
29075	0.164804469273743
29077	0.18994413407821228
29079	0.1340782122905028
29081	0.09497206703910614
29083	0.11452513966480447
29085	0.05865921787709497
29087	0.06145251396648045
29089	0.10893854748603353
29091	0.09776536312849163
29093	0.02793296089385475
29095	0.21787709497206706
29097	0.15921787709497207
29099	0.0782122905027933
29101	0.09217877094972067
29103	0.06983240223463687
29105	0.06983240223463687
29107	0.08379888268156425
29109	0.10335195530726257
29111	0.02793296089385475
29113	0.04189944134078213
29115	0.0446927374301676
29117	0.17039106145251398
29119	0.07541899441340782
29121	0.10893854748603353
29123	0.0670391061452514
29125	0.09217877094972067
29127	0.1452513966480447
29129	0.0
29131	0.0670391061452514
29133	0.03910614525139665
29135	0.06983240223463687
29137	0.06424581005586592
29139	0.04748603351955307
29141	0.02793296089385475
29143	0.06145251396648045
29145	0.04748603351955307
29147	0.07262569832402235
29149	0.05027932960893855
29151	0.06145251396648045
29153	0.05865921787709497
29155	0.01675977653631285
29157	0.10335195530726257
29159	0.13128491620111732
29161	0.11731843575418995
29163	0.07541899441340782
29165	0.164804469273743
29167	0.06424581005586592
29169	0.28491620111731847
29171	0.11452513966480447
29173	0.02793296089385475
29175	0.1005586592178771
29177	0.04748603351955307
29179	0.2122905027932961
29181	0.03910614525139665
29183	0.15083798882681565
29185	0.0893854748603352
29186	0.0782122905027933
29187	0.1005586592178771
29189	0.223463687150838
29195	0.08379888268156425
29197	0.06424581005586592
29199	0.0558659217877095
29201	0.1564245810055866
29203	0.08960599823581314
29205	0.0893854748603352
29207	0.0558659217877095
29209	0.036312849162011177
29211	0.0446927374301676
29213	0.08379888268156425
29215	0.0446927374301676
29217	0.08100558659217877
29219	0.05027932960893855
29221	0.0893854748603352
29223	0.019553072625698324
29225	0.07541899441340782
29227	0.1340782122905028
29229	0.10614525139664804
29510	0.1229050279329609
30001	0.12011173184357542
30003	0.17039106145251398
30005	0.2122905027932961
30007	0.05027932960893855
30009	0.10893854748603353
30011	0.0
30013	0.24301675977653633
30015	0.04748603351955307
30017	0.164804469273743
30019	0.1564245810055866
30021	0.11731843575418995
30023	0.20949720670391062
30025	0.0893854748603352
30027	0.2905027932960894
30029	0.17318435754189945
30031	0.1871508379888268
30033	0.0
30035	0.16201117318435754
30037	0.0
30039	0.0
30041	0.23743016759776536
30043	0.12011173184357542
30045	0.0
30047	0.19273743016759778
30049	0.223463687150838
30051	0.11731843575418995
30053	0.14245810055865923
30055	0.0
30057	0.036312849162011177
30059	0.0
30061	0.06424581005586592
30063	0.22905027932960895
30065	0.10802437785678017
30067	0.1787709497206704
30069	0.0
30071	0.0670391061452514
30073	0.0893854748603352
30075	0.0
30077	0.12011173184357542
30079	0.0
30081	0.13128491620111732
30083	0.1005586592178771
30085	0.15083798882681565
30087	0.15083798882681565
30089	0.09776536312849163
30091	0.07541899441340782
30093	0.24301675977653633
30095	0.0893854748603352
30097	0.07541899441340782
30099	0.09217877094972067
30101	0.10893854748603353
30103	0.0
30105	0.07262569832402235
30107	0.0
30109	0.0
30111	0.23184357541899442
31001	0.22067039106145253
31003	0.04189944134078213
31005	0.0
31007	0.0
31009	0.0
31011	0.10335195530726257
31013	0.14804469273743018
31015	0.13687150837988826
31017	0.09497206703910614
31019	0.1871508379888268
31021	0.08379888268156425
31023	0.1005586592178771
31025	0.0893854748603352
31027	0.12849162011173185
31029	0.13966480446927373
31031	0.4329608938547486
31033	0.111731843575419
31035	0.0446927374301676
31037	0.05307262569832402
31039	0.1564245810055866
31041	0.0782122905027933
31043	0.0670391061452514
31045	0.21508379888268156
31047	0.16201117318435754
31049	0.2877094972067039
31051	0.14245810055865923
31053	0.16201117318435754
31055	0.23184357541899442
31057	0.28212290502793297
31059	0.14804469273743018
31061	0.0893854748603352
31063	0.0
31065	0.05865921787709497
31067	0.1787709497206704
31069	0.14804469273743018
31071	0.5502793296089385
31073	0.0
31075	0.0
31077	0.0
31079	0.21508379888268156
31081	0.1229050279329609
31083	0.0782122905027933
31085	0.0
31087	0.0
31089	0.29329608938547486
31091	0.37988826815642457
31093	0.08659217877094973
31095	0.111731843575419
31097	0.05307262569832402
31099	0.08659217877094973
31101	0.13687150837988826
31103	0.0
31105	0.07541899441340782
31107	0.19553072625698326
31109	0.2541899441340782
31111	0.14804469273743018
31113	0.0
31115	0.0
31117	0.0
31119	0.2681564245810056
31121	0.14245810055865923
31123	0.0558659217877095
31125	0.0782122905027933
31127	0.11731843575418995
31129	0.18994413407821228
31131	0.15921787709497207
31133	0.31005586592178774
31135	0.09497206703910614
31137	0.15083798882681565
31139	0.11731843575418995
31141	0.12011173184357542
31143	0.10614525139664804
31145	0.22905027932960895
31147	0.10335195530726257
31149	0.0
31151	0.11731843575418995
31153	0.1787709497206704
31155	0.08100558659217877
31157	0.17318435754189945
31159	0.13128491620111732
31161	0.15921787709497207
31163	0.0893854748603352
31165	0.0
31167	0.12448384746174414
31169	0.10893854748603353
31171	0.0
31173	0.24301675977653633
31175	0.2011173184357542
31177	0.08379888268156425
31179	0.14804469273743018
31181	0.0
31183	0.0
31185	0.18156424581005587
32001	0.17318435754189945
32003	0.1564245810055866
32005	0.1787709497206704
32007	0.0893854748603352
32009	0.0
32011	0.2681564245810056
32013	0.09776536312849163
32015	0.04748603351955307
32017	0.05307262569832402
32019	0.06424581005586592
32021	0.12011173184357542
32023	0.05865921787709497
32027	0.08100558659217877
32029	0.0
32031	0.17597765363128492
32033	0.08379888268156425
32510	0.23184357541899442
33001	0.1675977653631285
33003	0.15921787709497207
33005	0.1564245810055866
33007	0.13966480446927373
33009	0.2122905027932961
33011	0.20670391061452514
33013	0.20391061452513967
33015	0.18435754189944134
33017	0.1871508379888268
33019	0.09217877094972067
34001	0.14804469273743018
34003	0.3435754189944134
34005	0.19553072625698326
34007	0.20391061452513967
34009	0.13966480446927373
34011	0.16201117318435754
34013	0.25139664804469275
34015	0.12011173184357542
34017	0.164804469273743
34019	0.223463687150838
34021	0.2122905027932961
34023	0.22625698324022347
34025	0.26536312849162014
34027	0.2988826815642458
34029	0.17318435754189945
34031	0.18994413407821228
34033	0.08100558659217877
34035	0.2541899441340782
34037	0.19553072625698326
34039	0.22905027932960895
34041	0.1871508379888268
35001	0.20949720670391062
35003	0.0
35005	0.09217877094972067
35006	0.1229050279329609
35007	0.08659217877094973
35009	0.1871508379888268
35011	0.29329608938547486
35013	0.14245810055865923
35015	0.0893854748603352
35017	0.11452513966480447
35019	0.1229050279329609
35021	0.0
35023	0.41899441340782123
35025	0.05865921787709497
35027	0.09776536312849163
35028	0.28212290502793297
35029	0.0893854748603352
35031	0.19553072625698326
35033	0.05865921787709497
35035	0.10335195530726257
35037	0.06424581005586592
35039	0.11731843575418995
35041	0.09776536312849163
35043	0.1005586592178771
35045	0.20391061452513967
35047	0.10893854748603353
35049	0.22905027932960895
35051	0.1675977653631285
35053	0.111731843575419
35055	0.15083798882681565
35057	0.05307262569832402
35059	0.06424581005586592
35061	0.05027932960893855
36001	0.2346368715083799
36003	0.07541899441340782
36005	0.1340782122905028
36007	0.17597765363128492
36009	0.1229050279329609
36011	0.11731843575418995
36013	0.15083798882681565
36015	0.14245810055865923
36017	0.09497206703910614
36019	0.14245810055865923
36021	0.111731843575419
36023	0.10335195530726257
36025	0.09497206703910614
36027	0.1871508379888268
36029	0.21508379888268156
36031	0.09497206703910614
36033	0.09217877094972067
36035	0.08100558659217877
36037	0.09776536312849163
36039	0.09776536312849163
36041	0.14607564795310923
36043	0.08659217877094973
36045	0.223463687150838
36047	0.1675977653631285
36049	0.05027932960893855
36051	0.12569832402234637
36053	0.09217877094972067
36055	0.20670391061452514
36057	0.17318435754189945
36059	0.3156424581005587
36061	0.46648044692737434
36063	0.14804469273743018
36065	0.15363128491620112
36067	0.2011173184357542
36069	0.14245810055865923
36071	0.18156424581005587
36073	0.05307262569832402
36075	0.111731843575419
36077	0.13128491620111732
36079	0.15083798882681565
36081	0.19553072625698326
36083	0.12011173184357542
36085	0.1787709497206704
36087	0.27932960893854747
36089	0.10614525139664804
36091	0.164804469273743
36093	0.20670391061452514
36095	0.08659217877094973
36097	0.06145251396648045
36099	0.06424581005586592
36101	0.10614525139664804
36103	0.21508379888268156
36105	0.11731843575418995
36107	0.0446927374301676
36109	0.13687150837988826
36111	0.17039106145251398
36113	0.25139664804469275
36115	0.06145251396648045
36117	0.12011173184357542
36119	0.2877094972067039
36121	0.08659217877094973
36123	0.1005586592178771
37001	0.12569832402234637
37003	0.0446927374301676
37005	0.05027932960893855
37007	0.07541899441340782
37009	0.07262569832402235
37011	0.04748603351955307
37013	0.09497206703910614
37015	0.02793296089385475
37017	0.09497206703910614
37019	0.09497206703910614
37021	0.1871508379888268
37023	0.11452513966480447
37025	0.11731843575418995
37027	0.08100558659217877
37029	0.10544692737430168
37031	0.19553072625698326
37033	0.036312849162011177
37035	0.1340782122905028
37037	0.05865921787709497
37039	0.09217877094972067
37041	0.09497206703910614
37043	0.18435754189944134
37045	0.10335195530726257
37047	0.05865921787709497
37049	0.1564245810055866
37051	0.2541899441340782
37053	0.0558659217877095
37055	0.17597765363128492
37057	0.05027932960893855
37059	0.08100558659217877
37061	0.05027932960893855
37063	0.19832402234636873
37065	0.06424581005586592
37067	0.1675977653631285
37069	0.05307262569832402
37071	0.13966480446927373
37073	0.025139664804469275
37075	0.06424581005586592
37077	0.07541899441340782
37079	0.10614525139664804
37081	0.15083798882681565
37083	0.07262569832402235
37085	0.07541899441340782
37087	0.1229050279329609
37089	0.1340782122905028
37091	0.11452513966480447
37093	0.02793296089385475
37095	0.10544692737430168
37097	0.13687150837988826
37099	0.1229050279329609
37101	0.0558659217877095
37103	0.10544692737430168
37105	0.12569832402234637
37107	0.12849162011173185
37109	0.09497206703910614
37111	0.08100558659217877
37113	0.13966480446927373
37115	0.0670391061452514
37117	0.05865921787709497
37119	0.18156424581005587
37121	0.10893854748603353
37123	0.019553072625698324
37125	0.17039106145251398
37127	0.13687150837988826
37129	0.2011173184357542
37131	0.03910614525139665
37133	0.24860335195530728
37135	0.5167597765363129
37137	0.08659217877094973
37139	0.111731843575419
37141	0.09217877094972067
37143	0.019553072625698324
37145	0.1005586592178771
37147	0.17039106145251398
37149	0.10893854748603353
37151	0.07541899441340782
37153	0.0782122905027933
37155	0.05865921787709497
37157	0.08379888268156425
37159	0.10614525139664804
37161	0.0670391061452514
37163	0.08379888268156425
37165	0.06983240223463687
37167	0.09776536312849163
37169	0.036312849162011177
37171	0.09497206703910614
37173	0.15921787709497207
37175	0.09217877094972067
37177	0.10544692737430168
37179	0.0670391061452514
37181	0.11731843575418995
37183	0.18156424581005587
37185	0.05307262569832402
37187	0.0670391061452514
37189	0.17039106145251398
37191	0.11731843575418995
37193	0.0893854748603352
37195	0.1005586592178771
37197	0.05027932960893855
37199	0.0782122905027933
38001	0.11731843575418995
38003	0.19832402234636873
38005	0.11064872876524917
38007	0.0
38009	0.08379888268156425
38011	0.2597765363128492
38013	0.0
38015	0.23184357541899442
38017	0.19832402234636873
38019	0.07262569832402235
38021	0.10614525139664804
38023	0.0
38025	0.11064872876524917
38027	0.34916201117318435
38029	0.08100558659217877
38031	0.164804469273743
38033	0.0
38035	0.18435754189944134
38037	0.11731843575418995
38039	0.1229050279329609
38041	0.20949720670391062
38043	0.0
38045	0.11064872876524917
38047	0.0
38049	0.11064872876524917
38051	0.1005586592178771
38053	0.05865921787709497
38055	0.030726256983240226
38057	0.16201117318435754
38059	0.0782122905027933
38061	0.0893854748603352
38063	0.0
38065	0.14804469273743018
38067	0.11731843575418995
38069	0.12569832402234637
38071	0.21787709497206706
38073	0.15083798882681565
38075	0.10614525139664804
38077	0.17039106145251398
38079	0.17318435754189945
38081	0.0
38083	0.0
38085	0.12569832402234637
38087	0.0
38089	0.0893854748603352
38091	0.0
38093	0.17318435754189945
38095	0.0
38097	0.0670391061452514
38099	0.15083798882681565
38101	0.19273743016759778
38103	0.19832402234636873
38105	0.19832402234636873
39001	0.0893854748603352
39003	0.164804469273743
39005	0.11452513966480447
39007	0.1005586592178771
39009	0.06424581005586592
39011	0.09776536312849163
39013	0.10335195530726257
39015	0.0446927374301676
39017	0.12849162011173185
39019	0.09776536312849163
39021	0.09217877094972067
39023	0.12849162011173185
39025	0.10893854748603353
39027	0.08659217877094973
39029	0.06424581005586592
39031	0.07541899441340782
39033	0.14245810055865923
39035	0.26256983240223464
39037	0.07541899441340782
39039	0.1005586592178771
39041	0.13966480446927373
39043	0.17597765363128492
39045	0.12011173184357542
39047	0.11731843575418995
39049	0.22905027932960895
39051	0.08659217877094973
39053	0.09217877094972067
39055	0.12011173184357542
39057	0.21508379888268156
39059	0.1340782122905028
39061	0.19273743016759778
39063	0.12849162011173185
39065	0.0446927374301676
39067	0.036312849162011177
39069	0.10893854748603353
39071	0.1229050279329609
39073	0.05865921787709497
39075	0.08379888268156425
39077	0.08659217877094973
39079	0.0670391061452514
39081	0.11452513966480447
39083	0.1005586592178771
39085	0.1787709497206704
39087	0.07541899441340782
39089	0.09497206703910614
39091	0.09776536312849163
39093	0.12569832402234637
39095	0.18435754189944134
39097	0.06424581005586592
39099	0.20391061452513967
39101	0.16201117318435754
39103	0.13687150837988826
39105	0.08379888268156425
39107	0.07541899441340782
39109	0.13128491620111732
39111	0.03910614525139665
39113	0.16201117318435754
39115	0.036312849162011177
39117	0.030726256983240226
39119	0.164804469273743
39121	0.09497206703910614
39123	0.1005586592178771
39125	0.05865921787709497
39127	0.06145251396648045
39129	0.0893854748603352
39131	0.11731843575418995
39133	0.10335195530726257
39135	0.03910614525139665
39137	0.06424581005586592
39139	0.18994413407821228
39141	0.13966480446927373
39143	0.13128491620111732
39145	0.0893854748603352
39147	0.1005586592178771
39149	0.0670391061452514
39151	0.16201117318435754
39153	0.164804469273743
39155	0.14245810055865923
39157	0.09217877094972067
39159	0.13128491620111732
39161	0.0782122905027933
39163	0.06424581005586592
39165	0.09497206703910614
39167	0.11452513966480447
39169	0.11452513966480447
39171	0.12569832402234637
39173	0.0893854748603352
39175	0.08659217877094973
40001	0.06424581005586592
40003	0.14245810055865923
40005	0.06145251396648045
40007	0.05027932960893855
40009	0.11731843575418995
40011	0.17318435754189945
40013	0.09497206703910614
40015	0.0558659217877095
40017	0.11731843575418995
40019	0.17318435754189945
40021	0.1564245810055866
40023	0.07541899441340782
40025	0.12011173184357542
40027	0.11731843575418995
40029	0.04748603351955307
40031	0.25139664804469275
40033	0.1089757914338919
40035	0.11452513966480447
40037	0.08659217877094973
40039	0.15083798882681565
40041	0.1229050279329609
40043	0.05865921787709497
40045	0.2011173184357542
40047	0.14804469273743018
40049	0.08100558659217877
40051	0.0782122905027933
40053	0.1089757914338919
40055	0.22625698324022347
40057	0.09776536312849163
40059	0.07262569832402235
40061	0.08659217877094973
40063	0.1005586592178771
40065	0.10614525139664804
40067	0.0446927374301676
40069	0.27932960893854747
40071	0.12849162011173185
40073	0.1452513966480447
40075	0.0893854748603352
40077	0.2346368715083799
40079	0.05027932960893855
40081	0.07262569832402235
40083	0.03910614525139665
40085	0.02793296089385475
40087	0.06983240223463687
40089	0.07541899441340782
40091	0.13687150837988826
40093	0.036312849162011177
40095	0.036312849162011177
40097	0.08100558659217877
40099	0.06145251396648045
40101	0.1340782122905028
40103	0.07262569832402235
40105	0.025139664804469275
40107	0.0223463687150838
40109	0.2597765363128492
40111	0.1340782122905028
40113	0.06983240223463687
40115	0.06983240223463687
40117	0.22067039106145253
40119	0.13687150837988826
40121	0.12011173184357542
40123	0.17039106145251398
40125	0.13687150837988826
40127	0.05027932960893855
40129	0.07541899441340782
40131	0.111731843575419
40133	0.0782122905027933
40135	0.0893854748603352
40137	0.13687150837988826
40139	0.0893854748603352
40141	0.10893854748603353
40143	0.18435754189944134
40145	0.0558659217877095
40147	0.1452513966480447
40149	0.04748603351955307
40151	0.1229050279329609
40153	0.1452513966480447
41001	0.1564245810055866
41003	0.17318435754189945
41005	0.20670391061452514
41007	0.20949720670391062
41009	0.14245810055865923
41011	0.1871508379888268
41013	0.10614525139664804
41015	0.15083798882681565
41017	0.223463687150838
41019	0.1675977653631285
41021	0.0
41023	0.22905027932960895
41025	0.2346368715083799
41027	0.32122905027932963
41029	0.19832402234636873
41031	0.13128491620111732
41033	0.2011173184357542
41035	0.22905027932960895
41037	0.07262569832402235
41039	0.18156424581005587
41041	0.15083798882681565
41043	0.1564245810055866
41045	0.19273743016759778
41047	0.20949720670391062
41049	0.17358339984038298
41051	0.25139664804469275
41053	0.1005586592178771
41055	0.0
41057	0.13128491620111732
41059	0.14804469273743018
41061	0.16201117318435754
41063	0.08100558659217877
41065	0.1871508379888268
41067	0.2346368715083799
41069	0.40502793296089384
41071	0.14245810055865923
42001	0.0893854748603352
42003	0.24022346368715083
42005	0.0782122905027933
42007	0.13687150837988826
42009	0.13687150837988826
42011	0.14245810055865923
42013	0.14804469273743018
42015	0.14804469273743018
42017	0.21787709497206706
42019	0.17039106145251398
42021	0.13966480446927373
42023	0.17039106145251398
42025	0.111731843575419
42027	0.14804469273743018
42029	0.17597765363128492
42031	0.10614525139664804
42033	0.12011173184357542
42035	0.12011173184357542
42037	0.12849162011173185
42039	0.12011173184357542
42041	0.18435754189944134
42043	0.18994413407821228
42045	0.2346368715083799
42047	0.06983240223463687
42049	0.17318435754189945
42051	0.16201117318435754
42053	0.13386659895039776
42055	0.10893854748603353
42057	0.03910614525139665
42059	0.111731843575419
42061	0.09217877094972067
42063	0.1005586592178771
42065	0.1229050279329609
42067	0.0335195530726257
42069	0.2011173184357542
42071	0.13687150837988826
42073	0.14804469273743018
42075	0.1229050279329609
42077	0.22905027932960895
42079	0.17039106145251398
42081	0.111731843575419
42083	0.09776536312849163
42085	0.14804469273743018
42087	0.08379888268156425
42089	0.10335195530726257
42091	0.2569832402234637
42093	0.24022346368715083
42095	0.14245810055865923
42097	0.09776536312849163
42099	0.05027932960893855
42101	0.18156424581005587
42103	0.05027932960893855
42105	0.08100558659217877
42107	0.10893854748603353
42109	0.12569832402234637
42111	0.12011173184357542
42113	0.0446927374301676
42115	0.0670391061452514
42117	0.13128491620111732
42119	0.16201117318435754
42121	0.10335195530726257
42123	0.10335195530726257
42125	0.16201117318435754
42127	0.13966480446927373
42129	0.17597765363128492
42131	0.12849162011173185
42133	0.13687150837988826
44001	0.10335195530726257
44003	0.19832402234636873
44005	0.25139664804469275
44007	0.16201117318435754
44009	0.1452513966480447
45001	0.0335195530726257
45003	0.10614525139664804
45005	0.0558659217877095
45007	0.10614525139664804
45009	0.12569832402234637
45011	0.06424581005586592
45013	0.25139664804469275
45015	0.07541899441340782
45017	0.07541899441340782
45019	0.28491620111731847
45021	0.05865921787709497
45023	0.04189944134078213
45025	0.0782122905027933
45027	0.08100558659217877
45029	0.0670391061452514
45031	0.0782122905027933
45033	0.07262569832402235
45035	0.15363128491620112
45037	0.06424581005586592
45039	0.04748603351955307
45041	0.164804469273743
45043	0.1340782122905028
45045	0.16201117318435754
45047	0.13687150837988826
45049	0.08100558659217877
45051	0.111731843575419
45053	0.10614525139664804
45055	0.07262569832402235
45057	0.08659217877094973
45059	0.07541899441340782
45061	0.030726256983240226
45063	0.11452513966480447
45065	0.02793296089385475
45067	0.05307262569832402
45069	0.05865921787709497
45071	0.07541899441340782
45073	0.11452513966480447
45075	0.09776536312849163
45077	0.1340782122905028
45079	0.21787709497206706
45081	0.08379888268156425
45083	0.13128491620111732
45085	0.10614525139664804
45087	0.03910614525139665
45089	0.0335195530726257
45091	0.12569832402234637
46003	0.0
46005	0.15363128491620112
46007	0.16201117318435754
46009	0.12011173184357542
46011	0.10893854748603353
46013	0.15363128491620112
46015	0.05307262569832402
46017	0.4134078212290503
46019	0.1340782122905028
46021	0.0
46023	0.12011173184357542
46025	0.15363128491620112
46027	0.15921787709497207
46029	0.23184357541899442
46031	0.0670391061452514
46033	0.0670391061452514
46035	0.19832402234636873
46037	0.05027932960893855
46039	0.06424581005586592
46041	0.2011173184357542
46043	0.09217877094972067
46045	0.13124127094972068
46047	0.20391061452513967
46049	0.0
46051	0.15363128491620112
46053	0.13128491620111732
46055	0.14804469273743018
46057	0.13124127094972068
46059	0.08100558659217877
46061	0.0
46063	0.0
46065	0.15921787709497207
46067	0.11731843575418995
46069	0.0
46071	0.08659217877094973
46073	0.5418994413407822
46075	0.5586592178770949
46077	0.10893854748603353
46079	0.09217877094972067
46081	0.1787709497206704
46083	0.25139664804469275
46085	0.0
46087	0.05027932960893855
46089	0.11452513966480447
46091	0.05865921787709497
46093	0.20670391061452514
46095	0.0
46097	0.5977653631284916
46099	0.1452513966480447
46101	0.13128491620111732
46103	0.20670391061452514
46105	0.09217877094972067
46107	0.11731843575418995
46109	0.164804469273743
46111	0.0
46113	0.09776536312849163
46115	0.17039106145251398
46117	0.09497206703910614
46119	0.0
46121	0.08379888268156425
46123	0.1005586592178771
46125	0.0335195530726257
46127	0.13128491620111732
46129	0.15083798882681565
46135	0.1340782122905028
46137	0.0
47001	0.18156424581005587
47003	0.0782122905027933
47005	0.05027932960893855
47007	0.06424581005586592
47009	0.14245810055865923
47011	0.12011173184357542
47013	0.07541899441340782
47015	0.06145251396648045
47017	0.06983240223463687
47019	0.08379888268156425
47021	0.036312849162011177
47023	0.08100558659217877
47025	0.06145251396648045
47027	0.036312849162011177
47029	0.0558659217877095
47031	0.22625698324022347
47033	0.11452513966480447
47035	0.08379888268156425
47037	0.19832402234636873
47039	0.14245810055865923
47041	0.05865921787709497
47043	0.16201117318435754
47045	0.13966480446927373
47047	0.08659217877094973
47049	0.030726256983240226
47051	0.08100558659217877
47053	0.09497206703910614
47055	0.08659217877094973
47057	0.036312849162011177
47059	0.111731843575419
47061	0.09426606912640417
47063	0.1675977653631285
47065	0.19273743016759778
47067	0.08379888268156425
47069	0.08379888268156425
47071	0.06424581005586592
47073	0.05027932960893855
47075	0.07541899441340782
47077	0.06983240223463687
47079	0.13128491620111732
47081	0.0335195530726257
47083	0.0335195530726257
47085	0.07541899441340782
47087	0.07262569832402235
47089	0.05865921787709497
47091	0.0782122905027933
47093	0.15921787709497207
47095	0.036312849162011177
47097	0.05027932960893855
47099	0.08100558659217877
47101	0.09217877094972067
47103	0.08379888268156425
47105	0.12849162011173185
47107	0.10614525139664804
47109	0.12849162011173185
47111	0.05027932960893855
47113	0.17597765363128492
47115	0.05865921787709497
47117	0.0893854748603352
47119	0.1675977653631285
47121	0.025139664804469275
47123	0.09776536312849163
47125	0.11452513966480447
47127	0.09426606912640417
47129	0.03910614525139665
47131	0.10893854748603353
47133	0.06424581005586592
47135	0.036312849162011177
47137	0.09426606912640417
47139	0.11731843575418995
47141	0.15083798882681565
47143	0.06145251396648045
47145	0.13687150837988826
47147	0.0782122905027933
47149	0.13687150837988826
47151	0.0893854748603352
47153	0.0558659217877095
47155	0.08659217877094973
47157	0.18156424581005587
47159	0.07262569832402235
47161	0.08379888268156425
47163	0.19553072625698326
47165	0.10893854748603353
47167	0.08659217877094973
47169	0.036312849162011177
47171	0.0782122905027933
47173	0.0446927374301676
47175	0.09426606912640448
47177	0.10614525139664804
47179	0.15083798882681565
47181	0.01675977653631285
47183	0.08100558659217877
47185	0.09497206703910614
47187	0.20391061452513967
47189	0.10614525139664804
48001	0.07262569832402235
48003	0.0670391061452514
48005	0.10335195530726257
48007	0.09217877094972067
48009	0.07625925421265392
48011	0.0
48013	0.1005586592178771
48015	0.05865921787709497
48017	0.0782122905027933
48019	0.04189944134078213
48021	0.06983240223463687
48023	0.0782122905027933
48025	0.05865921787709497
48027	0.19553072625698326
48029	0.21508379888268156
48031	0.10335195530726257
48033	0.0
48035	0.10893854748603353
48037	0.1340782122905028
48039	0.1229050279329609
48041	0.13966480446927373
48043	0.06145251396648045
48045	0.0
48047	0.03910614525139665
48049	0.10335195530726257
48051	0.0335195530726257
48053	0.1340782122905028
48055	0.08659217877094973
48057	0.06424581005586592
48059	0.019553072625698324
48061	0.07262569832402235
48063	0.111731843575419
48065	0.04748603351955307
48067	0.08379888268156425
48069	0.0335195530726257
48071	0.0223463687150838
48073	0.08100558659217877
48075	0.1564245810055866
48077	0.07625925421265392
48079	0.0
48081	0.0
48083	0.06424581005586592
48085	0.17318435754189945
48087	0.0
48089	0.08100558659217877
48091	0.18994413407821228
48093	0.06145251396648045
48095	0.06983240223463687
48097	0.1229050279329609
48099	0.05027932960893855
48101	0.0
48103	0.05865921787709497
48105	0.07262569832402235
48107	0.07625925421265392
48109	0.0
48111	0.0782122905027933
48113	0.20949720670391062
48115	0.06145251396648045
48117	0.05865921787709497
48119	0.07625925421265392
48121	0.14245810055865923
48123	0.04189944134078213
48125	0.0
48127	0.05027932960893855
48129	0.0782122905027933
48131	0.07625925421265392
48133	0.07541899441340782
48135	0.08659217877094973
48137	0.0
48139	0.07541899441340782
48141	0.10335195530726257
48143	0.12011173184357542
48145	0.06424581005586592
48147	0.0670391061452514
48149	0.1340782122905028
48151	0.07262569832402235
48153	0.0446927374301676
48155	0.0
48157	0.1229050279329609
48159	0.05307262569832402
48161	0.0558659217877095
48163	0.04748603351955307
48165	0.030726256983240226
48167	0.10893854748603353
48169	0.0446927374301676
48171	0.1871508379888268
48173	0.0
48175	0.15083798882681565
48177	0.164804469273743
48179	0.12011173184357542
48181	0.1564245810055866
48183	0.22905027932960895
48185	0.019553072625698324
48187	0.06983240223463687
48189	0.0782122905027933
48191	0.0
48193	0.1675977653631285
48195	0.05027932960893855
48197	0.20949720670391062
48199	0.05027932960893855
48201	0.17318435754189945
48203	0.05307262569832402
48205	0.07625925421265392
48207	0.14245810055865923
48209	0.08659217877094973
48211	0.07625925421265392
48213	0.0893854748603352
48215	0.0670391061452514
48217	0.08100558659217877
48219	0.11731843575418995
48221	0.11731843575418995
48223	0.0782122905027933
48225	0.08659217877094973
48227	0.08379888268156425
48229	0.0
48231	0.08100558659217877
48233	0.07541899441340782
48235	0.0
48237	0.030726256983240226
48239	0.05865921787709497
48241	0.08659217877094973
48243	0.0
48245	0.14804469273743018
48247	0.05307262569832402
48249	0.08100558659217877
48251	0.09497206703910614
48253	0.013966480446927375
48255	0.07541899441340782
48257	0.1005586592178771
48259	0.20670391061452514
48261	0.0
48263	0.0
48265	0.1675977653631285
48267	0.12569832402234637
48269	0.0
48271	0.0
48273	0.10335195530726257
48275	0.0
48277	0.14804469273743018
48279	0.04189944134078213
48281	0.04189944134078213
48283	0.03910614525139665
48285	0.07262569832402235
48287	0.08379888268156425
48289	0.05027932960893855
48291	0.06145251396648045
48293	0.05865921787709497
48295	0.0
48297	0.04748603351955307
48299	0.11452513966480447
48301	0.0
48303	0.14245810055865923
48305	0.04748603351955307
48307	0.0670391061452514
48309	0.13128491620111732
48311	0.0
48313	0.08100558659217877
48315	0.02793296089385475
48317	0.05307262569832402
48319	0.0670391061452514
48321	0.09217877094972067
48323	0.0558659217877095
48325	0.05865921787709497
48327	0.13128491620111732
48329	0.13966480446927373
48331	0.05865921787709497
48333	0.11452513966480447
48335	0.05865921787709497
48337	0.08659217877094973
48339	0.12011173184357542
48341	0.07541899441340782
48343	0.10893854748603353
48345	0.0
48347	0.13128491620111732
48349	0.08659217877094973
48351	0.07625925421265392
48353	0.07541899441340782
48355	0.12569832402234637
48357	0.0782122905027933
48359	0.0
48361	0.07541899441340782
48363	0.05027932960893855
48365	0.06983240223463687
48367	0.09776536312849163
48369	0.02793296089385475
48371	0.06983240223463687
48373	0.07262569832402235
48375	0.1340782122905028
48377	0.03910614525139665
48379	0.025139664804469275
48381	0.14804469273743018
48383	0.0
48385	0.1675977653631285
48387	0.0670391061452514
48389	0.019553072625698324
48391	0.07541899441340782
48393	0.0
48395	0.01675977653631285
48397	0.2011173184357542
48399	0.05307262569832402
48401	0.0670391061452514
48403	0.10893854748603353
48405	0.12849162011173185
48407	0.0111731843575419
48409	0.0893854748603352
48411	0.09217877094972067
48413	0.0
48415	0.08100558659217877
48417	0.0
48419	0.08659217877094973
48421	0.0
48423	0.1564245810055866
48425	0.06424581005586592
48427	0.036312849162011177
48429	0.15083798882681565
48431	0.0
48433	0.0
48435	0.06983240223463687
48437	0.07262569832402235
48439	0.14804469273743018
48441	0.18156424581005587
48443	0.0
48445	0.0446927374301676
48447	0.0
48449	0.09497206703910614
48451	0.13966480446927373
48453	0.1787709497206704
48455	0.019553072625698324
48457	0.03910614525139665
48459	0.02793296089385475
48461	0.0
48463	0.1340782122905028
48465	0.08100558659217877
48467	0.07541899441340782
48469	0.13128491620111732
48471	0.10614525139664804
48473	0.04189944134078213
48475	0.025139664804469275
48477	0.0893854748603352
48479	0.06983240223463687
48481	0.1005586592178771
48483	0.09776536312849163
48485	0.21787709497206706
48487	0.08379888268156425
48489	0.013966480446927375
48491	0.1452513966480447
48493	0.06145251396648045
48495	0.07262569832402235
48497	0.08379888268156425
48499	0.08659217877094973
48501	0.0335195530726257
48503	0.15363128491620112
48505	0.03910614525139665
48507	0.0446927374301676
49001	0.12849162011173185
49003	0.19273743016759778
49005	0.1787709497206704
49007	0.19832402234636873
49009	0.0
49011	0.1787709497206704
49013	0.13687150837988826
49015	0.0782122905027933
49017	0.10893854748603353
49019	0.20949720670391062
49021	0.13687150837988826
49023	0.10893854748603353
49025	0.0782122905027933
49027	0.17597765363128492
49029	0.08100558659217877
49031	0.0
49033	0.24301675977653633
49035	0.2011173184357542
49037	0.223463687150838
49039	0.12849162011173185
49041	0.2011173184357542
49043	0.13128491620111732
49045	0.10614525139664804
49047	0.1340782122905028
49049	0.17597765363128492
49051	0.13687150837988826
49053	0.19273743016759778
49055	0.20391061452513967
49057	0.21787709497206706
50001	0.12011173184357542
50003	0.18156424581005587
50005	0.1871508379888268
50007	0.24301675977653633
50009	0.0893854748603352
50011	0.12011173184357542
50013	0.03910614525139665
50015	0.111731843575419
50017	0.09776536312849163
50019	0.07262569832402235
50021	0.19832402234636873
50023	0.2122905027932961
50025	0.1787709497206704
50027	0.164804469273743
51001	0.07541899441340782
51003	0.2458100558659218
51005	0.06983240223463687
51007	0.0670391061452514
51009	0.05307262569832402
51011	0.036312849162011177
51013	0.1564245810055866
51015	0.0782122905027933
51017	0.06145251396648045
51019	0.04748603351955307
51021	0.164804469273743
51023	0.05865921787709497
51025	0.0670391061452514
51027	0.04748603351955307
51029	0.14804469273743018
51031	0.03910614525139665
51033	0.0558659217877095
51035	0.08379888268156425
51036	0.11731843575418995
51037	0.09217877094972067
51041	0.19273743016759778
51043	0.09776536312849163
51045	0.10614525139664804
51047	0.11452513966480447
51049	0.1459992081995338
51051	0.01675977653631285
51053	0.019553072625698324
51057	0.19832402234636873
51059	0.2597765363128492
51061	0.15083798882681565
51063	0.036312849162011177
51065	0.04189944134078213
51067	0.0558659217877095
51069	0.03910614525139665
51071	0.09776536312849163
51073	0.09217877094972067
51075	0.0782122905027933
51077	0.0558659217877095
51079	0.0446927374301676
51081	0.0223463687150838
51083	0.111731843575419
51085	0.15363128491620112
51087	0.18435754189944134
51089	0.164804469273743
51091	0.12569832402234637
51093	0.04748603351955307
51095	0.28491620111731847
51097	0.1459992081995338
51099	0.1340782122905028
51101	0.12011173184357542
51103	0.025139664804469275
51105	0.0893854748603352
51107	0.1675977653631285
51109	0.05865921787709497
51111	0.0670391061452514
51113	0.08379888268156425
51115	0.06145251396648045
51117	0.06983240223463687
51119	0.12849162011173185
51121	0.10614525139664804
51125	0.13128491620111732
51127	0.04189944134078213
51131	0.276536312849162
51133	0.2988826815642458
51135	0.1229050279329609
51137	0.06424581005586592
51139	0.04748603351955307
51141	0.0446927374301676
51143	0.030726256983240226
51145	0.12849162011173185
51147	0.09776536312849163
51149	0.05307262569832402
51153	0.13128491620111732
51155	0.07262569832402235
51157	0.07541899441340782
51159	0.1564245810055866
51161	0.223463687150838
51163	0.0111731843575419
51165	0.05307262569832402
51167	0.030726256983240226
51169	0.06145251396648045
51171	0.0782122905027933
51173	0.15083798882681565
51175	0.01675977653631285
51177	0.11731843575418995
51179	0.09497206703910614
51181	0.1459992081995338
51183	0.04748603351955307
51185	0.09497206703910614
51187	0.05865921787709497
51191	0.14804469273743018
51193	0.030726256983240226
51195	0.06983240223463687
51197	0.10335195530726257
51199	0.3156424581005587
51510	0.20391061452513967
51515	0.3743016759776536
51520	0.09776536312849163
51530	0.1675977653631285
51540	0.22625698324022347
51550	0.12011173184357542
51570	0.6005586592178771
51580	0.1452513966480447
51590	0.2737430167597765
51595	0.2011173184357542
51600	0.1459992081995338
51610	0.7849162011173184
51620	0.19273743016759778
51630	0.4776536312849162
51640	0.31843575418994413
51650	0.17039106145251398
51660	0.26536312849162014
51670	0.13966480446927373
51678	0.3128491620111732
51680	0.2877094972067039
51683	0.335195530726257
51685	0.1459992081995338
51690	0.1459992081995338
51700	0.22067039106145253
51710	0.20949720670391062
51720	0.27932960893854747
51730	0.19832402234636873
51735	0.16201117318435754
51740	0.28212290502793297
51750	0.16201117318435754
51760	0.34078212290502796
51770	0.17039106145251398
51775	0.32122905027932963
51790	0.24022346368715083
51800	0.09776536312849163
51810	0.19553072625698326
51820	0.3547486033519553
51830	0.1459992081995338
51840	0.4608938547486034
53001	0.22067039106145253
53003	0.11452513966480447
53005	0.18156424581005587
53007	0.19273743016759778
53009	0.24860335195530728
53011	0.1787709497206704
53013	0.20670391061452514
53015	0.1452513966480447
53017	0.14804469273743018
53019	0.18156424581005587
53021	0.1005586592178771
53023	0.1229050279329609
53025	0.12849162011173185
53027	0.12849162011173185
53029	0.19832402234636873
53031	0.13966480446927373
53033	0.28212290502793297
53035	0.19553072625698326
53037	0.12011173184357542
53039	0.0670391061452514
53041	0.18156424581005587
53043	0.10893854748603353
53045	0.09776536312849163
53047	0.17597765363128492
53049	0.10893854748603353
53051	0.06424581005586592
53053	0.20670391061452514
53055	0.2122905027932961
53057	0.20391061452513967
53059	0.025139664804469275
53061	0.17597765363128492
53063	0.20670391061452514
53065	0.14804469273743018
53067	0.18435754189944134
53069	0.13687150837988826
53071	0.19832402234636873
53073	0.1871508379888268
53075	0.08379888268156425
53077	0.1675977653631285
54001	0.0670391061452514
54003	0.12849162011173185
54005	0.05865921787709497
54007	0.0782122905027933
54009	0.04748603351955307
54011	0.14804469273743018
54013	0.07262569832402235
54015	0.0893854748603352
54017	0.1053176081109042
54019	0.1229050279329609
54021	0.0335195530726257
54023	0.12011173184357542
54025	0.14804469273743018
54027	0.07262569832402235
54029	0.18435754189944134
54031	0.13966480446927373
54033	0.19832402234636873
54035	0.10614525139664804
54037	0.08100558659217877
54039	0.20949720670391062
54041	0.0670391061452514
54043	0.06424581005586592
54045	0.0223463687150838
54047	0.08100558659217877
54049	0.14245810055865923
54051	0.10335195530726257
54053	0.07262569832402235
54055	0.10893854748603353
54057	0.08100558659217877
54059	0.0223463687150838
54061	0.329608938547486
54063	0.04189944134078213
54065	0.08100558659217877
54067	0.09776536312849163
54069	0.2541899441340782
54071	0.2988826815642458
54073	0.14804469273743018
54075	0.09776536312849163
54077	0.0670391061452514
54079	0.1229050279329609
54081	0.1564245810055866
54083	0.10335195530726257
54085	0.02793296089385475
54087	0.0558659217877095
54089	0.04189944134078213
54091	0.05027932960893855
54093	0.2011173184357542
54095	0.030726256983240226
54097	0.1005586592178771
54099	0.1005586592178771
54101	0.06145251396648045
54103	0.10335195530726257
54105	0.04748603351955307
54107	0.14804469273743018
54109	0.04748603351955307
55001	0.02793296089385475
55003	0.1564245810055866
55005	0.17597765363128492
55007	0.07262569832402235
55009	0.18156424581005587
55011	0.2709497206703911
55013	0.09217877094972067
55015	0.06145251396648045
55017	0.1452513966480447
55019	0.10614525139664804
55021	0.1340782122905028
55023	0.13687150837988826
55025	0.18156424581005587
55027	0.07541899441340782
55029	0.18994413407821228
55031	0.12011173184357542
55033	0.0893854748603352
55035	0.2346368715083799
55037	0.06145251396648045
55039	0.17597765363128492
55041	0.15363128491620112
55043	0.08659217877094973
55045	0.12849162011173185
55047	0.10335195530726257
55049	0.08100558659217877
55051	0.09497206703910614
55053	0.14804469273743018
55055	0.15083798882681565
55057	0.10614525139664804
55059	0.164804469273743
55061	0.09497206703910614
55063	0.24022346368715083
55065	0.08379888268156425
55067	0.14245810055865923
55069	0.164804469273743
55071	0.15363128491620112
55073	0.2011173184357542
55075	0.1340782122905028
55077	0.0558659217877095
55078	0.3240223463687151
55079	0.19273743016759778
55081	0.1229050279329609
55083	0.10614525139664804
55085	0.1787709497206704
55087	0.23184357541899442
55089	0.26536312849162014
55091	0.11452513966480447
55093	0.12849162011173185
55095	0.12849162011173185
55097	0.1787709497206704
55099	0.2011173184357542
55101	0.1564245810055866
55103	0.09497206703910614
55105	0.15083798882681565
55107	0.13687150837988826
55109	0.1340782122905028
55111	0.15921787709497207
55113	0.22067039106145253
55115	0.14804469273743018
55117	0.15363128491620112
55119	0.17597765363128492
55121	0.0670391061452514
55123	0.1005586592178771
55125	0.2737430167597765
55127	0.12011173184357542
55129	0.0893854748603352
55131	0.1340782122905028
55133	0.2346368715083799
55135	0.10614525139664804
55137	0.17318435754189945
55139	0.16201117318435754
55141	0.22625698324022347
56001	0.12011173184357542
56003	0.09217877094972067
56005	0.10335195530726257
56007	0.10614525139664804
56009	0.11731843575418995
56011	0.03910614525139665
56013	0.17597765363128492
56015	0.08100558659217877
56017	0.11452513966480447
56019	0.19553072625698326
56021	0.20670391061452514
56023	0.15083798882681565
56025	0.20391061452513967
56027	0.0
56029	0.17318435754189945
56031	0.06424581005586592
56033	0.2541899441340782
56035	0.111731843575419
56037	0.11731843575418995
56039	0.22625698324022347
56041	0.18435754189944134
56043	0.19832402234636873
56045	0.0782122905027933
