id	rate
1001	0.2708333333333333
1003	0.3333333333333333
1005	0.3958333333333333
1007	0.3125
1009	0.3958333333333333
1011	0.3958333333333333
1013	0.375
1015	0.3333333333333333
1017	0.3333333333333333
1019	0.3541666666666667
1021	0.43749999999999994
1023	0.3333333333333333
1025	0.375
1027	0.4166666666666667
1029	0.3333333333333333
1031	0.3333333333333333
1033	0.2916666666666667
1035	0.3958333333333333
1037	0.3333333333333333
1039	0.375
1041	0.3541666666666667
1043	0.3958333333333333
1045	0.3125
1047	0.3125
1049	0.49999999999999994
1051	0.2708333333333333
1053	0.4583333333333333
1055	0.3541666666666667
1057	0.3333333333333333
1059	0.4583333333333333
1061	0.4166666666666667
1063	0.3541666666666667
1065	0.3541666666666667
1067	0.3541666666666667
1069	0.3541666666666667
1071	0.375
1073	0.3125
1075	0.3541666666666667
1077	0.3541666666666667
1079	0.3958333333333333
1081	0.3125
1083	0.3541666666666667
1085	0.3333333333333333
1087	0.3125
1089	0.2708333333333333
1091	0.3333333333333333
1093	0.3333333333333333
1095	0.4166666666666667
1097	0.3958333333333333
1099	0.3541666666666667
1101	0.3333333333333333
1103	0.375
1105	0.375
1107	0.3541666666666667
1109	0.375
1111	0.4166666666666667
1113	0.375
1115	0.3333333333333333
1117	0.20833333333333331
1119	0.375
1121	0.3125
1123	0.3333333333333333
1125	0.3125
1127	0.3333333333333333
1129	0.375
1131	0.3958333333333333
1133	0.375
2013	0.8333333333333333
2016	0.5624999999999999
2020	0.3958333333333333
2050	0.7291666666666666
2060	0.4791666666666667
2068	0.4583333333333333
2070	0.6874999999999999
2090	0.43749999999999994
2100	0.6458333333333333
2110	0.375
2122	0.49999999999999994
2130	0.49999999999999994
2150	0.5833333333333333
2164	0.7708333333333333
2170	0.43749999999999994
2180	0.6874999999999999
2185	0.5208333333333333
2188	0.7291666666666666
2201	0.6666666666666666
2220	0.5208333333333333
2232	0.6249999999999999
2240	0.6249999999999999
2261	0.49999999999999994
2270	0.8124999999999999
2280	0.5208333333333333
2282	0.7499999999999999
2290	0.8541666666666666
4001	0.5416666666666666
4003	0.3541666666666667
4005	0.4791666666666667
4007	0.3958333333333333
4009	0.4166666666666667
4011	0.25
4012	0.5416666666666666
4013	0.3958333333333333
4015	0.43749999999999994
4017	0.4583333333333333
4019	0.3541666666666667
4021	0.375
4023	0.5624999999999999
4025	0.4166666666666667
4027	0.5833333333333333
5001	0.43749999999999994
5003	0.4166666666666667
5005	0.43749999999999994
5007	0.4166666666666667
5009	0.43749999999999994
5011	0.5416666666666666
5013	0.4166666666666667
5015	0.6041666666666666
5017	0.49999999999999994
5019	0.3958333333333333
5021	0.4583333333333333
5023	0.43749999999999994
5025	0.4166666666666667
5027	0.4166666666666667
5029	0.4166666666666667
5031	0.43749999999999994
5033	0.4791666666666667
5035	0.4166666666666667
5037	0.4166666666666667
5039	0.43749999999999994
5041	0.4583333333333333
5043	0.43749999999999994
5045	0.3541666666666667
5047	0.4583333333333333
5049	0.4791666666666667
5051	0.4791666666666667
5053	0.3541666666666667
5055	0.4166666666666667
5057	0.5416666666666666
5059	0.375
5061	0.5624999999999999
5063	0.4791666666666667
5065	0.5208333333333333
5067	0.43749999999999994
5069	0.3541666666666667
5071	0.5416666666666666
5073	0.4791666666666667
5075	0.4791666666666667
5077	0.4583333333333333
5079	0.4583333333333333
5081	0.4166666666666667
5083	0.43749999999999994
5085	0.3541666666666667
5087	0.5416666666666666
5089	0.4791666666666667
5091	0.4166666666666667
5093	0.43749999999999994
5095	0.4791666666666667
5097	0.5208333333333333
5099	0.4166666666666667
5101	0.5416666666666666
5103	0.3541666666666667
5105	0.43749999999999994
5107	0.4166666666666667
5109	0.5833333333333333
5111	0.4583333333333333
5113	0.5624999999999999
5115	0.4583333333333333
5117	0.4791666666666667
5119	0.3541666666666667
5121	0.4791666666666667
5123	0.43749999999999994
5125	0.3125
5127	0.5416666666666666
5129	0.5833333333333333
5131	0.49999999999999994
5133	0.7291666666666666
5135	0.5416666666666666
5137	0.5208333333333333
5139	0.3958333333333333
5141	0.4791666666666667
5143	0.4583333333333333
5145	0.4583333333333333
5147	0.4791666666666667
5149	0.6249999999999999
6001	0.2916666666666667
6003	0.3541666666666667
6005	0.2916666666666667
6007	0.3958333333333333
6009	0.3125
6011	0.5208333333333333
6013	0.2708333333333333
6015	0.375
6017	0.25
6019	0.5416666666666666
6021	0.5208333333333333
6023	0.4166666666666667
6025	0.5208333333333333
6027	0.4166666666666667
6029	0.4791666666666667
6031	0.4583333333333333
6033	0.43749999999999994
6035	0.25
6037	0.5416666666666666
6039	0.5833333333333333
6041	0.22916666666666669
6043	0.3541666666666667
6045	0.4583333333333333
6047	0.49999999999999994
6049	0.4583333333333333
6051	0.4791666666666667
6053	0.5416666666666666
6055	0.375
6057	0.3125
6059	0.4166666666666667
6061	0.22916666666666669
6063	0.375
6065	0.49999999999999994
6067	0.375
6069	0.3958333333333333
6071	0.49999999999999994
6073	0.375
6075	0.22916666666666669
6077	0.43749999999999994
6079	0.3333333333333333
6081	0.25
6083	0.43749999999999994
6085	0.25
6087	0.375
6089	0.3958333333333333
6091	0.3958333333333333
6093	0.375
6095	0.3125
6097	0.3541666666666667
6099	0.4583333333333333
6101	0.43749999999999994
6103	0.43749999999999994
6105	0.3958333333333333
6107	0.5416666666666666
6109	0.3333333333333333
6111	0.3958333333333333
6113	0.3333333333333333
6115	0.4166666666666667
8001	0.4583333333333333
8003	0.375
8005	0.3541666666666667
8007	0.4166666666666667
8009	0.4166666666666667
8011	0.3541666666666667
8013	0.22916666666666669
8014	0.16666666666666669
8015	0.3541666666666667
8017	0.4583333333333333
8019	0.1875
8021	0.4166666666666667
8023	0.5833333333333333
8025	0.3541666666666667
8027	0.375
8029	0.43749999999999994
8031	0.375
8033	0.4583333333333333
8035	0.10416666666666667
8037	0.43749999999999994
8039	0.20833333333333331
8041	0.2916666666666667
8043	0.3125
8045	0.49999999999999994
8047	0.14583333333333331
8049	0.3333333333333333
8051	0.3958333333333333
8053	0.375
8055	0.4166666666666667
8057	0.4583333333333333
8059	0.22916666666666669
8061	0.3333333333333333
8063	0.43749999999999994
8065	0.5416666666666666
8067	0.375
8069	0.2708333333333333
8071	0.3541666666666667
8073	0.3333333333333333
8075	0.375
8077	0.3333333333333333
8079	0.3333333333333333
8081	0.3541666666666667
8083	0.4583333333333333
8085	0.43749999999999994
8087	0.4791666666666667
8089	0.3958333333333333
8091	0.3541666666666667
8093	0.3333333333333333
8095	0.4166666666666667
8097	0.3125
8099	0.4583333333333333
8101	0.3125
8103	0.3125
8105	0.43749999999999994
8107	0.2708333333333333
8109	0.6458333333333333
8111	0.4583333333333333
8113	0.4166666666666667
8115	0.4166666666666667
8117	0.3541666666666667
8119	0.25
8121	0.3958333333333333
8123	0.375
8125	0.4791666666666667
9001	0.22916666666666669
9003	0.16666666666666669
9005	0.14583333333333331
9007	0.12499999999999999
9009	0.20833333333333331
9011	0.16666666666666669
9013	0.08333333333333333
9015	0.1875
10001	0.16666666666666669
10003	0.16666666666666669
10005	0.22916666666666669
11001	0.08333333333333333
12001	0.3958333333333333
12003	0.3541666666666667
12005	0.3958333333333333
12007	0.3958333333333333
12009	0.3958333333333333
12011	0.5416666666666666
12013	0.4583333333333333
12015	0.43749999999999994
12017	0.43749999999999994
12019	0.3541666666666667
12021	0.6041666666666666
12023	0.43749999999999994
12027	0.7291666666666666
12029	0.4166666666666667
12031	0.3958333333333333
12033	0.4166666666666667
12035	0.43749999999999994
12037	0.43749999999999994
12039	0.5208333333333333
12041	0.43749999999999994
12043	0.6666666666666666
12045	0.4583333333333333
12047	0.43749999999999994
12049	0.7083333333333333
12051	0.7916666666666666
12053	0.43749999999999994
12055	0.5624999999999999
12057	0.4583333333333333
12059	0.43749999999999994
12061	0.5208333333333333
12063	0.375
12065	0.3958333333333333
12067	0.6041666666666666
12069	0.43749999999999994
12071	0.5416666666666666
12073	0.3333333333333333
12075	0.49999999999999994
12077	0.43749999999999994
12079	0.4583333333333333
12081	0.49999999999999994
12083	0.5208333333333333
12085	0.43749999999999994
12086	0.7499999999999999
12087	0.5416666666666666
12089	0.3541666666666667
12091	0.3541666666666667
12093	0.6666666666666666
12095	0.5208333333333333
12097	0.5624999999999999
12099	0.5416666666666666
12101	0.43749999999999994
12103	0.43749999999999994
12105	0.49999999999999994
12107	0.5208333333333333
12109	0.2708333333333333
12111	0.5416666666666666
12113	0.3333333333333333
12115	0.4583333333333333
12117	0.3958333333333333
12119	0.3541666666666667
12121	0.5208333333333333
12123	0.3958333333333333
12125	0.4166666666666667
12127	0.43749999999999994
12129	0.3333333333333333
12131	0.49999999999999994
12133	0.4166666666666667
13001	0.5416666666666666
13003	0.7083333333333333
13005	0.5833333333333333
13007	0.4166666666666667
13009	0.3958333333333333
13011	0.49999999999999994
13013	0.4791666666666667
13015	0.43749999999999994
13017	0.4791666666666667
13019	0.5208333333333333
13021	0.43749999999999994
13023	0.375
13025	0.5208333333333333
13027	0.5416666666666666
13029	0.3541666666666667
13031	0.4791666666666667
13033	0.4791666666666667
13035	0.43749999999999994
13037	0.5208333333333333
13039	0.375
13043	0.5624999999999999
13045	0.4791666666666667
13047	0.3958333333333333
13049	0.43749999999999994
13051	0.43749999999999994
13053	0.2916666666666667
13055	0.4791666666666667
13057	0.375
13059	0.43749999999999994
13061	0.4583333333333333
13063	0.6249999999999999
13065	0.4791666666666667
13067	0.43749999999999994
13069	0.5833333333333333
13071	0.6458333333333333
13073	0.3125
13075	0.5624999999999999
13077	0.3541666666666667
13079	0.4583333333333333
13081	0.4583333333333333
13083	0.3958333333333333
13085	0.43749999999999994
13087	0.49999999999999994
13089	0.4583333333333333
13091	0.4583333333333333
13093	0.5208333333333333
13095	0.49999999999999994
13097	0.43749999999999994
13099	0.43749999999999994
13101	0.8541666666666666
13103	0.3333333333333333
13105	0.5208333333333333
13107	0.5416666666666666
13109	0.5833333333333333
13111	0.49999999999999994
13113	0.22916666666666669
13115	0.4791666666666667
13117	0.2916666666666667
13119	0.49999999999999994
13121	0.4583333333333333
13123	0.5833333333333333
13125	0.3958333333333333
13127	0.43749999999999994
13129	0.5624999999999999
13131	0.6041666666666666
13133	0.4791666666666667
13135	0.4583333333333333
13137	0.5208333333333333
13139	0.5416666666666666
13141	0.4166666666666667
13143	0.4583333333333333
13145	0.2708333333333333
13147	0.4791666666666667
13149	0.4166666666666667
13151	0.3958333333333333
13153	0.3541666666666667
13155	0.49999999999999994
13157	0.43749999999999994
13159	0.49999999999999994
13161	0.5208333333333333
13163	0.4791666666666667
13165	0.5624999999999999
13167	0.43749999999999994
13169	0.375
13171	0.43749999999999994
13173	0.5208333333333333
13175	0.4166666666666667
13177	0.3333333333333333
13179	0.375
13181	0.4583333333333333
13183	0.5416666666666666
13185	0.49999999999999994
13187	0.49999999999999994
13189	0.43749999999999994
13191	0.4583333333333333
13193	0.5624999999999999
13195	0.4583333333333333
13197	0.4791666666666667
13199	0.4583333333333333
13201	0.4583333333333333
13205	0.4583333333333333
13207	0.3541666666666667
13209	0.5208333333333333
13211	0.4166666666666667
13213	0.5624999999999999
13215	0.3958333333333333
13217	0.43749999999999994
13219	0.2708333333333333
13221	0.4583333333333333
13223	0.3541666666666667
13225	0.49999999999999994
13227	0.43749999999999994
13229	0.5208333333333333
13231	0.375
13233	0.5416666666666666
13235	0.4583333333333333
13237	0.4791666666666667
13239	0.49999999999999994
13241	0.6041666666666666
13243	0.43749999999999994
13245	0.43749999999999994
13247	0.4791666666666667
13249	0.4583333333333333
13251	0.4583333333333333
13253	0.43749999999999994
13255	0.4583333333333333
13257	0.4166666666666667
13259	0.4583333333333333
13261	0.49999999999999994
13263	0.43749999999999994
13265	0.5208333333333333
13267	0.5624999999999999
13269	0.4583333333333333
13271	0.4791666666666667
13273	0.4583333333333333
13275	0.43749999999999994
13277	0.6249999999999999
13279	0.49999999999999994
13281	0.4583333333333333
13283	0.4583333333333333
13285	0.3958333333333333
13287	0.6249999999999999
13289	0.43749999999999994
13291	0.4791666666666667
13293	0.43749999999999994
13295	0.4166666666666667
13297	0.3958333333333333
13299	0.4583333333333333
13301	0.4166666666666667
13303	0.4166666666666667
13305	0.4791666666666667
13307	0.4583333333333333
13309	0.4791666666666667
13311	0.43749999999999994
13313	0.6041666666666666
13315	0.4583333333333333
13317	0.43749999999999994
13319	0.4166666666666667
13321	0.5208333333333333
15001	0.16666666666666669
15003	0.08333333333333333
15005	0.13020833333333331
15007	0.12499999999999999
15009	0.14583333333333331
16001	0.3125
16003	0.4791666666666667
16005	0.3541666666666667
16007	0.3541666666666667
16009	0.4583333333333333
16011	0.4791666666666667
16013	0.4166666666666667
16015	0.3958333333333333
16017	0.4166666666666667
16019	0.375
16021	0.49999999999999994
16023	0.3958333333333333
16025	0.5208333333333333
16027	0.49999999999999994
16029	0.3125
16031	0.5416666666666666
16033	0.7499999999999999
16035	0.375
16037	0.3333333333333333
16039	0.43749999999999994
16041	0.4166666666666667
16043	0.49999999999999994
16045	0.43749999999999994
16047	0.5833333333333333
16049	0.43749999999999994
16051	0.43749999999999994
16053	0.6249999999999999
16055	0.3541666666666667
16057	0.2916666666666667
16059	0.375
16061	0.43749999999999994
16063	0.6041666666666666
16065	0.2708333333333333
16067	0.5416666666666666
16069	0.3333333333333333
16071	0.3958333333333333
16073	0.6666666666666666
16075	0.4583333333333333
16077	0.5208333333333333
16079	0.3541666666666667
16081	0.5624999999999999
16083	0.4791666666666667
16085	0.375
16087	0.5416666666666666
17001	0.20833333333333331
17003	0.2916666666666667
17005	0.20833333333333331
17007	0.3125
17009	0.20833333333333331
17011	0.2708333333333333
17013	0.2708333333333333
17015	0.25
17017	0.3541666666666667
17019	0.22916666666666669
17021	0.22916666666666669
17023	0.20833333333333331
17025	0.25
17027	0.16666666666666669
17029	0.25
17031	0.3958333333333333
17033	0.22916666666666669
17035	0.22916666666666669
17037	0.25
17039	0.1875
17041	0.3333333333333333
17043	0.20833333333333331
17045	0.22916666666666669
17047	0.22916666666666669
17049	0.20833333333333331
17051	0.2916666666666667
17053	0.22916666666666669
17055	0.2708333333333333
17057	0.25
17059	0.2916666666666667
17061	0.25
17063	0.20833333333333331
17065	0.25
17067	0.25
17069	0.2708333333333333
17071	0.2708333333333333
17073	0.20833333333333331
17075	0.2708333333333333
17077	0.2916666666666667
17079	0.25
17081	0.22916666666666669
17083	0.22916666666666669
17085	0.2708333333333333
17087	0.25
17089	0.3541666666666667
17091	0.2916666666666667
17093	0.1875
17095	0.25
17097	0.25
17099	0.25
17101	0.25
17103	0.22916666666666669
17105	0.1875
17107	0.1875
17109	0.22916666666666669
17111	0.20833333333333331
17113	0.16666666666666669
17115	0.22916666666666669
17117	0.22916666666666669
17119	0.20833333333333331
17121	0.25
17123	0.20833333333333331
17125	0.25
17127	0.25
17129	0.1875
17131	0.20833333333333331
17133	0.12499999999999999
17135	0.20833333333333331
17137	0.22916666666666669
17139	0.2708333333333333
17141	0.22916666666666669
17143	0.25
17145	0.25
17147	0.14583333333333331
17149	0.2916666666666667
17151	0.2708333333333333
17153	0.2916666666666667
17155	0.22916666666666669
17157	0.20833333333333331
17159	0.25
17161	0.2708333333333333
17163	0.25
17165	0.2708333333333333
17167	0.20833333333333331
17169	0.2916666666666667
17171	0.25
17173	0.22916666666666669
17175	0.22916666666666669
17177	0.25
17179	0.16666666666666669
17181	0.2916666666666667
17183	0.2708333333333333
17185	0.22916666666666669
17187	0.3125
17189	0.1875
17191	0.25
17193	0.25
17195	0.2708333333333333
17197	0.20833333333333331
17199	0.2708333333333333
17201	0.3125
17203	0.14583333333333331
18001	0.3958333333333333
18003	0.3541666666666667
18005	0.3125
18007	0.375
18009	0.2916666666666667
18011	0.1875
18013	0.3333333333333333
18015	0.3333333333333333
18017	0.4166666666666667
18019	0.3333333333333333
18021	0.3125
18023	0.375
18025	0.3541666666666667
18027	0.43749999999999994
18029	0.22916666666666669
18031	0.3541666666666667
18033	0.3125
18035	0.3333333333333333
18037	0.2708333333333333
18039	0.4583333333333333
18041	0.3541666666666667
18043	0.2708333333333333
18045	0.2916666666666667
18047	0.2916666666666667
18049	0.375
18051	0.25
18053	0.3125
18055	0.3333333333333333
18057	0.14583333333333331
18059	0.22916666666666669
18061	0.2708333333333333
18063	0.1875
18065	0.3333333333333333
18067	0.3125
18069	0.2916666666666667
18071	0.375
18073	0.2916666666666667
18075	0.3333333333333333
18077	0.3125
18079	0.3333333333333333
18081	0.2708333333333333
18083	0.3333333333333333
18085	0.3541666666666667
18087	0.5833333333333333
18089	0.375
18091	0.3125
18093	0.3541666666666667
18095	0.3333333333333333
18097	0.4166666666666667
18099	0.3958333333333333
18101	0.2916666666666667
18103	0.3541666666666667
18105	0.3333333333333333
18107	0.3333333333333333
18109	0.2916666666666667
18111	0.3333333333333333
18113	0.4166666666666667
18115	0.2916666666666667
18117	0.3541666666666667
18119	0.3541666666666667
18121	0.3958333333333333
18123	0.2708333333333333
18125	0.3125
18127	0.25
18129	0.20833333333333331
18131	0.3333333333333333
18133	0.2916666666666667
18135	0.3541666666666667
18137	0.2708333333333333
18139	0.3125
18141	0.3541666666666667
18143	0.3125
18145	0.2916666666666667
18147	0.2708333333333333
18149	0.3541666666666667
18151	0.3333333333333333
18153	0.3333333333333333
18155	0.3958333333333333
18157	0.3125
18159	0.25
18161	0.2916666666666667
18163	0.3125
18165	0.2708333333333333
18167	0.3541666666666667
18169	0.3125
18171	0.2708333333333333
18173	0.20833333333333331
18175	0.375
18177	0.375
18179	0.2708333333333333
18181	0.3541666666666667
18183	0.2708333333333333
19001	0.16666666666666669
19003	0.22916666666666669
19005	0.2708333333333333
19007	0.22916666666666669
19009	0.22916666666666669
19011	0.12499999999999999
19013	0.1875
19015	0.14583333333333331
19017	0.10416666666666667
19019	0.16666666666666669
19021	0.3541666666666667
19023	0.16666666666666669
19025	0.16666666666666669
19027	0.14583333333333331
19029	0.16666666666666669
19031	0.12499999999999999
19033	0.16666666666666669
19035	0.16666666666666669
19037	0.1875
19039	0.2708333333333333
19041	0.16666666666666669
19043	0.20833333333333331
19045	0.12499999999999999
19047	0.3541666666666667
19049	0.10416666666666667
19051	0.3541666666666667
19053	0.25
19055	0.16666666666666669
19057	0.14583333333333331
19059	0.14583333333333331
19061	0.12499999999999999
19063	0.25
19065	0.1875
19067	0.1875
19069	0.2708333333333333
19071	0.14583333333333331
19073	0.1875
19075	0.12499999999999999
19077	0.16666666666666669
19079	0.1875
19081	0.16666666666666669
19083	0.16666666666666669
19085	0.16666666666666669
19087	0.20833333333333331
19089	0.22916666666666669
19091	0.1875
19093	0.16666666666666669
19095	0.10416666666666667
19097	0.1875
19099	0.16666666666666669
19101	0.22916666666666669
19103	0.14583333333333331
19105	0.14583333333333331
19107	0.1875
19109	0.14583333333333331
19111	0.16666666666666669
19113	0.14583333333333331
19115	0.2708333333333333
19117	0.25
19119	0.20833333333333331
19121	0.14583333333333331
19123	0.16666666666666669
19125	0.12499999999999999
19127	0.22916666666666669
19129	0.14583333333333331
19131	0.16666666666666669
19133	0.20833333333333331
19135	0.22916666666666669
19137	0.20833333333333331
19139	0.20833333333333331
19141	0.1875
19143	0.20833333333333331
19145	0.16666666666666669
19147	0.14583333333333331
19149	0.12499999999999999
19151	0.16666666666666669
19153	0.16666666666666669
19155	0.20833333333333331
19157	0.14583333333333331
19159	0.2708333333333333
19161	0.1875
19163	0.16666666666666669
19165	0.14583333333333331
19167	0.22916666666666669
19169	0.14583333333333331
19171	0.25
19173	0.25
19175	0.20833333333333331
19177	0.25
19179	0.22916666666666669
19181	0.10416666666666667
19183	0.20833333333333331
19185	0.25
19187	0.20833333333333331
19189	0.14583333333333331
19191	0.16666666666666669
19193	0.2708333333333333
19195	0.1875
19197	0.22916666666666669
20001	0.2916666666666667
20003	0.3541666666666667
20005	0.25
20007	0.2708333333333333
20009	0.3541666666666667
20011	0.2916666666666667
20013	0.3333333333333333
20015	0.1875
20017	0.3125
20019	0.4583333333333333
20021	0.3125
20023	0.3125
20025	0.25
20027	0.25
20029	0.2916666666666667
20031	0.1875
20033	0.2916666666666667
20035	0.3125
20037	0.375
20039	0.2708333333333333
20041	0.22916666666666669
20043	0.2916666666666667
20045	0.2708333333333333
20047	0.375
20049	0.375
20051	0.25
20053	0.22916666666666669
20055	0.4583333333333333
20057	0.49999999999999994
20059	0.22916666666666669
20061	0.3125
20063	0.2916666666666667
20065	0.2708333333333333
20067	0.4166666666666667
20069	0.3958333333333333
20071	0.2708333333333333
20073	0.2916666666666667
20075	0.4791666666666667
20077	0.3541666666666667
20079	0.25
20081	0.4583333333333333
20083	0.2916666666666667
20085	0.2708333333333333
20087	0.25
20089	0.3125
20091	0.16666666666666669
20093	0.4166666666666667
20095	0.25
20097	0.2708333333333333
20099	0.2916666666666667
20101	0.3125
20103	0.1875
20105	0.3333333333333333
20107	0.2916666666666667
20109	0.3125
20111	0.3958333333333333
20113	0.20833333333333331
20115	0.2708333333333333
20117	0.22916666666666669
20119	0.3541666666666667
20121	0.1875
20123	0.22916666666666669
20125	0.3125
20127	0.2916666666666667
20129	0.3333333333333333
20131	0.20833333333333331
20133	0.2916666666666667
20135	0.2916666666666667
20137	0.22916666666666669
20139	0.22916666666666669
20141	0.3333333333333333
20143	0.25
20145	0.25
20147	0.2708333333333333
20149	0.22916666666666669
20151	0.2708333333333333
20153	0.3125
20155	0.2916666666666667
20157	0.2916666666666667
20159	0.2916666666666667
20161	0.20833333333333331
20163	0.2708333333333333
20165	0.2708333333333333
20167	0.3125
20169	0.3125
20171	0.3125
20173	0.3333333333333333
20175	0.5624999999999999
20177	0.2916666666666667
20179	0.25
20181	0.3541666666666667
20183	0.2916666666666667
20185	0.43749999999999994
20187	0.49999999999999994
20189	0.4166666666666667
20191	0.25
20193	0.25
20195	0.25
20197	0.22916666666666669
20199	0.3125
20201	0.3125
20203	0.4166666666666667
20205	0.3541666666666667
20207	0.3958333333333333
20209	0.4791666666666667
21001	0.43749999999999994
21003	0.3958333333333333
21005	0.2916666666666667
21007	0.3125
21009	0.3541666666666667
21011	0.4166666666666667
21013	0.3958333333333333
21015	0.20833333333333331
21017	0.3958333333333333
21019	0.2916666666666667
21021	0.3333333333333333
21023	0.375
21025	0.375
21027	0.3958333333333333
21029	0.25
21031	0.4166666666666667
21033	0.375
21035	0.3541666666666667
21037	0.25
21039	0.3958333333333333
21041	0.4166666666666667
21043	0.375
21045	0.49999999999999994
21047	0.375
21049	0.3125
21051	0.3541666666666667
21053	0.4166666666666667
21055	0.3958333333333333
21057	0.43749999999999994
21059	0.2916666666666667
21061	0.4166666666666667
21063	0.375
21065	0.3958333333333333
21067	0.3125
21069	0.4166666666666667
21071	0.3958333333333333
21073	0.2916666666666667
21075	0.3333333333333333
21077	0.4166666666666667
21079	0.375
21081	0.3541666666666667
21083	0.4166666666666667
21085	0.4166666666666667
21087	0.43749999999999994
21089	0.3541666666666667
21091	0.2916666666666667
21093	0.3125
21095	0.3958333333333333
21097	0.3541666666666667
21099	0.4583333333333333
21101	0.3125
21103	0.3541666666666667
21105	0.3541666666666667
21107	0.3333333333333333
21109	0.43749999999999994
21111	0.3125
21113	0.375
21115	0.3541666666666667
21117	0.2708333333333333
21119	0.3541666666666667
21121	0.3958333333333333
21123	0.375
21125	0.4166666666666667
21127	0.3541666666666667
21129	0.375
21131	0.375
21133	0.3541666666666667
21135	0.43749999999999994
21137	0.43749999999999994
21139	0.3541666666666667
21141	0.4166666666666667
21143	0.3333333333333333
21145	0.3125
21147	0.43749999999999994
21149	0.3541666666666667
21151	0.375
21153	0.4583333333333333
21155	0.3333333333333333
21157	0.3125
21159	0.3333333333333333
21161	0.3333333333333333
21163	0.3541666666666667
21165	0.4583333333333333
21167	0.3333333333333333
21169	0.4583333333333333
21171	0.4583333333333333
21173	0.3958333333333333
21175	0.3958333333333333
21177	0.375
21179	0.3333333333333333
21181	0.3958333333333333
21183	0.3541666666666667
21185	0.16666666666666669
21187	0.3125
21189	0.3958333333333333
21191	0.3333333333333333
21193	0.375
21195	0.3333333333333333
21197	0.375
21199	0.3958333333333333
21201	0.4166666666666667
21203	0.4166666666666667
21205	0.4166666666666667
21207	0.4583333333333333
21209	0.25
21211	0.3541666666666667
21213	0.3333333333333333
21215	0.2708333333333333
21217	0.3958333333333333
21219	0.49999999999999994
21221	0.3958333333333333
21223	0.3333333333333333
21225	0.3541666666666667
21227	0.3958333333333333
21229	0.375
21231	0.43749999999999994
21233	0.375
21235	0.3958333333333333
21237	0.375
21239	0.3333333333333333
22001	0.4791666666666667
22003	0.4583333333333333
22005	0.3333333333333333
22007	0.4166666666666667
22009	0.5208333333333333
22011	0.4166666666666667
22013	0.4166666666666667
22015	0.3958333333333333
22017	0.43749999999999994
22019	0.4583333333333333
22021	0.4583333333333333
22023	0.3958333333333333
22025	0.5624999999999999
22027	0.4583333333333333
22029	0.5208333333333333
22031	0.4166666666666667
22033	0.375
22035	0.5416666666666666
22037	0.375
22039	0.43749999999999994
22041	0.5624999999999999
22043	0.4583333333333333
22045	0.43749999999999994
22047	0.3958333333333333
22049	0.43749999999999994
22051	0.4583333333333333
22053	0.43749999999999994
22055	0.4166666666666667
22057	0.4791666666666667
22059	0.4166666666666667
22061	0.5208333333333333
22063	0.4166666666666667
22065	0.5208333333333333
22067	0.5208333333333333
22069	0.4583333333333333
22071	0.4583333333333333
22073	0.4583333333333333
22075	0.4166666666666667
22077	0.4583333333333333
22079	0.43749999999999994
22081	0.4791666666666667
22083	0.5208333333333333
22085	0.5208333333333333
22087	0.4791666666666667
22089	0.3541666666666667
22091	0.49999999999999994
22093	0.3125
22095	0.3958333333333333
22097	0.43749999999999994
22099	0.4583333333333333
22101	0.5624999999999999
22103	0.375
22105	0.4791666666666667
22107	0.5208333333333333
22109	0.49999999999999994
22111	0.4583333333333333
22113	0.4791666666666667
22115	0.4166666666666667
22117	0.4791666666666667
22119	0.4791666666666667
22121	0.3541666666666667
22123	0.5416666666666666
22125	0.3541666666666667
22127	0.4791666666666667
23001	0.20833333333333331
23003	0.2708333333333333
23005	0.1875
23007	0.25
23009	0.2708333333333333
23011	0.20833333333333331
23013	0.2916666666666667
23015	0.25
23017	0.25
23019	0.22916666666666669
23021	0.2708333333333333
23023	0.1875
23025	0.2708333333333333
23027	0.2708333333333333
23029	0.3333333333333333
23031	0.1875
24001	0.20833333333333331
24003	0.16666666666666669
24005	0.1875
24009	0.12499999999999999
24011	0.2708333333333333
24013	0.12499999999999999
24015	0.20833333333333331
24017	0.14583333333333331
24019	0.25
24021	0.14583333333333331
24023	0.25
24025	0.14583333333333331
24027	0.10416666666666667
24029	0.25
24031	0.25
24033	0.3333333333333333
24035	0.16666666666666669
24037	0.14583333333333331
24039	0.2916666666666667
24041	0.25
24043	0.22916666666666669
24045	0.2916666666666667
24047	0.25
24510	0.2708333333333333
25001	0.04166666666666667
25003	0.02083333333333333
25005	0.04166666666666667
25007	0.062499999999999986
25009	0.04166666666666667
25011	0.02083333333333333
25013	0.04166666666666667
25015	0.02083333333333333
25017	0.02083333333333333
25019	0.08333333333333333
25021	0.0
25023	0.02083333333333333
25025	0.062499999999999986
25027	0.04166666666666667
26001	0.3333333333333333
26003	0.3125
26005	0.2708333333333333
26007	0.2916666666666667
26009	0.3125
26011	0.3125
26013	0.3333333333333333
26015	0.20833333333333331
26017	0.22916666666666669
26019	0.3333333333333333
26021	0.3333333333333333
26023	0.3125
26025	0.2916666666666667
26027	0.3125
26029	0.2708333333333333
26031	0.3541666666666667
26033	0.3333333333333333
26035	0.3333333333333333
26037	0.1875
26039	0.2708333333333333
26041	0.2708333333333333
26043	0.20833333333333331
26045	0.1875
26047	0.2916666666666667
26049	0.25
26051	0.3125
26053	0.3125
26055	0.2708333333333333
26057	0.25
26059	0.3125
26061	0.3125
26063	0.2916666666666667
26065	0.22916666666666669
26067	0.25
26069	0.3333333333333333
26071	0.2916666666666667
26073	0.3125
26075	0.25
26077	0.22916666666666669
26079	0.3125
26081	0.25
26083	0.3125
26085	0.375
26087	0.25
26089	0.3125
26091	0.25
26093	0.14583333333333331
26095	0.2916666666666667
26097	0.3958333333333333
26099	0.2708333333333333
26101	0.2916666666666667
26103	0.22916666666666669
26105	0.2916666666666667
26107	0.2916666666666667
26109	0.2916666666666667
26111	0.20833333333333331
26113	0.3125
26115	0.20833333333333331
26117	0.3125
26119	0.3333333333333333
26121	0.2708333333333333
26123	0.3125
26125	0.20833333333333331
26127	0.4166666666666667
26129	0.3125
26131	0.2916666666666667
26133	0.3125
26135	0.375
26137	0.25
26139	0.20833333333333331
26141	0.2916666666666667
26143	0.3125
26145	0.22916666666666669
26147	0.2708333333333333
26149	0.3125
26151	0.3125
26153	0.3125
26155	0.25
26157	0.2708333333333333
26159	0.3333333333333333
26161	0.16666666666666669
26163	0.3541666666666667
26165	0.2708333333333333
27001	0.20833333333333331
27003	0.12499999999999999
27005	0.20833333333333331
27007	0.25
27009	0.12499999999999999
27011	0.14583333333333331
27013	0.14583333333333331
27015	0.12499999999999999
27017	0.14583333333333331
27019	0.062499999999999986
27021	0.22916666666666669
27023	0.16666666666666669
27025	0.10416666666666667
27027	0.10416666666666667
27029	0.22916666666666669
27031	0.20833333333333331
27033	0.16666666666666669
27035	0.16666666666666669
27037	0.10416666666666667
27039	0.10416666666666667
27041	0.12499999999999999
27043	0.14583333333333331
27045	0.1875
27047	0.16666666666666669
27049	0.12499999999999999
27051	0.14583333333333331
27053	0.14583333333333331
27055	0.12499999999999999
27057	0.1875
27059	0.14583333333333331
27061	0.16666666666666669
27063	0.12499999999999999
27065	0.16666666666666669
27067	0.16666666666666669
27069	0.12499999999999999
27071	0.1875
27073	0.12499999999999999
27075	0.12499999999999999
27077	0.16666666666666669
27079	0.14583333333333331
27081	0.14583333333333331
27083	0.14583333333333331
27085	0.12499999999999999
27087	0.25
27089	0.16666666666666669
27091	0.14583333333333331
27093	0.14583333333333331
27095	0.16666666666666669
27097	0.16666666666666669
27099	0.20833333333333331
27101	0.14583333333333331
27103	0.08333333333333333
27105	0.2916666666666667
27107	0.16666666666666669
27109	0.10416666666666667
27111	0.16666666666666669
27113	0.14583333333333331
27115	0.1875
27117	0.1875
27119	0.14583333333333331
27121	0.12499999999999999
27123	0.1875
27125	0.1875
27127	0.1875
27129	0.14583333333333331
27131	0.16666666666666669
27133	0.12499999999999999
27135	0.12499999999999999
27137	0.12499999999999999
27139	0.08333333333333333
27141	0.10416666666666667
27143	0.16666666666666669
27145	0.12499999999999999
27147	0.10416666666666667
27149	0.12499999999999999
27151	0.12499999999999999
27153	0.22916666666666669
27155	0.20833333333333331
27157	0.12499999999999999
27159	0.16666666666666669
27161	0.12499999999999999
27163	0.062499999999999986
27165	0.2708333333333333
27167	0.12499999999999999
27169	0.16666666666666669
27171	0.10416666666666667
27173	0.14583333333333331
28001	0.4583333333333333
28003	0.4166666666666667
28005	0.49999999999999994
28007	0.4583333333333333
28009	0.4791666666666667
28011	0.43749999999999994
28013	0.5208333333333333
28015	0.4791666666666667
28017	0.4791666666666667
28019	0.4166666666666667
28021	0.43749999999999994
28023	0.43749999999999994
28025	0.4583333333333333
28027	0.4583333333333333
28029	0.43749999999999994
28031	0.49999999999999994
28033	0.3333333333333333
28035	0.4583333333333333
28037	0.43749999999999994
28039	0.4583333333333333
28041	0.4791666666666667
28043	0.3958333333333333
28045	0.4583333333333333
28047	0.4583333333333333
28049	0.4583333333333333
28051	0.4791666666666667
28053	0.5208333333333333
28055	0.4791666666666667
28057	0.43749999999999994
28059	0.43749999999999994
28061	0.4583333333333333
28063	0.4583333333333333
28065	0.49999999999999994
28067	0.49999999999999994
28069	0.5416666666666666
28071	0.43749999999999994
28073	0.3958333333333333
28075	0.3958333333333333
28077	0.4166666666666667
28079	0.5624999999999999
28081	0.3958333333333333
28083	0.5208333333333333
28085	0.3958333333333333
28087	0.4166666666666667
28089	0.2916666666666667
28091	0.4583333333333333
28093	0.49999999999999994
28095	0.4583333333333333
28097	0.43749999999999994
28099	0.5833333333333333
28101	0.4583333333333333
28103	0.6249999999999999
28105	0.4166666666666667
28107	0.4791666666666667
28109	0.4583333333333333
28111	0.4583333333333333
28113	0.4791666666666667
28115	0.5208333333333333
28117	0.4583333333333333
28119	0.49999999999999994
28121	0.2916666666666667
28123	0.6041666666666666
28125	0.4583333333333333
28127	0.4791666666666667
28129	0.43749999999999994
28131	0.4583333333333333
28133	0.49999999999999994
28135	0.4791666666666667
28137	0.4166666666666667
28139	0.4583333333333333
28141	0.4791666666666667
28143	0.43749999999999994
28145	0.49999999999999994
28147	0.5208333333333333
28149	0.3958333333333333
28151	0.4791666666666667
28153	0.4583333333333333
28155	0.4583333333333333
28157	0.43749999999999994
28159	0.4583333333333333
28161	0.43749999999999994
28163	0.4583333333333333
29001	0.3541666666666667
29003	0.22916666666666669
29005	0.3125
29007	0.375
29009	0.4583333333333333
29011	0.3958333333333333
29013	0.4166666666666667
29015	0.4166666666666667
29017	0.375
29019	0.2708333333333333
29021	0.3541666666666667
29023	0.3541666666666667
29025	0.3333333333333333
29027	0.2916666666666667
29029	0.3958333333333333
29031	0.2708333333333333
29033	0.3541666666666667
29035	0.4583333333333333
29037	0.25
29039	0.4166666666666667
29041	0.3333333333333333
29043	0.2916666666666667
29045	0.375
29047	0.25
29049	0.2916666666666667
29051	0.22916666666666669
29053	0.3125
29055	0.3958333333333333
29057	0.4166666666666667
29059	0.43749999999999994
29061	0.43749999999999994
29063	0.3125
29065	0.43749999999999994
29067	0.43749999999999994
29069	0.3958333333333333
29071	0.2916666666666667
29073	0.3541666666666667
29075	0.4166666666666667
29077	0.3541666666666667
29079	0.375
29081	0.4166666666666667
29083	0.3541666666666667
29085	0.49999999999999994
29087	0.3541666666666667
29089	0.3333333333333333
29091	0.375
29093	0.3958333333333333
29095	0.3541666666666667
29097	0.43749999999999994
29099	0.2708333333333333
29101	0.2708333333333333
29103	0.5208333333333333
29105	0.3958333333333333
29107	0.2916666666666667
29109	0.4166666666666667
29111	0.3541666666666667
29113	0.3125
29115	0.3541666666666667
29117	0.3333333333333333
29119	0.5416666666666666
29121	0.375
29123	0.3958333333333333
29125	0.375
29127	0.3125
29129	0.3958333333333333
29131	0.3958333333333333
29133	0.3958333333333333
29135	0.375
29137	0.3958333333333333
29139	0.3541666666666667
29141	0.4791666666666667
29143	0.3541666666666667
29145	0.4583333333333333
29147	0.2708333333333333
29149	0.4583333333333333
29151	0.2916666666666667
29153	0.49999999999999994
29155	0.3125
29157	0.3125
29159	0.43749999999999994
29161	0.3541666666666667
29163	0.3958333333333333
29165	0.16666666666666669
29167	0.3541666666666667
29169	0.3333333333333333
29171	0.43749999999999994
29173	0.3125
29175	0.3333333333333333
29177	0.2708333333333333
29179	0.4166666666666667
29181	0.43749999999999994
29183	0.16666666666666669
29185	0.3958333333333333
29186	0.2708333333333333
29187	0.3541666666666667
29189	0.22916666666666669
29195	0.3541666666666667
29197	0.4791666666666667
29199	0.4791666666666667
29201	0.3333333333333333
29203	0.4791666666666667
29205	0.375
29207	0.3541666666666667
29209	0.43749999999999994
29211	0.43749999999999994
29213	0.4791666666666667
29215	0.43749999999999994
29217	0.4166666666666667
29219	0.3333333333333333
29221	0.375
29223	0.4166666666666667
29225	0.4166666666666667
29227	0.4166666666666667
29229	0.4583333333333333
29510	0.3958333333333333
30001	0.49999999999999994
30003	0.7083333333333333
30005	0.7291666666666666
30007	0.4583333333333333
30009	0.3958333333333333
30011	0.5416666666666666
30013	0.4166666666666667
30015	0.6458333333333333
30017	0.375
30019	0.3541666666666667
30021	0.3125
30023	0.4166666666666667
30025	0.3541666666666667
30027	0.4791666666666667
30029	0.49999999999999994
30031	0.3541666666666667
30033	0.6666666666666666
30035	0.7083333333333333
30037	0.6458333333333333
30039	0.4791666666666667
30041	0.49999999999999994
30043	0.3125
30045	0.5624999999999999
30047	0.6458333333333333
30049	0.3125
30051	0.49999999999999994
30053	0.49999999999999994
30055	0.5208333333333333
30057	0.4791666666666667
30059	0.5624999999999999
30061	0.4791666666666667
30063	0.4583333333333333
30065	0.49999999999999994
30067	0.4791666666666667
30069	0.5624999999999999
30071	0.6041666666666666
30073	0.5833333333333333
30075	0.49999999999999994
30077	0.4583333333333333
30079	0.43749999999999994
30081	0.49999999999999994
30083	0.3541666666666667
30085	0.6666666666666666
30087	0.49999999999999994
30089	0.6041666666666666
30091	0.3333333333333333
30093	0.4166666666666667
30095	0.2916666666666667
30097	0.43749999999999994
30099	0.5208333333333333
30101	0.43749999999999994
30103	0.4791666666666667
30105	0.4791666666666667
30107	0.5833333333333333
30109	0.3958333333333333
30111	0.375
31001	0.2708333333333333
31003	0.25
31005	0.3958333333333333
31007	0.375
31009	0.4166666666666667
31011	0.20833333333333331
31013	0.22916666666666669
31015	0.3125
31017	0.3541666666666667
31019	0.22916666666666669
31021	0.25
31023	0.20833333333333331
31025	0.16666666666666669
31027	0.22916666666666669
31029	0.3125
31031	0.3333333333333333
31033	0.16666666666666669
31035	0.25
31037	0.43749999999999994
31039	0.2708333333333333
31041	0.2708333333333333
31043	0.4166666666666667
31045	0.3333333333333333
31047	0.4166666666666667
31049	0.2708333333333333
31051	0.2708333333333333
31053	0.2708333333333333
31055	0.25
31057	0.3125
31059	0.1875
31061	0.25
31063	0.25
31065	0.2708333333333333
31067	0.20833333333333331
31069	0.2916666666666667
31071	0.3333333333333333
31073	0.20833333333333331
31075	0.3333333333333333
31077	0.3541666666666667
31079	0.3541666666666667
31081	0.16666666666666669
31083	0.25
31085	0.4791666666666667
31087	0.2708333333333333
31089	0.2708333333333333
31091	0.25
31093	0.25
31095	0.20833333333333331
31097	0.2708333333333333
31099	0.16666666666666669
31101	0.2708333333333333
31103	0.4166666666666667
31105	0.2916666666666667
31107	0.3541666666666667
31109	0.22916666666666669
31111	0.20833333333333331
31113	0.2916666666666667
31115	0.3125
31117	0.2916666666666667
31119	0.2708333333333333
31121	0.22916666666666669
31123	0.3125
31125	0.2708333333333333
31127	0.20833333333333331
31129	0.25
31131	0.1875
31133	0.2916666666666667
31135	0.25
31137	0.1875
31139	0.20833333333333331
31141	0.25
31143	0.20833333333333331
31145	0.22916666666666669
31147	0.2708333333333333
31149	0.43749999999999994
31151	0.3125
31153	0.12499999999999999
31155	0.16666666666666669
31157	0.3125
31159	0.12499999999999999
31161	0.3541666666666667
31163	0.2916666666666667
31165	0.25
31167	0.1875
31169	0.20833333333333331
31171	0.375
31173	0.4583333333333333
31175	0.2708333333333333
31177	0.12499999999999999
31179	0.1875
31181	0.25
31183	0.3125
31185	0.20833333333333331
32001	0.4583333333333333
32003	0.5208333333333333
32005	0.375
32007	0.4166666666666667
32009	0.6041666666666666
32011	0.375
32013	0.4791666666666667
32015	0.375
32017	0.49999999999999994
32019	0.5208333333333333
32021	0.43749999999999994
32023	0.49999999999999994
32027	0.4791666666666667
32029	0.4166666666666667
32031	0.4583333333333333
32033	0.375
32510	0.4791666666666667
33001	0.2916666666666667
33003	0.3541666666666667
33005	0.2708333333333333
33007	0.3333333333333333
33009	0.2916666666666667
33011	0.22916666666666669
33013	0.22916666666666669
33015	0.1875
33017	0.2708333333333333
33019	0.2708333333333333
34001	0.375
34003	0.25
34005	0.16666666666666669
34007	0.2916666666666667
34009	0.2708333333333333
34011	0.3958333333333333
34013	0.3958333333333333
34015	0.16666666666666669
34017	0.4583333333333333
34019	0.10416666666666667
34021	0.25
34023	0.2916666666666667
34025	0.20833333333333331
34027	0.16666666666666669
34029	0.2708333333333333
34031	0.4583333333333333
34033	0.25
34035	0.16666666666666669
34037	0.1875
34039	0.375
34041	0.22916666666666669
35001	0.4166666666666667
35003	0.5208333333333333
35005	0.5416666666666666
35006	0.5624999999999999
35007	0.4166666666666667
35009	0.4583333333333333
35011	0.6041666666666666
35013	0.5833333333333333
35015	0.3541666666666667
35017	0.3958333333333333
35019	0.43749999999999994
35021	0.49999999999999994
35023	0.4583333333333333
35025	0.5208333333333333
35027	0.5208333333333333
35028	0.04166666666666667
35029	0.6249999999999999
35031	0.7708333333333333
35033	0.43749999999999994
35035	0.5416666666666666
35037	0.4166666666666667
35039	0.5416666666666666
35041	0.5208333333333333
35043	0.3333333333333333
35045	0.5833333333333333
35047	0.4166666666666667
35049	0.5416666666666666
35051	0.49999999999999994
35053	0.5416666666666666
35055	0.5624999999999999
35057	0.5624999999999999
35059	0.4791666666666667
35061	0.49999999999999994
36001	0.16666666666666669
36003	0.1875
36005	0.3541666666666667
36007	0.1875
36009	0.25
36011	0.1875
36013	0.1875
36015	0.16666666666666669
36017	0.20833333333333331
36019	0.16666666666666669
36021	0.20833333333333331
36023	0.16666666666666669
36025	0.22916666666666669
36027	0.1875
36029	0.14583333333333331
36031	0.20833333333333331
36033	0.2708333333333333
36035	0.20833333333333331
36037	0.1875
36039	0.1875
36041	0.20833333333333331
36043	0.20833333333333331
36045	0.20833333333333331
36047	0.3125
36049	0.22916666666666669
36051	0.14583333333333331
36053	0.16666666666666669
36055	0.14583333333333331
36057	0.20833333333333331
36059	0.16666666666666669
36061	0.1875
36063	0.16666666666666669
36065	0.1875
36067	0.16666666666666669
36069	0.14583333333333331
36071	0.20833333333333331
36073	0.20833333333333331
36075	0.1875
36077	0.1875
36079	0.14583333333333331
36081	0.4166666666666667
36083	0.14583333333333331
36085	0.16666666666666669
36087	0.20833333333333331
36089	0.22916666666666669
36091	0.10416666666666667
36093	0.14583333333333331
36095	0.1875
36097	0.1875
36099	0.20833333333333331
36101	0.20833333333333331
36103	0.20833333333333331
36105	0.2708333333333333
36107	0.14583333333333331
36109	0.1875
36111	0.25
36113	0.1875
36115	0.20833333333333331
36117	0.1875
36119	0.25
36121	0.1875
36123	0.2708333333333333
37001	0.43749999999999994
37003	0.4166666666666667
37005	0.5833333333333333
37007	0.3958333333333333
37009	0.5208333333333333
37011	0.5624999999999999
37013	0.4166666666666667
37015	0.3541666666666667
37017	0.49999999999999994
37019	0.4166666666666667
37021	0.43749999999999994
37023	0.4583333333333333
37025	0.375
37027	0.3958333333333333
37029	0.2916666666666667
37031	0.4166666666666667
37033	0.375
37035	0.4166666666666667
37037	0.3958333333333333
37039	0.43749999999999994
37041	0.375
37043	0.4583333333333333
37045	0.3958333333333333
37047	0.4583333333333333
37049	0.375
37051	0.3541666666666667
37053	0.3541666666666667
37055	0.4166666666666667
37057	0.3958333333333333
37059	0.375
37061	0.6041666666666666
37063	0.4166666666666667
37065	0.3958333333333333
37067	0.4166666666666667
37069	0.43749999999999994
37071	0.4166666666666667
37073	0.3333333333333333
37075	0.4583333333333333
37077	0.3958333333333333
37079	0.5208333333333333
37081	0.4166666666666667
37083	0.3958333333333333
37085	0.43749999999999994
37087	0.3958333333333333
37089	0.4583333333333333
37091	0.4166666666666667
37093	0.5208333333333333
37095	0.5208333333333333
37097	0.3958333333333333
37099	0.5416666666666666
37101	0.4583333333333333
37103	0.43749999999999994
37105	0.4791666666666667
37107	0.4583333333333333
37109	0.375
37111	0.4166666666666667
37113	0.5624999999999999
37115	0.3958333333333333
37117	0.4166666666666667
37119	0.3958333333333333
37121	0.375
37123	0.5416666666666666
37125	0.375
37127	0.4166666666666667
37129	0.375
37131	0.3541666666666667
37133	0.3541666666666667
37135	0.2708333333333333
37137	0.375
37139	0.3958333333333333
37141	0.43749999999999994
37143	0.375
37145	0.375
37147	0.3958333333333333
37149	0.4166666666666667
37151	0.4791666666666667
37153	0.4791666666666667
37155	0.6249999999999999
37157	0.3958333333333333
37159	0.43749999999999994
37161	0.4166666666666667
37163	0.5208333333333333
37165	0.4583333333333333
37167	0.375
37169	0.375
37171	0.4791666666666667
37173	0.5208333333333333
37175	0.43749999999999994
37177	0.5416666666666666
37179	0.3541666666666667
37181	0.43749999999999994
37183	0.2916666666666667
37185	0.4583333333333333
37187	0.375
37189	0.3958333333333333
37191	0.43749999999999994
37193	0.4791666666666667
37195	0.4583333333333333
37197	0.4166666666666667
37199	0.43749999999999994
38001	0.25
38003	0.1875
38005	0.4166666666666667
38007	0.2916666666666667
38009	0.25
38011	0.22916666666666669
38013	0.14583333333333331
38015	0.16666666666666669
38017	0.1875
38019	0.16666666666666669
38021	0.22916666666666669
38023	0.20833333333333331
38025	0.25
38027	0.25
38029	0.3333333333333333
38031	0.16666666666666669
38033	0.2708333333333333
38035	0.20833333333333331
38037	0.43749999999999994
38039	0.20833333333333331
38041	0.20833333333333331
38043	0.3541666666666667
38045	0.1875
38047	0.375
38049	0.2916666666666667
38051	0.3125
38053	0.25
38055	0.22916666666666669
38057	0.14583333333333331
38059	0.20833333333333331
38061	0.3125
38063	0.20833333333333331
38065	0.22916666666666669
38067	0.20833333333333331
38069	0.25
38071	0.2708333333333333
38073	0.16666666666666669
38075	0.16666666666666669
38077	0.1875
38079	0.4583333333333333
38081	0.14583333333333331
38083	0.375
38085	0.4583333333333333
38087	0.1875
38089	0.16666666666666669
38091	0.20833333333333331
38093	0.1875
38095	0.25
38097	0.1875
38099	0.22916666666666669
38101	0.1875
38103	0.20833333333333331
38105	0.16666666666666669
39001	0.3333333333333333
39003	0.2708333333333333
39005	0.2916666666666667
39007	0.2916666666666667
39009	0.3125
39011	0.20833333333333331
39013	0.25
39015	0.2916666666666667
39017	0.2708333333333333
39019	0.2708333333333333
39021	0.25
39023	0.2916666666666667
39025	0.22916666666666669
39027	0.25
39029	0.2916666666666667
39031	0.2916666666666667
39033	0.2708333333333333
39035	0.2708333333333333
39037	0.2708333333333333
39039	0.25
39041	0.10416666666666667
39043	0.25
39045	0.20833333333333331
39047	0.2916666666666667
39049	0.3125
39051	0.22916666666666669
39053	0.2916666666666667
39055	0.22916666666666669
39057	0.1875
39059	0.2916666666666667
39061	0.25
39063	0.25
39065	0.2916666666666667
39067	0.25
39069	0.25
39071	0.3333333333333333
39073	0.2916666666666667
39075	0.5624999999999999
39077	0.2916666666666667
39079	0.2708333333333333
39081	0.25
39083	0.2708333333333333
39085	0.20833333333333331
39087	0.2708333333333333
39089	0.25
39091	0.2708333333333333
39093	0.22916666666666669
39095	0.2916666666666667
39097	0.22916666666666669
39099	0.2708333333333333
39101	0.25
39103	0.1875
39105	0.3333333333333333
39107	0.22916666666666669
39109	0.22916666666666669
39111	0.25
39113	0.2916666666666667
39115	0.3125
39117	0.2916666666666667
39119	0.2916666666666667
39121	0.2916666666666667
39123	0.22916666666666669
39125	0.25
39127	0.2916666666666667
39129	0.25
39131	0.2916666666666667
39133	0.22916666666666669
39135	0.2708333333333333
39137	0.1875
39139	0.25
39141	0.25
39143	0.2708333333333333
39145	0.3125
39147	0.25
39149	0.25
39151	0.2708333333333333
39153	0.25
39155	0.3125
39157	0.2916666666666667
39159	0.16666666666666669
39161	0.22916666666666669
39163	0.2916666666666667
39165	0.16666666666666669
39167	0.25
39169	0.2916666666666667
39171	0.25
39173	0.20833333333333331
39175	0.25
40001	0.6458333333333333
40003	0.3958333333333333
40005	0.5833333333333333
40007	0.4791666666666667
40009	0.43749999999999994
40011	0.4583333333333333
40013	0.5416666666666666
40015	0.6249999999999999
40017	0.2916666666666667
40019	0.4583333333333333
40021	0.6249999999999999
40023	0.5208333333333333
40025	0.6458333333333333
40027	0.3333333333333333
40029	0.5624999999999999
40031	0.4166666666666667
40033	0.4583333333333333
40035	0.4791666666666667
40037	0.43749999999999994
40039	0.5416666666666666
40041	0.5833333333333333
40043	0.43749999999999994
40045	0.3333333333333333
40047	0.4583333333333333
40049	0.49999999999999994
40051	0.43749999999999994
40053	0.375
40055	0.3958333333333333
40057	0.5416666666666666
40059	0.4791666666666667
40061	0.5833333333333333
40063	0.5624999999999999
40065	0.4583333333333333
40067	0.5624999999999999
40069	0.5624999999999999
40071	0.4791666666666667
40073	0.4583333333333333
40075	0.4791666666666667
40077	0.49999999999999994
40079	0.5833333333333333
40081	0.4583333333333333
40083	0.3958333333333333
40085	0.49999999999999994
40087	0.4166666666666667
40089	0.5624999999999999
40091	0.5416666666666666
40093	0.4583333333333333
40095	0.5624999999999999
40097	0.5416666666666666
40099	0.4583333333333333
40101	0.49999999999999994
40103	0.375
40105	0.49999999999999994
40107	0.5208333333333333
40109	0.4791666666666667
40111	0.43749999999999994
40113	0.43749999999999994
40115	0.5416666666666666
40117	0.4583333333333333
40119	0.3958333333333333
40121	0.49999999999999994
40123	0.4791666666666667
40125	0.43749999999999994
40127	0.5624999999999999
40129	0.4166666666666667
40131	0.3541666666666667
40133	0.5624999999999999
40135	0.5416666666666666
40137	0.3958333333333333
40139	0.5833333333333333
40141	0.5416666666666666
40143	0.4583333333333333
40145	0.3958333333333333
40147	0.4166666666666667
40149	0.4166666666666667
40151	0.3125
40153	0.43749999999999994
41001	0.3541666666666667
41003	0.3125
41005	0.2708333333333333
41007	0.375
41009	0.2916666666666667
41011	0.375
41013	0.375
41015	0.375
41017	0.375
41019	0.3541666666666667
41021	0.3125
41023	0.3958333333333333
41025	0.4583333333333333
41027	0.49999999999999994
41029	0.4166666666666667
41031	0.5416666666666666
41033	0.375
41035	0.43749999999999994
41037	0.3958333333333333
41039	0.3541666666666667
41041	0.43749999999999994
41043	0.3541666666666667
41045	0.4583333333333333
41047	0.4791666666666667
41049	0.4791666666666667
41051	0.3541666666666667
41053	0.3125
41055	0.3333333333333333
41057	0.4583333333333333
41059	0.4583333333333333
41061	0.3541666666666667
41063	0.375
41065	0.5208333333333333
41067	0.2916666666666667
41069	0.4166666666666667
41071	0.3541666666666667
42001	0.22916666666666669
42003	0.16666666666666669
42005	0.1875
42007	0.16666666666666669
42009	0.25
42011	0.25
42013	0.1875
42015	0.22916666666666669
42017	0.12499999999999999
42019	0.14583333333333331
42021	0.1875
42023	0.20833333333333331
42025	0.22916666666666669
42027	0.20833333333333331
42029	0.14583333333333331
42031	0.20833333333333331
42033	0.20833333333333331
42035	0.20833333333333331
42037	0.16666666666666669
42039	0.25
42041	0.14583333333333331
42043	0.20833333333333331
42045	0.1875
42047	0.16666666666666669
42049	0.1875
42051	0.22916666666666669
42053	0.25
42055	0.25
42057	0.22916666666666669
42059	0.16666666666666669
42061	0.20833333333333331
42063	0.25
42065	0.22916666666666669
42067	0.2708333333333333
42069	0.20833333333333331
42071	0.25
42073	0.20833333333333331
42075	0.22916666666666669
42077	0.25
42079	0.22916666666666669
42081	0.20833333333333331
42083	0.20833333333333331
42085	0.1875
42087	0.2708333333333333
42089	0.25
42091	0.10416666666666667
42093	0.14583333333333331
42095	0.1875
42097	0.22916666666666669
42099	0.22916666666666669
42101	0.3333333333333333
42103	0.25
42105	0.22916666666666669
42107	0.22916666666666669
42109	0.25
42111	0.22916666666666669
42113	0.2708333333333333
42115	0.2708333333333333
42117	0.25
42119	0.20833333333333331
42121	0.22916666666666669
42123	0.20833333333333331
42125	0.14583333333333331
42127	0.22916666666666669
42129	0.14583333333333331
42131	0.20833333333333331
42133	0.1875
44001	0.14583333333333331
44003	0.14583333333333331
44005	0.16666666666666669
44007	0.2916666666666667
44009	0.14583333333333331
45001	0.3958333333333333
45003	0.3958333333333333
45005	0.4166666666666667
45007	0.43749999999999994
45009	0.4166666666666667
45011	0.375
45013	0.43749999999999994
45015	0.3958333333333333
45017	0.3958333333333333
45019	0.4166666666666667
45021	0.43749999999999994
45023	0.4166666666666667
45025	0.43749999999999994
45027	0.49999999999999994
45029	0.5208333333333333
45031	0.4166666666666667
45033	0.49999999999999994
45035	0.3541666666666667
45037	0.375
45039	0.375
45041	0.3958333333333333
45043	0.4791666666666667
45045	0.4166666666666667
45047	0.4583333333333333
45049	0.43749999999999994
45051	0.5624999999999999
45053	0.6249999999999999
45055	0.43749999999999994
45057	0.43749999999999994
45059	0.4166666666666667
45061	0.43749999999999994
45063	0.3541666666666667
45065	0.3333333333333333
45067	0.43749999999999994
45069	0.43749999999999994
45071	0.4791666666666667
45073	0.4166666666666667
45075	0.4583333333333333
45077	0.4166666666666667
45079	0.3333333333333333
45081	0.5833333333333333
45083	0.4166666666666667
45085	0.43749999999999994
45087	0.375
45089	0.43749999999999994
45091	0.3541666666666667
46003	0.25
46005	0.3333333333333333
46007	0.5208333333333333
46009	0.2708333333333333
46011	0.25
46013	0.1875
46015	0.3333333333333333
46017	0.5624999999999999
46019	0.3333333333333333
46021	0.25
46023	0.4166666666666667
46025	0.3125
46027	0.2708333333333333
46029	0.25
46031	0.5416666666666666
46033	0.2708333333333333
46035	0.25
46037	0.3541666666666667
46039	0.2708333333333333
46041	0.6041666666666666
46043	0.2916666666666667
46045	0.22916666666666669
46047	0.3125
46049	0.25
46051	0.25
46053	0.375
46055	0.2916666666666667
46057	0.2708333333333333
46059	0.25
46061	0.25
46063	0.3333333333333333
46065	0.20833333333333331
46067	0.2708333333333333
46069	0.3333333333333333
46071	0.5833333333333333
46073	0.2708333333333333
46075	0.4166666666666667
46077	0.25
46079	0.1875
46081	0.2708333333333333
46083	0.10416666666666667
46085	0.4791666666666667
46087	0.20833333333333331
46089	0.3541666666666667
46091	0.3541666666666667
46093	0.2708333333333333
46095	0.5208333333333333
46097	0.22916666666666669
46099	0.25
46101	0.2916666666666667
46103	0.2916666666666667
46105	0.375
46107	0.22916666666666669
46109	0.43749999999999994
46111	0.3125
46113	0.43749999999999994
46115	0.25
46117	0.3333333333333333
46119	0.25
46121	0.4583333333333333
46123	0.3541666666666667
46125	0.22916666666666669
46127	0.12499999999999999
46129	0.2916666666666667
46135	0.25
46137	0.49999999999999994
47001	0.2708333333333333
47003	0.4583333333333333
47005	0.3958333333333333
47007	0.4166666666666667
47009	0.2916666666666667
47011	0.3333333333333333
47013	0.3333333333333333
47015	0.3541666666666667
47017	0.3541666666666667
47019	0.3541666666666667
47021	0.3333333333333333
47023	0.3333333333333333
47025	0.3333333333333333
47027	0.3958333333333333
47029	0.375
47031	0.3541666666666667
47033	0.43749999999999994
47035	0.3958333333333333
47037	0.3958333333333333
47039	0.375
47041	0.43749999999999994
47043	0.3125
47045	0.2916666666666667
47047	0.2708333333333333
47049	0.3958333333333333
47051	0.3333333333333333
47053	0.3125
47055	0.3333333333333333
47057	0.3541666666666667
47059	0.3541666666666667
47061	0.4166666666666667
47063	0.43749999999999994
47065	0.3333333333333333
47067	0.3541666666666667
47069	0.3541666666666667
47071	0.3541666666666667
47073	0.3333333333333333
47075	0.3333333333333333
47077	0.3333333333333333
47079	0.3541666666666667
47081	0.375
47083	0.3333333333333333
47085	0.3541666666666667
47087	0.3958333333333333
47089	0.375
47091	0.375
47093	0.2916666666666667
47095	0.3333333333333333
47097	0.375
47099	0.375
47101	0.4166666666666667
47103	0.3125
47105	0.3333333333333333
47107	0.375
47109	0.3541666666666667
47111	0.43749999999999994
47113	0.3541666666666667
47115	0.3333333333333333
47117	0.375
47119	0.3333333333333333
47121	0.3541666666666667
47123	0.3958333333333333
47125	0.2916666666666667
47127	0.3125
47129	0.3333333333333333
47131	0.3541666666666667
47133	0.3541666666666667
47135	0.4166666666666667
47137	0.3958333333333333
47139	0.3541666666666667
47141	0.4166666666666667
47143	0.3541666666666667
47145	0.2916666666666667
47147	0.3541666666666667
47149	0.3125
47151	0.375
47153	0.375
47155	0.4791666666666667
47157	0.3541666666666667
47159	0.3125
47161	0.3125
47163	0.3125
47165	0.2708333333333333
47167	0.2916666666666667
47169	0.3541666666666667
47171	0.3333333333333333
47173	0.3958333333333333
47175	0.3541666666666667
47177	0.43749999999999994
47179	0.3333333333333333
47181	0.375
47183	0.3125
47185	0.375
47187	0.12499999999999999
47189	0.25
48001	0.5416666666666666
48003	0.5208333333333333
48005	0.5416666666666666
48007	0.5416666666666666
48009	0.4791666666666667
48011	0.4166666666666667
48013	0.5416666666666666
48015	0.5208333333333333
48017	0.7291666666666666
48019	0.49999999999999994
48021	0.5624999999999999
48023	0.49999999999999994
48025	0.49999999999999994
48027	0.4166666666666667
48029	0.5208333333333333
48031	0.5416666666666666
48033	0.25
48035	0.5833333333333333
48037	0.4583333333333333
48039	0.4791666666666667
48041	0.4583333333333333
48043	0.5208333333333333
48045	0.8124999999999999
48047	0.6249999999999999
48049	0.49999999999999994
48051	0.5624999999999999
48053	0.5833333333333333
48055	0.5624999999999999
48057	0.49999999999999994
48059	0.49999999999999994
48061	0.9374999999999999
48063	0.6458333333333333
48065	0.2916666666666667
48067	0.4583333333333333
48069	0.8124999999999999
48071	0.3541666666666667
48073	0.6249999999999999
48075	0.49999999999999994
48077	0.3958333333333333
48079	0.7499999999999999
48081	0.5833333333333333
48083	0.6041666666666666
48085	0.3125
48087	0.7083333333333333
48089	0.5624999999999999
48091	0.4166666666666667
48093	0.6666666666666666
48095	0.5624999999999999
48097	0.5416666666666666
48099	0.3958333333333333
48101	0.7291666666666666
48103	0.49999999999999994
48105	0.5833333333333333
48107	0.6249999999999999
48109	0.7916666666666666
48111	0.7291666666666666
48113	0.6666666666666666
48115	0.6041666666666666
48117	0.7291666666666666
48119	0.5624999999999999
48121	0.375
48123	0.4583333333333333
48125	0.6249999999999999
48127	0.5624999999999999
48129	0.6041666666666666
48131	0.5208333333333333
48133	0.6041666666666666
48135	0.6041666666666666
48137	0.7083333333333333
48139	0.4791666666666667
48141	0.7291666666666666
48143	0.6666666666666666
48145	0.5624999999999999
48147	0.5416666666666666
48149	0.49999999999999994
48151	0.4791666666666667
48153	0.6458333333333333
48155	0.6874999999999999
48157	0.4166666666666667
48159	0.5208333333333333
48161	0.5208333333333333
48163	0.5624999999999999
48165	0.7916666666666666
48167	0.43749999999999994
48169	0.5416666666666666
48171	0.5624999999999999
48173	0.3958333333333333
48175	0.375
48177	0.6666666666666666
48179	0.5624999999999999
48181	0.5208333333333333
48183	0.5416666666666666
48185	0.5624999999999999
48187	0.4166666666666667
48189	0.6041666666666666
48191	0.7708333333333333
48193	0.6041666666666666
48195	0.6249999999999999
48197	0.5624999999999999
48199	0.4166666666666667
48201	0.6249999999999999
48203	0.49999999999999994
48205	0.49999999999999994
48207	0.5624999999999999
48209	0.4583333333333333
48211	0.49999999999999994
48213	0.5833333333333333
48215	0.9999999999999999
48217	0.6249999999999999
48219	0.5208333333333333
48221	0.4583333333333333
48223	0.6249999999999999
48225	0.6249999999999999
48227	0.49999999999999994
48229	0.8541666666666666
48231	0.5416666666666666
48233	0.49999999999999994
48235	0.4166666666666667
48237	0.5416666666666666
48239	0.4791666666666667
48241	0.5208333333333333
48243	0.5833333333333333
48245	0.5833333333333333
48247	0.6666666666666666
48249	0.5208333333333333
48251	0.5416666666666666
48253	0.5833333333333333
48255	0.4166666666666667
48257	0.5208333333333333
48259	0.375
48261	0.4166666666666667
48263	0.4583333333333333
48265	0.5624999999999999
48267	0.7083333333333333
48269	0.3541666666666667
48271	0.5208333333333333
48273	0.5624999999999999
48275	0.6874999999999999
48277	0.5416666666666666
48279	0.6458333333333333
48281	0.5416666666666666
48283	0.6249999999999999
48285	0.4791666666666667
48287	0.5208333333333333
48289	0.5833333333333333
48291	0.6041666666666666
48293	0.5416666666666666
48295	0.6041666666666666
48297	0.43749999999999994
48299	0.49999999999999994
48301	0.375
48303	0.4583333333333333
48305	0.5833333333333333
48307	0.6041666666666666
48309	0.5208333333333333
48311	0.3958333333333333
48313	0.6458333333333333
48315	0.5416666666666666
48317	0.5624999999999999
48319	0.6458333333333333
48321	0.6041666666666666
48323	0.8541666666666666
48325	0.5208333333333333
48327	0.6874999999999999
48329	0.4583333333333333
48331	0.5208333333333333
48333	0.7083333333333333
48335	0.4791666666666667
48337	0.5624999999999999
48339	0.43749999999999994
48341	0.6874999999999999
48343	0.49999999999999994
48345	0.6249999999999999
48347	0.5833333333333333
48349	0.6041666666666666
48351	0.4791666666666667
48353	0.5208333333333333
48355	0.5208333333333333
48357	0.6458333333333333
48359	0.3541666666666667
48361	0.43749999999999994
48363	0.5833333333333333
48365	0.4583333333333333
48367	0.43749999999999994
48369	0.7291666666666666
48371	0.6041666666666666
48373	0.5833333333333333
48375	0.6666666666666666
48377	0.8333333333333333
48379	0.5833333333333333
48381	0.3958333333333333
48383	0.6041666666666666
48385	0.7291666666666666
48387	0.5624999999999999
48389	0.6041666666666666
48391	0.4583333333333333
48393	0.2708333333333333
48395	0.5833333333333333
48397	0.3541666666666667
48399	0.5416666666666666
48401	0.5416666666666666
48403	0.5416666666666666
48405	0.5416666666666666
48407	0.5833333333333333
48409	0.4791666666666667
48411	0.6249999999999999
48413	0.5624999999999999
48415	0.5208333333333333
48417	0.5208333333333333
48419	0.6666666666666666
48421	0.6874999999999999
48423	0.5416666666666666
48425	0.4583333333333333
48427	0.8958333333333333
48429	0.6249999999999999
48431	0.4583333333333333
48433	0.5416666666666666
48435	0.5833333333333333
48437	0.6041666666666666
48439	0.5208333333333333
48441	0.49999999999999994
48443	0.5624999999999999
48445	0.6458333333333333
48447	0.6874999999999999
48449	0.7083333333333333
48451	0.49999999999999994
48453	0.43749999999999994
48455	0.5624999999999999
48457	0.5208333333333333
48459	0.4791666666666667
48461	0.5624999999999999
48463	0.6666666666666666
48465	0.6874999999999999
48467	0.6041666666666666
48469	0.5208333333333333
48471	0.5208333333333333
48473	0.5833333333333333
48475	0.49999999999999994
48477	0.4583333333333333
48479	0.9166666666666666
48481	0.5833333333333333
48483	0.5416666666666666
48485	0.49999999999999994
48487	0.5416666666666666
48489	0.7083333333333333
48491	0.3333333333333333
48493	0.3958333333333333
48495	0.5416666666666666
48497	0.5208333333333333
48499	0.5416666666666666
48501	0.5833333333333333
48503	0.5624999999999999
48505	0.8124999999999999
48507	0.6666666666666666
49001	0.375
49003	0.2708333333333333
49005	0.2916666666666667
49007	0.2708333333333333
49009	0.2916666666666667
49011	0.1875
49013	0.3333333333333333
49015	0.2708333333333333
49017	0.3541666666666667
49019	0.4166666666666667
49021	0.375
49023	0.2916666666666667
49025	0.3333333333333333
49027	0.4166666666666667
49029	0.1875
49031	0.43749999999999994
49033	0.2916666666666667
49035	0.3333333333333333
49037	0.49999999999999994
49039	0.4166666666666667
49041	0.3541666666666667
49043	0.2708333333333333
49045	0.22916666666666669
49047	0.375
49049	0.2708333333333333
49051	0.375
49053	0.4166666666666667
49055	0.43749999999999994
49057	0.3333333333333333
50001	0.12499999999999999
50003	0.12499999999999999
50005	0.12499999999999999
50007	0.08333333333333333
50009	0.16666666666666669
50011	0.12499999999999999
50013	0.10416666666666667
50015	0.14583333333333331
50017	0.12499999999999999
50019	0.16666666666666669
50021	0.12499999999999999
50023	0.10416666666666667
50025	0.12499999999999999
50027	0.10416666666666667
51001	0.43749999999999994
51003	0.22916666666666669
51005	0.2916666666666667
51007	0.3958333333333333
51009	0.3541666666666667
51011	0.3541666666666667
51013	0.16666666666666669
51015	0.2916666666666667
51017	0.3125
51019	0.2708333333333333
51021	0.2708333333333333
51023	0.1875
51025	0.375
51027	0.3125
51029	0.4166666666666667
51031	0.3125
51033	0.3125
51035	0.4166666666666667
51036	0.4166666666666667
51037	0.4166666666666667
51041	0.22916666666666669
51043	0.22916666666666669
51045	0.3125
51047	0.3333333333333333
51049	0.4166666666666667
51051	0.3333333333333333
51053	0.3125
51057	0.3541666666666667
51059	0.25
51061	0.22916666666666669
51063	0.3958333333333333
51065	0.25
51067	0.375
51069	0.3125
51071	0.3333333333333333
51073	0.2916666666666667
51075	0.12499999999999999
51077	0.4166666666666667
51079	0.3541666666666667
51081	0.3333333333333333
51083	0.3541666666666667
51085	0.16666666666666669
51087	0.2916666666666667
51089	0.4166666666666667
51091	0.5208333333333333
51093	0.22916666666666669
51095	0.20833333333333331
51097	0.3541666666666667
51099	0.1875
51101	0.2708333333333333
51103	0.3125
51105	0.3541666666666667
51107	0.14583333333333331
51109	0.3333333333333333
51111	0.4166666666666667
51113	0.3541666666666667
51115	0.3125
51117	0.3958333333333333
51119	0.3125
51121	0.2916666666666667
51125	0.3541666666666667
51127	0.25
51131	0.43749999999999994
51133	0.375
51135	0.3958333333333333
51137	0.3333333333333333
51139	0.3541666666666667
51141	0.3958333333333333
51143	0.3333333333333333
51145	0.25
51147	0.3541666666666667
51149	0.25
51153	0.2708333333333333
51155	0.3125
51157	0.3125
51159	0.3958333333333333
51161	0.20833333333333331
51163	0.3541666666666667
51165	0.3541666666666667
51167	0.3541666666666667
51169	0.3125
51171	0.3541666666666667
51173	0.3333333333333333
51175	0.3541666666666667
51177	0.2708333333333333
51179	0.1875
51181	0.2916666666666667
51183	0.3958333333333333
51185	0.3541666666666667
51187	0.3125
51191	0.3125
51193	0.4166666666666667
51195	0.3333333333333333
51197	0.3333333333333333
51199	0.16666666666666669
51510	0.22916666666666669
51515	0.3333333333333333
51520	0.3125
51530	0.3333333333333333
51540	0.3333333333333333
51550	0.22916666666666669
51570	0.2916666666666667
51580	0.3125
51590	0.3541666666666667
51595	0.3541666666666667
51600	0.25
51610	0.10416666666666667
51620	0.3333333333333333
51630	0.3333333333333333
51640	0.43749999999999994
51650	0.2708333333333333
51660	0.375
51670	0.375
51678	0.3333333333333333
51680	0.3333333333333333
51683	0.4583333333333333
51685	0.4791666666666667
51690	0.3541666666666667
51700	0.3125
51710	0.3541666666666667
51720	0.25
51730	0.3541666666666667
51735	0.16666666666666669
51740	0.3333333333333333
51750	0.3541666666666667
51760	0.3958333333333333
51770	0.3958333333333333
51775	0.2708333333333333
51790	0.3541666666666667
51800	0.22916666666666669
51810	0.22916666666666669
51820	0.3333333333333333
51830	0.2708333333333333
51840	0.4166666666666667
53001	0.6041666666666666
53003	0.3125
53005	0.3125
53007	0.43749999999999994
53009	0.375
53011	0.3333333333333333
53013	0.3333333333333333
53015	0.3333333333333333
53017	0.5208333333333333
53019	0.4583333333333333
53021	0.5833333333333333
53023	0.2916666666666667
53025	0.5416666666666666
53027	0.43749999999999994
53029	0.25
53031	0.3125
53033	0.25
53035	0.2708333333333333
53037	0.3541666666666667
53039	0.3958333333333333
53041	0.375
53043	0.3333333333333333
53045	0.3958333333333333
53047	0.5624999999999999
53049	0.4166666666666667
53051	0.3333333333333333
53053	0.3333333333333333
53055	0.43749999999999994
53057	0.3958333333333333
53059	0.3125
53061	0.2916666666666667
53063	0.3125
53065	0.375
53067	0.2916666666666667
53069	0.3125
53071	0.3958333333333333
53073	0.375
53075	0.2916666666666667
53077	0.6249999999999999
54001	0.43749999999999994
54003	0.3541666666666667
54005	0.3333333333333333
54007	0.43749999999999994
54009	0.3125
54011	0.3958333333333333
54013	0.4583333333333333
54015	0.4166666666666667
54017	0.4583333333333333
54019	0.43749999999999994
54021	0.43749999999999994
54023	0.3958333333333333
54025	0.4166666666666667
54027	0.49999999999999994
54029	0.3333333333333333
54031	0.4166666666666667
54033	0.375
54035	0.375
54037	0.3125
54039	0.3333333333333333
54041	0.375
54043	0.4166666666666667
54045	0.3958333333333333
54047	0.4583333333333333
54049	0.3541666666666667
54051	0.3541666666666667
54053	0.3333333333333333
54055	0.3958333333333333
54057	0.375
54059	0.375
54061	0.375
54063	0.4583333333333333
54065	0.43749999999999994
54067	0.3958333333333333
54069	0.3125
54071	0.4791666666666667
54073	0.3125
54075	0.49999999999999994
54077	0.4166666666666667
54079	0.2708333333333333
54081	0.375
54083	0.3958333333333333
54085	0.43749999999999994
54087	0.4583333333333333
54089	0.4166666666666667
54091	0.3958333333333333
54093	0.43749999999999994
54095	0.3958333333333333
54097	0.4166666666666667
54099	0.3958333333333333
54101	0.43749999999999994
54103	0.3541666666666667
54105	0.3958333333333333
54107	0.375
54109	0.375
55001	0.22916666666666669
55003	0.25
55005	0.20833333333333331
55007	0.2708333333333333
55009	0.1875
55011	0.1875
55013	0.25
55015	0.10416666666666667
55017	0.14583333333333331
55019	0.3333333333333333
55021	0.14583333333333331
55023	0.1875
55025	0.12499999999999999
55027	0.14583333333333331
55029	0.1875
55031	0.20833333333333331
55033	0.1875
55035	0.16666666666666669
55037	0.22916666666666669
55039	0.16666666666666669
55041	0.2916666666666667
55043	0.20833333333333331
55045	0.16666666666666669
55047	0.20833333333333331
55049	0.16666666666666669
55051	0.20833333333333331
55053	0.25
55055	0.16666666666666669
55057	0.22916666666666669
55059	0.20833333333333331
55061	0.14583333333333331
55063	0.12499999999999999
55065	0.25
55067	0.22916666666666669
55069	0.16666666666666669
55071	0.14583333333333331
55073	0.1875
55075	0.1875
55077	0.20833333333333331
55078	0.3125
55079	0.2708333333333333
55081	0.22916666666666669
55083	0.1875
55085	0.16666666666666669
55087	0.12499999999999999
55089	0.062499999999999986
55091	0.1875
55093	0.12499999999999999
55095	0.1875
55097	0.14583333333333331
55099	0.1875
55101	0.20833333333333331
55103	0.20833333333333331
55105	0.20833333333333331
55107	0.22916666666666669
55109	0.10416666666666667
55111	0.20833333333333331
55113	0.3125
55115	0.25
55117	0.16666666666666669
55119	0.22916666666666669
55121	0.1875
55123	0.25
55125	0.3125
55127	0.22916666666666669
55129	0.22916666666666669
55131	0.08333333333333333
55133	0.062499999999999986
55135	0.16666666666666669
55137	0.22916666666666669
55139	0.16666666666666669
55141	0.14583333333333331
56001	0.3125
56003	0.4166666666666667
56005	0.2916666666666667
56007	0.3541666666666667
56009	0.2708333333333333
56011	0.3541666666666667
56013	0.49999999999999994
56015	0.3541666666666667
56017	0.43749999999999994
56019	0.375
56021	0.3125
56023	0.3333333333333333
56025	0.3333333333333333
56027	0.3541666666666667
56029	0.3541666666666667
56031	0.3541666666666667
56033	0.3125
56035	0.3125
56037	0.3541666666666667
56039	0.4166666666666667
56041	0.3125
56043	0.3958333333333333
56045	0.3125
